0, 12, 0
0, 1, 0
13, 7, 0
13, 3, 0
13, 4, 0
13, 1, 0
3, 7, 0
3, 13, 0
3, 4, 0
3, 2, 0
6, 12, 0
6, 11, 0
6, 10, 0
8, 5, 0
8, 9, 0
5, 8, 0
5, 4, 0
5, 9, 0
11, 12, 0
11, 10, 1
11, 6, 0
10, 12, 0
10, 11, 1
10, 6, 0
7, 3, 0
7, 13, 0
7, 2, 0
12, 0, 0
12, 6, 0
12, 1, 0
12, 11, 0
12, 10, 0
4, 3, 0
4, 13, 0
4, 5, 0
4, 9, 0
2, 7, 0
2, 3, 0
1, 0, 0
1, 12, 0
1, 13, 0
9, 8, 0
9, 5, 0
9, 4, 0
