12, 4, 0
12, 31, 0
12, 11, 1
13, 35, 0
13, 17, 0
13, 9, 0
13, 29, 0
13, 37, 0
13, 25, 0
13, 8, 0
13, 10, 0
17, 16, 0
17, 35, 0
17, 13, 0
17, 15, 0
17, 2, 0
31, 21, 0
31, 12, 0
31, 4, 0
31, 39, 0
31, 11, 0
23, 20, 0
23, 27, 0
23, 32, 0
23, 36, 0
24, 7, 0
24, 26, 0
5, 3, 0
5, 39, 0
5, 22, 0
5, 32, 0
11, 12, 1
11, 4, 0
11, 31, 0
1, 6, 0
1, 2, 0
1, 38, 0
1, 34, 0
20, 27, 0
20, 36, 0
20, 28, 0
20, 23, 0
20, 30, 0
21, 39, 0
21, 31, 0
4, 18, 0
4, 12, 0
4, 31, 0
4, 11, 0
14, 0, 0
14, 26, 0
39, 21, 0
39, 3, 0
39, 5, 0
39, 31, 0
35, 25, 0
35, 13, 0
35, 17, 0
28, 20, 0
28, 30, 0
30, 20, 0
30, 28, 0
8, 13, 0
8, 25, 0
8, 29, 0
15, 16, 1
15, 17, 0
15, 2, 0
22, 33, 0
22, 5, 0
22, 32, 0
36, 20, 0
36, 33, 0
36, 23, 0
36, 32, 0
0, 29, 0
0, 9, 0
0, 14, 0
0, 26, 0
0, 10, 0
6, 37, 0
6, 34, 0
6, 19, 0
6, 38, 0
6, 1, 0
3, 39, 0
3, 5, 0
16, 17, 0
16, 15, 1
38, 37, 0
38, 6, 0
38, 1, 0
38, 2, 0
27, 20, 0
27, 23, 0
27, 32, 0
10, 0, 0
10, 13, 0
10, 9, 0
10, 29, 0
7, 18, 0
7, 26, 0
7, 24, 0
34, 6, 0
34, 19, 0
34, 1, 0
25, 8, 0
25, 13, 0
25, 35, 0
33, 22, 0
33, 32, 0
33, 36, 0
32, 33, 0
32, 23, 0
32, 27, 0
32, 5, 0
32, 22, 0
32, 36, 0
2, 37, 0
2, 15, 0
2, 38, 0
2, 17, 0
2, 1, 0
37, 6, 0
37, 13, 0
37, 38, 0
37, 2, 0
29, 0, 0
29, 8, 0
29, 13, 0
29, 10, 0
19, 34, 0
19, 6, 0
26, 0, 0
26, 7, 0
26, 14, 0
26, 24, 0
18, 7, 0
18, 4, 0
9, 0, 0
9, 13, 0
9, 10, 0
