12, 7, 0
12, 28, 0
12, 31, 0
12, 29, 0
12, 18, 0
12, 17, 0
13, 20, 0
13, 14, 1
13, 5, 0
13, 30, 0
17, 7, 0
17, 12, 0
17, 8, 0
17, 28, 0
17, 31, 0
17, 26, 0
17, 29, 0
17, 16, 0
17, 2, 0
17, 18, 0
17, 30, 0
26, 25, 0
26, 28, 0
26, 2, 0
26, 16, 0
26, 27, 0
26, 19, 0
26, 8, 0
26, 17, 0
26, 9, 0
23, 0, 0
23, 22, 0
23, 24, 0
23, 6, 0
23, 8, 0
23, 11, 0
23, 1, 0
2, 17, 0
2, 31, 0
2, 16, 0
2, 29, 0
2, 5, 0
2, 30, 0
2, 7, 0
2, 3, 0
2, 4, 0
2, 25, 0
2, 26, 0
2, 24, 0
2, 21, 0
2, 28, 0
2, 19, 0
2, 8, 0
2, 18, 0
2, 10, 0
2, 9, 0
5, 20, 0
5, 13, 0
5, 14, 0
5, 24, 0
5, 2, 0
5, 15, 0
5, 30, 0
11, 0, 0
11, 23, 0
11, 24, 0
11, 6, 0
11, 22, 0
11, 1, 0
1, 0, 1
1, 28, 0
1, 11, 0
1, 23, 0
1, 24, 0
1, 21, 0
1, 6, 0
1, 8, 0
1, 22, 0
1, 27, 0
20, 13, 0
20, 14, 0
20, 15, 0
20, 5, 0
20, 22, 0
20, 30, 0
4, 3, 1
4, 19, 0
4, 8, 0
4, 28, 0
4, 2, 0
14, 20, 0
14, 13, 1
14, 15, 1
14, 5, 0
14, 30, 0
24, 0, 0
24, 8, 0
24, 22, 0
24, 23, 0
24, 2, 0
24, 6, 0
24, 30, 0
24, 1, 0
24, 5, 0
24, 11, 0
24, 27, 0
28, 17, 0
28, 12, 0
28, 16, 0
28, 27, 1
28, 2, 0
28, 1, 0
28, 3, 0
28, 4, 0
28, 25, 0
28, 26, 0
28, 6, 0
28, 21, 0
28, 19, 0
28, 8, 0
28, 10, 0
28, 18, 0
28, 9, 0
30, 20, 0
30, 2, 0
30, 13, 0
30, 14, 0
30, 24, 0
30, 18, 0
30, 17, 0
30, 8, 0
30, 15, 0
30, 5, 0
8, 2, 0
8, 17, 0
8, 23, 0
8, 18, 0
8, 27, 0
8, 24, 0
8, 30, 0
8, 3, 0
8, 4, 0
8, 25, 0
8, 26, 0
8, 6, 0
8, 21, 0
8, 28, 0
8, 19, 0
8, 1, 0
8, 10, 0
8, 9, 0
15, 20, 0
15, 14, 1
15, 5, 0
15, 30, 0
22, 20, 0
22, 0, 0
22, 23, 0
22, 24, 0
22, 6, 0
22, 11, 0
22, 1, 0
0, 22, 0
0, 23, 0
0, 24, 0
0, 6, 0
0, 11, 0
0, 1, 1
3, 4, 1
3, 28, 0
3, 2, 0
3, 19, 0
3, 8, 0
3, 10, 0
16, 7, 0
16, 28, 0
16, 26, 0
16, 31, 0
16, 29, 0
16, 17, 0
16, 2, 0
6, 0, 0
6, 28, 0
6, 22, 0
6, 23, 0
6, 24, 0
6, 21, 0
6, 8, 0
6, 11, 0
6, 1, 0
27, 25, 0
27, 1, 0
27, 26, 0
27, 24, 0
27, 21, 0
27, 28, 1
27, 19, 0
27, 8, 0
27, 9, 0
7, 12, 0
7, 17, 0
7, 31, 0
7, 29, 0
7, 16, 0
7, 2, 0
18, 12, 0
18, 17, 0
18, 2, 0
18, 28, 0
18, 8, 0
18, 30, 0
25, 28, 0
25, 26, 0
25, 2, 0
25, 27, 0
25, 19, 0
25, 8, 0
25, 9, 0
31, 7, 0
31, 12, 0
31, 17, 0
31, 29, 0
31, 16, 0
31, 2, 0
29, 7, 0
29, 12, 0
29, 17, 0
29, 31, 0
29, 2, 0
29, 16, 0
21, 8, 0
21, 28, 0
21, 27, 0
21, 6, 0
21, 2, 0
21, 10, 0
21, 1, 0
19, 3, 0
19, 4, 0
19, 25, 0
19, 26, 0
19, 2, 0
19, 28, 0
19, 27, 0
19, 8, 0
19, 9, 0
10, 21, 0
10, 3, 0
10, 8, 0
10, 28, 0
10, 2, 0
9, 25, 0
9, 28, 0
9, 26, 0
9, 2, 0
9, 27, 0
9, 19, 0
9, 8, 0
