13, 45, 0
13, 33, 0
13, 42, 0
13, 40, 0
13, 11, 0
13, 30, 0
13, 7, 0
13, 12, 0
13, 4, 0
13, 43, 0
13, 31, 0
13, 2, 0
13, 21, 0
13, 14, 0
13, 20, 0
13, 8, 0
13, 15, 0
13, 9, 0
17, 20, 0
17, 7, 0
17, 4, 0
17, 45, 0
17, 37, 0
17, 6, 0
17, 19, 0
17, 38, 0
17, 46, 0
17, 30, 0
23, 7, 0
23, 12, 0
23, 38, 0
23, 34, 0
23, 18, 0
23, 42, 0
23, 20, 0
23, 40, 0
23, 19, 0
23, 30, 0
42, 7, 0
42, 45, 0
42, 13, 0
42, 23, 0
42, 20, 0
42, 8, 0
42, 15, 0
42, 46, 0
42, 30, 0
46, 20, 0
46, 7, 0
46, 17, 0
46, 45, 0
46, 42, 0
46, 30, 0
20, 13, 0
20, 17, 0
20, 23, 0
20, 3, 0
20, 6, 0
20, 46, 0
20, 12, 0
20, 7, 0
20, 34, 0
20, 39, 0
20, 42, 0
20, 19, 0
20, 30, 0
20, 38, 0
14, 45, 0
14, 13, 0
14, 31, 0
14, 12, 0
14, 21, 0
14, 40, 0
14, 30, 0
14, 8, 0
14, 15, 1
14, 41, 0
14, 9, 0
24, 12, 0
24, 28, 0
24, 31, 0
24, 16, 0
24, 25, 1
24, 40, 0
24, 5, 0
24, 22, 0
28, 0, 0
28, 29, 1
28, 24, 0
28, 40, 0
28, 5, 0
28, 22, 0
39, 20, 0
39, 3, 0
39, 43, 0
39, 35, 0
39, 19, 0
39, 44, 0
39, 36, 0
41, 12, 0
41, 16, 0
41, 14, 0
41, 26, 0
41, 31, 0
41, 45, 0
41, 21, 0
41, 27, 0
41, 40, 0
41, 5, 0
41, 30, 0
0, 7, 0
0, 34, 0
0, 28, 0
0, 12, 0
0, 16, 0
0, 40, 0
0, 18, 0
0, 30, 0
8, 12, 0
8, 13, 0
8, 14, 0
8, 45, 0
8, 42, 0
8, 30, 0
8, 15, 0
8, 9, 1
12, 0, 0
12, 16, 0
12, 13, 0
12, 26, 0
12, 23, 0
12, 18, 0
12, 40, 0
12, 5, 0
12, 30, 0
12, 20, 0
12, 34, 0
12, 14, 0
12, 31, 0
12, 24, 0
12, 21, 0
12, 8, 0
12, 15, 0
12, 41, 0
12, 22, 0
12, 9, 0
15, 12, 0
15, 13, 0
15, 14, 1
15, 45, 0
15, 21, 0
15, 42, 0
15, 30, 0
15, 8, 0
15, 9, 0
10, 3, 0
10, 19, 0
10, 38, 0
10, 43, 0
10, 33, 0
7, 20, 0
7, 0, 0
7, 13, 0
7, 17, 0
7, 23, 0
7, 18, 0
7, 42, 0
7, 19, 0
7, 38, 0
7, 46, 0
7, 30, 0
3, 20, 0
3, 43, 0
3, 2, 0
3, 1, 0
3, 38, 0
3, 19, 0
3, 10, 0
3, 39, 0
3, 44, 0
3, 11, 0
3, 36, 0
32, 37, 0
32, 33, 1
32, 4, 0
32, 38, 0
32, 6, 0
2, 33, 0
2, 13, 0
2, 3, 0
2, 44, 0
2, 11, 0
2, 1, 1
21, 40, 0
21, 12, 0
21, 13, 0
21, 14, 0
21, 26, 0
21, 31, 0
21, 45, 0
21, 27, 0
21, 15, 0
21, 41, 0
21, 30, 0
33, 45, 0
33, 4, 0
33, 13, 0
33, 32, 1
33, 2, 0
33, 43, 0
33, 38, 0
33, 11, 0
33, 10, 0
19, 7, 0
19, 17, 0
19, 23, 0
19, 6, 0
19, 44, 0
19, 10, 0
19, 20, 0
19, 3, 0
19, 43, 0
19, 39, 0
19, 37, 0
19, 38, 0
18, 0, 0
18, 12, 0
18, 7, 0
18, 23, 0
18, 34, 0
18, 40, 0
18, 30, 0
31, 21, 0
31, 12, 0
31, 13, 0
31, 14, 0
31, 26, 0
31, 24, 0
31, 16, 0
31, 40, 0
31, 41, 0
31, 22, 0
31, 5, 0
29, 40, 0
29, 28, 1
29, 5, 0
29, 22, 0
40, 0, 0
40, 13, 0
40, 28, 0
40, 26, 0
40, 23, 0
40, 34, 0
40, 16, 0
40, 29, 0
40, 5, 0
40, 12, 0
40, 14, 0
40, 22, 0
40, 31, 0
40, 24, 0
40, 21, 0
40, 41, 0
40, 18, 0
11, 33, 0
11, 13, 0
11, 43, 0
11, 3, 0
11, 2, 0
11, 36, 0
11, 44, 0
11, 1, 0
5, 12, 0
5, 25, 0
5, 31, 0
5, 29, 0
5, 16, 0
5, 28, 0
5, 24, 0
5, 40, 0
5, 41, 0
5, 22, 0
5, 30, 0
37, 4, 0
37, 17, 0
37, 32, 0
37, 6, 0
37, 19, 0
37, 38, 0
4, 33, 0
4, 13, 0
4, 17, 0
4, 32, 0
4, 45, 0
4, 37, 0
4, 6, 0
4, 38, 0
35, 39, 0
35, 44, 0
30, 0, 0
30, 45, 0
30, 13, 0
30, 17, 0
30, 23, 0
30, 12, 0
30, 18, 0
30, 46, 0
30, 5, 0
30, 7, 0
30, 34, 0
30, 14, 0
30, 26, 0
30, 21, 0
30, 42, 0
30, 20, 0
30, 8, 0
30, 15, 0
30, 41, 0
38, 7, 0
38, 17, 0
38, 23, 0
38, 33, 0
38, 6, 0
38, 10, 0
38, 20, 0
38, 3, 0
38, 4, 0
38, 32, 0
38, 37, 0
38, 19, 0
22, 12, 0
22, 28, 0
22, 31, 0
22, 29, 0
22, 25, 0
22, 24, 0
22, 40, 0
22, 5, 0
36, 3, 0
36, 43, 0
36, 39, 0
36, 44, 0
36, 11, 0
36, 1, 0
45, 13, 0
45, 17, 0
45, 46, 0
45, 30, 0
45, 33, 0
45, 4, 0
45, 14, 0
45, 21, 0
45, 42, 0
45, 8, 0
45, 15, 0
45, 41, 0
16, 0, 0
16, 12, 0
16, 25, 0
16, 31, 0
16, 24, 0
16, 34, 0
16, 40, 0
16, 41, 0
16, 5, 0
27, 21, 0
27, 41, 0
27, 26, 1
1, 3, 0
1, 36, 0
1, 44, 0
1, 11, 0
1, 2, 1
44, 3, 0
44, 1, 0
44, 2, 0
44, 19, 0
44, 35, 0
44, 39, 0
44, 11, 0
44, 36, 0
34, 20, 0
34, 0, 0
34, 23, 0
34, 12, 0
34, 16, 0
34, 40, 0
34, 18, 0
34, 30, 0
25, 16, 0
25, 5, 0
25, 22, 0
25, 24, 1
26, 12, 0
26, 31, 0
26, 21, 0
26, 27, 1
26, 40, 0
26, 41, 0
26, 30, 0
6, 20, 0
6, 4, 0
6, 17, 0
6, 32, 0
6, 37, 0
6, 19, 0
6, 38, 0
43, 3, 0
43, 13, 0
43, 33, 0
43, 19, 0
43, 36, 0
43, 39, 0
43, 11, 0
43, 10, 0
9, 15, 0
9, 12, 0
9, 8, 1
9, 13, 0
9, 14, 0
