13, 7, 0
13, 12, 0
13, 16, 0
13, 8, 0
17, 21, 0
17, 20, 0
17, 0, 0
17, 15, 0
17, 9, 0
5, 2, 0
5, 11, 0
5, 1, 0
11, 0, 0
11, 21, 0
11, 2, 0
11, 5, 0
11, 1, 0
1, 5, 0
1, 11, 0
1, 2, 0
20, 21, 1
20, 0, 0
20, 17, 0
4, 3, 1
4, 15, 0
4, 14, 0
4, 6, 0
14, 18, 0
14, 3, 0
14, 19, 0
14, 4, 0
14, 6, 0
8, 7, 1
8, 16, 0
8, 13, 0
8, 12, 0
15, 6, 0
15, 4, 0
15, 17, 0
15, 9, 0
0, 20, 0
0, 21, 0
0, 17, 0
0, 11, 0
3, 6, 0
3, 4, 1
3, 14, 0
16, 7, 0
16, 12, 0
16, 8, 0
16, 13, 0
16, 10, 0
6, 15, 0
6, 4, 0
6, 14, 0
6, 3, 0
10, 16, 0
10, 18, 0
7, 16, 0
7, 12, 0
7, 8, 1
7, 13, 0
12, 16, 0
12, 7, 0
12, 8, 0
12, 13, 0
2, 5, 0
2, 11, 0
2, 1, 0
21, 20, 1
21, 0, 0
21, 17, 0
21, 11, 0
19, 18, 0
19, 14, 0
18, 19, 0
18, 14, 0
18, 10, 0
9, 15, 0
9, 17, 0
