2, 3, 0
2, 1, 0
13, 25, 0
13, 28, 0
17, 18, 0
17, 4, 0
17, 11, 0
17, 10, 0
23, 21, 0
23, 27, 0
23, 16, 0
23, 26, 0
23, 24, 0
29, 16, 0
29, 6, 0
29, 22, 0
29, 12, 0
5, 21, 0
5, 6, 0
5, 12, 0
11, 3, 0
11, 17, 0
11, 10, 0
1, 3, 0
1, 9, 0
1, 25, 0
1, 2, 0
20, 8, 0
20, 28, 0
4, 0, 0
4, 14, 0
4, 17, 0
4, 18, 0
14, 0, 0
14, 4, 0
24, 16, 0
24, 27, 0
24, 26, 0
24, 23, 0
28, 20, 0
28, 13, 0
8, 20, 0
15, 16, 0
15, 7, 0
15, 19, 0
22, 7, 0
22, 16, 0
22, 29, 0
0, 18, 0
0, 19, 0
0, 4, 0
0, 14, 0
0, 10, 0
12, 21, 0
12, 6, 0
12, 5, 0
12, 29, 0
16, 7, 0
16, 21, 0
16, 23, 0
16, 29, 0
16, 18, 0
16, 19, 0
16, 24, 0
16, 15, 0
16, 22, 0
6, 21, 0
6, 12, 0
6, 5, 0
6, 29, 0
10, 0, 0
10, 17, 0
10, 11, 0
7, 16, 0
7, 18, 0
7, 19, 0
7, 15, 0
7, 22, 0
3, 1, 0
3, 11, 0
3, 2, 0
25, 18, 0
25, 13, 0
25, 9, 0
25, 1, 0
26, 27, 1
26, 23, 0
26, 24, 0
27, 26, 1
27, 23, 0
27, 24, 0
21, 16, 0
21, 6, 0
21, 5, 0
21, 23, 0
21, 12, 0
19, 0, 0
19, 16, 0
19, 7, 0
19, 15, 0
19, 18, 0
18, 0, 0
18, 7, 0
18, 4, 0
18, 17, 0
18, 16, 0
18, 25, 0
18, 19, 0
18, 9, 0
9, 18, 0
9, 25, 0
9, 1, 0
