0, 7, 0
0, 13, 0
0, 9, 0
0, 6, 0
0, 8, 0
0, 5, 0
0, 11, 0
0, 1, 0
13, 0, 0
13, 7, 0
13, 8, 0
13, 5, 0
13, 1, 0
3, 2, 0
3, 12, 0
3, 4, 1
3, 10, 0
6, 0, 0
6, 12, 0
6, 7, 0
6, 4, 0
6, 8, 0
6, 5, 0
6, 11, 0
8, 0, 0
8, 7, 1
8, 13, 0
8, 6, 0
8, 5, 0
8, 11, 0
8, 1, 0
5, 7, 0
5, 0, 0
5, 13, 0
5, 6, 0
5, 8, 0
5, 11, 0
5, 9, 0
11, 0, 0
11, 7, 0
11, 6, 0
11, 8, 0
11, 5, 0
11, 1, 0
10, 12, 0
10, 4, 0
10, 3, 0
10, 2, 0
7, 0, 0
7, 13, 0
7, 6, 0
7, 8, 1
7, 5, 0
7, 11, 0
7, 1, 0
12, 2, 0
12, 6, 0
12, 4, 0
12, 10, 0
12, 3, 0
4, 12, 0
4, 6, 0
4, 10, 0
4, 3, 1
4, 2, 0
2, 12, 0
2, 4, 0
2, 3, 0
2, 10, 0
1, 0, 0
1, 7, 0
1, 8, 0
1, 13, 0
1, 11, 0
9, 0, 0
9, 5, 0
