0, 4, 0
0, 10, 0
0, 8, 0
0, 5, 0
0, 11, 0
0, 9, 0
6, 7, 1
6, 3, 0
6, 1, 0
6, 2, 0
1, 7, 0
1, 3, 0
1, 2, 0
1, 6, 0
1, 5, 0
1, 11, 0
5, 0, 0
5, 10, 0
5, 11, 0
5, 1, 0
11, 0, 0
11, 3, 0
11, 7, 0
11, 4, 0
11, 10, 1
11, 8, 0
11, 1, 0
11, 5, 0
11, 9, 0
10, 0, 0
10, 7, 0
10, 5, 0
10, 11, 1
7, 3, 0
7, 2, 0
7, 6, 1
7, 1, 0
7, 11, 0
7, 10, 0
3, 7, 0
3, 6, 0
3, 2, 1
3, 11, 0
3, 1, 0
4, 0, 0
4, 8, 0
4, 11, 0
4, 9, 0
2, 7, 0
2, 6, 0
2, 3, 1
2, 1, 0
8, 0, 0
8, 4, 0
8, 11, 0
8, 9, 1
9, 0, 0
9, 4, 0
9, 8, 1
9, 11, 0
