0, 2, 0
0, 6, 0
0, 4, 0
0, 1, 0
13, 7, 0
13, 3, 0
13, 5, 0
3, 7, 0
3, 13, 0
3, 14, 0
3, 5, 0
6, 0, 0
6, 2, 0
6, 8, 0
6, 4, 0
6, 1, 0
8, 7, 0
8, 12, 0
8, 2, 0
8, 10, 0
8, 6, 0
5, 7, 0
5, 3, 0
5, 13, 0
11, 14, 0
10, 7, 0
10, 12, 0
10, 8, 0
10, 9, 1
7, 3, 0
7, 13, 0
7, 10, 0
7, 8, 0
7, 5, 0
7, 9, 0
12, 8, 0
12, 9, 0
12, 10, 0
4, 0, 0
4, 6, 0
4, 2, 0
4, 1, 0
14, 3, 0
14, 11, 0
2, 0, 0
2, 6, 0
2, 8, 0
2, 4, 0
2, 1, 0
1, 0, 0
1, 6, 0
1, 4, 0
1, 2, 0
9, 7, 0
9, 12, 0
9, 10, 1
