2, 0, 0
2, 27, 0
2, 6, 0
2, 17, 0
2, 3, 0
13, 6, 0
13, 8, 0
13, 14, 1
13, 3, 0
17, 0, 0
17, 15, 0
17, 2, 0
23, 7, 0
23, 19, 0
29, 16, 0
29, 19, 0
29, 28, 0
5, 27, 0
5, 6, 0
11, 20, 0
11, 12, 0
11, 7, 0
11, 25, 0
11, 26, 0
11, 24, 0
1, 12, 0
1, 10, 0
1, 9, 0
20, 12, 0
20, 11, 0
4, 21, 0
4, 3, 0
4, 22, 0
4, 30, 0
14, 6, 0
14, 8, 0
14, 13, 1
14, 3, 0
24, 7, 0
24, 25, 1
24, 11, 0
28, 7, 0
28, 12, 0
28, 26, 0
28, 29, 0
28, 16, 0
28, 19, 0
30, 21, 0
30, 3, 0
30, 8, 0
30, 22, 0
30, 4, 0
8, 3, 0
8, 13, 0
8, 14, 0
8, 21, 0
8, 6, 0
8, 30, 0
15, 17, 0
15, 9, 0
22, 21, 1
22, 3, 0
22, 4, 0
22, 30, 0
0, 17, 0
0, 2, 0
12, 20, 0
12, 28, 0
12, 9, 0
12, 26, 0
12, 18, 0
12, 25, 0
12, 10, 0
12, 11, 0
12, 1, 0
16, 19, 0
16, 28, 0
16, 29, 0
6, 3, 0
6, 13, 0
6, 14, 0
6, 2, 0
6, 27, 0
6, 8, 0
6, 5, 0
10, 18, 0
10, 12, 0
10, 9, 0
10, 1, 0
7, 25, 0
7, 23, 0
7, 26, 0
7, 24, 0
7, 28, 0
7, 19, 0
7, 11, 0
3, 13, 0
3, 14, 0
3, 4, 0
3, 2, 0
3, 6, 0
3, 30, 0
3, 8, 0
3, 22, 0
3, 27, 0
25, 7, 0
25, 12, 0
25, 26, 1
25, 11, 0
25, 24, 1
26, 7, 0
26, 12, 0
26, 28, 0
26, 25, 1
26, 19, 0
26, 11, 0
27, 6, 0
27, 3, 0
27, 5, 0
27, 2, 0
21, 4, 0
21, 8, 0
21, 22, 1
21, 30, 0
19, 7, 0
19, 28, 0
19, 26, 0
19, 23, 0
19, 29, 0
19, 16, 0
18, 12, 0
18, 9, 0
18, 10, 0
9, 18, 0
9, 12, 0
9, 10, 0
9, 15, 0
9, 1, 0
