0, 3, 0
0, 4, 0
0, 9, 0
0, 11, 0
0, 6, 0
6, 0, 0
6, 3, 0
6, 4, 0
6, 8, 0
6, 11, 0
6, 9, 0
1, 10, 0
1, 8, 0
1, 5, 0
1, 2, 1
5, 7, 0
5, 2, 0
5, 8, 0
5, 10, 0
5, 1, 0
11, 0, 0
11, 6, 0
11, 8, 0
11, 9, 0
10, 2, 0
10, 8, 0
10, 5, 0
10, 1, 0
7, 5, 0
3, 0, 0
3, 6, 0
3, 4, 1
3, 9, 0
4, 0, 0
4, 6, 0
4, 3, 1
2, 10, 0
2, 8, 0
2, 5, 0
2, 1, 1
8, 2, 0
8, 6, 0
8, 1, 0
8, 9, 0
8, 5, 0
8, 11, 0
8, 10, 0
9, 0, 0
9, 6, 0
9, 8, 0
9, 11, 0
9, 3, 0
