0, 7, 0
0, 3, 0
0, 8, 0
0, 5, 0
0, 9, 0
3, 0, 0
3, 8, 0
3, 4, 0
3, 9, 0
4, 3, 0
4, 8, 0
4, 9, 0
2, 7, 0
2, 6, 0
2, 1, 0
2, 8, 0
2, 5, 0
2, 10, 0
6, 7, 0
6, 10, 0
6, 1, 0
6, 5, 1
6, 2, 0
1, 7, 0
1, 6, 0
1, 10, 0
1, 5, 0
1, 2, 0
8, 0, 0
8, 3, 0
8, 4, 0
8, 2, 0
8, 10, 0
8, 7, 0
8, 5, 0
5, 7, 0
5, 0, 0
5, 2, 0
5, 6, 1
5, 8, 0
5, 1, 0
7, 0, 0
7, 2, 0
7, 6, 0
7, 8, 0
7, 5, 0
7, 10, 0
7, 1, 0
10, 7, 0
10, 6, 0
10, 1, 0
10, 8, 0
10, 2, 0
9, 0, 0
9, 3, 0
9, 4, 0
