13, 12, 0
13, 39, 0
13, 32, 0
13, 31, 0
13, 10, 0
17, 20, 0
17, 34, 0
17, 2, 0
17, 16, 0
17, 19, 0
17, 49, 0
23, 3, 0
23, 49, 0
23, 22, 0
23, 35, 0
42, 6, 0
42, 49, 0
42, 1, 0
46, 15, 0
46, 43, 0
46, 39, 0
46, 51, 0
46, 6, 0
20, 16, 0
20, 34, 0
20, 19, 1
20, 17, 0
34, 20, 0
34, 17, 0
34, 29, 0
34, 16, 0
34, 19, 0
34, 49, 0
14, 0, 0
14, 33, 0
14, 4, 0
14, 32, 0
14, 6, 0
14, 39, 0
14, 5, 0
14, 10, 0
24, 0, 0
24, 49, 0
24, 25, 1
24, 29, 0
24, 8, 0
24, 11, 0
28, 35, 0
28, 10, 0
28, 5, 0
28, 36, 0
39, 0, 0
39, 13, 0
39, 32, 0
39, 33, 0
39, 6, 0
39, 46, 0
39, 10, 0
39, 12, 0
39, 4, 0
39, 43, 0
39, 31, 0
39, 14, 0
39, 5, 0
41, 6, 0
41, 4, 0
41, 43, 0
0, 16, 0
0, 6, 0
0, 24, 0
0, 44, 0
0, 11, 0
0, 5, 0
0, 4, 0
0, 25, 0
0, 26, 0
0, 29, 0
0, 14, 0
0, 8, 0
0, 39, 0
0, 10, 0
0, 22, 0
8, 0, 0
8, 29, 0
8, 25, 0
8, 26, 0
8, 24, 0
8, 27, 0
8, 49, 0
8, 5, 0
8, 11, 0
8, 10, 0
51, 7, 0
51, 43, 0
51, 6, 0
51, 15, 0
51, 46, 0
51, 5, 0
33, 12, 0
33, 14, 0
33, 39, 0
33, 32, 0
33, 10, 0
15, 7, 0
15, 43, 0
15, 46, 0
15, 51, 0
47, 37, 0
47, 3, 0
47, 49, 0
47, 22, 0
47, 10, 0
10, 0, 0
10, 13, 0
10, 28, 0
10, 32, 0
10, 33, 0
10, 27, 0
10, 5, 0
10, 47, 0
10, 12, 0
10, 4, 0
10, 14, 0
10, 31, 0
10, 35, 0
10, 37, 0
10, 8, 0
10, 39, 0
10, 22, 0
10, 36, 0
7, 38, 0
7, 15, 0
7, 51, 0
7, 6, 0
3, 49, 0
3, 22, 0
3, 5, 0
3, 23, 0
3, 47, 0
32, 12, 0
32, 13, 0
32, 14, 0
32, 31, 0
32, 33, 0
32, 4, 0
32, 39, 0
32, 5, 0
32, 10, 0
2, 16, 0
2, 49, 0
2, 17, 0
2, 44, 0
21, 18, 0
21, 45, 0
21, 6, 0
21, 48, 0
21, 30, 0
19, 20, 1
19, 34, 0
19, 16, 0
19, 49, 0
19, 17, 0
49, 17, 0
49, 26, 0
49, 23, 0
49, 24, 0
49, 5, 0
49, 11, 0
49, 30, 0
49, 4, 0
49, 35, 0
49, 42, 0
49, 8, 0
49, 36, 0
49, 45, 0
49, 3, 0
49, 27, 0
49, 47, 0
49, 34, 0
49, 25, 0
49, 50, 0
49, 31, 0
49, 2, 0
49, 29, 0
49, 19, 0
49, 48, 0
18, 21, 0
18, 45, 0
18, 30, 0
31, 13, 0
31, 32, 0
31, 37, 0
31, 49, 0
31, 39, 0
31, 5, 0
31, 10, 0
29, 0, 0
29, 34, 0
29, 49, 0
29, 25, 0
29, 26, 0
29, 24, 0
29, 16, 0
29, 8, 0
29, 44, 0
40, 6, 0
40, 38, 0
40, 50, 0
40, 9, 0
11, 0, 0
11, 49, 0
11, 25, 0
11, 26, 0
11, 24, 0
11, 8, 0
11, 5, 0
5, 0, 0
5, 6, 0
5, 8, 0
5, 28, 0
5, 32, 0
5, 51, 0
5, 16, 0
5, 27, 0
5, 11, 0
5, 10, 0
5, 3, 0
5, 4, 0
5, 14, 0
5, 31, 0
5, 35, 0
5, 37, 0
5, 49, 0
5, 39, 0
5, 22, 0
5, 36, 0
37, 47, 0
37, 5, 0
37, 31, 0
37, 10, 0
4, 0, 0
4, 14, 0
4, 32, 0
4, 41, 0
4, 6, 0
4, 49, 0
4, 39, 0
4, 5, 0
4, 10, 0
35, 28, 0
35, 23, 0
35, 49, 0
35, 5, 0
35, 22, 0
35, 10, 0
30, 18, 0
30, 21, 0
30, 49, 0
30, 1, 0
38, 7, 0
38, 6, 0
38, 40, 0
38, 9, 0
22, 0, 0
22, 3, 0
22, 23, 0
22, 35, 0
22, 5, 0
22, 47, 0
22, 10, 0
36, 27, 0
36, 49, 0
36, 28, 0
36, 5, 0
36, 10, 0
45, 18, 0
45, 21, 0
45, 49, 0
45, 48, 0
16, 20, 0
16, 0, 0
16, 17, 0
16, 26, 0
16, 29, 0
16, 34, 0
16, 25, 0
16, 19, 0
16, 2, 0
16, 5, 0
16, 44, 0
27, 36, 0
27, 8, 0
27, 5, 0
27, 49, 0
27, 10, 0
1, 42, 0
1, 30, 0
44, 0, 0
44, 16, 0
44, 2, 0
44, 29, 0
48, 21, 0
48, 45, 0
48, 49, 0
48, 50, 0
48, 6, 0
12, 33, 0
12, 13, 0
12, 39, 0
12, 32, 0
12, 10, 0
25, 0, 0
25, 49, 0
25, 26, 1
25, 29, 0
25, 16, 0
25, 8, 0
25, 24, 1
25, 11, 0
50, 6, 0
50, 49, 0
50, 40, 0
50, 48, 0
26, 0, 0
26, 49, 0
26, 25, 1
26, 29, 0
26, 16, 0
26, 8, 0
26, 11, 0
6, 0, 0
6, 48, 0
6, 51, 0
6, 38, 0
6, 40, 0
6, 46, 0
6, 5, 0
6, 7, 0
6, 4, 0
6, 43, 0
6, 50, 0
6, 42, 0
6, 21, 0
6, 14, 0
6, 39, 0
6, 41, 0
43, 51, 0
43, 39, 0
43, 6, 0
43, 15, 0
43, 46, 0
43, 41, 0
9, 38, 0
9, 40, 0
