13, 27, 0
13, 19, 0
13, 39, 0
17, 14, 0
17, 23, 0
17, 37, 0
17, 6, 0
17, 38, 0
17, 36, 0
23, 14, 0
23, 17, 0
23, 31, 0
23, 36, 0
42, 6, 0
42, 4, 0
42, 40, 0
42, 41, 0
42, 2, 0
5, 0, 0
5, 3, 0
5, 10, 0
5, 9, 0
5, 1, 0
20, 21, 1
20, 44, 0
20, 29, 0
14, 17, 0
14, 31, 0
14, 23, 0
14, 36, 0
24, 34, 0
24, 44, 0
24, 22, 0
24, 30, 0
28, 27, 0
28, 26, 0
28, 32, 0
39, 27, 0
39, 19, 0
39, 13, 0
41, 42, 0
41, 4, 0
41, 6, 0
0, 3, 0
0, 10, 0
0, 5, 0
0, 33, 0
8, 18, 0
8, 7, 0
8, 25, 0
12, 16, 0
12, 43, 0
12, 9, 0
15, 7, 0
15, 11, 0
15, 35, 0
10, 0, 0
10, 3, 0
10, 5, 0
10, 1, 0
7, 18, 0
7, 15, 0
7, 8, 0
7, 25, 0
7, 35, 0
3, 0, 0
3, 1, 0
3, 5, 0
3, 10, 0
32, 27, 0
32, 28, 0
32, 26, 0
2, 42, 0
2, 40, 0
21, 20, 1
21, 44, 0
21, 29, 0
33, 0, 0
33, 18, 0
19, 13, 0
19, 39, 0
19, 31, 0
19, 36, 0
18, 7, 0
18, 33, 0
18, 8, 0
18, 25, 0
31, 19, 0
31, 14, 0
31, 23, 0
31, 36, 0
29, 20, 0
29, 21, 0
29, 44, 0
40, 16, 0
40, 42, 0
40, 2, 0
11, 15, 0
11, 22, 0
1, 3, 0
1, 9, 0
1, 5, 0
1, 10, 0
37, 6, 0
37, 38, 1
37, 17, 0
4, 6, 0
4, 41, 0
4, 42, 0
35, 7, 0
35, 15, 0
30, 34, 0
30, 22, 0
30, 24, 0
38, 37, 1
38, 6, 0
38, 17, 0
22, 34, 0
22, 30, 0
22, 11, 0
22, 24, 0
36, 17, 0
36, 19, 0
36, 14, 0
36, 31, 0
36, 23, 0
16, 12, 0
16, 43, 0
16, 40, 0
27, 28, 0
27, 13, 0
27, 39, 0
27, 26, 0
27, 32, 0
44, 20, 0
44, 21, 0
44, 29, 0
44, 24, 0
34, 30, 0
34, 22, 0
34, 24, 0
25, 7, 0
25, 18, 0
25, 8, 0
26, 27, 0
26, 28, 0
26, 32, 0
6, 4, 0
6, 17, 0
6, 37, 0
6, 42, 0
6, 38, 0
6, 41, 0
43, 16, 0
43, 12, 0
43, 9, 0
9, 12, 0
9, 43, 0
9, 5, 0
9, 1, 0
