0, 3, 0
0, 4, 0
0, 12, 0
0, 2, 0
0, 5, 0
0, 1, 1
8, 9, 1
8, 5, 0
8, 11, 0
8, 10, 0
3, 0, 0
3, 12, 0
3, 4, 1
3, 5, 0
3, 1, 0
6, 7, 0
6, 12, 0
6, 4, 0
6, 1, 0
5, 0, 0
5, 12, 0
5, 3, 0
5, 2, 0
5, 8, 0
5, 10, 0
5, 11, 0
5, 1, 0
11, 2, 0
11, 8, 0
11, 9, 0
11, 5, 0
11, 10, 1
10, 8, 0
10, 5, 0
10, 11, 1
10, 9, 0
7, 12, 0
7, 6, 0
12, 0, 0
12, 7, 0
12, 4, 0
12, 3, 0
12, 6, 0
12, 5, 0
12, 1, 0
4, 0, 0
4, 12, 0
4, 6, 0
4, 3, 1
4, 1, 0
2, 0, 0
2, 5, 0
2, 11, 0
2, 1, 0
1, 0, 1
1, 12, 0
1, 4, 0
1, 3, 0
1, 2, 0
1, 6, 0
1, 5, 0
9, 8, 1
9, 11, 0
9, 10, 0
