13, 3, 0
13, 4, 0
13, 5, 0
17, 12, 0
17, 8, 0
5, 3, 0
5, 13, 0
5, 4, 1
11, 16, 0
11, 12, 0
11, 14, 0
1, 3, 0
1, 8, 0
1, 9, 0
20, 18, 0
20, 14, 0
4, 3, 0
4, 13, 0
4, 5, 1
14, 20, 0
14, 16, 0
14, 18, 0
14, 11, 0
8, 17, 0
8, 1, 0
15, 7, 0
15, 6, 0
15, 10, 0
15, 2, 0
0, 21, 0
0, 6, 0
0, 10, 0
3, 13, 0
3, 9, 0
3, 5, 0
3, 4, 0
3, 1, 0
16, 12, 0
16, 14, 0
16, 11, 0
6, 7, 1
6, 0, 0
6, 15, 0
6, 10, 0
10, 0, 0
10, 6, 0
10, 7, 0
10, 15, 0
7, 6, 1
7, 15, 0
7, 10, 0
12, 16, 0
12, 17, 0
12, 11, 0
2, 18, 0
2, 15, 0
21, 0, 0
21, 19, 0
19, 21, 0
18, 20, 0
18, 14, 0
18, 2, 0
9, 3, 0
9, 1, 0
