13, 34, 0
13, 51, 0
13, 17, 0
13, 50, 0
13, 23, 0
13, 35, 0
13, 18, 0
13, 52, 0
13, 46, 0
13, 1, 0
17, 45, 0
17, 13, 0
17, 50, 0
17, 23, 0
17, 35, 0
17, 6, 0
17, 34, 0
17, 22, 0
23, 13, 0
23, 17, 0
23, 48, 0
23, 33, 0
23, 16, 0
23, 36, 0
23, 46, 0
23, 11, 0
23, 5, 0
23, 37, 0
23, 34, 0
23, 52, 0
23, 50, 0
23, 35, 0
23, 21, 0
23, 28, 0
23, 8, 0
23, 41, 0
23, 18, 0
23, 9, 0
46, 34, 0
46, 13, 0
46, 21, 0
46, 23, 0
46, 2, 0
46, 16, 0
46, 15, 0
46, 39, 0
46, 35, 0
46, 40, 0
20, 29, 0
34, 13, 0
34, 17, 0
34, 26, 0
34, 23, 0
34, 35, 0
34, 46, 0
34, 11, 0
34, 30, 0
34, 21, 0
34, 29, 0
34, 4, 0
34, 43, 0
34, 24, 0
34, 28, 0
34, 8, 0
34, 41, 0
34, 36, 0
34, 3, 0
34, 16, 0
34, 6, 0
34, 53, 0
34, 10, 0
34, 33, 0
34, 31, 0
34, 27, 0
34, 37, 0
34, 14, 0
34, 19, 0
34, 49, 0
34, 5, 0
34, 18, 0
34, 48, 0
34, 9, 0
14, 34, 0
14, 43, 0
14, 42, 0
14, 10, 0
14, 41, 0
14, 22, 0
14, 30, 0
24, 34, 0
24, 32, 0
24, 26, 0
24, 10, 0
24, 41, 0
24, 30, 0
28, 34, 0
28, 45, 0
28, 23, 0
28, 35, 0
28, 9, 0
28, 11, 0
28, 12, 0
15, 21, 0
15, 2, 0
15, 16, 0
15, 39, 0
15, 40, 0
15, 46, 0
41, 35, 0
41, 53, 0
41, 26, 0
41, 23, 0
41, 3, 0
41, 29, 0
41, 47, 0
41, 10, 0
41, 34, 0
41, 4, 0
41, 14, 0
41, 31, 0
41, 24, 0
41, 43, 0
41, 49, 0
41, 22, 0
41, 36, 0
0, 18, 0
0, 6, 0
8, 21, 0
8, 34, 0
8, 11, 0
8, 23, 0
8, 35, 0
51, 13, 0
51, 50, 0
3, 7, 0
3, 34, 0
3, 31, 0
3, 26, 0
3, 41, 0
3, 22, 0
3, 30, 0
38, 33, 0
38, 19, 0
38, 22, 0
38, 45, 0
47, 30, 0
47, 53, 0
47, 41, 0
47, 31, 0
47, 36, 0
10, 34, 0
10, 14, 0
10, 26, 0
10, 24, 0
10, 41, 0
10, 22, 0
10, 30, 0
7, 3, 0
7, 22, 0
7, 26, 0
7, 30, 0
33, 34, 0
33, 23, 0
33, 35, 0
33, 37, 0
33, 19, 0
33, 38, 0
32, 26, 0
32, 24, 0
2, 21, 0
2, 25, 0
2, 39, 0
2, 45, 0
2, 16, 0
2, 15, 0
2, 40, 0
2, 46, 0
2, 22, 0
2, 30, 0
21, 40, 0
21, 34, 0
21, 22, 0
21, 23, 0
21, 35, 0
21, 2, 0
21, 15, 0
21, 8, 0
21, 39, 0
21, 46, 0
21, 11, 0
25, 18, 0
25, 16, 0
25, 22, 0
25, 2, 0
19, 33, 0
19, 35, 0
19, 34, 0
19, 38, 0
19, 48, 0
19, 22, 0
49, 34, 0
49, 43, 0
49, 41, 0
49, 29, 0
48, 34, 0
48, 4, 0
48, 23, 0
48, 35, 0
48, 27, 0
48, 19, 0
48, 22, 0
48, 36, 0
31, 3, 0
31, 22, 0
31, 34, 0
31, 53, 0
31, 41, 0
31, 47, 0
31, 30, 0
39, 21, 0
39, 15, 0
39, 40, 1
39, 46, 0
39, 2, 0
29, 20, 0
29, 34, 0
29, 49, 0
29, 41, 0
40, 21, 0
40, 15, 0
40, 39, 1
40, 46, 0
40, 2, 0
11, 45, 0
11, 34, 0
11, 28, 0
11, 23, 0
11, 35, 0
11, 21, 0
11, 8, 0
5, 34, 0
5, 23, 0
5, 35, 0
5, 37, 0
5, 44, 0
5, 9, 0
37, 33, 0
37, 23, 0
37, 35, 0
37, 34, 0
37, 5, 0
37, 22, 0
37, 9, 0
4, 34, 0
4, 48, 0
4, 27, 0
4, 30, 0
4, 41, 0
4, 22, 0
4, 36, 0
35, 13, 0
35, 17, 0
35, 23, 0
35, 33, 0
35, 16, 0
35, 6, 0
35, 36, 0
35, 46, 0
35, 11, 0
35, 5, 0
35, 41, 0
35, 34, 0
35, 50, 0
35, 37, 0
35, 21, 0
35, 28, 0
35, 19, 0
35, 8, 0
35, 48, 0
35, 18, 0
35, 9, 0
30, 45, 0
30, 34, 0
30, 27, 0
30, 53, 0
30, 47, 0
30, 10, 0
30, 7, 0
30, 3, 0
30, 4, 0
30, 14, 0
30, 31, 0
30, 24, 0
30, 2, 0
30, 42, 0
30, 22, 0
30, 36, 0
42, 43, 0
42, 14, 0
42, 22, 0
42, 30, 0
22, 17, 0
22, 30, 0
22, 37, 0
22, 4, 0
22, 14, 0
22, 42, 0
22, 38, 0
22, 41, 0
22, 36, 0
22, 45, 0
22, 3, 0
22, 27, 0
22, 10, 0
22, 7, 0
22, 12, 0
22, 25, 0
22, 31, 0
22, 2, 0
22, 21, 0
22, 19, 0
22, 48, 0
22, 9, 0
36, 34, 0
36, 4, 0
36, 22, 0
36, 23, 0
36, 35, 0
36, 27, 0
36, 30, 0
36, 41, 0
36, 47, 0
36, 48, 0
45, 12, 0
45, 22, 0
45, 17, 0
45, 50, 0
45, 2, 0
45, 28, 0
45, 38, 0
45, 11, 0
45, 30, 0
16, 34, 0
16, 25, 0
16, 23, 0
16, 2, 0
16, 18, 0
16, 35, 0
16, 15, 0
16, 46, 0
27, 34, 0
27, 4, 0
27, 36, 0
27, 48, 0
27, 22, 0
27, 30, 0
1, 13, 0
1, 52, 0
1, 50, 0
53, 34, 0
53, 30, 0
53, 41, 0
53, 31, 0
53, 47, 0
44, 5, 0
44, 9, 0
12, 45, 0
12, 28, 0
12, 22, 0
12, 9, 0
18, 0, 0
18, 34, 0
18, 13, 0
18, 25, 0
18, 23, 0
18, 35, 0
18, 16, 0
18, 6, 0
52, 13, 0
52, 50, 0
52, 23, 0
52, 1, 0
50, 45, 0
50, 13, 0
50, 52, 0
50, 23, 0
50, 51, 0
50, 35, 0
50, 17, 0
50, 1, 0
26, 7, 0
26, 3, 0
26, 32, 0
26, 24, 0
26, 34, 0
26, 41, 0
26, 10, 0
6, 0, 0
6, 18, 0
6, 34, 0
6, 17, 0
6, 35, 0
43, 42, 0
43, 49, 0
43, 14, 0
43, 41, 0
43, 34, 0
9, 12, 0
9, 28, 0
9, 23, 0
9, 35, 0
9, 37, 0
9, 34, 0
9, 5, 0
9, 22, 0
9, 44, 0
