0, 12, 0
0, 8, 0
0, 5, 0
0, 11, 0
0, 1, 1
8, 0, 0
8, 12, 0
8, 5, 0
8, 9, 0
3, 9, 0
6, 7, 0
6, 2, 0
5, 0, 0
5, 12, 0
5, 8, 0
11, 0, 0
11, 12, 0
11, 2, 0
11, 10, 0
11, 1, 0
10, 11, 0
10, 2, 0
7, 6, 0
7, 4, 0
12, 0, 0
12, 8, 0
12, 5, 0
12, 11, 0
12, 1, 0
4, 7, 0
2, 6, 0
2, 11, 0
2, 10, 0
1, 0, 1
1, 12, 0
1, 11, 0
9, 3, 0
9, 8, 0
