0, 7, 0
0, 3, 0
0, 4, 0
0, 5, 0
0, 6, 0
13, 12, 1
13, 4, 0
13, 1, 0
17, 3, 0
3, 0, 0
3, 7, 0
3, 17, 0
3, 5, 0
16, 8, 0
16, 15, 1
16, 9, 0
16, 2, 0
6, 0, 0
6, 7, 1
6, 4, 0
6, 5, 0
8, 14, 0
8, 2, 0
8, 16, 0
8, 1, 0
8, 10, 0
8, 15, 0
8, 11, 0
8, 9, 0
5, 0, 0
5, 6, 0
5, 4, 0
5, 7, 0
5, 3, 0
11, 1, 0
11, 8, 0
11, 14, 0
11, 10, 1
10, 8, 0
10, 14, 0
10, 11, 1
7, 0, 0
7, 6, 1
7, 4, 0
7, 5, 0
7, 3, 0
12, 13, 1
12, 4, 0
12, 1, 0
4, 0, 0
4, 12, 0
4, 13, 0
4, 6, 0
4, 5, 0
4, 7, 0
4, 1, 0
14, 8, 0
14, 10, 0
14, 11, 0
14, 1, 0
2, 16, 0
2, 8, 0
2, 15, 0
2, 9, 0
1, 12, 0
1, 13, 0
1, 14, 0
1, 4, 0
1, 8, 0
1, 11, 0
15, 16, 1
15, 8, 0
15, 9, 0
15, 2, 0
9, 16, 0
9, 8, 0
9, 15, 0
9, 2, 0
