0, 7, 0
0, 15, 0
0, 11, 0
13, 3, 0
13, 14, 1
13, 5, 0
13, 9, 0
3, 9, 0
3, 13, 0
3, 14, 0
3, 5, 0
3, 2, 0
16, 7, 0
16, 12, 0
16, 1, 0
6, 4, 0
6, 9, 0
8, 15, 0
8, 10, 0
5, 3, 0
5, 13, 0
5, 14, 0
5, 1, 0
11, 0, 0
11, 15, 0
10, 8, 0
7, 0, 0
7, 12, 0
7, 16, 0
7, 15, 0
12, 16, 0
12, 7, 0
12, 1, 0
4, 6, 0
14, 3, 0
14, 13, 1
14, 9, 0
14, 5, 0
14, 2, 0
2, 3, 0
2, 14, 0
2, 9, 0
1, 16, 0
1, 12, 0
1, 5, 0
15, 0, 0
15, 7, 0
15, 8, 0
15, 11, 0
9, 2, 0
9, 6, 0
9, 13, 0
9, 14, 0
9, 3, 0
