0, 7, 0
0, 1, 0
0, 5, 0
0, 2, 0
3, 6, 0
3, 8, 0
3, 4, 1
3, 1, 0
4, 3, 1
4, 6, 0
4, 8, 0
4, 1, 0
7, 0, 0
7, 6, 0
7, 2, 0
7, 5, 0
7, 1, 0
2, 0, 0
2, 7, 0
2, 1, 0
2, 5, 0
2, 6, 0
6, 7, 0
6, 3, 0
6, 4, 0
6, 2, 0
6, 8, 0
6, 1, 0
8, 3, 0
8, 1, 0
8, 4, 0
8, 6, 0
5, 0, 0
5, 7, 0
5, 1, 0
5, 2, 0
1, 0, 0
1, 3, 0
1, 4, 0
1, 2, 0
1, 6, 0
1, 8, 0
1, 7, 0
1, 5, 0
