58, 1, 0
58, 55, 0
58, 31, 0
58, 35, 0
13, 12, 0
13, 35, 0
13, 43, 0
13, 31, 0
13, 34, 0
13, 2, 0
13, 28, 0
13, 29, 0
13, 30, 0
17, 20, 0
17, 25, 0
17, 23, 0
17, 56, 0
17, 24, 0
17, 14, 0
17, 22, 0
17, 36, 0
23, 20, 0
23, 4, 0
23, 17, 0
23, 56, 0
23, 26, 0
23, 24, 1
23, 19, 0
23, 22, 0
46, 45, 0
46, 49, 0
46, 10, 0
20, 17, 0
20, 56, 0
20, 23, 0
20, 6, 0
20, 5, 0
20, 11, 0
20, 7, 0
20, 4, 0
20, 25, 0
20, 26, 0
20, 24, 0
20, 14, 0
20, 19, 1
20, 22, 0
34, 33, 1
34, 16, 0
34, 13, 0
34, 52, 0
34, 50, 0
34, 51, 0
34, 21, 0
34, 53, 0
34, 48, 0
34, 47, 0
14, 20, 0
14, 37, 0
14, 17, 0
14, 56, 0
14, 36, 0
24, 20, 0
24, 25, 1
24, 23, 1
24, 56, 0
24, 17, 0
24, 19, 0
24, 26, 0
24, 22, 0
28, 12, 0
28, 13, 0
28, 43, 0
28, 31, 0
28, 35, 0
28, 2, 0
28, 29, 1
15, 55, 0
15, 10, 0
15, 31, 0
15, 1, 0
41, 57, 0
41, 0, 0
41, 54, 0
41, 18, 0
41, 8, 0
41, 40, 1
41, 44, 0
41, 11, 0
0, 57, 0
0, 45, 0
0, 4, 0
0, 54, 0
0, 42, 0
0, 40, 0
0, 41, 0
0, 11, 0
0, 44, 0
8, 57, 0
8, 4, 0
8, 54, 0
8, 18, 0
8, 42, 0
8, 40, 0
8, 41, 0
8, 11, 0
8, 44, 0
51, 33, 0
51, 52, 0
51, 50, 1
51, 34, 0
51, 21, 0
51, 53, 0
51, 48, 0
3, 7, 0
3, 4, 1
3, 54, 0
3, 22, 0
3, 26, 0
3, 6, 0
3, 5, 0
3, 11, 0
38, 27, 0
38, 1, 0
38, 10, 0
47, 34, 0
47, 32, 0
47, 21, 0
47, 16, 0
47, 53, 0
47, 39, 0
10, 45, 0
10, 27, 0
10, 15, 0
10, 49, 0
10, 38, 0
10, 46, 0
10, 1, 0
7, 20, 0
7, 3, 0
7, 4, 0
7, 54, 0
7, 22, 0
7, 26, 0
7, 5, 1
7, 11, 0
33, 34, 1
33, 16, 0
33, 52, 0
33, 50, 0
33, 51, 0
33, 21, 0
33, 53, 0
33, 48, 0
53, 33, 0
53, 16, 0
53, 52, 1
53, 50, 0
53, 51, 0
53, 34, 0
53, 21, 0
53, 47, 0
32, 16, 0
32, 21, 0
32, 39, 0
32, 47, 0
32, 9, 0
2, 12, 0
2, 13, 0
2, 43, 0
2, 31, 0
2, 29, 0
2, 28, 0
2, 1, 0
2, 35, 0
2, 30, 0
21, 33, 0
21, 52, 0
21, 32, 0
21, 51, 0
21, 34, 0
21, 16, 0
21, 53, 0
21, 39, 0
21, 48, 0
21, 47, 0
21, 50, 0
25, 20, 0
25, 17, 0
25, 56, 0
25, 26, 0
25, 24, 1
25, 22, 0
19, 20, 1
19, 23, 0
19, 26, 0
19, 56, 0
19, 24, 0
19, 22, 0
49, 57, 0
49, 45, 0
49, 46, 0
49, 27, 0
49, 10, 0
48, 33, 0
48, 43, 0
48, 50, 0
48, 51, 0
48, 34, 0
48, 21, 0
48, 52, 0
31, 58, 0
31, 13, 0
31, 28, 0
31, 2, 0
31, 55, 0
31, 1, 0
31, 12, 0
31, 43, 0
31, 35, 0
31, 29, 0
31, 30, 0
31, 15, 0
39, 21, 0
39, 16, 0
39, 47, 0
39, 32, 0
45, 0, 0
45, 27, 0
45, 49, 0
45, 46, 0
45, 10, 0
29, 12, 0
29, 13, 0
29, 28, 1
29, 31, 0
29, 35, 0
29, 43, 0
29, 2, 0
29, 30, 1
40, 57, 0
40, 0, 0
40, 54, 0
40, 18, 0
40, 42, 1
40, 8, 0
40, 41, 1
40, 11, 0
40, 44, 0
52, 33, 0
52, 50, 0
52, 51, 0
52, 34, 0
52, 21, 0
52, 53, 1
52, 48, 0
11, 0, 0
11, 7, 0
11, 56, 0
11, 18, 0
11, 6, 0
11, 40, 0
11, 5, 0
11, 44, 0
11, 57, 0
11, 3, 0
11, 4, 0
11, 54, 0
11, 26, 0
11, 42, 0
11, 20, 0
11, 8, 0
11, 41, 0
11, 22, 0
5, 20, 0
5, 7, 1
5, 4, 0
5, 54, 0
5, 22, 0
5, 26, 0
5, 3, 0
5, 6, 1
5, 11, 0
37, 14, 0
37, 56, 0
37, 36, 0
4, 0, 0
4, 7, 0
4, 23, 0
4, 6, 0
4, 5, 0
4, 11, 0
4, 20, 0
4, 3, 1
4, 54, 0
4, 26, 0
4, 8, 0
4, 22, 0
35, 58, 0
35, 12, 0
35, 13, 0
35, 28, 0
35, 31, 0
35, 2, 0
35, 1, 0
35, 29, 0
35, 30, 0
30, 12, 0
30, 13, 0
30, 43, 0
30, 31, 0
30, 35, 0
30, 29, 1
30, 2, 0
42, 57, 0
42, 0, 0
42, 54, 0
42, 18, 0
42, 8, 0
42, 40, 1
42, 44, 0
42, 11, 0
22, 7, 0
22, 17, 0
22, 56, 0
22, 23, 0
22, 6, 0
22, 5, 0
22, 11, 0
22, 44, 0
22, 20, 0
22, 3, 0
22, 4, 0
22, 54, 0
22, 26, 0
22, 24, 0
22, 25, 0
22, 19, 0
22, 36, 0
36, 14, 0
36, 26, 0
36, 56, 0
36, 37, 0
36, 17, 0
36, 22, 0
57, 0, 0
57, 49, 0
57, 54, 0
57, 18, 0
57, 42, 0
57, 8, 0
57, 40, 0
57, 41, 0
57, 11, 0
57, 44, 0
56, 17, 0
56, 23, 0
56, 11, 0
56, 20, 0
56, 25, 0
56, 26, 0
56, 24, 0
56, 37, 0
56, 14, 0
56, 19, 0
56, 22, 0
56, 36, 0
16, 33, 0
16, 32, 0
16, 34, 0
16, 21, 0
16, 53, 0
16, 39, 0
16, 47, 0
16, 9, 0
27, 45, 0
27, 1, 0
27, 49, 0
27, 38, 0
27, 10, 0
1, 58, 0
1, 35, 0
1, 38, 0
1, 31, 0
1, 2, 0
1, 27, 0
1, 55, 0
1, 15, 0
1, 10, 0
55, 58, 0
55, 15, 0
55, 31, 0
55, 1, 0
44, 0, 0
44, 57, 0
44, 54, 0
44, 22, 0
44, 18, 0
44, 42, 0
44, 8, 0
44, 40, 0
44, 41, 0
44, 11, 0
12, 2, 0
12, 13, 0
12, 28, 0
12, 31, 0
12, 29, 0
12, 35, 0
12, 30, 0
18, 57, 0
18, 54, 0
18, 42, 0
18, 8, 0
18, 40, 0
18, 41, 0
18, 11, 0
18, 44, 0
54, 0, 0
54, 7, 0
54, 18, 0
54, 6, 0
54, 40, 0
54, 5, 0
54, 11, 0
54, 44, 0
54, 57, 0
54, 3, 0
54, 4, 0
54, 26, 0
54, 42, 0
54, 8, 0
54, 41, 0
54, 22, 0
50, 33, 0
50, 52, 0
50, 51, 1
50, 34, 0
50, 21, 0
50, 53, 0
50, 48, 0
26, 7, 0
26, 56, 0
26, 23, 0
26, 6, 0
26, 5, 0
26, 11, 0
26, 20, 0
26, 3, 0
26, 4, 0
26, 54, 0
26, 24, 0
26, 25, 0
26, 19, 0
26, 22, 0
26, 36, 0
6, 20, 0
6, 3, 0
6, 4, 0
6, 54, 0
6, 22, 0
6, 26, 0
6, 5, 1
6, 11, 0
43, 13, 0
43, 28, 0
43, 31, 0
43, 29, 0
43, 2, 0
43, 48, 0
43, 30, 0
9, 16, 0
9, 32, 0
