0, 7, 0
0, 6, 0
0, 8, 0
0, 10, 0
7, 0, 0
7, 6, 1
7, 8, 0
7, 9, 0
7, 10, 0
13, 20, 0
13, 12, 1
13, 4, 0
13, 17, 0
13, 3, 0
13, 16, 0
13, 2, 0
13, 15, 0
13, 5, 0
13, 11, 0
17, 20, 0
17, 12, 0
17, 13, 0
17, 4, 0
17, 16, 1
17, 19, 0
17, 5, 0
17, 1, 0
3, 20, 0
3, 12, 0
3, 13, 0
3, 4, 0
3, 2, 1
3, 19, 0
3, 10, 0
3, 15, 0
3, 5, 0
3, 11, 0
3, 1, 0
16, 20, 0
16, 12, 0
16, 13, 0
16, 17, 1
16, 4, 0
16, 15, 1
16, 5, 0
16, 11, 0
6, 0, 0
6, 7, 1
8, 0, 0
8, 7, 0
8, 14, 0
8, 18, 0
8, 20, 0
8, 10, 0
8, 9, 0
5, 20, 0
5, 12, 0
5, 13, 0
5, 17, 0
5, 4, 1
5, 3, 0
5, 16, 0
5, 2, 0
5, 15, 0
5, 11, 0
11, 20, 0
11, 12, 0
11, 13, 0
11, 4, 0
11, 3, 0
11, 16, 0
11, 2, 0
11, 15, 0
11, 5, 0
10, 0, 0
10, 7, 0
10, 14, 0
10, 3, 0
10, 8, 0
10, 9, 1
20, 13, 0
20, 17, 0
20, 3, 0
20, 16, 0
20, 5, 0
20, 11, 0
20, 1, 0
20, 12, 0
20, 4, 0
20, 2, 0
20, 19, 0
20, 8, 0
20, 15, 0
20, 18, 0
12, 20, 0
12, 3, 0
12, 13, 1
12, 17, 0
12, 4, 0
12, 2, 0
12, 16, 0
12, 15, 0
12, 5, 0
12, 11, 0
4, 20, 0
4, 12, 0
4, 13, 0
4, 17, 0
4, 3, 0
4, 16, 0
4, 19, 0
4, 2, 0
4, 15, 0
4, 5, 1
4, 11, 0
14, 18, 0
14, 10, 0
14, 8, 0
14, 9, 0
14, 1, 0
2, 20, 0
2, 12, 0
2, 13, 0
2, 4, 0
2, 3, 1
2, 5, 0
2, 11, 0
19, 20, 0
19, 3, 0
19, 4, 0
19, 17, 0
19, 18, 1
19, 1, 0
1, 20, 0
1, 3, 0
1, 14, 0
1, 18, 0
1, 17, 0
1, 19, 0
15, 20, 0
15, 12, 0
15, 13, 0
15, 4, 0
15, 3, 0
15, 16, 1
15, 5, 0
15, 11, 0
18, 20, 0
18, 19, 1
18, 8, 0
18, 14, 0
18, 1, 0
9, 7, 0
9, 8, 0
9, 14, 0
9, 10, 1
