0, 3, 0
0, 11, 0
13, 12, 0
13, 8, 0
13, 10, 0
13, 9, 0
3, 0, 0
3, 6, 0
3, 5, 0
3, 11, 0
6, 3, 0
6, 4, 0
6, 5, 0
6, 1, 0
8, 12, 0
8, 13, 0
8, 14, 0
8, 9, 0
8, 2, 0
5, 6, 0
5, 4, 0
5, 3, 0
5, 11, 0
5, 1, 0
11, 0, 0
11, 3, 0
11, 4, 0
11, 5, 0
11, 1, 0
10, 12, 0
10, 13, 0
10, 14, 0
10, 4, 0
10, 9, 0
7, 4, 0
7, 14, 0
7, 1, 0
12, 10, 0
12, 8, 0
12, 13, 0
12, 9, 0
12, 2, 0
4, 7, 0
4, 14, 0
4, 6, 0
4, 10, 0
4, 5, 0
4, 11, 0
4, 1, 0
14, 7, 0
14, 4, 0
14, 9, 0
14, 1, 0
14, 8, 0
14, 10, 0
2, 12, 0
2, 8, 0
2, 9, 0
1, 7, 0
1, 4, 0
1, 14, 0
1, 6, 0
1, 5, 0
1, 11, 0
9, 12, 0
9, 13, 0
9, 14, 0
9, 2, 0
9, 8, 0
9, 10, 0
