0, 8, 0
0, 17, 0
0, 1, 0
7, 6, 1
7, 4, 0
7, 11, 0
7, 2, 0
13, 12, 1
13, 1, 0
13, 14, 1
13, 11, 0
13, 9, 0
17, 0, 0
17, 20, 0
17, 8, 0
17, 1, 0
3, 10, 0
16, 19, 0
16, 15, 0
16, 10, 0
6, 7, 1
6, 9, 0
6, 5, 1
6, 11, 0
6, 2, 0
8, 0, 0
8, 20, 0
8, 15, 0
8, 17, 0
8, 1, 0
5, 6, 1
5, 9, 0
5, 11, 0
5, 2, 0
11, 7, 0
11, 13, 0
11, 14, 0
11, 2, 0
11, 6, 0
11, 1, 0
11, 5, 0
11, 9, 0
10, 16, 0
10, 3, 0
10, 19, 0
20, 8, 0
20, 17, 0
20, 1, 0
12, 1, 0
12, 13, 1
12, 9, 0
4, 7, 0
4, 18, 0
4, 2, 0
14, 13, 1
14, 9, 0
14, 11, 0
14, 1, 0
2, 7, 0
2, 4, 0
2, 18, 0
2, 6, 0
2, 5, 0
2, 11, 0
2, 9, 0
19, 16, 0
19, 10, 0
1, 0, 0
1, 20, 0
1, 13, 0
1, 17, 0
1, 12, 0
1, 14, 0
1, 8, 0
1, 11, 0
1, 9, 0
15, 16, 0
15, 8, 0
18, 4, 0
18, 2, 0
9, 12, 0
9, 13, 0
9, 14, 0
9, 2, 0
9, 6, 0
9, 5, 0
9, 11, 0
9, 1, 0
