0, 13, 0
0, 8, 0
0, 14, 0
0, 1, 0
13, 0, 0
13, 8, 0
3, 7, 0
3, 4, 1
3, 11, 0
6, 2, 0
6, 5, 1
6, 10, 0
8, 0, 0
8, 13, 0
8, 14, 0
8, 9, 0
8, 1, 0
5, 7, 0
5, 6, 1
5, 2, 0
5, 10, 0
11, 7, 0
11, 3, 0
11, 4, 0
10, 7, 0
10, 6, 0
10, 5, 0
10, 2, 0
7, 3, 0
7, 4, 0
7, 2, 0
7, 5, 0
7, 11, 0
7, 10, 0
12, 1, 0
12, 9, 0
4, 7, 0
4, 3, 1
4, 11, 0
14, 0, 0
14, 8, 0
14, 2, 0
2, 7, 0
2, 6, 0
2, 14, 0
2, 5, 0
2, 10, 0
1, 0, 0
1, 12, 0
1, 8, 0
1, 9, 0
9, 12, 0
9, 8, 0
9, 1, 0
