0, 4, 0
0, 5, 0
0, 1, 1
3, 8, 0
3, 9, 0
3, 5, 0
3, 2, 1
4, 0, 0
4, 5, 0
4, 1, 0
2, 3, 1
2, 8, 0
2, 5, 0
2, 9, 0
6, 7, 1
6, 8, 0
6, 5, 0
1, 0, 1
1, 4, 0
1, 5, 0
8, 7, 0
8, 3, 0
8, 2, 0
8, 6, 0
8, 5, 0
8, 9, 0
5, 0, 0
5, 3, 0
5, 4, 0
5, 2, 0
5, 6, 0
5, 1, 0
5, 8, 0
5, 9, 0
7, 6, 1
7, 8, 0
9, 3, 0
9, 8, 0
9, 5, 0
9, 2, 0
