0, 6, 0
0, 3, 0
0, 9, 0
3, 7, 0
3, 0, 0
3, 10, 0
3, 9, 0
4, 8, 0
4, 10, 0
2, 8, 0
2, 1, 0
6, 0, 0
1, 8, 0
1, 2, 0
8, 1, 0
8, 4, 0
8, 10, 0
8, 2, 0
5, 7, 0
5, 10, 0
7, 3, 0
7, 5, 0
7, 10, 0
10, 7, 0
10, 3, 0
10, 8, 0
10, 5, 0
10, 4, 0
9, 0, 0
9, 3, 0
