2, 3, 0
2, 17, 0
2, 23, 0
2, 16, 0
2, 8, 0
2, 15, 0
2, 18, 0
13, 20, 0
13, 25, 0
13, 28, 0
13, 18, 0
13, 14, 0
13, 10, 0
17, 20, 0
17, 26, 0
17, 23, 0
17, 2, 0
17, 16, 0
17, 19, 0
17, 8, 0
17, 15, 0
17, 11, 0
17, 1, 0
23, 3, 0
23, 4, 0
23, 17, 0
23, 26, 0
23, 2, 0
23, 16, 0
23, 19, 0
23, 8, 0
23, 15, 0
23, 18, 0
23, 11, 0
29, 18, 0
29, 27, 0
29, 20, 0
29, 1, 0
29, 30, 1
5, 18, 0
5, 6, 0
5, 26, 0
5, 24, 0
11, 0, 0
11, 17, 0
11, 23, 0
11, 27, 0
11, 30, 0
11, 20, 0
11, 12, 1
11, 4, 0
11, 26, 0
11, 28, 0
11, 19, 0
11, 1, 0
11, 10, 0
11, 22, 0
1, 20, 0
1, 4, 0
1, 17, 0
1, 26, 0
1, 29, 0
1, 18, 0
1, 27, 0
1, 19, 0
1, 11, 0
1, 30, 0
20, 0, 0
20, 13, 0
20, 17, 0
20, 27, 0
20, 11, 0
20, 30, 0
20, 12, 0
20, 4, 0
20, 26, 0
20, 29, 0
20, 28, 0
20, 19, 1
20, 1, 0
20, 10, 0
20, 22, 0
4, 20, 0
4, 12, 0
4, 23, 0
4, 26, 0
4, 18, 0
4, 19, 0
4, 11, 0
4, 1, 0
14, 28, 0
14, 13, 0
14, 25, 0
14, 10, 0
24, 18, 0
24, 19, 0
24, 5, 0
24, 26, 0
28, 20, 0
28, 0, 0
28, 13, 0
28, 25, 0
28, 26, 0
28, 14, 0
28, 19, 0
28, 9, 0
28, 11, 0
28, 10, 0
30, 20, 0
30, 12, 0
30, 29, 1
30, 27, 0
30, 19, 0
30, 11, 0
30, 1, 0
8, 7, 1
8, 3, 0
8, 16, 0
8, 17, 0
8, 26, 0
8, 23, 0
8, 2, 0
8, 21, 0
8, 19, 0
8, 15, 0
15, 3, 0
15, 17, 0
15, 23, 0
15, 2, 0
15, 16, 1
15, 8, 0
22, 20, 0
22, 27, 0
22, 11, 0
22, 0, 0
0, 20, 0
0, 28, 0
0, 11, 0
0, 26, 0
0, 18, 0
0, 25, 0
0, 19, 0
0, 10, 0
0, 22, 0
0, 9, 0
12, 20, 0
12, 4, 0
12, 26, 0
12, 19, 0
12, 11, 1
12, 30, 0
16, 7, 0
16, 3, 0
16, 17, 0
16, 26, 0
16, 23, 0
16, 2, 0
16, 21, 0
16, 19, 0
16, 8, 0
16, 15, 1
6, 21, 0
6, 5, 0
10, 20, 0
10, 0, 0
10, 13, 0
10, 28, 0
10, 26, 0
10, 25, 0
10, 14, 0
10, 19, 0
10, 11, 0
10, 9, 1
7, 16, 0
7, 3, 0
7, 8, 1
7, 26, 0
7, 21, 0
3, 7, 0
3, 16, 0
3, 23, 0
3, 2, 0
3, 21, 0
3, 8, 0
3, 15, 0
3, 18, 0
25, 0, 0
25, 13, 0
25, 14, 0
25, 18, 0
25, 28, 0
25, 9, 0
25, 10, 0
26, 0, 0
26, 7, 0
26, 17, 0
26, 23, 0
26, 16, 0
26, 27, 0
26, 1, 0
26, 5, 0
26, 11, 0
26, 10, 0
26, 20, 0
26, 12, 0
26, 4, 0
26, 24, 0
26, 21, 0
26, 28, 0
26, 19, 0
26, 8, 0
27, 20, 0
27, 11, 0
27, 26, 0
27, 29, 0
27, 18, 0
27, 19, 0
27, 30, 0
27, 22, 0
27, 1, 0
21, 7, 0
21, 3, 0
21, 26, 0
21, 16, 0
21, 6, 0
21, 8, 0
21, 18, 0
19, 0, 0
19, 8, 0
19, 17, 0
19, 23, 0
19, 16, 0
19, 27, 0
19, 11, 0
19, 30, 0
19, 20, 1
19, 12, 0
19, 4, 0
19, 26, 0
19, 24, 0
19, 28, 0
19, 1, 0
19, 10, 0
18, 0, 0
18, 13, 0
18, 23, 0
18, 27, 0
18, 2, 0
18, 5, 0
18, 1, 0
18, 3, 0
18, 4, 0
18, 25, 0
18, 24, 0
18, 21, 0
18, 29, 0
9, 0, 0
9, 28, 0
9, 25, 0
9, 10, 1
