0, 2, 0
3, 7, 0
3, 6, 0
3, 8, 0
3, 9, 0
3, 10, 0
4, 10, 0
4, 5, 0
4, 2, 0
2, 0, 0
2, 4, 0
2, 5, 0
6, 3, 0
6, 10, 0
6, 9, 0
1, 7, 0
1, 8, 0
8, 7, 0
8, 3, 0
8, 1, 0
8, 9, 0
5, 2, 0
5, 4, 0
5, 10, 0
7, 3, 0
7, 1, 0
7, 8, 0
7, 9, 0
10, 3, 0
10, 6, 0
10, 4, 0
10, 5, 0
10, 9, 0
9, 7, 0
9, 3, 0
9, 8, 0
9, 10, 0
9, 6, 0
