0, 7, 0
0, 11, 0
6, 8, 0
6, 5, 1
6, 1, 0
1, 6, 0
1, 8, 0
1, 5, 0
1, 10, 0
5, 6, 1
5, 8, 0
5, 10, 0
5, 1, 0
11, 0, 0
11, 3, 0
11, 4, 0
11, 7, 0
11, 10, 0
10, 7, 0
10, 3, 0
10, 4, 0
10, 8, 0
10, 5, 0
10, 11, 0
10, 1, 0
7, 0, 0
7, 9, 0
7, 10, 0
7, 11, 0
7, 2, 0
3, 4, 1
3, 11, 0
3, 10, 0
4, 3, 1
4, 11, 0
4, 10, 0
2, 7, 0
2, 9, 0
8, 6, 0
8, 10, 0
8, 5, 0
8, 1, 0
9, 7, 0
9, 2, 0
