0, 7, 0
0, 6, 0
0, 8, 0
0, 5, 0
3, 2, 0
3, 4, 0
3, 1, 0
4, 3, 0
4, 9, 0
4, 2, 0
2, 3, 0
2, 1, 0
2, 8, 0
2, 4, 0
2, 9, 0
6, 0, 0
6, 7, 0
6, 8, 0
6, 5, 0
6, 9, 0
1, 3, 0
1, 8, 0
1, 2, 0
8, 0, 0
8, 2, 0
8, 6, 0
8, 1, 0
8, 5, 0
8, 9, 0
5, 0, 0
5, 7, 0
5, 8, 0
5, 6, 0
7, 0, 0
7, 6, 0
7, 5, 0
7, 9, 0
9, 7, 0
9, 6, 0
9, 8, 0
9, 4, 0
9, 2, 0
