0, 7, 0
0, 3, 0
0, 4, 0
0, 2, 0
0, 9, 0
0, 1, 0
3, 0, 0
3, 4, 0
3, 2, 0
3, 6, 0
3, 1, 0
3, 8, 0
3, 9, 0
4, 0, 0
4, 3, 0
4, 7, 0
4, 9, 0
4, 2, 0
4, 6, 0
4, 8, 0
4, 5, 0
4, 1, 0
2, 0, 0
2, 3, 0
2, 4, 0
2, 7, 0
2, 9, 0
6, 3, 0
6, 8, 0
6, 5, 1
6, 4, 0
1, 0, 0
1, 3, 0
1, 4, 0
1, 9, 0
1, 7, 0
1, 5, 0
8, 3, 0
8, 4, 0
8, 5, 0
8, 6, 0
5, 6, 1
5, 8, 0
5, 4, 0
5, 1, 0
7, 0, 0
7, 2, 0
7, 9, 0
7, 4, 0
7, 1, 0
9, 0, 0
9, 3, 0
9, 4, 0
9, 2, 0
9, 7, 0
9, 1, 0
