0, 12, 0
0, 1, 0
0, 11, 0
0, 2, 0
13, 14, 0
13, 2, 0
3, 6, 0
6, 3, 0
6, 8, 0
6, 10, 0
8, 7, 0
8, 6, 0
8, 9, 0
8, 10, 0
5, 7, 0
5, 4, 1
5, 14, 0
11, 0, 0
11, 12, 0
10, 6, 0
10, 8, 0
10, 9, 0
7, 8, 0
7, 14, 0
7, 5, 0
7, 4, 0
7, 9, 0
12, 0, 0
12, 11, 0
12, 1, 0
4, 7, 0
4, 14, 0
4, 5, 1
14, 7, 0
14, 13, 0
14, 5, 0
14, 4, 0
2, 0, 0
2, 13, 0
1, 0, 0
1, 12, 0
9, 7, 0
9, 8, 0
9, 10, 0
