13, 7, 0
13, 33, 0
13, 16, 0
13, 27, 0
13, 19, 0
13, 8, 0
13, 39, 0
13, 11, 0
17, 24, 0
17, 42, 0
17, 4, 0
17, 28, 0
17, 29, 0
23, 7, 0
23, 33, 0
23, 38, 0
23, 0, 0
42, 9, 0
42, 28, 0
42, 22, 0
42, 26, 0
42, 35, 0
42, 25, 0
42, 24, 0
42, 15, 0
42, 17, 0
42, 10, 0
5, 0, 0
5, 32, 0
5, 11, 0
5, 1, 0
5, 7, 0
5, 25, 0
5, 9, 0
5, 26, 0
5, 2, 0
5, 8, 0
5, 38, 0
5, 41, 0
5, 22, 0
5, 36, 0
20, 34, 0
20, 15, 0
20, 24, 0
14, 26, 0
14, 11, 0
14, 10, 0
14, 7, 0
14, 33, 0
14, 25, 0
14, 32, 0
14, 37, 0
14, 8, 0
14, 38, 0
14, 22, 0
14, 36, 0
24, 20, 0
24, 34, 0
24, 4, 0
24, 43, 0
24, 42, 0
24, 15, 0
24, 44, 0
24, 17, 0
28, 17, 0
28, 38, 0
28, 10, 0
28, 7, 0
28, 33, 0
28, 43, 0
28, 9, 0
28, 26, 0
28, 29, 0
28, 25, 0
28, 8, 0
28, 42, 0
28, 22, 0
28, 36, 0
39, 33, 0
39, 13, 0
39, 27, 0
39, 19, 0
39, 8, 0
39, 30, 0
41, 3, 0
41, 5, 0
41, 22, 0
41, 2, 0
0, 7, 0
0, 23, 0
0, 32, 0
0, 38, 0
0, 5, 0
0, 22, 0
0, 36, 0
8, 13, 0
8, 28, 0
8, 32, 0
8, 39, 0
8, 27, 0
8, 40, 0
8, 5, 0
8, 11, 0
8, 10, 0
8, 7, 0
8, 33, 0
8, 14, 0
8, 31, 0
8, 25, 0
8, 9, 0
8, 38, 0
8, 22, 0
8, 36, 0
12, 26, 0
12, 18, 0
12, 6, 0
12, 11, 0
12, 10, 0
12, 7, 0
12, 3, 0
12, 25, 0
12, 32, 0
12, 2, 0
12, 21, 0
12, 22, 0
12, 9, 0
15, 20, 0
15, 34, 0
15, 42, 0
15, 44, 0
15, 24, 0
10, 25, 0
10, 37, 0
10, 28, 0
10, 32, 0
10, 18, 0
10, 36, 0
10, 40, 0
10, 1, 0
10, 7, 0
10, 12, 0
10, 43, 0
10, 31, 0
10, 35, 0
10, 21, 0
10, 42, 0
10, 14, 0
10, 8, 0
10, 26, 0
10, 22, 0
10, 9, 1
7, 13, 0
7, 28, 0
7, 31, 0
7, 23, 0
7, 40, 0
7, 5, 0
7, 11, 0
7, 1, 0
7, 37, 0
7, 14, 0
7, 8, 0
7, 38, 0
7, 36, 0
7, 0, 0
7, 33, 0
7, 18, 0
7, 10, 0
7, 12, 0
7, 32, 0
7, 2, 0
7, 21, 0
7, 43, 0
7, 9, 0
3, 12, 0
3, 25, 0
3, 26, 0
3, 2, 0
3, 21, 0
3, 41, 0
3, 22, 0
32, 0, 0
32, 12, 0
32, 18, 0
32, 1, 0
32, 40, 0
32, 5, 0
32, 10, 0
32, 7, 0
32, 33, 0
32, 21, 0
32, 14, 0
32, 9, 0
32, 31, 0
32, 2, 0
32, 37, 0
32, 8, 0
32, 38, 0
32, 22, 0
32, 36, 0
2, 32, 0
2, 3, 0
2, 5, 0
2, 11, 0
2, 1, 0
2, 7, 0
2, 12, 0
2, 25, 0
2, 26, 0
2, 41, 0
2, 22, 0
2, 9, 0
21, 32, 0
21, 3, 0
21, 18, 0
21, 1, 0
21, 7, 0
21, 12, 0
21, 25, 0
21, 26, 0
21, 37, 0
21, 10, 0
21, 22, 0
21, 9, 0
33, 13, 0
33, 28, 0
33, 26, 0
33, 23, 0
33, 16, 0
33, 27, 0
33, 11, 0
33, 7, 0
33, 38, 0
33, 14, 0
33, 32, 0
33, 25, 0
33, 19, 0
33, 8, 0
33, 39, 0
33, 22, 0
33, 9, 0
19, 33, 0
19, 13, 0
19, 39, 0
19, 16, 0
19, 27, 0
19, 40, 0
18, 7, 0
18, 12, 0
18, 43, 0
18, 26, 0
18, 32, 0
18, 21, 0
18, 6, 0
18, 9, 0
18, 25, 0
18, 22, 0
18, 10, 0
31, 7, 0
31, 25, 0
31, 22, 0
31, 32, 0
31, 8, 0
31, 40, 0
31, 10, 0
31, 11, 0
31, 36, 0
29, 28, 0
29, 4, 0
29, 43, 0
29, 17, 0
40, 7, 0
40, 25, 0
40, 32, 0
40, 31, 0
40, 19, 0
40, 8, 0
40, 22, 0
40, 11, 0
40, 10, 0
11, 13, 0
11, 12, 0
11, 40, 0
11, 5, 0
11, 7, 0
11, 33, 0
11, 14, 0
11, 31, 0
11, 2, 0
11, 8, 0
11, 38, 0
11, 36, 0
1, 7, 0
1, 25, 0
1, 26, 0
1, 32, 0
1, 2, 0
1, 21, 0
1, 35, 0
1, 5, 0
1, 22, 0
1, 10, 0
37, 7, 0
37, 14, 0
37, 26, 0
37, 32, 0
37, 21, 0
37, 25, 0
37, 22, 0
37, 10, 0
4, 43, 0
4, 29, 0
4, 17, 0
4, 24, 0
35, 25, 0
35, 26, 0
35, 42, 0
35, 1, 0
35, 10, 0
35, 22, 0
35, 9, 0
30, 27, 0
30, 39, 0
38, 0, 0
38, 28, 0
38, 26, 0
38, 23, 0
38, 5, 0
38, 11, 0
38, 7, 0
38, 33, 0
38, 25, 0
38, 32, 0
38, 14, 0
38, 8, 0
38, 22, 0
38, 9, 0
22, 28, 0
22, 32, 0
22, 35, 0
22, 40, 0
22, 5, 0
22, 1, 0
22, 37, 0
22, 43, 0
22, 31, 0
22, 42, 0
22, 8, 0
22, 38, 0
22, 41, 0
22, 36, 0
22, 0, 0
22, 12, 0
22, 18, 0
22, 10, 0
22, 3, 0
22, 26, 0
22, 2, 0
22, 21, 0
22, 33, 0
22, 14, 0
22, 9, 0
36, 0, 0
36, 28, 0
36, 31, 0
36, 5, 0
36, 11, 0
36, 10, 0
36, 7, 0
36, 14, 0
36, 32, 0
36, 25, 0
36, 8, 0
36, 26, 0
36, 22, 0
16, 33, 0
16, 19, 0
16, 13, 0
16, 25, 0
27, 33, 0
27, 13, 0
27, 19, 0
27, 8, 0
27, 39, 0
27, 30, 0
44, 34, 0
44, 15, 0
44, 24, 0
34, 20, 0
34, 15, 0
34, 44, 0
34, 24, 0
25, 28, 0
25, 26, 0
25, 40, 0
25, 5, 0
25, 1, 0
25, 21, 0
25, 43, 0
25, 35, 0
25, 42, 0
25, 8, 0
25, 38, 0
25, 36, 0
25, 12, 0
25, 16, 0
25, 6, 0
25, 10, 0
25, 3, 0
25, 31, 0
25, 2, 0
25, 37, 0
25, 33, 0
25, 14, 0
25, 18, 0
25, 9, 0
26, 9, 0
26, 28, 0
26, 12, 0
26, 18, 0
26, 38, 0
26, 35, 0
26, 5, 0
26, 1, 0
26, 3, 0
26, 21, 0
26, 43, 0
26, 33, 0
26, 2, 0
26, 37, 0
26, 25, 0
26, 14, 0
26, 10, 0
26, 42, 0
26, 22, 0
26, 36, 0
6, 18, 0
6, 12, 0
6, 25, 0
43, 7, 0
43, 4, 0
43, 28, 0
43, 26, 0
43, 29, 0
43, 18, 0
43, 25, 0
43, 24, 0
43, 10, 0
43, 22, 0
43, 9, 0
9, 28, 0
9, 32, 0
9, 33, 0
9, 18, 0
9, 2, 0
9, 5, 0
9, 10, 1
9, 7, 0
9, 12, 0
9, 43, 0
9, 25, 0
9, 26, 0
9, 35, 0
9, 21, 0
9, 42, 0
9, 8, 0
9, 38, 0
9, 22, 0
