0, 7, 0
0, 12, 0
0, 13, 0
0, 11, 0
0, 2, 0
13, 0, 0
13, 12, 1
13, 11, 0
13, 2, 0
3, 8, 0
6, 4, 0
6, 10, 0
8, 3, 0
8, 10, 0
5, 4, 0
5, 9, 0
11, 0, 0
11, 12, 0
11, 13, 0
11, 2, 0
11, 9, 0
11, 7, 0
11, 1, 0
10, 6, 0
10, 8, 0
10, 4, 0
7, 0, 0
7, 11, 0
12, 0, 0
12, 13, 1
12, 11, 0
4, 6, 0
4, 5, 0
4, 10, 0
2, 0, 0
2, 13, 0
2, 11, 0
2, 1, 0
1, 2, 0
1, 11, 0
1, 9, 0
9, 5, 0
9, 11, 0
9, 1, 0
