0, 7, 0
0, 3, 0
0, 4, 0
0, 6, 0
0, 8, 0
0, 5, 0
0, 1, 0
3, 0, 0
3, 7, 0
3, 8, 0
3, 1, 0
4, 0, 0
4, 6, 0
4, 1, 0
7, 0, 0
7, 3, 0
7, 8, 0
7, 5, 0
7, 2, 0
2, 7, 0
2, 5, 0
6, 0, 0
6, 4, 0
6, 1, 0
8, 0, 0
8, 3, 0
8, 7, 0
8, 1, 0
5, 0, 0
5, 7, 0
5, 2, 0
1, 0, 0
1, 3, 0
1, 8, 0
1, 4, 0
1, 6, 0
