2, 0, 0
2, 3, 0
2, 28, 0
2, 26, 0
2, 21, 0
2, 16, 0
2, 5, 0
2, 9, 0
13, 20, 0
13, 12, 0
13, 6, 0
13, 1, 0
13, 8, 0
13, 15, 0
13, 11, 0
13, 10, 0
17, 22, 0
17, 23, 0
17, 30, 0
23, 17, 0
23, 22, 1
23, 30, 0
29, 20, 0
29, 4, 0
29, 1, 0
29, 18, 0
29, 19, 0
29, 10, 0
29, 15, 0
29, 8, 0
29, 30, 0
5, 0, 0
5, 16, 0
5, 28, 0
5, 26, 0
5, 2, 0
5, 21, 0
5, 9, 0
11, 12, 0
11, 13, 0
11, 6, 0
1, 12, 0
1, 13, 0
1, 29, 0
1, 18, 0
1, 6, 0
1, 8, 0
1, 10, 0
20, 4, 0
20, 13, 0
20, 29, 0
20, 6, 0
20, 19, 1
20, 8, 0
20, 15, 0
20, 30, 0
4, 20, 0
4, 29, 0
4, 18, 0
4, 19, 0
4, 15, 0
4, 30, 0
14, 0, 0
14, 7, 0
14, 28, 0
14, 3, 0
14, 24, 0
14, 25, 0
24, 7, 0
24, 25, 0
24, 14, 0
24, 0, 0
28, 0, 0
28, 7, 0
28, 14, 0
28, 26, 0
28, 3, 0
28, 21, 0
28, 2, 0
28, 5, 0
28, 9, 0
30, 20, 0
30, 4, 0
30, 17, 0
30, 23, 0
30, 29, 0
30, 18, 0
30, 19, 0
30, 8, 0
30, 15, 0
30, 22, 0
8, 20, 0
8, 13, 0
8, 30, 0
8, 29, 0
8, 18, 0
8, 6, 0
8, 19, 0
8, 10, 0
8, 15, 0
8, 1, 0
15, 20, 0
15, 4, 0
15, 13, 0
15, 29, 0
15, 6, 0
15, 19, 0
15, 8, 0
15, 10, 0
15, 30, 0
22, 17, 0
22, 23, 1
22, 30, 0
0, 3, 0
0, 14, 0
0, 24, 0
0, 28, 0
0, 2, 0
0, 5, 0
0, 9, 0
12, 18, 0
12, 6, 0
12, 13, 0
12, 11, 0
12, 1, 0
16, 21, 0
16, 3, 0
16, 5, 0
16, 26, 0
16, 2, 0
6, 20, 0
6, 12, 0
6, 13, 0
6, 26, 0
6, 27, 0
6, 8, 0
6, 15, 0
6, 11, 0
6, 1, 0
10, 13, 0
10, 29, 0
10, 18, 0
10, 8, 0
10, 15, 0
10, 1, 0
7, 25, 0
7, 14, 0
7, 28, 0
7, 3, 0
7, 24, 0
3, 0, 0
3, 7, 0
3, 16, 0
3, 28, 0
3, 26, 0
3, 2, 0
3, 21, 0
3, 14, 0
25, 7, 0
25, 14, 0
25, 24, 0
26, 3, 0
26, 6, 0
26, 28, 0
26, 21, 0
26, 16, 0
26, 27, 0
26, 2, 0
26, 5, 0
27, 6, 0
27, 26, 0
21, 3, 0
21, 28, 0
21, 26, 0
21, 2, 0
21, 16, 0
21, 5, 0
19, 20, 1
19, 4, 0
19, 29, 0
19, 18, 0
19, 8, 0
19, 15, 0
19, 30, 0
18, 12, 0
18, 4, 0
18, 30, 0
18, 29, 0
18, 19, 0
18, 8, 0
18, 10, 0
18, 1, 0
9, 0, 0
9, 28, 0
9, 5, 0
9, 2, 0
