0, 3, 0
0, 4, 0
0, 9, 0
0, 2, 0
0, 6, 0
0, 8, 0
0, 5, 0
0, 11, 0
0, 10, 0
8, 0, 0
8, 7, 0
8, 9, 0
8, 2, 0
3, 0, 0
3, 2, 0
3, 5, 0
3, 9, 0
6, 0, 0
6, 12, 0
6, 7, 0
6, 1, 0
6, 5, 0
6, 9, 0
5, 0, 0
5, 3, 0
5, 4, 0
5, 2, 0
5, 6, 0
5, 7, 0
5, 9, 0
11, 0, 0
11, 2, 0
11, 4, 0
11, 10, 1
10, 0, 0
10, 4, 0
10, 11, 1
7, 6, 0
7, 8, 0
7, 9, 0
7, 5, 0
7, 1, 0
12, 6, 0
12, 1, 0
4, 0, 0
4, 2, 0
4, 5, 0
4, 11, 0
4, 10, 0
2, 0, 0
2, 3, 0
2, 4, 0
2, 8, 0
2, 5, 0
2, 11, 0
2, 9, 0
1, 7, 0
1, 12, 0
1, 6, 0
9, 0, 0
9, 7, 0
9, 3, 0
9, 2, 0
9, 6, 0
9, 8, 0
9, 5, 0
