0, 9, 0
0, 10, 0
0, 1, 0
6, 7, 0
6, 5, 1
6, 1, 0
1, 0, 0
1, 7, 0
1, 6, 0
1, 9, 0
1, 5, 0
1, 10, 0
5, 7, 0
5, 6, 1
5, 1, 0
11, 8, 0
11, 2, 0
10, 0, 0
10, 1, 0
10, 9, 0
7, 6, 0
7, 5, 0
7, 1, 0
3, 8, 0
3, 9, 0
4, 2, 0
2, 4, 0
2, 11, 0
8, 3, 0
8, 11, 0
9, 0, 0
9, 3, 0
9, 1, 0
9, 10, 0
