13, 24, 0
13, 22, 0
13, 11, 0
13, 9, 0
17, 7, 0
17, 9, 0
17, 24, 0
17, 18, 0
17, 8, 0
17, 11, 0
17, 1, 0
23, 0, 0
23, 24, 0
23, 16, 0
23, 15, 0
23, 22, 0
23, 10, 0
5, 21, 0
5, 6, 0
5, 22, 0
5, 12, 0
11, 7, 0
11, 13, 0
11, 17, 0
11, 9, 0
11, 24, 0
11, 18, 0
11, 8, 0
11, 10, 0
11, 1, 0
1, 7, 0
1, 17, 0
1, 18, 0
1, 8, 0
1, 11, 0
1, 9, 0
20, 3, 0
20, 2, 0
4, 7, 0
4, 19, 0
4, 8, 0
4, 14, 0
4, 2, 0
14, 19, 0
14, 8, 0
14, 4, 0
14, 2, 0
24, 7, 0
24, 13, 0
24, 17, 0
24, 22, 0
24, 23, 0
24, 9, 0
24, 11, 0
24, 10, 0
8, 7, 0
8, 4, 0
8, 14, 0
8, 18, 0
8, 17, 0
8, 19, 0
8, 9, 0
8, 11, 0
8, 1, 0
15, 16, 1
15, 0, 0
15, 23, 0
22, 0, 0
22, 12, 0
22, 13, 0
22, 23, 0
22, 24, 0
22, 16, 0
22, 9, 0
22, 5, 0
22, 10, 0
0, 23, 0
0, 16, 0
0, 6, 0
0, 15, 0
0, 22, 0
0, 10, 0
3, 20, 0
3, 2, 0
16, 0, 0
16, 15, 1
16, 22, 0
16, 23, 0
16, 10, 0
6, 0, 0
6, 5, 0
10, 0, 0
10, 7, 0
10, 11, 0
10, 23, 0
10, 24, 0
10, 16, 0
10, 22, 0
10, 9, 0
7, 8, 0
7, 4, 0
7, 17, 0
7, 1, 0
7, 24, 0
7, 18, 0
7, 19, 0
7, 2, 0
7, 10, 0
7, 11, 0
7, 9, 0
12, 21, 0
12, 5, 0
12, 22, 0
2, 20, 0
2, 3, 0
2, 4, 0
2, 14, 0
2, 19, 0
2, 7, 0
21, 12, 0
21, 5, 0
19, 7, 0
19, 8, 0
19, 14, 0
19, 4, 0
19, 2, 0
18, 7, 0
18, 17, 0
18, 1, 0
18, 8, 0
18, 11, 0
18, 9, 0
9, 7, 0
9, 13, 0
9, 17, 0
9, 22, 0
9, 24, 0
9, 18, 0
9, 8, 0
9, 10, 0
9, 11, 0
9, 1, 0
