12, 0, 0
12, 16, 0
12, 23, 0
12, 37, 0
12, 18, 0
12, 11, 1
13, 2, 0
13, 9, 0
13, 32, 0
13, 35, 0
17, 33, 0
17, 8, 0
17, 5, 0
17, 36, 0
31, 20, 0
31, 33, 0
31, 2, 0
23, 0, 0
23, 12, 0
23, 18, 0
23, 11, 0
23, 24, 1
24, 0, 0
24, 23, 1
40, 3, 0
40, 26, 0
5, 28, 0
5, 8, 0
5, 17, 0
5, 4, 0
11, 18, 0
11, 12, 1
11, 23, 0
1, 32, 0
1, 30, 0
20, 33, 0
20, 25, 0
20, 31, 0
20, 2, 0
21, 14, 0
21, 15, 0
21, 39, 0
21, 22, 0
4, 8, 0
4, 28, 0
4, 5, 0
14, 21, 0
14, 39, 0
14, 15, 1
14, 22, 0
39, 21, 0
39, 15, 0
39, 14, 0
39, 22, 0
35, 13, 0
35, 38, 0
35, 32, 0
35, 9, 0
28, 19, 0
28, 4, 0
28, 5, 0
30, 9, 0
30, 32, 0
30, 1, 0
8, 4, 0
8, 17, 0
8, 5, 0
15, 21, 0
15, 39, 0
15, 14, 1
15, 22, 0
22, 37, 0
22, 14, 0
22, 21, 0
22, 16, 0
22, 39, 0
22, 15, 0
36, 33, 0
36, 17, 0
0, 16, 0
0, 12, 0
0, 23, 0
0, 24, 0
6, 7, 1
6, 34, 0
6, 18, 0
6, 10, 0
38, 25, 0
38, 35, 0
3, 27, 0
3, 40, 0
16, 37, 0
16, 0, 0
16, 22, 0
16, 12, 0
27, 3, 0
27, 29, 0
10, 18, 0
10, 34, 0
10, 7, 0
10, 6, 0
7, 18, 0
7, 34, 0
7, 10, 0
7, 6, 1
34, 7, 0
34, 6, 0
34, 10, 0
34, 18, 0
34, 29, 0
25, 20, 0
25, 33, 0
25, 38, 0
25, 2, 0
33, 20, 0
33, 25, 0
33, 17, 0
33, 31, 0
33, 36, 0
32, 30, 0
32, 1, 0
32, 13, 0
32, 9, 0
32, 35, 0
2, 20, 0
2, 13, 0
2, 25, 0
2, 31, 0
37, 16, 0
37, 12, 0
37, 22, 0
29, 34, 0
29, 27, 0
19, 28, 0
19, 26, 0
26, 19, 0
26, 40, 0
18, 7, 0
18, 12, 0
18, 23, 0
18, 34, 0
18, 6, 0
18, 11, 0
18, 10, 0
9, 30, 0
9, 13, 0
9, 32, 0
9, 35, 0
