58, 34, 0
58, 26, 0
58, 24, 0
58, 66, 0
58, 38, 0
58, 44, 0
13, 0, 0
13, 43, 0
13, 11, 0
13, 30, 0
17, 3, 0
17, 70, 0
17, 39, 0
23, 30, 0
23, 70, 0
23, 11, 0
23, 36, 0
63, 24, 0
63, 38, 0
63, 44, 0
63, 66, 0
24, 58, 0
24, 61, 0
24, 26, 0
24, 68, 0
24, 63, 0
24, 66, 0
24, 59, 0
24, 21, 0
24, 4, 0
24, 35, 0
24, 38, 0
24, 45, 0
24, 62, 0
24, 34, 0
24, 16, 0
24, 6, 0
24, 64, 0
24, 10, 0
24, 12, 0
24, 69, 0
24, 52, 0
24, 32, 0
24, 2, 0
24, 37, 0
24, 54, 0
46, 57, 0
46, 20, 0
46, 67, 0
46, 37, 0
46, 22, 0
46, 9, 0
65, 7, 0
65, 70, 0
65, 14, 0
65, 11, 0
65, 43, 0
65, 48, 0
65, 47, 0
65, 1, 0
20, 57, 0
20, 67, 0
20, 37, 0
20, 46, 0
20, 22, 0
20, 9, 0
34, 58, 0
34, 12, 0
34, 24, 0
34, 66, 0
14, 60, 0
14, 33, 0
14, 70, 0
14, 11, 0
14, 65, 0
53, 25, 0
53, 8, 0
53, 15, 0
53, 31, 0
66, 58, 0
66, 45, 0
66, 37, 0
66, 26, 0
66, 12, 0
66, 63, 0
66, 2, 0
66, 59, 0
66, 44, 0
66, 34, 0
66, 4, 0
66, 52, 0
66, 32, 0
66, 24, 0
66, 21, 0
66, 69, 0
66, 38, 0
42, 33, 0
42, 48, 0
42, 11, 0
15, 67, 0
15, 8, 0
15, 25, 0
15, 53, 0
15, 31, 0
41, 55, 0
0, 30, 0
0, 13, 0
0, 11, 0
0, 36, 0
68, 37, 0
68, 6, 0
68, 45, 0
68, 54, 0
68, 24, 0
62, 24, 0
62, 26, 0
62, 2, 0
51, 18, 0
51, 27, 0
51, 3, 0
51, 50, 0
51, 5, 0
33, 60, 0
33, 42, 0
33, 14, 0
33, 11, 0
33, 70, 0
6, 68, 0
6, 24, 0
6, 35, 0
64, 16, 0
64, 35, 0
64, 32, 0
64, 24, 0
47, 7, 0
47, 49, 0
47, 43, 0
47, 11, 0
47, 65, 0
10, 12, 0
10, 4, 0
10, 24, 0
7, 1, 0
7, 11, 0
7, 47, 0
7, 65, 0
3, 17, 0
3, 51, 0
3, 27, 0
3, 18, 0
3, 70, 0
3, 39, 0
69, 4, 0
69, 52, 0
69, 26, 0
69, 24, 0
69, 38, 0
69, 66, 0
69, 59, 0
32, 16, 0
32, 35, 0
32, 4, 0
32, 24, 0
32, 37, 0
32, 66, 0
32, 64, 0
32, 45, 0
2, 21, 0
2, 24, 0
2, 62, 0
2, 26, 0
2, 66, 0
37, 45, 0
37, 67, 0
37, 24, 0
37, 46, 0
37, 57, 0
37, 21, 0
37, 54, 0
37, 32, 0
37, 66, 0
37, 61, 0
37, 20, 0
37, 68, 0
37, 22, 0
37, 9, 0
25, 67, 0
25, 8, 0
25, 15, 0
25, 53, 0
19, 43, 0
19, 40, 0
19, 31, 0
19, 28, 0
49, 11, 0
49, 56, 0
49, 47, 0
48, 42, 0
48, 1, 0
48, 11, 0
48, 65, 0
70, 3, 0
70, 14, 0
70, 23, 0
70, 33, 0
70, 60, 0
70, 17, 0
70, 30, 0
70, 39, 0
70, 11, 0
70, 65, 0
31, 53, 0
31, 28, 0
31, 29, 0
31, 15, 0
31, 43, 0
31, 19, 0
31, 8, 0
31, 40, 0
28, 43, 0
28, 19, 0
28, 40, 0
28, 31, 0
28, 29, 1
45, 68, 0
45, 54, 0
45, 32, 0
45, 24, 0
45, 37, 0
45, 66, 0
60, 70, 0
60, 33, 0
60, 14, 0
60, 11, 0
40, 19, 0
40, 28, 0
40, 31, 0
40, 29, 0
29, 28, 1
29, 40, 0
29, 43, 0
29, 31, 0
59, 24, 0
59, 38, 0
59, 69, 0
59, 52, 0
59, 66, 0
52, 12, 0
52, 69, 0
52, 26, 0
52, 66, 0
52, 38, 0
52, 24, 0
52, 59, 0
11, 0, 0
11, 13, 0
11, 70, 0
11, 56, 0
11, 23, 0
11, 60, 0
11, 1, 0
11, 47, 0
11, 65, 0
11, 7, 0
11, 33, 0
11, 43, 0
11, 36, 0
11, 42, 0
11, 14, 0
11, 49, 0
11, 48, 0
11, 30, 0
5, 18, 0
5, 27, 0
5, 50, 0
5, 51, 0
61, 37, 0
61, 21, 0
61, 24, 0
4, 69, 0
4, 32, 0
4, 24, 0
4, 16, 0
4, 66, 0
4, 38, 0
4, 10, 0
39, 3, 0
39, 70, 0
39, 17, 0
35, 16, 0
35, 6, 0
35, 64, 0
35, 32, 0
35, 24, 0
30, 0, 0
30, 13, 0
30, 70, 0
30, 23, 0
30, 43, 0
30, 11, 0
30, 36, 0
8, 25, 0
8, 53, 0
8, 15, 0
8, 31, 0
8, 67, 0
38, 58, 0
38, 12, 0
38, 69, 0
38, 52, 0
38, 4, 0
38, 66, 0
38, 63, 0
38, 24, 0
38, 59, 0
38, 55, 0
22, 57, 0
22, 20, 0
22, 37, 0
22, 46, 0
22, 67, 0
36, 0, 0
36, 11, 0
36, 23, 0
36, 30, 0
57, 20, 0
57, 67, 0
57, 37, 0
57, 46, 0
57, 22, 0
57, 9, 0
56, 49, 0
56, 43, 0
56, 11, 0
16, 35, 0
16, 4, 0
16, 64, 0
16, 32, 0
16, 24, 0
27, 18, 0
27, 3, 0
27, 5, 0
27, 51, 0
27, 50, 0
1, 7, 0
1, 48, 0
1, 11, 0
1, 65, 0
55, 38, 0
55, 41, 0
44, 58, 0
44, 63, 0
44, 66, 0
12, 34, 0
12, 52, 0
12, 24, 0
12, 66, 0
12, 38, 0
12, 10, 0
18, 3, 0
18, 5, 0
18, 51, 0
18, 27, 0
21, 37, 0
21, 61, 0
21, 2, 0
21, 66, 0
21, 24, 0
54, 37, 0
54, 68, 0
54, 24, 0
54, 45, 0
50, 27, 0
50, 5, 0
50, 51, 0
26, 58, 0
26, 69, 0
26, 52, 0
26, 62, 0
26, 66, 0
26, 2, 0
26, 24, 0
43, 47, 0
43, 13, 0
43, 28, 0
43, 56, 0
43, 31, 0
43, 29, 0
43, 19, 0
43, 65, 0
43, 11, 0
43, 30, 0
67, 57, 0
67, 20, 0
67, 25, 0
67, 37, 0
67, 8, 0
67, 15, 0
67, 46, 0
67, 22, 0
67, 9, 0
9, 57, 0
9, 20, 0
9, 37, 0
9, 46, 0
9, 67, 0
