0, 5, 0
0, 11, 0
0, 10, 0
6, 2, 0
6, 4, 0
6, 9, 0
1, 8, 0
1, 5, 0
5, 0, 0
5, 10, 0
5, 1, 0
11, 0, 0
11, 7, 0
11, 10, 0
10, 0, 0
10, 5, 0
10, 11, 0
7, 3, 0
7, 4, 0
7, 9, 0
7, 11, 0
7, 2, 0
3, 7, 0
3, 4, 0
3, 9, 0
3, 2, 1
4, 7, 0
4, 6, 0
4, 2, 0
4, 3, 0
4, 9, 0
2, 7, 0
2, 6, 0
2, 4, 0
2, 9, 0
2, 3, 1
8, 1, 0
9, 7, 0
9, 6, 0
9, 2, 0
9, 4, 0
9, 3, 0
