13, 12, 0
13, 25, 0
13, 28, 0
13, 39, 0
13, 40, 0
13, 46, 0
17, 4, 0
17, 14, 0
17, 31, 0
17, 51, 0
17, 24, 0
17, 40, 0
17, 38, 0
17, 26, 0
17, 47, 0
23, 42, 0
23, 40, 0
23, 41, 0
23, 35, 0
46, 45, 0
46, 13, 0
46, 28, 0
46, 44, 0
46, 39, 0
46, 5, 0
46, 22, 0
46, 1, 0
20, 3, 0
20, 4, 0
20, 24, 0
20, 37, 0
20, 49, 0
20, 40, 0
20, 11, 0
20, 36, 0
34, 12, 0
34, 32, 0
34, 16, 0
34, 9, 0
34, 48, 0
34, 10, 0
14, 4, 0
14, 17, 0
14, 31, 0
14, 26, 0
14, 2, 0
14, 36, 0
14, 38, 0
14, 11, 0
14, 30, 0
24, 20, 0
24, 33, 0
24, 4, 0
24, 17, 0
24, 3, 0
24, 38, 0
24, 40, 0
24, 47, 0
28, 45, 0
28, 13, 0
28, 46, 0
28, 27, 0
28, 39, 0
28, 5, 0
28, 22, 0
28, 1, 0
15, 0, 0
15, 40, 0
15, 35, 0
41, 42, 1
41, 23, 0
0, 7, 0
0, 40, 0
0, 15, 0
8, 26, 0
8, 51, 0
8, 31, 0
51, 17, 0
51, 26, 0
51, 31, 0
51, 6, 0
51, 8, 0
51, 40, 0
51, 48, 0
3, 20, 0
3, 33, 0
3, 4, 0
3, 24, 0
3, 37, 0
3, 49, 0
3, 11, 0
3, 36, 0
38, 4, 0
38, 14, 0
38, 31, 0
38, 24, 0
38, 17, 0
38, 47, 0
47, 38, 0
47, 4, 0
47, 17, 0
47, 24, 0
10, 34, 0
10, 9, 0
10, 12, 0
7, 0, 0
7, 40, 0
7, 36, 0
33, 3, 0
33, 4, 0
33, 24, 0
32, 16, 0
32, 34, 0
32, 52, 0
32, 48, 0
2, 16, 0
2, 14, 0
2, 50, 0
2, 21, 0
2, 6, 0
2, 30, 0
21, 6, 0
21, 30, 0
21, 2, 0
25, 27, 0
25, 13, 0
25, 12, 0
19, 18, 0
19, 12, 0
19, 39, 0
19, 22, 0
19, 9, 0
49, 20, 0
49, 3, 0
49, 37, 0
49, 11, 0
49, 36, 0
48, 34, 0
48, 52, 0
48, 50, 0
48, 51, 0
48, 12, 0
48, 16, 0
48, 6, 0
48, 9, 0
48, 40, 0
48, 32, 0
31, 14, 0
31, 26, 0
31, 51, 0
31, 17, 0
31, 8, 0
31, 38, 0
39, 16, 0
39, 13, 0
39, 28, 0
39, 18, 0
39, 19, 0
39, 46, 0
39, 22, 0
39, 9, 0
29, 27, 0
29, 1, 0
40, 0, 0
40, 7, 0
40, 13, 0
40, 17, 0
40, 51, 0
40, 23, 0
40, 35, 0
40, 20, 0
40, 12, 0
40, 24, 0
40, 42, 0
40, 15, 0
40, 48, 0
40, 36, 0
11, 20, 0
11, 3, 0
11, 4, 0
11, 14, 0
11, 37, 0
11, 49, 0
11, 36, 0
5, 45, 0
5, 28, 0
5, 46, 0
5, 1, 0
37, 20, 0
37, 3, 0
37, 49, 0
37, 11, 0
37, 36, 0
4, 20, 0
4, 33, 0
4, 14, 0
4, 11, 0
4, 3, 0
4, 17, 0
4, 24, 0
4, 38, 0
4, 47, 0
35, 40, 0
35, 15, 0
35, 23, 0
30, 21, 0
30, 6, 0
30, 14, 0
30, 26, 0
30, 2, 0
42, 40, 0
42, 41, 1
42, 23, 0
22, 12, 0
22, 28, 0
22, 18, 0
22, 19, 0
22, 39, 0
22, 44, 0
22, 46, 0
36, 20, 0
36, 7, 0
36, 14, 0
36, 3, 0
36, 37, 0
36, 49, 0
36, 40, 0
36, 11, 0
45, 28, 0
45, 46, 0
45, 5, 0
16, 34, 0
16, 50, 0
16, 32, 0
16, 2, 0
16, 6, 0
16, 39, 0
16, 48, 0
16, 9, 0
27, 25, 0
27, 28, 0
27, 29, 0
1, 46, 0
1, 12, 0
1, 28, 0
1, 5, 0
1, 29, 0
44, 46, 0
44, 22, 0
12, 34, 0
12, 13, 0
12, 25, 0
12, 1, 0
12, 19, 0
12, 10, 0
12, 40, 0
12, 48, 0
12, 22, 0
12, 9, 0
18, 19, 0
18, 39, 0
18, 22, 0
52, 50, 0
52, 32, 0
52, 48, 0
50, 43, 0
50, 2, 0
50, 16, 0
50, 6, 0
50, 52, 0
50, 48, 0
26, 14, 0
26, 51, 0
26, 31, 0
26, 17, 0
26, 8, 0
26, 30, 0
6, 16, 0
6, 43, 0
6, 50, 0
6, 51, 0
6, 2, 0
6, 21, 0
6, 48, 0
6, 30, 0
43, 6, 0
43, 50, 0
9, 12, 0
9, 34, 0
9, 16, 0
9, 19, 0
9, 39, 0
9, 48, 0
9, 10, 0
