0, 2, 0
0, 1, 0
6, 7, 1
6, 2, 0
6, 5, 0
6, 1, 0
1, 0, 0
1, 6, 0
1, 7, 0
5, 7, 0
5, 6, 0
5, 2, 0
11, 8, 0
11, 4, 0
11, 9, 0
10, 3, 0
10, 2, 0
10, 9, 0
7, 6, 1
7, 5, 0
7, 1, 0
3, 2, 0
3, 10, 0
4, 8, 0
4, 11, 0
2, 0, 0
2, 6, 0
2, 3, 0
2, 5, 0
2, 10, 0
8, 4, 0
8, 11, 0
9, 11, 0
9, 10, 0
