12, 7, 0
12, 33, 0
12, 4, 0
12, 28, 0
12, 23, 0
12, 3, 0
12, 21, 0
12, 8, 0
12, 5, 0
12, 22, 0
12, 9, 0
13, 20, 0
13, 0, 0
13, 28, 0
17, 3, 0
17, 30, 0
17, 4, 0
17, 14, 0
17, 31, 0
17, 35, 0
17, 19, 0
17, 1, 0
17, 15, 0
17, 10, 0
17, 36, 0
31, 0, 0
31, 3, 0
31, 14, 0
31, 32, 0
31, 24, 0
31, 17, 0
31, 2, 0
31, 36, 0
23, 0, 0
23, 34, 0
23, 25, 0
23, 12, 0
23, 6, 0
23, 24, 0
23, 9, 0
24, 0, 0
24, 23, 0
24, 34, 0
24, 18, 0
24, 6, 0
24, 2, 0
24, 5, 0
24, 30, 0
24, 7, 0
24, 3, 0
24, 14, 0
24, 31, 0
24, 35, 0
24, 1, 0
24, 15, 0
24, 22, 0
24, 36, 0
5, 7, 0
5, 6, 0
5, 12, 0
5, 0, 0
5, 24, 0
11, 3, 0
11, 27, 0
11, 26, 0
11, 29, 0
1, 0, 0
1, 36, 0
1, 24, 0
1, 17, 0
1, 30, 0
20, 13, 0
20, 28, 0
4, 33, 0
4, 17, 0
4, 12, 0
4, 35, 0
4, 19, 0
4, 15, 0
4, 10, 0
14, 0, 0
14, 17, 0
14, 31, 0
14, 2, 0
14, 35, 0
14, 24, 0
35, 0, 0
35, 34, 0
35, 4, 0
35, 14, 0
35, 24, 0
35, 17, 0
35, 19, 0
35, 15, 0
35, 10, 0
28, 20, 0
28, 34, 0
28, 16, 0
28, 13, 0
28, 12, 0
28, 21, 0
28, 0, 0
28, 9, 0
30, 0, 0
30, 3, 0
30, 1, 0
30, 17, 0
30, 24, 0
8, 7, 0
8, 33, 0
8, 12, 0
8, 19, 0
8, 15, 0
8, 22, 0
15, 0, 0
15, 34, 0
15, 4, 0
15, 17, 0
15, 35, 0
15, 33, 0
15, 19, 0
15, 8, 0
15, 24, 0
15, 22, 0
15, 10, 0
22, 0, 0
22, 34, 0
22, 7, 0
22, 24, 0
22, 18, 0
22, 19, 0
22, 8, 0
22, 15, 0
22, 12, 0
36, 0, 0
36, 17, 0
36, 31, 0
36, 32, 0
36, 24, 0
36, 2, 0
36, 1, 0
0, 2, 0
0, 13, 0
0, 28, 0
0, 23, 0
0, 3, 0
0, 18, 0
0, 6, 0
0, 24, 0
0, 5, 0
0, 30, 0
0, 7, 0
0, 34, 0
0, 14, 0
0, 31, 0
0, 35, 0
0, 1, 0
0, 15, 0
0, 22, 0
0, 36, 0
6, 0, 0
6, 34, 0
6, 5, 0
6, 23, 0
6, 24, 0
3, 0, 0
3, 34, 0
3, 17, 0
3, 26, 0
3, 31, 0
3, 24, 0
3, 27, 0
3, 12, 0
3, 29, 0
3, 11, 0
3, 30, 0
16, 21, 0
16, 28, 0
16, 9, 0
27, 3, 0
27, 26, 1
27, 11, 0
27, 29, 0
10, 15, 0
10, 19, 0
10, 4, 0
10, 17, 0
10, 35, 0
7, 0, 0
7, 34, 0
7, 24, 0
7, 18, 0
7, 8, 0
7, 5, 0
7, 22, 0
7, 12, 0
34, 0, 0
34, 28, 0
34, 23, 0
34, 18, 0
34, 6, 0
34, 35, 0
34, 7, 0
34, 3, 0
34, 25, 0
34, 24, 0
34, 19, 0
34, 15, 0
34, 22, 0
34, 9, 0
25, 34, 0
25, 23, 0
25, 9, 0
33, 12, 0
33, 19, 0
33, 8, 0
33, 15, 0
33, 4, 0
32, 36, 0
32, 31, 0
32, 2, 0
2, 0, 0
2, 14, 0
2, 31, 0
2, 32, 0
2, 24, 0
2, 36, 0
21, 16, 0
21, 12, 0
21, 28, 0
21, 9, 0
29, 3, 0
29, 26, 0
29, 11, 0
29, 27, 0
19, 34, 0
19, 35, 0
19, 4, 0
19, 17, 0
19, 33, 0
19, 8, 0
19, 15, 0
19, 22, 0
19, 10, 0
26, 27, 1
26, 3, 0
26, 11, 0
26, 29, 0
18, 0, 0
18, 34, 0
18, 7, 0
18, 22, 0
18, 24, 0
9, 34, 0
9, 21, 0
9, 28, 0
9, 23, 0
9, 12, 0
9, 16, 0
9, 25, 0
