58, 29, 0
58, 19, 0
58, 4, 0
58, 39, 0
58, 35, 0
13, 6, 0
13, 8, 0
13, 17, 0
13, 30, 0
17, 13, 0
17, 70, 0
17, 15, 0
17, 30, 0
17, 57, 0
17, 61, 0
17, 4, 0
17, 43, 0
17, 35, 0
17, 42, 0
17, 8, 0
17, 39, 0
17, 62, 0
17, 12, 0
17, 64, 0
17, 10, 0
17, 7, 0
17, 34, 0
17, 69, 0
17, 52, 0
17, 31, 0
17, 29, 0
17, 21, 0
17, 14, 0
17, 19, 0
17, 48, 0
23, 2, 0
23, 10, 0
23, 65, 0
23, 24, 1
63, 16, 0
63, 67, 0
63, 49, 0
63, 54, 0
24, 2, 0
24, 65, 0
24, 25, 1
24, 23, 1
24, 10, 0
46, 45, 1
46, 15, 0
46, 48, 0
46, 12, 0
65, 24, 0
65, 2, 0
65, 10, 0
65, 23, 0
65, 1, 0
20, 21, 1
20, 6, 0
20, 62, 0
34, 70, 0
34, 17, 0
34, 62, 0
14, 4, 0
14, 17, 0
14, 35, 0
14, 52, 0
14, 19, 0
14, 15, 0
53, 60, 0
53, 32, 0
53, 66, 0
66, 16, 0
66, 15, 0
66, 53, 0
66, 40, 0
66, 32, 0
42, 57, 0
42, 7, 0
42, 43, 1
42, 17, 0
15, 70, 0
15, 32, 0
15, 68, 0
15, 35, 0
15, 46, 0
15, 11, 0
15, 1, 0
15, 37, 0
15, 4, 0
15, 43, 0
15, 66, 0
15, 17, 0
15, 8, 0
15, 38, 0
15, 41, 0
15, 22, 0
15, 36, 0
15, 45, 0
15, 3, 0
15, 62, 0
15, 33, 0
15, 16, 0
15, 27, 0
15, 44, 0
15, 47, 0
15, 10, 0
15, 7, 0
15, 12, 0
15, 69, 0
15, 52, 0
15, 50, 0
15, 31, 0
15, 29, 0
15, 21, 0
15, 54, 0
15, 14, 0
15, 49, 0
15, 18, 0
15, 48, 0
15, 9, 0
41, 60, 0
41, 16, 0
41, 15, 0
41, 32, 0
41, 11, 0
0, 27, 0
0, 36, 0
0, 68, 0
0, 26, 0
0, 3, 0
68, 0, 0
68, 27, 0
68, 15, 0
68, 26, 0
68, 9, 0
62, 20, 0
62, 34, 0
62, 17, 0
62, 21, 0
62, 6, 0
62, 15, 0
62, 52, 0
51, 4, 0
51, 31, 0
33, 16, 0
33, 40, 0
33, 55, 0
33, 15, 0
33, 50, 0
6, 20, 0
6, 21, 0
6, 13, 0
6, 62, 0
6, 30, 0
64, 57, 0
64, 7, 0
64, 69, 0
64, 43, 0
64, 17, 0
47, 28, 0
47, 49, 0
47, 15, 0
47, 11, 0
10, 2, 0
10, 54, 0
10, 23, 0
10, 24, 0
10, 16, 0
10, 25, 0
10, 12, 0
10, 1, 0
10, 15, 0
10, 17, 0
10, 65, 0
7, 57, 0
7, 43, 0
7, 17, 0
7, 59, 0
7, 52, 0
7, 18, 0
7, 42, 0
7, 15, 0
7, 48, 0
7, 64, 0
7, 5, 0
3, 0, 0
3, 27, 0
3, 15, 0
3, 36, 0
69, 15, 0
69, 43, 0
69, 48, 0
69, 17, 0
69, 64, 0
32, 53, 0
32, 15, 0
32, 41, 0
32, 66, 0
2, 24, 0
2, 65, 0
2, 25, 0
2, 23, 0
2, 10, 0
37, 18, 0
37, 15, 0
37, 29, 0
25, 2, 0
25, 10, 0
25, 24, 1
19, 58, 0
19, 14, 0
19, 17, 0
49, 67, 0
49, 16, 0
49, 28, 0
49, 63, 0
49, 54, 0
49, 15, 0
49, 47, 0
48, 45, 0
48, 17, 0
48, 46, 0
48, 44, 0
48, 7, 0
48, 12, 0
48, 69, 0
48, 43, 0
48, 61, 0
48, 52, 0
48, 8, 0
48, 15, 0
70, 15, 0
70, 17, 0
70, 56, 0
70, 31, 0
70, 34, 0
31, 4, 0
31, 70, 0
31, 51, 0
31, 56, 0
31, 17, 0
31, 15, 0
28, 49, 0
28, 47, 0
45, 12, 0
45, 44, 1
45, 61, 0
45, 15, 0
45, 46, 1
45, 48, 0
60, 53, 0
60, 41, 0
40, 33, 0
40, 66, 0
29, 58, 0
29, 18, 0
29, 17, 0
29, 37, 0
29, 39, 0
29, 15, 0
59, 18, 0
59, 7, 0
59, 52, 0
59, 5, 0
52, 17, 0
52, 62, 0
52, 18, 0
52, 59, 0
52, 5, 0
52, 30, 0
52, 7, 0
52, 4, 0
52, 14, 0
52, 35, 0
52, 8, 0
52, 15, 0
52, 48, 0
11, 15, 0
11, 41, 0
11, 47, 0
5, 18, 0
5, 7, 0
5, 52, 0
5, 59, 0
61, 45, 0
61, 17, 0
61, 12, 0
61, 8, 0
61, 48, 0
61, 44, 0
4, 58, 0
4, 14, 0
4, 31, 0
4, 51, 0
4, 17, 0
4, 15, 0
4, 52, 0
39, 58, 0
39, 35, 0
39, 17, 0
39, 29, 0
35, 58, 0
35, 17, 0
35, 39, 0
35, 14, 0
35, 15, 0
35, 52, 0
30, 21, 0
30, 6, 0
30, 13, 0
30, 17, 0
30, 52, 0
8, 21, 0
8, 13, 0
8, 17, 0
8, 61, 0
8, 52, 0
8, 15, 0
8, 48, 0
38, 12, 0
38, 15, 0
38, 22, 0
22, 38, 0
22, 15, 0
22, 54, 0
36, 0, 0
36, 3, 0
36, 15, 0
36, 1, 0
57, 7, 0
57, 64, 0
57, 43, 0
57, 17, 0
57, 42, 0
56, 70, 0
56, 31, 0
16, 66, 0
16, 67, 0
16, 54, 0
16, 33, 0
16, 63, 0
16, 1, 0
16, 49, 0
16, 15, 0
16, 41, 0
16, 10, 0
27, 0, 0
27, 68, 0
27, 26, 1
27, 3, 0
27, 15, 0
27, 1, 0
1, 16, 0
1, 27, 0
1, 36, 0
1, 15, 0
1, 10, 0
1, 65, 0
55, 33, 0
55, 50, 0
55, 9, 0
44, 61, 0
44, 45, 1
44, 15, 0
44, 48, 0
44, 12, 0
12, 45, 0
12, 17, 0
12, 48, 0
12, 44, 0
12, 61, 0
12, 38, 0
12, 15, 0
12, 46, 0
12, 10, 0
18, 7, 0
18, 52, 0
18, 29, 0
18, 37, 0
18, 59, 0
18, 15, 0
18, 5, 0
21, 20, 1
21, 17, 0
21, 62, 0
21, 6, 0
21, 8, 0
21, 15, 0
21, 30, 0
54, 67, 0
54, 16, 0
54, 63, 0
54, 49, 0
54, 15, 0
54, 22, 0
54, 10, 0
50, 33, 0
50, 55, 0
50, 15, 0
50, 9, 0
26, 0, 0
26, 68, 0
26, 27, 1
43, 57, 0
43, 7, 0
43, 69, 0
43, 17, 0
43, 64, 0
43, 42, 1
43, 15, 0
43, 48, 0
67, 63, 0
67, 16, 0
67, 49, 0
67, 54, 0
9, 68, 0
9, 55, 0
9, 15, 0
9, 50, 0
