0, 6, 0
0, 2, 0
0, 5, 0
0, 1, 1
3, 6, 0
3, 4, 0
3, 5, 0
3, 2, 0
4, 3, 0
4, 2, 0
2, 0, 0
2, 3, 0
2, 4, 0
2, 6, 0
2, 5, 0
2, 1, 0
6, 0, 0
6, 3, 0
6, 1, 0
6, 5, 0
6, 2, 0
1, 0, 1
1, 6, 0
1, 5, 0
1, 2, 0
8, 7, 0
8, 5, 0
8, 9, 1
5, 0, 0
5, 7, 0
5, 3, 0
5, 2, 0
5, 6, 0
5, 1, 0
5, 8, 0
5, 9, 0
7, 8, 0
7, 5, 0
7, 9, 0
9, 7, 0
9, 8, 1
9, 5, 0
