0, 3, 0
0, 6, 0
0, 5, 0
0, 1, 1
6, 0, 0
6, 4, 0
6, 5, 0
1, 0, 1
1, 3, 0
5, 0, 0
5, 6, 0
5, 3, 0
11, 7, 0
11, 3, 0
11, 8, 0
11, 10, 1
10, 7, 0
10, 3, 0
10, 8, 0
10, 11, 1
7, 8, 0
7, 11, 0
7, 10, 0
3, 0, 0
3, 1, 0
3, 8, 0
3, 5, 0
3, 11, 0
3, 10, 0
4, 6, 0
4, 9, 0
2, 9, 0
8, 7, 0
8, 3, 0
8, 11, 0
8, 10, 0
9, 4, 0
9, 2, 0
