0, 8, 0
0, 4, 0
0, 9, 0
6, 7, 0
6, 4, 0
1, 5, 0
1, 10, 0
5, 1, 0
11, 3, 0
11, 10, 0
11, 2, 0
10, 3, 0
10, 11, 0
10, 1, 0
7, 6, 0
7, 8, 0
3, 2, 0
3, 11, 0
3, 10, 0
4, 0, 0
4, 6, 0
2, 3, 0
2, 11, 0
2, 9, 0
8, 7, 0
8, 0, 0
8, 9, 0
9, 0, 0
9, 8, 0
9, 2, 0
