0, 3, 0
0, 4, 0
0, 5, 0
0, 2, 0
3, 0, 0
3, 4, 1
3, 2, 0
4, 0, 0
4, 3, 1
2, 0, 0
2, 3, 0
2, 7, 0
2, 8, 0
2, 5, 0
2, 10, 0
6, 1, 0
6, 9, 0
1, 6, 0
1, 10, 0
8, 7, 1
8, 10, 0
8, 2, 0
5, 0, 0
5, 2, 0
7, 8, 1
7, 10, 0
7, 2, 0
10, 7, 0
10, 1, 0
10, 8, 0
10, 2, 0
9, 6, 0
