0, 7, 0
0, 6, 0
0, 3, 0
0, 5, 0
0, 9, 0
3, 0, 0
3, 7, 0
3, 4, 0
3, 9, 0
3, 2, 0
3, 6, 0
3, 8, 0
3, 5, 0
3, 1, 0
4, 3, 0
4, 8, 0
4, 5, 0
2, 7, 0
2, 3, 0
2, 1, 0
2, 9, 0
6, 0, 0
6, 3, 0
6, 8, 0
6, 9, 0
1, 7, 0
1, 3, 0
1, 9, 0
1, 2, 0
8, 3, 0
8, 4, 0
8, 6, 0
5, 0, 0
5, 3, 0
5, 4, 0
7, 0, 0
7, 3, 0
7, 2, 0
7, 9, 0
7, 1, 0
9, 0, 0
9, 3, 0
9, 7, 0
9, 2, 0
9, 6, 0
9, 1, 0
