12, 0, 0
12, 27, 0
12, 6, 0
12, 11, 0
12, 9, 0
13, 0, 0
13, 20, 0
13, 28, 0
13, 26, 0
13, 27, 0
13, 18, 0
13, 6, 0
13, 36, 0
13, 25, 0
13, 5, 0
13, 9, 0
17, 7, 0
17, 34, 0
17, 4, 0
17, 31, 0
17, 3, 0
17, 21, 0
17, 33, 0
17, 2, 0
31, 7, 0
31, 3, 0
31, 4, 0
31, 17, 0
31, 35, 0
31, 2, 0
31, 10, 0
23, 7, 0
23, 4, 0
23, 35, 0
23, 21, 0
23, 2, 0
23, 10, 0
24, 8, 0
24, 14, 0
5, 20, 0
5, 13, 0
5, 25, 0
5, 18, 0
5, 15, 0
5, 9, 0
11, 0, 0
11, 6, 0
11, 12, 0
11, 27, 0
11, 9, 0
1, 18, 0
1, 28, 0
1, 26, 0
1, 9, 0
20, 13, 0
20, 14, 0
20, 16, 0
20, 30, 0
20, 5, 0
20, 22, 0
20, 36, 0
4, 7, 0
4, 3, 0
4, 17, 0
4, 23, 0
4, 31, 0
4, 35, 0
4, 21, 0
4, 2, 0
4, 10, 0
14, 20, 0
14, 24, 0
14, 16, 0
14, 8, 0
14, 22, 0
14, 30, 0
35, 7, 0
35, 4, 0
35, 31, 0
35, 23, 0
35, 21, 0
35, 10, 0
28, 13, 0
28, 26, 0
28, 18, 0
28, 6, 0
28, 1, 0
28, 9, 0
30, 20, 0
30, 16, 0
30, 14, 0
8, 14, 0
8, 24, 0
15, 21, 0
15, 32, 0
15, 29, 0
15, 18, 0
15, 19, 0
15, 5, 0
22, 16, 0
22, 20, 0
22, 14, 0
36, 20, 0
36, 21, 0
36, 13, 0
0, 12, 0
0, 27, 0
0, 13, 0
0, 11, 0
0, 9, 0
6, 12, 0
6, 13, 0
6, 28, 0
6, 18, 0
6, 27, 0
6, 11, 0
6, 9, 0
3, 7, 0
3, 4, 0
3, 17, 0
3, 31, 0
3, 2, 0
3, 10, 0
16, 20, 0
16, 14, 0
16, 22, 0
16, 30, 0
27, 0, 0
27, 12, 0
27, 13, 0
27, 6, 0
27, 11, 0
27, 9, 0
10, 7, 0
10, 3, 0
10, 4, 0
10, 23, 0
10, 31, 0
10, 35, 0
10, 21, 0
10, 2, 0
7, 3, 0
7, 4, 0
7, 17, 0
7, 31, 0
7, 23, 0
7, 35, 0
7, 2, 0
7, 10, 0
34, 33, 1
34, 17, 0
25, 18, 0
25, 13, 0
25, 5, 0
25, 9, 0
33, 34, 1
33, 17, 0
32, 21, 0
32, 19, 0
32, 15, 0
32, 29, 0
2, 7, 0
2, 3, 0
2, 4, 0
2, 17, 0
2, 23, 0
2, 31, 0
2, 21, 0
2, 10, 0
21, 4, 0
21, 17, 0
21, 32, 0
21, 23, 0
21, 35, 0
21, 29, 0
21, 19, 0
21, 2, 0
21, 15, 0
21, 10, 0
21, 36, 0
29, 21, 0
29, 19, 0
29, 15, 0
29, 32, 0
19, 21, 0
19, 15, 0
19, 32, 0
19, 29, 0
26, 18, 0
26, 13, 0
26, 28, 0
26, 9, 0
26, 1, 0
18, 13, 0
18, 28, 0
18, 26, 0
18, 6, 0
18, 25, 0
18, 9, 0
18, 15, 0
18, 5, 0
18, 1, 0
9, 0, 0
9, 13, 0
9, 28, 0
9, 18, 0
9, 27, 0
9, 5, 0
9, 11, 0
9, 1, 0
9, 12, 0
9, 25, 0
9, 26, 0
9, 6, 0
