58, 25, 0
58, 43, 0
58, 32, 0
58, 26, 0
58, 18, 0
58, 42, 0
58, 44, 0
58, 36, 0
13, 12, 0
13, 14, 1
13, 17, 0
13, 32, 0
17, 63, 0
17, 12, 0
17, 13, 0
17, 59, 0
17, 32, 0
23, 7, 0
23, 39, 0
23, 28, 0
23, 41, 0
23, 24, 1
63, 12, 0
63, 59, 0
63, 17, 0
42, 58, 0
42, 25, 0
42, 26, 0
42, 32, 0
42, 18, 0
42, 43, 1
42, 36, 0
5, 6, 1
5, 36, 0
5, 52, 0
5, 64, 0
5, 30, 0
65, 4, 0
65, 41, 0
65, 22, 0
65, 47, 0
57, 20, 0
57, 45, 0
57, 29, 0
57, 34, 0
57, 2, 0
57, 6, 0
57, 19, 0
57, 35, 0
57, 30, 0
34, 0, 0
34, 3, 0
34, 9, 0
34, 50, 0
34, 57, 0
34, 2, 0
34, 27, 0
34, 19, 0
34, 35, 0
34, 11, 0
34, 30, 0
14, 12, 0
14, 13, 1
14, 44, 0
14, 26, 0
14, 32, 0
24, 7, 0
24, 28, 0
24, 23, 1
28, 7, 0
28, 23, 0
28, 24, 0
28, 61, 0
28, 39, 0
28, 41, 0
39, 7, 0
39, 28, 0
39, 56, 0
39, 23, 0
39, 61, 0
39, 8, 0
39, 41, 0
41, 28, 0
41, 56, 0
41, 23, 0
41, 1, 0
41, 55, 0
41, 65, 0
41, 7, 0
41, 4, 0
41, 61, 0
41, 8, 0
41, 39, 0
41, 22, 0
0, 34, 0
0, 9, 0
0, 11, 0
0, 27, 0
8, 61, 0
8, 39, 0
8, 41, 0
38, 16, 0
38, 4, 0
38, 62, 0
38, 37, 1
38, 49, 0
38, 46, 0
38, 47, 0
38, 1, 0
62, 37, 0
62, 4, 0
62, 60, 0
62, 16, 0
62, 38, 0
62, 15, 0
62, 46, 0
62, 47, 0
62, 1, 0
51, 33, 0
51, 50, 1
51, 16, 0
51, 27, 0
51, 49, 0
51, 48, 0
33, 49, 0
33, 50, 0
33, 51, 0
33, 27, 0
33, 53, 0
33, 48, 0
33, 11, 0
15, 37, 0
15, 62, 0
15, 31, 0
15, 16, 0
15, 27, 0
15, 49, 0
15, 40, 0
15, 46, 0
15, 48, 0
15, 10, 0
54, 30, 0
54, 64, 0
54, 36, 0
47, 37, 0
47, 65, 0
47, 4, 0
47, 62, 0
47, 60, 0
47, 16, 0
47, 49, 0
47, 38, 0
47, 46, 1
47, 22, 0
47, 1, 0
10, 31, 0
10, 27, 0
10, 15, 0
10, 49, 0
10, 40, 0
10, 48, 0
10, 9, 0
7, 39, 0
7, 28, 0
7, 41, 0
7, 23, 0
7, 24, 0
3, 34, 0
3, 35, 0
3, 11, 0
3, 2, 1
53, 21, 0
53, 33, 0
53, 11, 0
53, 27, 0
32, 58, 0
32, 12, 0
32, 43, 0
32, 13, 0
32, 14, 0
32, 26, 0
32, 18, 0
32, 42, 0
32, 44, 0
32, 17, 0
32, 36, 0
2, 57, 0
2, 3, 1
2, 35, 0
2, 19, 0
2, 34, 0
2, 30, 0
37, 4, 0
37, 62, 0
37, 16, 0
37, 15, 0
37, 38, 1
37, 46, 0
37, 47, 0
25, 58, 0
25, 42, 0
25, 43, 0
25, 26, 1
25, 36, 0
19, 20, 1
19, 57, 0
19, 9, 0
19, 34, 0
19, 2, 0
19, 27, 0
19, 35, 0
19, 30, 0
49, 38, 0
49, 51, 0
49, 16, 0
49, 27, 0
49, 40, 0
49, 46, 0
49, 47, 0
49, 10, 0
49, 33, 0
49, 4, 0
49, 31, 0
49, 15, 0
49, 48, 1
49, 9, 0
48, 40, 0
48, 33, 0
48, 9, 0
48, 51, 0
48, 31, 0
48, 16, 0
48, 27, 0
48, 49, 1
48, 15, 0
48, 10, 0
31, 40, 0
31, 16, 0
31, 27, 0
31, 49, 0
31, 15, 0
31, 48, 0
31, 10, 0
45, 57, 0
45, 35, 0
45, 29, 0
60, 62, 0
60, 46, 0
60, 47, 0
60, 1, 0
59, 63, 0
59, 17, 0
29, 57, 0
29, 45, 0
40, 31, 0
40, 16, 0
40, 10, 0
40, 49, 0
40, 15, 0
40, 48, 0
40, 9, 0
11, 0, 0
11, 34, 0
11, 35, 0
11, 3, 0
11, 33, 0
11, 21, 0
11, 27, 0
11, 53, 0
11, 50, 0
46, 37, 0
46, 4, 0
46, 62, 0
46, 16, 0
46, 15, 0
46, 1, 0
46, 49, 0
46, 38, 0
46, 47, 1
46, 60, 0
61, 39, 0
61, 8, 0
61, 28, 0
61, 41, 0
4, 62, 0
4, 16, 0
4, 1, 0
4, 55, 0
4, 46, 0
4, 47, 0
4, 65, 0
4, 37, 0
4, 49, 0
4, 38, 0
4, 41, 0
4, 22, 0
35, 57, 0
35, 3, 0
35, 45, 0
35, 2, 0
35, 19, 0
35, 34, 0
35, 11, 0
30, 20, 0
30, 57, 0
30, 54, 0
30, 2, 0
30, 6, 0
30, 19, 0
30, 34, 0
30, 64, 0
30, 52, 0
30, 5, 0
64, 54, 0
64, 26, 0
64, 52, 0
64, 6, 0
64, 36, 0
64, 5, 0
64, 30, 0
22, 4, 0
22, 56, 0
22, 55, 0
22, 41, 0
22, 47, 0
22, 65, 0
36, 58, 0
36, 43, 0
36, 54, 0
36, 32, 0
36, 26, 0
36, 42, 0
36, 18, 0
36, 25, 0
36, 64, 0
36, 5, 0
36, 44, 0
20, 57, 0
20, 19, 1
20, 30, 0
56, 55, 1
56, 39, 0
56, 41, 0
56, 22, 0
16, 62, 0
16, 51, 0
16, 27, 0
16, 15, 0
16, 40, 0
16, 46, 0
16, 47, 0
16, 4, 0
16, 31, 0
16, 37, 0
16, 49, 0
16, 38, 0
16, 48, 0
16, 9, 0
27, 0, 0
27, 51, 0
27, 34, 0
27, 16, 0
27, 53, 0
27, 11, 0
27, 10, 0
27, 33, 0
27, 50, 0
27, 31, 0
27, 21, 0
27, 19, 0
27, 49, 0
27, 15, 0
27, 48, 0
27, 9, 0
1, 4, 0
1, 62, 0
1, 60, 0
1, 55, 0
1, 38, 0
1, 46, 0
1, 47, 0
1, 41, 0
55, 56, 1
55, 4, 0
55, 41, 0
55, 22, 0
55, 1, 0
44, 58, 0
44, 12, 0
44, 43, 1
44, 32, 0
44, 18, 0
44, 14, 0
44, 36, 0
12, 13, 0
12, 14, 0
12, 26, 0
12, 32, 0
12, 63, 0
12, 17, 0
12, 44, 0
18, 58, 0
18, 43, 0
18, 26, 0
18, 32, 0
18, 42, 0
18, 44, 0
18, 36, 0
21, 27, 0
21, 53, 0
21, 11, 0
52, 6, 0
52, 64, 0
52, 5, 0
52, 30, 0
50, 33, 0
50, 34, 0
50, 11, 0
50, 51, 1
50, 27, 0
26, 58, 0
26, 12, 0
26, 25, 1
26, 32, 0
26, 18, 0
26, 42, 0
26, 14, 0
26, 64, 0
26, 36, 0
6, 57, 0
6, 52, 0
6, 64, 0
6, 5, 1
6, 30, 0
43, 58, 0
43, 25, 0
43, 32, 0
43, 18, 0
43, 42, 1
43, 44, 1
43, 36, 0
9, 0, 0
9, 34, 0
9, 16, 0
9, 27, 0
9, 19, 0
9, 49, 0
9, 40, 0
9, 48, 0
9, 10, 0
