0, 6, 0
0, 9, 0
0, 11, 0
0, 10, 0
13, 7, 0
13, 8, 0
13, 14, 1
13, 5, 0
17, 7, 0
17, 3, 0
17, 4, 0
17, 16, 0
17, 6, 0
17, 15, 0
17, 5, 0
3, 16, 0
3, 7, 0
3, 4, 0
3, 17, 0
16, 7, 0
16, 3, 0
16, 4, 0
16, 17, 0
16, 18, 0
16, 15, 0
16, 1, 0
6, 0, 0
6, 7, 0
6, 14, 0
6, 10, 0
6, 17, 0
6, 8, 0
6, 5, 0
6, 11, 0
6, 9, 0
8, 7, 0
8, 6, 0
8, 13, 0
8, 14, 0
8, 5, 0
5, 13, 0
5, 17, 0
5, 6, 0
5, 8, 0
5, 10, 0
5, 9, 0
11, 0, 0
11, 6, 0
11, 10, 1
10, 0, 0
10, 6, 0
10, 5, 0
10, 11, 1
10, 9, 1
7, 3, 0
7, 13, 0
7, 14, 0
7, 4, 0
7, 16, 0
7, 6, 0
7, 8, 0
7, 17, 0
12, 18, 0
12, 1, 0
12, 4, 0
12, 2, 0
4, 7, 0
4, 3, 0
4, 17, 0
4, 2, 0
4, 16, 0
4, 15, 0
4, 18, 0
4, 12, 0
14, 7, 0
14, 6, 0
14, 8, 0
14, 13, 1
2, 18, 0
2, 12, 0
2, 4, 0
2, 1, 1
1, 16, 0
1, 12, 0
1, 18, 0
1, 2, 1
15, 16, 0
15, 4, 0
15, 17, 0
18, 16, 0
18, 12, 0
18, 2, 0
18, 4, 0
18, 1, 0
9, 0, 0
9, 6, 0
9, 5, 0
9, 10, 1
