0, 3, 0
0, 5, 0
0, 9, 0
3, 0, 0
3, 4, 0
3, 5, 0
3, 9, 0
4, 3, 0
4, 8, 0
4, 9, 0
2, 7, 0
2, 6, 0
2, 8, 0
2, 1, 0
6, 7, 1
6, 2, 0
6, 8, 0
6, 9, 0
6, 1, 0
1, 6, 0
1, 2, 0
8, 7, 0
8, 6, 0
8, 2, 0
8, 4, 0
8, 9, 0
5, 0, 0
5, 3, 0
5, 9, 0
7, 6, 1
7, 8, 0
7, 2, 0
9, 0, 0
9, 3, 0
9, 4, 0
9, 6, 0
9, 8, 0
9, 5, 0
