0, 7, 0
0, 12, 0
0, 14, 0
0, 2, 0
13, 12, 0
13, 2, 0
13, 5, 0
13, 11, 0
13, 10, 0
3, 6, 0
3, 8, 0
3, 5, 0
3, 11, 0
3, 10, 0
6, 3, 0
6, 8, 0
6, 4, 0
6, 1, 0
8, 6, 0
8, 3, 0
8, 1, 0
5, 3, 0
5, 13, 0
5, 11, 0
5, 10, 0
11, 3, 0
11, 13, 0
11, 5, 0
11, 10, 1
10, 3, 0
10, 13, 0
10, 5, 0
10, 11, 1
7, 0, 0
7, 12, 0
7, 14, 0
12, 0, 0
12, 7, 0
12, 13, 0
12, 2, 0
4, 6, 0
4, 9, 0
4, 1, 0
14, 0, 0
14, 7, 0
2, 0, 0
2, 12, 0
2, 13, 0
1, 6, 0
1, 8, 0
1, 4, 0
9, 4, 0
