0, 3, 0
0, 1, 0
0, 5, 0
0, 6, 0
3, 0, 0
3, 2, 0
4, 7, 0
4, 2, 0
2, 3, 0
2, 4, 0
6, 0, 0
6, 5, 1
6, 1, 0
1, 0, 0
1, 6, 0
1, 5, 0
8, 7, 0
8, 9, 0
5, 0, 0
5, 6, 1
5, 1, 0
7, 8, 0
7, 4, 0
7, 9, 0
9, 7, 0
9, 8, 0
