0, 7, 0
0, 2, 0
0, 6, 0
0, 8, 0
0, 11, 0
0, 1, 0
13, 12, 0
13, 8, 0
13, 9, 0
13, 11, 0
13, 10, 0
3, 6, 0
3, 8, 0
3, 4, 0
6, 0, 0
6, 7, 0
6, 8, 0
6, 4, 0
6, 3, 0
8, 0, 0
8, 7, 0
8, 4, 0
8, 13, 0
8, 9, 0
8, 3, 0
8, 6, 0
8, 2, 0
8, 11, 0
8, 1, 0
5, 9, 0
11, 0, 0
11, 12, 0
11, 13, 0
11, 2, 0
11, 8, 0
11, 1, 0
10, 12, 0
10, 13, 0
10, 9, 0
7, 0, 0
7, 6, 0
7, 8, 0
12, 13, 0
12, 9, 0
12, 11, 0
12, 10, 0
4, 3, 0
4, 8, 0
4, 6, 0
2, 0, 0
2, 8, 0
2, 11, 0
2, 1, 1
1, 0, 0
1, 8, 0
1, 11, 0
1, 2, 1
9, 12, 0
9, 8, 0
9, 13, 0
9, 5, 0
9, 10, 0
