0, 6, 0
0, 13, 0
7, 4, 0
7, 17, 0
7, 19, 0
7, 15, 0
7, 5, 0
7, 9, 0
13, 0, 0
13, 2, 0
17, 7, 0
17, 4, 0
17, 14, 0
17, 18, 0
17, 9, 0
17, 15, 0
17, 5, 0
17, 1, 0
3, 8, 0
3, 2, 0
16, 6, 0
6, 0, 0
6, 16, 0
8, 3, 0
8, 19, 0
8, 2, 0
5, 20, 0
5, 7, 0
5, 4, 0
5, 14, 0
5, 18, 0
5, 17, 0
5, 9, 0
5, 1, 0
11, 12, 1
11, 1, 0
11, 9, 0
10, 12, 1
10, 9, 0
10, 15, 0
10, 1, 0
20, 14, 0
20, 18, 0
20, 1, 0
20, 15, 0
20, 5, 0
20, 9, 0
12, 1, 0
12, 10, 1
12, 15, 0
12, 11, 1
12, 9, 0
4, 7, 0
4, 15, 0
4, 17, 0
4, 5, 0
4, 9, 0
14, 20, 0
14, 17, 0
14, 18, 0
14, 15, 0
14, 5, 0
14, 1, 0
2, 3, 0
2, 8, 0
2, 13, 0
19, 7, 0
19, 8, 0
1, 20, 0
1, 12, 0
1, 14, 0
1, 18, 0
1, 17, 0
1, 9, 0
1, 15, 0
1, 5, 0
1, 11, 0
1, 10, 0
15, 20, 0
15, 12, 0
15, 4, 0
15, 14, 0
15, 9, 0
15, 17, 0
15, 10, 0
15, 7, 0
15, 1, 0
18, 20, 0
18, 14, 0
18, 17, 0
18, 5, 0
18, 1, 0
9, 20, 0
9, 12, 0
9, 4, 0
9, 17, 0
9, 7, 0
9, 10, 0
9, 15, 0
9, 5, 0
9, 11, 0
9, 1, 0
