12, 14, 0
12, 36, 0
13, 3, 0
13, 38, 0
13, 5, 0
17, 38, 0
17, 5, 0
31, 28, 0
31, 35, 0
23, 18, 0
23, 33, 0
24, 6, 0
24, 1, 0
5, 0, 0
5, 38, 0
5, 13, 0
5, 17, 0
5, 3, 0
11, 20, 0
11, 29, 0
1, 20, 0
1, 6, 0
1, 14, 0
1, 24, 0
20, 11, 0
20, 1, 0
21, 16, 0
21, 18, 0
21, 19, 0
4, 28, 0
4, 32, 0
14, 6, 0
14, 36, 0
14, 12, 0
14, 1, 0
35, 37, 0
35, 31, 0
28, 33, 0
28, 4, 0
28, 31, 0
28, 32, 0
30, 7, 0
30, 8, 0
30, 22, 0
8, 7, 0
8, 36, 0
8, 22, 0
8, 30, 0
15, 37, 0
15, 10, 0
19, 21, 0
19, 18, 1
22, 7, 0
22, 8, 0
22, 9, 0
22, 30, 0
36, 12, 0
36, 8, 0
36, 14, 0
0, 34, 0
0, 5, 0
0, 3, 0
38, 3, 0
38, 13, 0
38, 17, 0
38, 5, 0
3, 0, 0
3, 13, 0
3, 38, 0
3, 5, 0
16, 21, 0
16, 25, 0
6, 1, 0
6, 14, 0
6, 24, 0
10, 15, 0
10, 9, 0
7, 8, 0
7, 22, 0
7, 30, 0
34, 0, 0
34, 29, 0
25, 16, 0
25, 26, 0
33, 28, 0
33, 23, 0
33, 32, 0
32, 33, 0
32, 4, 0
32, 28, 0
27, 26, 0
27, 2, 0
37, 15, 0
37, 35, 0
29, 34, 0
29, 11, 0
2, 27, 0
2, 26, 0
26, 27, 0
26, 25, 0
26, 2, 0
18, 21, 0
18, 19, 1
18, 23, 0
9, 22, 0
9, 10, 0
