0, 6, 0
0, 12, 0
8, 9, 0
8, 10, 0
3, 12, 0
3, 4, 1
3, 11, 0
3, 2, 0
6, 0, 0
6, 12, 0
6, 7, 0
5, 7, 0
5, 1, 0
11, 3, 0
10, 8, 0
10, 9, 0
10, 1, 0
7, 12, 0
7, 1, 0
7, 9, 0
7, 5, 0
7, 6, 0
12, 0, 0
12, 7, 0
12, 4, 0
12, 3, 0
12, 6, 0
12, 2, 0
4, 3, 1
4, 12, 0
4, 2, 0
2, 12, 0
2, 4, 0
2, 3, 0
1, 7, 0
1, 9, 0
1, 5, 0
1, 10, 0
9, 7, 0
9, 1, 0
9, 8, 0
9, 10, 0
