0, 7, 0
0, 3, 0
0, 4, 0
0, 2, 0
0, 8, 0
0, 1, 0
3, 0, 0
3, 7, 0
3, 8, 0
3, 4, 0
3, 1, 1
4, 0, 0
4, 3, 0
4, 7, 0
4, 2, 0
4, 8, 0
4, 1, 0
2, 0, 0
2, 7, 0
2, 8, 0
2, 4, 0
2, 1, 1
6, 7, 0
6, 10, 0
6, 8, 0
6, 5, 1
6, 9, 0
1, 0, 0
1, 3, 1
1, 7, 0
1, 4, 0
1, 2, 1
1, 8, 0
8, 0, 0
8, 3, 0
8, 7, 0
8, 4, 0
8, 2, 0
8, 6, 0
8, 1, 0
8, 10, 0
8, 5, 0
8, 9, 0
5, 6, 1
5, 8, 0
5, 10, 0
5, 9, 0
7, 0, 0
7, 3, 0
7, 4, 0
7, 2, 0
7, 6, 0
7, 8, 0
7, 10, 0
7, 1, 0
10, 7, 0
10, 6, 0
10, 8, 0
10, 5, 0
10, 9, 1
9, 6, 0
9, 8, 0
9, 5, 0
9, 10, 1
