0, 7, 0
0, 4, 0
0, 2, 0
0, 1, 1
0, 9, 0
0, 5, 0
0, 10, 0
3, 8, 0
3, 5, 0
3, 2, 0
4, 0, 0
4, 7, 0
2, 0, 0
2, 3, 0
2, 8, 0
2, 5, 0
2, 9, 0
6, 8, 0
6, 5, 0
6, 9, 0
1, 0, 1
1, 10, 0
1, 9, 0
8, 3, 0
8, 6, 0
8, 5, 0
8, 2, 0
5, 0, 0
5, 3, 0
5, 2, 0
5, 6, 0
5, 8, 0
5, 9, 0
7, 0, 0
7, 4, 0
7, 10, 0
10, 0, 0
10, 7, 0
10, 1, 0
9, 0, 0
9, 6, 0
9, 2, 0
9, 5, 0
9, 1, 0
