0, 7, 0
0, 3, 0
0, 4, 0
0, 9, 0
0, 12, 0
0, 2, 0
0, 1, 1
0, 5, 0
0, 11, 0
0, 10, 0
8, 6, 0
8, 9, 0
8, 2, 0
3, 0, 0
3, 12, 0
3, 10, 0
3, 5, 1
3, 11, 0
3, 1, 0
6, 2, 0
6, 8, 0
6, 9, 0
5, 0, 0
5, 12, 0
5, 4, 1
5, 3, 1
5, 7, 0
5, 11, 0
5, 1, 0
11, 0, 0
11, 12, 1
11, 4, 0
11, 3, 0
11, 2, 0
11, 10, 0
11, 5, 0
11, 7, 0
11, 1, 0
10, 0, 0
10, 12, 0
10, 7, 0
10, 3, 0
10, 2, 0
10, 11, 0
10, 1, 0
7, 0, 0
7, 12, 0
7, 2, 0
7, 10, 0
7, 5, 0
7, 11, 0
7, 1, 0
12, 0, 0
12, 3, 0
12, 4, 0
12, 7, 0
12, 2, 0
12, 10, 0
12, 5, 0
12, 11, 1
12, 1, 0
4, 0, 0
4, 12, 0
4, 2, 0
4, 9, 0
4, 5, 1
4, 11, 0
4, 1, 0
2, 0, 0
2, 12, 0
2, 4, 0
2, 9, 0
2, 11, 0
2, 6, 0
2, 8, 0
2, 7, 0
2, 10, 0
2, 1, 0
1, 0, 1
1, 12, 0
1, 7, 0
1, 4, 0
1, 3, 0
1, 2, 0
1, 5, 0
1, 11, 0
1, 10, 0
9, 0, 0
9, 6, 0
9, 8, 0
9, 4, 0
9, 2, 0
