0, 4, 0
0, 13, 0
0, 2, 0
0, 10, 0
0, 11, 0
0, 9, 0
13, 0, 0
13, 3, 0
13, 4, 0
13, 12, 0
13, 9, 0
13, 5, 0
13, 10, 0
3, 13, 0
3, 5, 0
3, 4, 0
3, 10, 0
6, 7, 1
6, 12, 0
6, 8, 0
8, 7, 0
8, 12, 0
8, 5, 0
8, 6, 0
5, 7, 0
5, 3, 0
5, 13, 0
5, 4, 0
5, 12, 0
5, 1, 0
5, 8, 0
5, 10, 0
11, 0, 0
11, 2, 0
10, 0, 0
10, 12, 0
10, 13, 0
10, 4, 0
10, 3, 0
10, 5, 0
10, 1, 0
7, 12, 0
7, 8, 0
7, 5, 0
7, 6, 1
12, 7, 0
12, 13, 0
12, 6, 0
12, 8, 0
12, 5, 0
12, 10, 0
4, 0, 0
4, 3, 0
4, 13, 0
4, 1, 0
4, 10, 0
4, 5, 0
4, 9, 0
2, 0, 0
2, 11, 0
2, 9, 0
1, 10, 0
1, 4, 0
1, 5, 0
1, 9, 0
9, 0, 0
9, 2, 0
9, 13, 0
9, 4, 0
9, 1, 0
