13, 3, 0
13, 4, 0
13, 9, 0
13, 2, 0
13, 8, 0
13, 10, 0
17, 20, 0
17, 21, 0
17, 22, 0
17, 23, 0
17, 18, 1
17, 6, 0
17, 19, 0
17, 5, 0
17, 11, 0
17, 1, 0
23, 20, 0
23, 21, 0
23, 17, 0
23, 11, 0
23, 18, 0
23, 6, 0
23, 19, 0
23, 5, 0
23, 22, 0
23, 1, 0
5, 20, 0
5, 21, 0
5, 17, 0
5, 22, 0
5, 23, 0
5, 18, 0
5, 6, 1
5, 19, 0
5, 11, 0
11, 20, 0
11, 7, 0
11, 17, 0
11, 23, 0
11, 21, 0
11, 6, 0
11, 19, 0
11, 15, 0
11, 5, 0
11, 1, 0
1, 20, 0
1, 17, 0
1, 11, 0
1, 23, 0
1, 21, 0
1, 6, 0
1, 19, 0
1, 22, 0
20, 18, 0
20, 17, 0
20, 22, 0
20, 23, 0
20, 21, 1
20, 6, 0
20, 19, 0
20, 5, 0
20, 11, 0
20, 1, 0
4, 24, 0
4, 3, 0
4, 13, 0
4, 2, 0
4, 8, 0
4, 10, 0
14, 7, 0
14, 0, 0
14, 12, 0
14, 16, 0
14, 19, 0
14, 15, 1
24, 3, 0
24, 4, 0
24, 10, 0
24, 2, 0
8, 3, 0
8, 13, 0
8, 4, 0
8, 2, 0
8, 10, 0
8, 9, 1
15, 7, 0
15, 0, 0
15, 14, 1
15, 12, 0
15, 16, 0
15, 19, 0
15, 11, 0
22, 20, 0
22, 17, 0
22, 23, 0
22, 21, 0
22, 19, 0
22, 5, 0
22, 1, 0
0, 7, 0
0, 12, 0
0, 14, 0
0, 3, 0
0, 16, 0
0, 9, 0
0, 15, 0
0, 10, 0
3, 0, 0
3, 4, 0
3, 13, 0
3, 2, 1
3, 8, 0
3, 24, 0
3, 10, 0
3, 9, 0
16, 0, 0
16, 12, 0
16, 7, 0
16, 14, 0
16, 19, 0
16, 15, 0
16, 10, 0
6, 20, 0
6, 21, 0
6, 17, 0
6, 23, 0
6, 18, 0
6, 19, 0
6, 5, 1
6, 11, 0
6, 1, 0
10, 0, 0
10, 3, 0
10, 13, 0
10, 4, 0
10, 12, 0
10, 16, 0
10, 8, 0
10, 2, 0
10, 24, 0
10, 9, 0
7, 0, 0
7, 14, 0
7, 16, 0
7, 15, 0
7, 11, 0
7, 9, 0
12, 0, 0
12, 16, 0
12, 15, 0
12, 14, 0
12, 10, 0
2, 3, 1
2, 13, 0
2, 9, 0
2, 4, 0
2, 24, 0
2, 8, 0
2, 10, 0
21, 20, 1
21, 17, 0
21, 22, 0
21, 23, 0
21, 18, 0
21, 6, 0
21, 19, 0
21, 5, 0
21, 11, 0
21, 1, 0
19, 17, 0
19, 23, 0
19, 16, 0
19, 6, 0
19, 5, 0
19, 11, 0
19, 1, 0
19, 20, 0
19, 14, 0
19, 21, 0
19, 15, 0
19, 22, 0
18, 20, 0
18, 17, 1
18, 23, 0
18, 21, 0
18, 6, 0
18, 5, 0
9, 0, 0
9, 3, 0
9, 13, 0
9, 2, 0
9, 8, 1
9, 7, 0
9, 10, 0
