13, 18, 0
13, 19, 0
13, 8, 0
13, 17, 0
13, 26, 0
17, 18, 1
17, 19, 0
17, 8, 0
17, 13, 0
23, 0, 0
23, 12, 0
23, 24, 1
23, 6, 0
23, 9, 0
23, 1, 0
5, 6, 0
5, 1, 0
5, 10, 0
5, 9, 0
11, 7, 0
11, 25, 0
11, 26, 0
11, 16, 0
11, 15, 0
11, 22, 0
1, 0, 0
1, 12, 0
1, 23, 0
1, 24, 0
1, 21, 0
1, 6, 0
1, 9, 0
1, 5, 0
1, 10, 0
20, 21, 1
20, 0, 0
20, 12, 0
4, 0, 0
4, 3, 1
4, 14, 0
4, 2, 0
14, 0, 0
14, 3, 0
14, 4, 0
14, 2, 0
24, 0, 0
24, 12, 0
24, 23, 1
24, 21, 0
24, 6, 0
24, 1, 0
8, 18, 0
8, 19, 0
8, 13, 0
8, 17, 0
15, 16, 1
15, 7, 0
15, 25, 0
15, 26, 0
15, 11, 0
22, 11, 0
22, 2, 0
0, 20, 0
0, 12, 0
0, 4, 0
0, 14, 0
0, 23, 0
0, 24, 0
0, 21, 0
0, 6, 0
0, 9, 0
0, 1, 0
3, 4, 1
3, 14, 0
3, 2, 0
16, 7, 0
16, 25, 0
16, 26, 0
16, 2, 0
16, 15, 1
16, 11, 0
6, 0, 0
6, 12, 0
6, 23, 0
6, 24, 0
6, 10, 0
6, 1, 0
6, 5, 0
6, 9, 0
10, 6, 0
10, 9, 1
10, 5, 0
10, 1, 0
7, 18, 0
7, 25, 0
7, 26, 0
7, 16, 0
7, 15, 0
7, 11, 0
12, 20, 0
12, 0, 0
12, 23, 0
12, 24, 0
12, 21, 0
12, 6, 0
12, 1, 0
25, 16, 0
25, 7, 0
25, 15, 0
25, 11, 0
26, 16, 0
26, 7, 0
26, 13, 0
26, 15, 0
26, 11, 0
2, 16, 0
2, 3, 0
2, 4, 0
2, 14, 0
2, 22, 0
21, 20, 1
21, 0, 0
21, 24, 0
21, 12, 0
21, 1, 0
19, 18, 0
19, 8, 0
19, 17, 0
19, 13, 0
18, 7, 0
18, 19, 0
18, 8, 0
18, 17, 1
18, 13, 0
9, 0, 0
9, 23, 0
9, 6, 0
9, 1, 0
9, 5, 0
9, 10, 1
