0, 6, 0
0, 4, 0
0, 1, 1
3, 2, 0
3, 8, 0
3, 5, 0
3, 9, 0
4, 0, 0
4, 7, 0
4, 2, 0
4, 6, 0
4, 8, 0
4, 1, 0
2, 7, 0
2, 3, 0
2, 4, 0
2, 6, 0
2, 9, 0
2, 5, 0
2, 1, 1
6, 0, 0
6, 7, 0
6, 4, 0
6, 2, 0
6, 8, 0
6, 5, 0
6, 1, 0
1, 0, 1
1, 6, 0
1, 4, 0
1, 7, 0
1, 2, 1
8, 3, 0
8, 6, 0
8, 4, 0
8, 5, 0
8, 9, 1
5, 2, 0
5, 6, 0
5, 8, 0
5, 3, 0
5, 9, 0
7, 6, 0
7, 1, 0
7, 4, 0
7, 2, 0
9, 3, 0
9, 8, 1
9, 5, 0
9, 2, 0
