0, 7, 0
0, 8, 0
0, 13, 0
0, 2, 0
13, 0, 0
13, 7, 0
13, 4, 0
13, 2, 0
13, 8, 0
13, 15, 0
13, 5, 0
3, 2, 0
3, 11, 0
3, 10, 0
6, 4, 0
6, 14, 0
6, 5, 0
8, 0, 0
8, 7, 1
8, 13, 0
8, 2, 0
5, 6, 0
5, 15, 0
5, 13, 0
5, 14, 0
5, 4, 0
11, 3, 0
11, 2, 0
11, 10, 1
10, 3, 0
10, 11, 1
10, 2, 0
7, 0, 0
7, 8, 1
7, 13, 0
7, 2, 0
12, 4, 0
12, 14, 0
12, 9, 0
4, 12, 0
4, 13, 0
4, 14, 0
4, 6, 0
4, 5, 0
4, 9, 0
14, 6, 0
14, 4, 0
14, 5, 0
14, 12, 0
2, 0, 0
2, 7, 0
2, 13, 0
2, 3, 0
2, 8, 0
2, 11, 0
2, 10, 0
1, 9, 0
15, 13, 0
15, 5, 0
9, 12, 0
9, 4, 0
9, 1, 0
