13, 0, 0
13, 18, 0
13, 9, 0
17, 7, 0
17, 4, 0
17, 23, 0
17, 16, 0
17, 8, 0
17, 10, 0
23, 16, 0
23, 15, 0
23, 4, 0
23, 17, 0
23, 10, 0
5, 6, 1
5, 12, 0
5, 22, 0
5, 3, 0
11, 4, 0
11, 14, 0
1, 18, 0
1, 2, 0
20, 21, 0
20, 12, 0
20, 19, 1
20, 2, 0
4, 7, 0
4, 8, 0
4, 17, 0
4, 23, 0
4, 11, 0
14, 3, 0
14, 11, 0
8, 7, 1
8, 4, 0
8, 17, 0
15, 16, 0
15, 23, 0
22, 3, 0
22, 5, 0
22, 12, 0
0, 13, 0
3, 14, 0
3, 5, 0
3, 22, 0
16, 15, 0
16, 17, 0
16, 23, 0
16, 10, 0
6, 12, 0
6, 5, 1
10, 16, 0
10, 17, 0
10, 23, 0
7, 8, 1
7, 17, 0
7, 4, 0
12, 20, 0
12, 21, 0
12, 6, 0
12, 19, 0
12, 5, 0
12, 22, 0
2, 20, 0
2, 21, 0
2, 19, 0
2, 1, 0
21, 20, 0
21, 12, 0
21, 19, 0
21, 2, 0
19, 20, 1
19, 21, 0
19, 12, 0
19, 2, 0
18, 13, 0
18, 9, 0
18, 1, 0
9, 18, 0
9, 13, 0
