13, 18, 0
13, 27, 0
13, 1, 0
13, 10, 0
13, 4, 0
13, 26, 0
13, 24, 0
13, 21, 0
13, 8, 0
13, 15, 0
13, 22, 0
13, 9, 0
17, 7, 0
17, 12, 0
17, 28, 0
17, 32, 0
17, 31, 0
17, 21, 0
17, 27, 0
17, 1, 0
17, 8, 0
17, 5, 0
17, 30, 0
31, 7, 0
31, 12, 0
31, 17, 0
31, 32, 1
31, 27, 0
23, 0, 0
23, 3, 0
23, 25, 0
23, 26, 0
23, 24, 0
23, 16, 0
23, 15, 0
10, 21, 0
10, 13, 0
10, 9, 1
10, 4, 0
10, 24, 0
10, 18, 0
10, 8, 0
10, 15, 0
10, 1, 0
2, 20, 0
2, 0, 0
2, 14, 0
2, 25, 0
5, 7, 0
5, 29, 0
5, 28, 0
5, 27, 0
5, 6, 1
5, 8, 0
5, 17, 0
5, 1, 0
11, 20, 0
11, 25, 0
11, 4, 0
11, 14, 0
11, 26, 0
11, 27, 0
1, 13, 0
1, 17, 0
1, 18, 0
1, 6, 0
1, 29, 0
1, 5, 0
1, 27, 0
1, 7, 0
1, 4, 0
1, 24, 0
1, 21, 0
1, 28, 0
1, 8, 0
1, 15, 0
1, 10, 0
1, 9, 0
20, 0, 0
20, 14, 0
20, 24, 0
20, 2, 0
20, 15, 0
20, 11, 0
4, 13, 0
4, 16, 0
4, 27, 0
4, 11, 0
4, 10, 0
4, 3, 0
4, 25, 0
4, 26, 0
4, 21, 0
4, 19, 0
4, 1, 0
4, 18, 0
4, 9, 0
14, 20, 0
14, 0, 0
14, 25, 0
14, 2, 0
14, 27, 0
14, 11, 0
24, 0, 0
24, 20, 0
24, 13, 0
24, 23, 0
24, 16, 0
24, 1, 0
24, 10, 0
24, 7, 0
24, 3, 0
24, 25, 0
24, 29, 0
24, 21, 0
24, 8, 0
24, 15, 0
24, 18, 0
24, 22, 0
24, 9, 0
28, 7, 0
28, 17, 0
28, 29, 1
28, 6, 0
28, 1, 0
28, 5, 0
28, 27, 0
30, 12, 0
30, 8, 0
30, 17, 0
30, 27, 0
8, 13, 0
8, 17, 0
8, 18, 0
8, 6, 0
8, 24, 0
8, 5, 0
8, 10, 0
8, 7, 0
8, 12, 0
8, 29, 0
8, 21, 0
8, 30, 0
8, 1, 0
8, 15, 0
8, 22, 0
8, 9, 0
15, 0, 0
15, 13, 0
15, 23, 0
15, 16, 0
15, 1, 0
15, 10, 0
15, 20, 0
15, 3, 0
15, 24, 0
15, 19, 0
15, 8, 0
15, 18, 0
15, 9, 0
22, 21, 1
22, 6, 0
22, 8, 0
22, 13, 0
22, 24, 0
0, 20, 0
0, 3, 0
0, 14, 0
0, 23, 0
0, 24, 0
0, 16, 0
0, 25, 0
0, 2, 0
0, 15, 0
12, 7, 0
12, 17, 0
12, 32, 0
12, 31, 0
12, 27, 0
12, 8, 0
12, 30, 0
16, 0, 0
16, 3, 0
16, 4, 0
16, 25, 0
16, 23, 0
16, 26, 0
16, 24, 0
16, 27, 0
16, 19, 0
16, 15, 0
6, 7, 0
6, 28, 0
6, 29, 0
6, 21, 0
6, 27, 0
6, 8, 0
6, 5, 1
6, 22, 0
6, 1, 0
27, 13, 0
27, 28, 0
27, 26, 0
27, 12, 0
27, 18, 0
27, 6, 0
27, 5, 0
27, 11, 0
27, 1, 0
27, 7, 0
27, 16, 0
27, 4, 0
27, 25, 0
27, 31, 0
27, 17, 0
27, 14, 0
27, 30, 0
27, 19, 0
7, 17, 0
7, 31, 0
7, 6, 0
7, 1, 0
7, 29, 0
7, 5, 0
7, 27, 0
7, 12, 0
7, 32, 0
7, 24, 0
7, 21, 0
7, 28, 0
7, 8, 0
3, 0, 0
3, 18, 0
3, 4, 0
3, 26, 0
3, 23, 0
3, 24, 0
3, 16, 0
3, 19, 0
3, 15, 0
25, 0, 0
25, 4, 0
25, 14, 0
25, 26, 0
25, 23, 0
25, 24, 0
25, 16, 0
25, 27, 0
25, 2, 0
25, 11, 0
32, 7, 0
32, 12, 0
32, 17, 0
32, 31, 1
29, 7, 0
29, 28, 1
29, 24, 0
29, 21, 0
29, 6, 0
29, 8, 0
29, 5, 0
29, 1, 0
21, 13, 0
21, 17, 0
21, 18, 0
21, 6, 0
21, 1, 0
21, 24, 0
21, 10, 0
21, 7, 0
21, 4, 0
21, 29, 0
21, 8, 0
21, 22, 1
21, 9, 0
26, 3, 0
26, 4, 0
26, 25, 0
26, 23, 0
26, 16, 0
26, 27, 0
26, 19, 0
26, 18, 0
26, 11, 0
26, 13, 0
19, 3, 0
19, 4, 0
19, 26, 0
19, 16, 0
19, 27, 0
19, 15, 0
19, 18, 0
18, 13, 0
18, 27, 0
18, 1, 0
18, 3, 0
18, 4, 0
18, 26, 0
18, 24, 0
18, 21, 0
18, 19, 0
18, 8, 0
18, 15, 0
18, 10, 0
18, 9, 0
9, 18, 0
9, 13, 0
9, 4, 0
9, 24, 0
9, 21, 0
9, 1, 0
9, 8, 0
9, 15, 0
9, 10, 1
