0, 6, 0
0, 9, 0
0, 2, 0
3, 8, 0
3, 10, 0
3, 4, 1
3, 1, 0
4, 3, 1
4, 8, 0
4, 10, 0
4, 1, 0
2, 0, 0
2, 7, 0
2, 6, 0
2, 5, 0
2, 9, 0
6, 0, 0
6, 2, 0
1, 3, 0
1, 8, 0
1, 4, 0
8, 3, 0
8, 1, 0
8, 4, 0
8, 10, 0
5, 7, 0
5, 2, 0
5, 9, 0
5, 10, 0
7, 2, 0
7, 5, 0
7, 9, 0
10, 3, 0
10, 8, 0
10, 5, 0
10, 4, 0
10, 9, 0
9, 7, 0
9, 0, 0
9, 10, 0
9, 5, 0
9, 2, 0
