0, 7, 0
0, 2, 0
6, 10, 0
6, 5, 1
6, 11, 0
6, 2, 0
1, 11, 0
1, 8, 0
1, 5, 0
1, 4, 0
1, 10, 0
5, 6, 1
5, 1, 0
5, 10, 0
5, 11, 0
5, 2, 0
11, 6, 0
11, 2, 0
11, 5, 0
11, 1, 0
10, 3, 0
10, 4, 0
10, 2, 0
10, 6, 0
10, 8, 0
10, 5, 0
10, 1, 0
7, 0, 0
7, 3, 0
7, 2, 0
7, 9, 0
3, 7, 0
3, 9, 0
3, 10, 0
4, 1, 0
4, 8, 0
4, 10, 0
2, 0, 0
2, 7, 0
2, 6, 0
2, 5, 0
2, 11, 0
2, 10, 0
8, 4, 0
8, 10, 0
8, 1, 0
9, 7, 0
9, 3, 0
