12, 4, 0
12, 25, 0
12, 22, 0
12, 18, 0
12, 6, 0
12, 19, 0
12, 11, 0
13, 4, 0
13, 25, 0
13, 22, 0
13, 24, 0
13, 14, 0
13, 1, 0
13, 17, 0
13, 11, 0
13, 30, 0
17, 0, 0
17, 3, 0
17, 13, 0
17, 14, 0
17, 23, 0
17, 2, 0
17, 16, 1
17, 28, 0
17, 5, 0
17, 1, 0
26, 0, 0
26, 8, 0
26, 9, 0
23, 0, 0
23, 3, 0
23, 17, 0
23, 2, 0
23, 16, 0
23, 28, 0
23, 14, 0
23, 1, 0
23, 15, 0
23, 9, 0
2, 0, 0
2, 3, 1
2, 17, 0
2, 23, 0
2, 16, 0
2, 15, 0
2, 1, 0
5, 20, 0
5, 6, 0
5, 28, 0
5, 24, 0
5, 16, 0
5, 17, 0
5, 14, 0
5, 15, 0
5, 1, 0
11, 12, 0
11, 13, 0
11, 18, 0
11, 31, 0
11, 29, 0
11, 21, 0
11, 6, 0
11, 4, 0
11, 22, 0
11, 30, 0
1, 0, 0
1, 20, 0
1, 13, 0
1, 17, 0
1, 23, 0
1, 16, 0
1, 6, 0
1, 2, 0
1, 5, 0
1, 7, 0
1, 3, 0
1, 14, 0
1, 24, 0
1, 28, 0
1, 19, 0
1, 15, 0
1, 18, 0
1, 9, 0
20, 6, 0
20, 15, 0
20, 5, 0
20, 28, 0
20, 1, 0
4, 12, 0
4, 13, 0
4, 11, 0
4, 18, 0
4, 19, 0
4, 22, 0
4, 30, 0
14, 13, 0
14, 17, 0
14, 23, 0
14, 16, 0
14, 5, 0
14, 1, 0
14, 3, 0
14, 31, 0
14, 24, 0
14, 21, 0
14, 30, 0
14, 15, 0
14, 9, 0
24, 13, 0
24, 16, 0
24, 6, 0
24, 5, 0
24, 30, 0
24, 7, 0
24, 14, 0
24, 31, 0
24, 27, 0
24, 21, 0
24, 1, 0
24, 15, 0
24, 9, 0
28, 0, 0
28, 17, 0
28, 23, 0
28, 16, 0
28, 6, 0
28, 5, 0
28, 1, 0
28, 20, 0
28, 18, 0
28, 19, 0
28, 8, 0
28, 15, 0
28, 10, 0
28, 9, 0
30, 4, 0
30, 14, 0
30, 24, 0
30, 21, 0
30, 29, 1
30, 11, 0
30, 13, 0
8, 9, 0
8, 28, 0
8, 26, 0
8, 10, 0
15, 0, 0
15, 28, 0
15, 23, 0
15, 16, 1
15, 6, 0
15, 2, 0
15, 5, 0
15, 1, 0
15, 20, 0
15, 3, 0
15, 14, 0
15, 24, 0
22, 12, 0
22, 13, 0
22, 25, 0
22, 4, 0
22, 18, 0
22, 19, 0
22, 11, 0
0, 28, 0
0, 23, 0
0, 26, 0
0, 2, 0
0, 16, 0
0, 17, 0
0, 1, 0
0, 15, 0
0, 9, 0
3, 14, 0
3, 23, 0
3, 2, 1
3, 16, 0
3, 17, 0
3, 9, 0
3, 15, 0
3, 1, 0
16, 0, 0
16, 3, 0
16, 14, 0
16, 23, 0
16, 2, 0
16, 28, 0
16, 24, 0
16, 15, 1
16, 5, 0
16, 17, 1
16, 1, 0
6, 20, 0
6, 12, 0
6, 28, 0
6, 31, 0
6, 24, 0
6, 18, 0
6, 19, 0
6, 15, 0
6, 5, 0
6, 11, 0
6, 1, 0
27, 7, 0
27, 31, 0
27, 24, 0
7, 31, 0
7, 24, 0
7, 18, 0
7, 27, 0
7, 19, 0
7, 1, 0
18, 7, 0
18, 12, 0
18, 4, 0
18, 25, 0
18, 11, 0
18, 31, 0
18, 28, 0
18, 6, 0
18, 19, 0
18, 22, 0
18, 1, 0
25, 18, 0
25, 12, 0
25, 19, 0
25, 13, 0
25, 22, 0
31, 7, 0
31, 18, 0
31, 14, 0
31, 24, 0
31, 21, 0
31, 6, 0
31, 29, 0
31, 11, 0
31, 27, 0
29, 21, 0
29, 31, 0
29, 11, 0
29, 30, 1
21, 14, 0
21, 31, 0
21, 24, 0
21, 29, 0
21, 11, 0
21, 30, 0
19, 7, 0
19, 12, 0
19, 4, 0
19, 25, 0
19, 28, 0
19, 18, 0
19, 6, 0
19, 22, 0
19, 1, 0
10, 8, 0
10, 28, 0
10, 9, 0
9, 0, 0
9, 3, 0
9, 28, 0
9, 26, 0
9, 23, 0
9, 24, 0
9, 14, 0
9, 8, 0
9, 10, 0
9, 1, 0
