0, 7, 0
0, 3, 0
0, 2, 0
0, 6, 0
0, 9, 0
0, 5, 0
0, 1, 0
3, 0, 0
3, 5, 0
3, 1, 0
4, 7, 0
4, 6, 0
4, 8, 0
4, 9, 0
2, 0, 0
2, 5, 0
2, 9, 0
6, 0, 0
6, 7, 0
6, 8, 0
6, 4, 0
1, 0, 0
1, 3, 0
1, 5, 0
8, 7, 0
8, 6, 0
8, 4, 0
5, 0, 0
5, 3, 0
5, 1, 0
5, 2, 0
7, 0, 0
7, 6, 0
7, 8, 0
7, 4, 0
7, 9, 0
9, 0, 0
9, 7, 0
9, 4, 0
9, 2, 0
