0, 7, 0
0, 3, 0
0, 13, 0
0, 4, 0
0, 2, 0
0, 8, 0
0, 1, 0
13, 0, 0
13, 7, 0
13, 4, 0
13, 3, 0
13, 2, 0
13, 8, 0
13, 11, 0
3, 0, 0
3, 7, 0
3, 13, 0
3, 9, 0
3, 8, 0
3, 11, 0
3, 10, 0
6, 5, 0
6, 9, 0
8, 0, 0
8, 7, 0
8, 13, 0
8, 3, 0
5, 12, 0
5, 6, 0
11, 7, 0
11, 3, 0
11, 13, 0
11, 4, 0
11, 2, 0
11, 10, 1
11, 9, 0
10, 3, 0
10, 11, 1
10, 9, 0
7, 0, 0
7, 3, 0
7, 8, 0
7, 13, 0
7, 11, 0
12, 5, 0
4, 0, 0
4, 2, 0
4, 13, 0
4, 11, 0
4, 1, 0
2, 0, 0
2, 4, 0
2, 13, 0
2, 11, 0
2, 1, 0
1, 0, 0
1, 4, 0
1, 2, 0
9, 6, 0
9, 3, 0
9, 11, 0
9, 10, 0
