0, 3, 0
0, 14, 0
0, 2, 0
13, 6, 0
13, 11, 0
13, 12, 0
3, 0, 0
3, 14, 0
3, 2, 0
6, 13, 0
6, 14, 0
8, 7, 0
8, 12, 0
8, 9, 0
8, 15, 0
8, 10, 0
5, 4, 0
5, 1, 0
11, 12, 0
11, 13, 0
10, 12, 0
10, 8, 0
10, 15, 0
10, 9, 1
7, 8, 0
12, 13, 0
12, 9, 0
12, 8, 0
12, 15, 0
12, 11, 0
12, 10, 0
4, 5, 0
4, 2, 0
14, 0, 0
14, 6, 0
14, 3, 0
2, 0, 0
2, 3, 0
2, 4, 0
1, 5, 0
15, 12, 0
15, 8, 0
15, 9, 0
15, 10, 0
9, 12, 0
9, 8, 0
9, 15, 0
9, 10, 1
