12, 20, 0
12, 4, 0
12, 26, 0
12, 27, 0
12, 10, 1
12, 38, 0
12, 9, 0
13, 7, 0
13, 33, 0
13, 28, 0
13, 23, 0
13, 3, 0
13, 21, 0
13, 14, 1
13, 19, 0
13, 2, 0
13, 18, 0
13, 36, 0
17, 20, 0
17, 37, 0
17, 4, 0
17, 26, 0
17, 16, 1
17, 27, 0
17, 38, 0
17, 11, 0
17, 9, 0
31, 30, 0
31, 28, 0
31, 32, 0
31, 29, 0
23, 33, 0
23, 13, 0
23, 28, 0
23, 21, 0
23, 14, 0
23, 19, 0
23, 18, 0
24, 34, 0
24, 28, 0
24, 32, 0
24, 35, 0
24, 29, 0
24, 30, 0
5, 18, 0
5, 37, 0
5, 38, 0
5, 36, 0
11, 20, 0
11, 17, 0
11, 16, 0
11, 27, 0
11, 9, 0
11, 38, 0
11, 10, 1
1, 0, 0
1, 4, 0
1, 15, 0
1, 22, 0
20, 12, 0
20, 17, 0
20, 18, 0
20, 27, 0
20, 9, 0
20, 38, 0
20, 11, 0
20, 10, 0
21, 3, 0
21, 13, 0
21, 14, 0
21, 23, 0
21, 33, 0
21, 18, 0
21, 19, 0
4, 12, 0
4, 25, 0
4, 26, 0
4, 17, 0
4, 1, 0
4, 15, 0
4, 9, 0
14, 13, 1
14, 28, 0
14, 23, 0
14, 3, 0
14, 18, 0
14, 29, 0
14, 7, 0
14, 33, 0
14, 2, 0
14, 21, 0
14, 19, 0
14, 36, 0
39, 37, 0
39, 7, 0
39, 36, 0
39, 6, 0
35, 34, 1
35, 30, 0
35, 24, 0
28, 13, 0
28, 31, 0
28, 23, 0
28, 3, 0
28, 2, 0
28, 30, 0
28, 7, 0
28, 33, 0
28, 14, 0
28, 32, 0
28, 24, 0
28, 29, 0
28, 19, 0
28, 34, 0
28, 36, 0
30, 34, 0
30, 29, 0
30, 28, 0
30, 31, 0
30, 32, 0
30, 24, 0
30, 33, 0
30, 35, 0
8, 18, 0
8, 0, 0
15, 0, 0
15, 4, 0
15, 25, 0
15, 9, 0
15, 22, 0
15, 1, 0
22, 15, 0
22, 1, 0
36, 13, 0
36, 28, 0
36, 33, 0
36, 18, 0
36, 6, 0
36, 5, 0
36, 7, 0
36, 3, 0
36, 14, 0
36, 2, 0
36, 37, 0
36, 39, 0
0, 25, 0
0, 18, 0
0, 1, 0
0, 8, 0
0, 15, 0
0, 9, 0
6, 37, 0
6, 7, 1
6, 38, 0
6, 39, 0
6, 36, 0
3, 33, 0
3, 13, 0
3, 28, 0
3, 2, 1
3, 21, 0
3, 14, 0
3, 18, 0
3, 36, 0
16, 38, 0
16, 17, 1
16, 11, 0
16, 27, 0
38, 17, 0
38, 16, 0
38, 27, 0
38, 5, 0
38, 11, 0
38, 10, 0
38, 20, 0
38, 12, 0
38, 6, 0
38, 37, 0
38, 18, 0
38, 9, 0
27, 20, 0
27, 12, 0
27, 17, 0
27, 26, 0
27, 16, 0
27, 9, 0
27, 38, 0
27, 11, 0
27, 10, 0
10, 20, 0
10, 12, 1
10, 27, 0
10, 38, 0
10, 11, 1
10, 9, 0
7, 13, 0
7, 28, 0
7, 6, 1
7, 37, 0
7, 14, 0
7, 39, 0
7, 36, 0
34, 24, 0
34, 33, 0
34, 28, 0
34, 29, 0
34, 35, 1
34, 30, 0
25, 0, 0
25, 4, 0
25, 15, 0
25, 26, 1
25, 9, 0
33, 34, 0
33, 13, 0
33, 14, 0
33, 23, 0
33, 3, 0
33, 21, 0
33, 28, 0
33, 19, 0
33, 2, 0
33, 36, 0
33, 30, 0
32, 30, 0
32, 29, 0
32, 28, 0
32, 31, 0
32, 24, 0
2, 3, 1
2, 13, 0
2, 14, 0
2, 33, 0
2, 18, 0
2, 28, 0
2, 36, 0
37, 7, 0
37, 17, 0
37, 6, 0
37, 38, 0
37, 39, 0
37, 5, 0
37, 36, 0
29, 34, 0
29, 28, 0
29, 31, 0
29, 32, 0
29, 24, 0
29, 14, 0
29, 30, 0
19, 33, 0
19, 13, 0
19, 14, 0
19, 23, 0
19, 21, 0
19, 28, 0
19, 18, 0
26, 12, 0
26, 4, 0
26, 25, 1
26, 27, 0
26, 17, 0
26, 9, 0
18, 0, 0
18, 13, 0
18, 23, 0
18, 36, 0
18, 5, 0
18, 20, 0
18, 3, 0
18, 14, 0
18, 2, 0
18, 21, 0
18, 19, 0
18, 8, 0
18, 38, 0
18, 9, 0
9, 0, 0
9, 17, 0
9, 18, 0
9, 27, 0
9, 15, 0
9, 11, 0
9, 10, 0
9, 20, 0
9, 12, 0
9, 4, 0
9, 25, 0
9, 26, 0
9, 38, 0
