2, 13, 0
2, 23, 0
2, 6, 0
2, 19, 0
2, 5, 0
2, 1, 1
13, 20, 0
13, 12, 1
13, 17, 0
13, 2, 0
13, 16, 0
13, 6, 0
13, 5, 0
13, 1, 0
17, 20, 0
17, 12, 0
17, 13, 0
17, 28, 0
17, 23, 0
17, 16, 0
17, 6, 0
17, 1, 0
17, 18, 0
17, 5, 0
23, 20, 0
23, 17, 0
23, 2, 0
23, 18, 0
23, 6, 0
23, 19, 0
23, 8, 0
23, 5, 0
23, 11, 0
23, 1, 0
29, 7, 0
29, 3, 0
29, 14, 0
29, 24, 0
29, 21, 0
29, 19, 0
29, 15, 0
29, 9, 0
5, 13, 0
5, 17, 0
5, 23, 0
5, 18, 0
5, 6, 1
5, 11, 0
5, 1, 0
5, 20, 0
5, 16, 0
5, 2, 0
5, 19, 0
5, 8, 0
11, 4, 0
11, 25, 0
11, 23, 0
11, 6, 0
11, 27, 0
11, 8, 0
11, 5, 0
11, 1, 0
1, 20, 0
1, 13, 0
1, 17, 0
1, 23, 0
1, 2, 1
1, 6, 0
1, 19, 0
1, 5, 0
1, 11, 0
20, 12, 0
20, 13, 0
20, 28, 0
20, 23, 0
20, 6, 0
20, 16, 0
20, 17, 0
20, 19, 0
20, 5, 0
20, 1, 0
4, 16, 0
4, 28, 0
4, 25, 0
4, 11, 0
4, 6, 0
14, 19, 0
14, 24, 0
14, 15, 1
14, 29, 0
24, 15, 0
24, 19, 0
24, 14, 0
24, 29, 0
28, 20, 0
28, 12, 0
28, 4, 0
28, 17, 0
28, 26, 0
28, 16, 0
28, 25, 0
28, 19, 0
28, 22, 0
8, 23, 0
8, 6, 0
8, 18, 0
8, 27, 0
8, 5, 0
8, 11, 0
8, 10, 0
15, 19, 0
15, 24, 0
15, 14, 1
15, 29, 0
22, 28, 0
22, 26, 0
0, 21, 0
0, 7, 0
0, 9, 0
12, 20, 0
12, 13, 1
12, 28, 0
12, 16, 0
12, 6, 0
12, 17, 0
16, 13, 0
16, 28, 0
16, 18, 0
16, 27, 0
16, 5, 0
16, 20, 0
16, 12, 0
16, 4, 0
16, 25, 0
16, 6, 0
16, 17, 0
16, 19, 0
6, 13, 0
6, 17, 0
6, 23, 0
6, 16, 0
6, 27, 0
6, 5, 1
6, 11, 0
6, 1, 0
6, 20, 0
6, 12, 0
6, 4, 0
6, 2, 0
6, 19, 0
6, 8, 0
6, 18, 0
10, 18, 0
10, 27, 0
10, 8, 0
7, 0, 0
7, 3, 0
7, 9, 0
7, 21, 0
7, 29, 0
3, 7, 0
3, 9, 0
3, 29, 0
25, 16, 0
25, 27, 0
25, 4, 0
25, 28, 0
25, 11, 0
26, 28, 0
26, 22, 0
26, 9, 0
27, 25, 0
27, 16, 0
27, 6, 0
27, 8, 0
27, 11, 0
27, 10, 0
21, 0, 0
21, 7, 0
21, 9, 0
21, 29, 0
19, 28, 0
19, 23, 0
19, 16, 0
19, 6, 0
19, 2, 0
19, 24, 0
19, 5, 0
19, 1, 0
19, 20, 0
19, 14, 0
19, 29, 0
19, 15, 0
18, 17, 0
18, 23, 0
18, 16, 0
18, 6, 0
18, 8, 0
18, 5, 0
18, 10, 0
9, 0, 0
9, 3, 0
9, 7, 0
9, 26, 0
9, 29, 0
9, 21, 0
