0, 12, 0
0, 4, 0
0, 3, 0
0, 2, 0
0, 8, 0
0, 5, 0
0, 9, 0
8, 0, 0
8, 3, 0
8, 9, 0
8, 5, 0
8, 2, 0
3, 0, 0
3, 4, 0
3, 2, 1
3, 1, 0
3, 8, 0
3, 11, 0
3, 9, 0
6, 7, 0
6, 1, 0
5, 0, 0
5, 8, 0
5, 1, 0
11, 12, 0
11, 3, 0
11, 4, 0
11, 10, 1
11, 9, 0
10, 12, 0
10, 4, 0
10, 11, 1
7, 6, 0
7, 1, 0
12, 0, 0
12, 4, 0
12, 11, 0
12, 10, 0
4, 0, 0
4, 12, 0
4, 3, 0
4, 9, 0
4, 11, 0
4, 10, 0
2, 0, 0
2, 3, 1
2, 8, 0
2, 9, 0
1, 7, 0
1, 6, 0
1, 5, 0
1, 3, 0
9, 0, 0
9, 3, 0
9, 4, 0
9, 2, 0
9, 8, 0
9, 11, 0
