0, 3, 0
0, 14, 0
0, 9, 0
13, 7, 0
13, 4, 0
13, 2, 0
13, 6, 0
13, 1, 0
13, 8, 0
13, 5, 0
13, 11, 0
13, 10, 0
3, 0, 0
3, 12, 0
3, 2, 0
3, 14, 0
3, 9, 0
6, 7, 0
6, 13, 0
6, 4, 0
6, 10, 0
8, 7, 0
8, 13, 0
8, 5, 0
8, 11, 0
8, 2, 0
5, 2, 0
5, 8, 0
5, 13, 0
5, 11, 0
5, 1, 0
11, 7, 0
11, 13, 0
11, 4, 0
11, 2, 0
11, 8, 0
11, 5, 0
10, 7, 0
10, 6, 0
10, 13, 0
10, 4, 0
10, 2, 0
7, 13, 0
7, 4, 0
7, 2, 0
7, 6, 0
7, 8, 0
7, 11, 0
7, 10, 0
12, 3, 0
12, 1, 0
4, 7, 0
4, 6, 0
4, 13, 0
4, 11, 0
4, 10, 0
14, 0, 0
14, 3, 0
14, 2, 0
14, 9, 0
2, 7, 0
2, 3, 0
2, 13, 0
2, 14, 0
2, 10, 0
2, 8, 0
2, 5, 0
2, 11, 0
2, 1, 0
1, 12, 0
1, 13, 0
1, 5, 0
1, 2, 0
9, 0, 0
9, 3, 0
9, 14, 0
