0, 7, 0
0, 12, 0
0, 4, 0
0, 3, 0
0, 6, 0
0, 9, 0
0, 5, 0
0, 10, 0
13, 10, 0
13, 11, 0
13, 9, 0
3, 7, 0
3, 12, 0
3, 4, 1
3, 6, 0
3, 8, 0
3, 0, 0
6, 7, 1
6, 12, 0
6, 4, 0
6, 3, 0
6, 8, 0
6, 0, 0
8, 7, 0
8, 12, 0
8, 4, 0
8, 3, 0
8, 6, 0
5, 0, 0
5, 12, 0
5, 7, 0
5, 4, 0
11, 13, 0
11, 1, 0
10, 0, 0
10, 13, 0
10, 9, 0
7, 0, 0
7, 12, 0
7, 4, 0
7, 3, 0
7, 6, 1
7, 8, 0
7, 5, 0
12, 0, 0
12, 3, 0
12, 4, 0
12, 6, 0
12, 8, 0
12, 7, 0
12, 5, 0
4, 7, 0
4, 12, 0
4, 3, 1
4, 6, 0
4, 8, 0
4, 5, 0
4, 0, 0
2, 1, 0
1, 11, 0
1, 2, 0
9, 0, 0
9, 13, 0
9, 10, 0
