0, 6, 0
0, 3, 0
0, 10, 0
13, 7, 0
13, 12, 1
13, 8, 0
13, 1, 0
3, 0, 0
3, 6, 0
3, 10, 0
6, 0, 0
6, 3, 0
8, 7, 0
8, 12, 0
8, 13, 0
8, 9, 1
8, 2, 0
8, 10, 0
8, 11, 0
8, 1, 0
5, 7, 0
5, 4, 0
11, 12, 0
11, 8, 0
11, 9, 0
11, 1, 0
10, 0, 0
10, 12, 0
10, 8, 0
10, 3, 0
10, 2, 0
7, 12, 0
7, 8, 0
7, 13, 0
7, 5, 0
12, 7, 0
12, 13, 1
12, 9, 0
12, 2, 0
12, 8, 0
12, 10, 0
12, 11, 0
12, 1, 0
4, 5, 0
2, 12, 0
2, 8, 0
2, 9, 0
2, 10, 0
1, 12, 0
1, 8, 0
1, 13, 0
1, 11, 0
9, 12, 0
9, 8, 1
9, 11, 0
9, 2, 0
