0, 7, 0
0, 6, 0
0, 4, 0
0, 1, 0
6, 0, 0
6, 7, 0
6, 4, 0
6, 9, 0
6, 8, 0
6, 5, 1
6, 11, 0
6, 10, 0
1, 0, 0
1, 7, 0
5, 7, 0
5, 4, 0
5, 9, 0
5, 6, 1
5, 8, 0
5, 11, 0
5, 10, 0
11, 7, 0
11, 3, 0
11, 4, 0
11, 6, 0
11, 5, 0
11, 10, 0
10, 6, 0
10, 4, 0
10, 5, 0
10, 11, 0
7, 0, 0
7, 9, 0
7, 6, 0
7, 8, 0
7, 5, 0
7, 11, 0
7, 1, 0
3, 4, 0
3, 11, 0
3, 2, 0
4, 0, 0
4, 3, 0
4, 2, 0
4, 6, 0
4, 5, 0
4, 11, 0
4, 10, 0
2, 3, 0
2, 4, 0
8, 7, 0
8, 6, 0
8, 5, 0
8, 9, 1
9, 7, 0
9, 6, 0
9, 8, 1
9, 5, 0
