13, 12, 0
13, 4, 0
13, 17, 0
13, 22, 0
13, 16, 0
13, 19, 0
13, 1, 0
13, 18, 0
13, 11, 0
13, 10, 0
17, 20, 0
17, 21, 0
17, 13, 0
17, 14, 0
17, 2, 0
17, 16, 1
17, 0, 0
17, 12, 0
17, 1, 0
17, 15, 0
17, 9, 0
5, 12, 0
5, 4, 1
5, 19, 0
5, 8, 0
5, 11, 0
5, 10, 0
11, 13, 0
11, 18, 0
11, 19, 0
11, 5, 0
11, 22, 0
11, 10, 1
1, 13, 0
1, 17, 0
1, 16, 0
1, 10, 0
1, 20, 0
1, 12, 0
1, 14, 0
1, 2, 0
1, 15, 0
1, 18, 0
1, 22, 0
1, 9, 0
20, 16, 0
20, 17, 0
20, 2, 0
20, 21, 1
20, 9, 0
20, 18, 0
20, 1, 0
4, 12, 0
4, 19, 0
4, 13, 0
4, 5, 1
14, 17, 0
14, 2, 0
14, 16, 0
14, 1, 0
14, 15, 1
14, 9, 0
8, 7, 0
8, 0, 0
8, 3, 0
8, 12, 0
8, 6, 0
8, 5, 0
15, 14, 1
15, 2, 0
15, 16, 0
15, 17, 0
15, 1, 0
15, 22, 0
15, 9, 0
22, 13, 0
22, 2, 0
22, 18, 0
22, 1, 0
22, 10, 0
22, 15, 0
22, 11, 0
22, 9, 0
0, 7, 0
0, 3, 0
0, 17, 0
0, 16, 0
0, 6, 0
0, 8, 0
3, 0, 0
3, 6, 0
3, 16, 0
3, 8, 0
3, 7, 0
16, 0, 0
16, 7, 0
16, 13, 0
16, 17, 1
16, 12, 0
16, 18, 0
16, 1, 0
16, 20, 0
16, 3, 0
16, 14, 0
16, 2, 0
16, 21, 0
16, 15, 0
6, 0, 0
6, 3, 0
6, 8, 0
6, 7, 0
6, 12, 0
10, 13, 0
10, 11, 1
10, 18, 0
10, 19, 0
10, 5, 0
10, 22, 0
10, 1, 0
7, 0, 0
7, 3, 0
7, 12, 0
7, 16, 0
7, 6, 0
7, 8, 0
12, 7, 0
12, 13, 0
12, 17, 0
12, 4, 0
12, 16, 0
12, 6, 0
12, 19, 0
12, 8, 0
12, 5, 0
12, 1, 0
2, 20, 0
2, 21, 0
2, 14, 0
2, 16, 0
2, 17, 0
2, 9, 0
2, 15, 0
2, 22, 0
2, 1, 0
21, 20, 1
21, 16, 0
21, 9, 0
21, 17, 0
21, 2, 0
19, 12, 0
19, 4, 0
19, 13, 0
19, 5, 0
19, 11, 0
19, 10, 0
18, 20, 0
18, 13, 0
18, 11, 0
18, 16, 0
18, 10, 0
18, 22, 0
18, 1, 0
9, 20, 0
9, 14, 0
9, 2, 0
9, 21, 0
9, 17, 0
9, 15, 0
9, 22, 0
9, 1, 0
