0, 4, 0
0, 1, 0
3, 2, 0
3, 10, 0
4, 0, 0
4, 1, 0
4, 8, 0
4, 5, 0
4, 9, 0
2, 3, 0
2, 10, 0
2, 6, 0
6, 7, 1
6, 5, 1
6, 2, 0
1, 0, 0
1, 4, 0
8, 4, 0
8, 5, 1
8, 9, 1
5, 7, 1
5, 6, 1
5, 8, 1
5, 4, 0
5, 9, 1
7, 6, 1
7, 5, 1
10, 3, 0
10, 2, 0
9, 8, 1
9, 5, 1
9, 4, 0
