0, 4, 0
0, 11, 0
8, 7, 1
8, 6, 1
8, 9, 0
8, 11, 0
8, 10, 0
3, 12, 0
3, 2, 0
3, 1, 0
6, 7, 1
6, 8, 1
6, 10, 0
6, 9, 0
5, 4, 0
11, 0, 0
11, 7, 0
11, 8, 0
10, 6, 0
10, 8, 0
10, 9, 1
7, 6, 1
7, 8, 1
7, 11, 0
12, 3, 0
12, 2, 0
12, 1, 0
4, 0, 0
4, 5, 0
2, 12, 0
2, 9, 0
2, 3, 0
2, 1, 0
1, 12, 0
1, 2, 0
1, 3, 0
9, 2, 0
9, 6, 0
9, 8, 0
9, 10, 1
