0, 12, 0
0, 10, 0
0, 11, 0
0, 1, 0
8, 4, 0
8, 2, 0
8, 6, 0
8, 10, 0
8, 5, 0
8, 9, 0
3, 7, 0
6, 7, 0
6, 8, 0
6, 2, 0
5, 8, 0
5, 10, 0
5, 4, 0
5, 9, 0
11, 0, 0
11, 12, 1
11, 10, 0
11, 1, 0
10, 0, 0
10, 12, 0
10, 4, 0
10, 8, 0
10, 5, 0
10, 11, 0
10, 1, 0
7, 6, 0
7, 2, 0
7, 3, 0
12, 0, 0
12, 1, 0
12, 11, 1
12, 10, 0
4, 8, 0
4, 9, 0
4, 5, 0
4, 10, 0
2, 7, 0
2, 6, 0
2, 8, 0
2, 9, 0
1, 0, 0
1, 12, 0
1, 11, 0
1, 10, 0
9, 8, 0
9, 5, 0
9, 4, 0
9, 2, 0
