0, 3, 0
0, 13, 0
0, 14, 0
0, 4, 0
0, 2, 0
0, 10, 0
0, 5, 0
0, 11, 0
0, 9, 0
13, 0, 0
13, 14, 1
13, 5, 0
17, 6, 0
17, 8, 0
17, 4, 0
17, 11, 0
17, 3, 0
3, 0, 0
3, 4, 0
3, 17, 0
3, 2, 0
3, 6, 0
3, 1, 0
3, 10, 0
3, 15, 0
3, 9, 0
16, 12, 0
6, 3, 0
6, 4, 0
6, 17, 0
6, 8, 0
6, 15, 0
6, 11, 0
8, 6, 0
8, 17, 0
8, 11, 0
5, 0, 0
5, 7, 0
5, 13, 0
5, 14, 0
5, 12, 0
11, 0, 0
11, 17, 0
11, 2, 0
11, 6, 0
11, 8, 0
11, 15, 0
11, 1, 0
10, 0, 0
10, 3, 0
10, 2, 0
10, 9, 1
7, 12, 0
7, 5, 0
12, 7, 0
12, 16, 0
12, 5, 0
4, 0, 0
4, 3, 0
4, 17, 0
4, 2, 0
4, 6, 0
4, 15, 0
4, 1, 0
14, 0, 0
14, 13, 1
14, 5, 0
2, 0, 0
2, 3, 0
2, 4, 0
2, 1, 0
2, 9, 0
2, 11, 0
2, 10, 0
1, 3, 0
1, 4, 0
1, 15, 0
1, 11, 0
1, 2, 0
15, 6, 0
15, 4, 0
15, 3, 0
15, 11, 0
15, 1, 0
9, 0, 0
9, 3, 0
9, 2, 0
9, 10, 1
