12, 34, 0
12, 29, 0
12, 28, 0
12, 6, 0
13, 27, 0
13, 15, 0
13, 11, 0
17, 0, 0
17, 1, 0
17, 10, 0
17, 30, 0
31, 16, 0
31, 18, 0
31, 28, 0
23, 21, 0
23, 29, 0
23, 24, 1
24, 21, 0
24, 23, 1
24, 29, 0
5, 19, 0
5, 9, 0
5, 36, 0
11, 27, 0
11, 13, 0
11, 15, 0
1, 0, 1
1, 17, 0
1, 10, 0
20, 7, 0
20, 33, 0
20, 14, 0
20, 32, 0
20, 28, 0
20, 15, 0
4, 19, 0
14, 20, 0
14, 33, 0
14, 7, 0
14, 15, 0
14, 32, 0
35, 3, 0
35, 30, 0
35, 9, 0
35, 22, 0
35, 2, 0
28, 7, 0
28, 26, 0
28, 12, 0
28, 16, 0
28, 20, 0
28, 34, 0
28, 25, 0
28, 31, 0
28, 29, 0
28, 21, 0
28, 8, 0
28, 18, 0
30, 17, 0
30, 22, 0
30, 35, 0
8, 34, 0
8, 25, 0
8, 26, 0
8, 6, 0
8, 16, 0
8, 28, 0
15, 20, 0
15, 33, 0
15, 13, 0
15, 14, 0
15, 32, 0
15, 11, 0
22, 3, 0
22, 30, 0
22, 35, 0
22, 9, 0
22, 2, 0
36, 19, 0
36, 5, 0
36, 9, 0
0, 10, 0
0, 17, 0
0, 1, 1
6, 34, 0
6, 8, 0
6, 12, 0
3, 35, 0
3, 9, 0
3, 22, 0
3, 2, 1
16, 25, 0
16, 8, 0
16, 28, 0
16, 26, 0
16, 31, 0
27, 13, 0
27, 11, 0
27, 10, 0
10, 0, 0
10, 27, 0
10, 17, 0
10, 1, 0
7, 20, 0
7, 33, 0
7, 28, 0
7, 32, 0
7, 21, 0
7, 14, 0
34, 6, 0
34, 8, 0
34, 28, 0
34, 12, 0
25, 16, 0
25, 8, 0
25, 28, 0
25, 26, 1
33, 20, 0
33, 7, 0
33, 15, 0
33, 14, 0
33, 32, 1
32, 20, 0
32, 33, 1
32, 15, 0
32, 7, 0
32, 14, 0
2, 3, 1
2, 35, 0
2, 22, 0
2, 9, 0
21, 7, 0
21, 29, 0
21, 28, 0
21, 23, 0
21, 24, 0
29, 21, 0
29, 12, 0
29, 28, 0
29, 23, 0
29, 24, 0
19, 4, 0
19, 5, 0
19, 36, 0
26, 16, 0
26, 28, 0
26, 8, 0
26, 25, 1
18, 28, 0
18, 31, 0
9, 3, 0
9, 35, 0
9, 2, 0
9, 5, 0
9, 22, 0
9, 36, 0
