13, 28, 0
13, 6, 0
13, 29, 0
13, 44, 0
13, 47, 0
13, 46, 0
13, 4, 0
13, 43, 0
13, 11, 0
13, 26, 0
13, 35, 0
13, 37, 0
13, 52, 0
13, 49, 0
13, 5, 0
17, 7, 0
17, 52, 0
17, 31, 0
17, 41, 0
17, 25, 0
17, 39, 0
17, 49, 0
17, 40, 0
17, 5, 0
17, 1, 0
23, 20, 0
23, 0, 0
23, 7, 0
23, 31, 0
23, 39, 0
23, 30, 0
46, 13, 0
46, 52, 0
46, 26, 0
46, 2, 0
46, 21, 0
46, 6, 0
20, 0, 0
20, 52, 0
20, 23, 0
20, 25, 0
20, 39, 0
20, 22, 0
34, 7, 0
34, 27, 0
34, 8, 0
34, 12, 0
34, 30, 0
14, 42, 0
14, 47, 0
14, 45, 0
24, 18, 0
24, 3, 0
24, 21, 0
28, 13, 0
28, 43, 0
28, 26, 0
28, 6, 0
28, 5, 0
28, 11, 0
15, 7, 0
15, 33, 0
15, 32, 0
15, 36, 0
15, 38, 0
15, 22, 0
15, 30, 0
41, 7, 0
41, 17, 0
41, 31, 0
41, 25, 0
41, 39, 0
41, 49, 0
41, 40, 1
41, 52, 0
0, 20, 0
0, 7, 0
0, 23, 0
0, 27, 0
0, 22, 0
0, 30, 0
8, 7, 0
8, 12, 0
8, 34, 0
8, 27, 0
8, 30, 0
8, 39, 0
8, 48, 0
8, 10, 0
51, 18, 0
51, 50, 0
3, 18, 0
3, 21, 0
3, 53, 0
3, 50, 0
3, 24, 0
38, 7, 0
38, 33, 0
38, 15, 0
38, 30, 0
47, 45, 0
47, 13, 0
47, 16, 0
47, 6, 0
47, 5, 0
47, 14, 0
47, 50, 0
47, 29, 0
47, 21, 0
47, 42, 0
47, 49, 0
47, 9, 0
10, 7, 0
10, 33, 0
10, 8, 0
10, 48, 0
10, 22, 0
10, 30, 0
7, 0, 0
7, 49, 0
7, 17, 0
7, 23, 0
7, 33, 0
7, 27, 0
7, 15, 0
7, 40, 0
7, 10, 0
7, 34, 0
7, 25, 0
7, 31, 0
7, 30, 0
7, 8, 0
7, 38, 0
7, 41, 0
33, 7, 0
33, 38, 0
33, 10, 0
33, 15, 0
33, 22, 0
33, 30, 0
32, 30, 0
32, 15, 0
32, 22, 0
32, 36, 0
2, 21, 0
2, 11, 0
2, 46, 0
2, 26, 0
21, 16, 0
21, 6, 0
21, 24, 0
21, 46, 0
21, 11, 0
21, 3, 0
21, 4, 0
21, 52, 0
21, 47, 0
21, 26, 0
21, 2, 0
21, 37, 0
21, 25, 0
21, 39, 0
21, 22, 0
21, 36, 0
25, 20, 0
25, 17, 0
25, 6, 0
25, 40, 0
25, 5, 0
25, 1, 0
25, 7, 0
25, 52, 0
25, 31, 0
25, 21, 0
25, 19, 0
25, 49, 0
25, 39, 0
25, 41, 0
19, 49, 0
19, 25, 0
19, 1, 0
49, 13, 0
49, 17, 0
49, 6, 0
49, 40, 0
49, 5, 0
49, 47, 0
49, 1, 0
49, 7, 0
49, 25, 0
49, 31, 0
49, 52, 0
49, 19, 0
49, 30, 0
49, 41, 0
48, 8, 0
48, 39, 0
48, 22, 0
48, 10, 0
31, 7, 0
31, 40, 0
31, 25, 0
31, 23, 0
31, 52, 0
31, 17, 0
31, 30, 0
31, 49, 0
31, 39, 0
31, 41, 0
31, 5, 0
39, 17, 0
39, 23, 0
39, 40, 0
39, 11, 0
39, 48, 0
39, 20, 0
39, 25, 0
39, 31, 0
39, 21, 0
39, 52, 0
39, 8, 0
39, 41, 0
39, 22, 0
29, 16, 0
29, 37, 0
29, 13, 0
29, 47, 0
29, 9, 0
40, 7, 0
40, 52, 0
40, 31, 0
40, 25, 0
40, 49, 0
40, 39, 0
40, 41, 1
40, 17, 0
40, 5, 0
11, 13, 0
11, 28, 0
11, 26, 0
11, 35, 0
11, 21, 0
11, 43, 0
11, 2, 0
11, 39, 0
5, 13, 0
5, 28, 0
5, 31, 0
5, 6, 0
5, 40, 0
5, 52, 0
5, 47, 0
5, 1, 0
5, 43, 0
5, 25, 0
5, 26, 0
5, 44, 0
5, 37, 0
5, 17, 0
5, 49, 0
37, 16, 0
37, 13, 0
37, 29, 0
37, 21, 0
37, 5, 0
37, 44, 0
37, 9, 0
4, 21, 0
4, 13, 0
4, 43, 0
4, 44, 0
4, 35, 0
35, 13, 0
35, 4, 0
35, 43, 0
35, 11, 0
30, 0, 0
30, 49, 0
30, 38, 0
30, 31, 0
30, 23, 0
30, 34, 0
30, 27, 0
30, 10, 0
30, 7, 0
30, 33, 0
30, 32, 0
30, 8, 0
30, 15, 0
42, 53, 0
42, 14, 0
42, 50, 0
42, 47, 0
22, 0, 0
22, 27, 0
22, 15, 0
22, 10, 0
22, 20, 0
22, 33, 0
22, 52, 0
22, 32, 0
22, 21, 0
22, 39, 0
22, 48, 0
22, 36, 0
36, 21, 0
36, 15, 0
36, 22, 0
36, 32, 0
45, 14, 0
45, 47, 0
16, 21, 0
16, 37, 0
16, 9, 0
16, 47, 0
16, 29, 0
27, 0, 0
27, 7, 0
27, 34, 0
27, 8, 0
27, 22, 0
27, 30, 0
1, 25, 0
1, 19, 0
1, 49, 0
1, 17, 0
1, 5, 0
53, 42, 0
53, 50, 0
53, 3, 0
44, 13, 0
44, 43, 0
44, 4, 0
44, 37, 0
44, 6, 0
44, 5, 0
12, 34, 0
12, 8, 0
18, 3, 0
18, 50, 0
18, 51, 0
18, 24, 0
52, 13, 0
52, 17, 0
52, 6, 0
52, 40, 0
52, 5, 0
52, 46, 0
52, 20, 0
52, 25, 0
52, 31, 0
52, 21, 0
52, 49, 0
52, 39, 0
52, 41, 0
52, 22, 0
50, 3, 0
50, 51, 0
50, 18, 0
50, 42, 0
50, 53, 0
50, 47, 0
26, 13, 0
26, 28, 0
26, 2, 0
26, 21, 0
26, 6, 0
26, 46, 0
26, 11, 0
26, 5, 0
6, 13, 0
6, 28, 0
6, 52, 0
6, 46, 0
6, 44, 0
6, 47, 0
6, 5, 0
6, 43, 0
6, 26, 0
6, 21, 0
6, 25, 0
6, 49, 0
43, 4, 0
43, 28, 0
43, 35, 0
43, 13, 0
43, 6, 0
43, 5, 0
43, 11, 0
43, 44, 0
9, 37, 0
9, 16, 0
9, 47, 0
9, 29, 0
