2, 6, 0
2, 26, 0
13, 7, 0
13, 12, 1
13, 18, 0
17, 0, 0
17, 21, 0
17, 4, 0
17, 25, 0
17, 1, 0
23, 18, 0
23, 16, 0
23, 11, 0
29, 19, 0
29, 28, 0
5, 4, 0
5, 9, 0
11, 20, 0
11, 16, 0
11, 23, 0
1, 0, 1
1, 21, 0
1, 17, 0
1, 25, 0
20, 3, 0
20, 11, 0
4, 21, 0
4, 25, 0
4, 17, 0
4, 5, 0
14, 7, 0
14, 26, 0
24, 28, 0
28, 19, 0
28, 24, 0
28, 29, 0
30, 8, 0
30, 22, 0
8, 6, 0
8, 22, 0
8, 30, 0
15, 9, 0
15, 10, 0
22, 8, 0
22, 30, 0
0, 21, 0
0, 25, 0
0, 17, 0
0, 1, 1
12, 7, 0
12, 18, 0
12, 13, 1
16, 11, 0
16, 23, 0
6, 8, 0
6, 26, 0
6, 2, 0
10, 27, 0
10, 15, 0
7, 18, 0
7, 12, 0
7, 13, 0
7, 14, 0
3, 20, 0
3, 27, 0
25, 0, 0
25, 4, 0
25, 17, 0
25, 21, 0
25, 19, 0
25, 1, 0
26, 6, 0
26, 14, 0
26, 2, 0
27, 3, 0
27, 10, 0
21, 0, 0
21, 25, 0
21, 4, 0
21, 17, 0
21, 1, 0
19, 28, 0
19, 25, 0
19, 29, 0
18, 7, 0
18, 12, 0
18, 13, 0
18, 23, 0
9, 15, 0
9, 5, 0
