58, 43, 0
58, 1, 0
13, 53, 0
13, 43, 0
13, 32, 0
13, 1, 0
17, 57, 0
17, 60, 0
17, 4, 0
17, 41, 0
17, 10, 0
23, 60, 0
23, 54, 0
23, 26, 0
23, 37, 0
23, 40, 0
23, 10, 0
46, 24, 0
46, 41, 0
46, 51, 0
46, 5, 0
20, 6, 0
20, 56, 0
20, 51, 0
20, 16, 0
20, 27, 0
20, 59, 0
20, 5, 0
20, 47, 0
20, 1, 0
20, 40, 0
20, 12, 0
20, 24, 0
20, 21, 0
20, 15, 0
20, 41, 0
20, 36, 0
34, 7, 0
34, 33, 1
34, 40, 0
34, 9, 0
14, 12, 0
14, 8, 0
14, 48, 0
24, 40, 0
24, 56, 0
24, 51, 0
24, 16, 0
24, 27, 0
24, 1, 0
24, 59, 0
24, 5, 0
24, 47, 0
24, 46, 0
24, 20, 0
24, 12, 0
24, 25, 0
24, 6, 0
24, 21, 0
24, 49, 0
24, 15, 0
24, 41, 0
24, 48, 0
24, 36, 0
28, 21, 0
28, 6, 0
28, 8, 0
15, 20, 0
15, 25, 0
15, 27, 0
15, 42, 0
15, 49, 0
15, 24, 0
41, 45, 0
41, 17, 0
41, 51, 0
41, 59, 0
41, 40, 0
41, 46, 0
41, 10, 0
41, 57, 0
41, 4, 0
41, 26, 0
41, 24, 0
41, 20, 0
41, 39, 0
0, 19, 0
8, 28, 0
8, 3, 0
8, 6, 0
8, 44, 0
8, 12, 0
8, 38, 0
8, 52, 0
8, 35, 0
8, 21, 0
8, 14, 0
8, 39, 0
8, 48, 0
38, 21, 0
38, 32, 0
38, 35, 0
38, 18, 0
38, 1, 0
38, 8, 0
38, 22, 0
38, 36, 0
51, 20, 0
51, 45, 0
51, 46, 0
51, 56, 0
51, 24, 0
51, 16, 0
51, 39, 0
51, 5, 0
51, 41, 0
3, 45, 0
3, 52, 0
3, 12, 0
3, 27, 0
3, 8, 0
3, 39, 0
3, 44, 0
3, 47, 0
39, 45, 0
39, 56, 0
39, 51, 0
39, 3, 0
39, 16, 0
39, 8, 0
39, 44, 0
39, 47, 0
39, 41, 0
54, 60, 0
54, 26, 0
54, 23, 0
54, 10, 0
47, 20, 0
47, 12, 0
47, 52, 0
47, 3, 0
47, 24, 0
47, 27, 0
47, 39, 0
47, 44, 0
10, 54, 0
10, 26, 0
10, 23, 0
10, 60, 0
10, 17, 0
10, 40, 0
10, 41, 0
7, 33, 0
7, 26, 0
7, 34, 0
7, 37, 0
7, 40, 0
7, 9, 0
33, 7, 0
33, 34, 1
33, 40, 0
33, 9, 0
53, 13, 0
53, 43, 0
53, 32, 0
53, 31, 0
53, 1, 0
32, 13, 0
32, 31, 0
32, 18, 0
32, 1, 0
32, 53, 0
32, 38, 0
32, 22, 0
32, 36, 0
2, 55, 0
2, 50, 0
2, 11, 0
21, 20, 0
21, 28, 0
21, 35, 0
21, 8, 0
21, 38, 0
21, 24, 0
52, 3, 0
52, 12, 0
52, 6, 0
52, 8, 0
52, 44, 0
52, 47, 0
19, 0, 0
19, 43, 0
19, 30, 0
49, 16, 0
49, 42, 0
49, 15, 0
49, 25, 0
49, 24, 0
48, 6, 0
48, 8, 0
48, 14, 0
48, 24, 0
31, 18, 0
31, 53, 0
31, 32, 0
31, 1, 0
45, 3, 0
45, 39, 0
45, 41, 0
45, 51, 0
45, 27, 0
60, 4, 0
60, 54, 0
60, 23, 0
60, 26, 0
60, 17, 0
60, 10, 0
59, 20, 0
59, 41, 0
59, 56, 0
59, 24, 0
29, 55, 0
29, 9, 0
40, 7, 0
40, 33, 0
40, 9, 0
40, 23, 0
40, 34, 0
40, 37, 0
40, 20, 0
40, 24, 0
40, 41, 0
40, 11, 0
40, 10, 0
11, 55, 0
11, 40, 0
11, 50, 0
11, 2, 0
5, 20, 0
5, 56, 0
5, 46, 0
5, 51, 0
5, 24, 0
37, 7, 0
37, 40, 0
37, 26, 0
37, 23, 0
4, 60, 0
4, 57, 0
4, 17, 0
4, 41, 0
4, 26, 0
35, 21, 0
35, 8, 0
35, 38, 0
35, 36, 0
30, 19, 0
30, 43, 0
42, 16, 0
42, 15, 0
42, 49, 0
42, 25, 0
22, 18, 0
22, 38, 0
22, 32, 0
22, 36, 0
36, 20, 0
36, 32, 0
36, 35, 0
36, 24, 0
36, 38, 0
36, 22, 0
36, 1, 0
57, 4, 0
57, 17, 0
57, 41, 0
57, 26, 0
56, 20, 0
56, 51, 0
56, 24, 0
56, 39, 0
56, 59, 0
56, 5, 0
16, 20, 0
16, 25, 0
16, 51, 0
16, 24, 0
16, 42, 0
16, 49, 0
16, 39, 0
27, 20, 0
27, 3, 0
27, 45, 0
27, 24, 0
27, 15, 0
27, 44, 0
27, 47, 0
1, 58, 0
1, 20, 0
1, 13, 0
1, 32, 0
1, 31, 0
1, 24, 0
1, 18, 0
1, 53, 0
1, 38, 0
1, 36, 0
55, 50, 0
55, 26, 0
55, 2, 0
55, 29, 0
55, 11, 0
55, 9, 0
44, 3, 0
44, 52, 0
44, 27, 0
44, 8, 0
44, 39, 0
44, 47, 0
12, 20, 0
12, 3, 0
12, 14, 0
12, 24, 0
12, 52, 0
12, 8, 0
12, 47, 0
18, 22, 0
18, 38, 0
18, 31, 0
18, 32, 0
18, 1, 0
25, 16, 0
25, 42, 0
25, 49, 0
25, 15, 0
25, 24, 0
50, 55, 0
50, 26, 0
50, 11, 0
50, 2, 0
26, 7, 0
26, 23, 0
26, 60, 0
26, 55, 0
26, 10, 0
26, 57, 0
26, 4, 0
26, 54, 0
26, 50, 0
26, 37, 0
26, 41, 0
26, 9, 0
6, 20, 0
6, 28, 0
6, 24, 0
6, 52, 0
6, 8, 0
6, 48, 0
43, 58, 0
43, 19, 0
43, 13, 0
43, 53, 0
43, 30, 0
9, 7, 0
9, 33, 0
9, 26, 0
9, 34, 0
9, 29, 0
9, 55, 0
9, 40, 0
