0, 7, 0
0, 4, 0
0, 17, 0
0, 5, 0
13, 3, 0
13, 1, 0
13, 4, 0
13, 11, 0
13, 12, 0
17, 18, 0
17, 7, 0
17, 5, 0
17, 0, 0
3, 12, 0
3, 13, 0
3, 4, 0
3, 1, 0
16, 19, 0
16, 4, 0
16, 11, 0
16, 1, 0
6, 8, 0
6, 4, 0
6, 9, 0
8, 6, 0
8, 4, 0
8, 14, 0
8, 10, 0
5, 7, 0
5, 0, 0
5, 17, 0
11, 16, 0
11, 12, 0
11, 13, 0
11, 1, 0
10, 19, 0
10, 8, 0
10, 14, 0
7, 0, 0
7, 4, 0
7, 17, 0
7, 5, 0
12, 3, 0
12, 13, 0
12, 4, 0
12, 2, 0
12, 11, 0
12, 1, 0
4, 0, 0
4, 13, 0
4, 3, 0
4, 16, 0
4, 6, 0
4, 1, 0
4, 7, 0
4, 12, 0
4, 2, 0
4, 19, 0
4, 8, 0
4, 15, 0
4, 18, 0
4, 9, 0
14, 8, 0
14, 10, 0
2, 12, 0
2, 4, 0
2, 15, 0
19, 16, 0
19, 4, 0
19, 10, 0
1, 12, 0
1, 13, 0
1, 4, 0
1, 3, 0
1, 16, 0
1, 11, 0
15, 4, 0
15, 2, 0
18, 4, 0
18, 17, 0
18, 9, 0
9, 18, 0
9, 6, 0
9, 4, 0
