0, 16, 0
0, 12, 0
0, 19, 0
0, 17, 0
0, 5, 0
13, 8, 0
13, 14, 0
13, 9, 0
17, 0, 0
17, 3, 0
17, 16, 0
3, 18, 0
3, 17, 0
16, 0, 0
16, 19, 0
16, 17, 0
16, 5, 0
6, 15, 0
6, 10, 0
8, 13, 0
8, 11, 0
5, 0, 0
5, 16, 0
5, 19, 0
5, 4, 0
11, 7, 0
11, 1, 0
11, 8, 0
11, 2, 0
10, 6, 0
7, 12, 0
7, 2, 0
7, 11, 0
7, 1, 0
12, 0, 0
12, 7, 0
12, 2, 0
12, 1, 0
4, 5, 0
4, 1, 0
14, 13, 0
14, 9, 0
2, 7, 0
2, 12, 0
2, 11, 0
19, 0, 0
19, 16, 0
19, 5, 0
1, 7, 0
1, 12, 0
1, 4, 0
1, 11, 0
15, 18, 0
15, 6, 0
18, 3, 0
18, 15, 0
9, 13, 0
9, 14, 0
