0, 19, 0
0, 15, 0
0, 1, 1
13, 16, 0
13, 15, 0
13, 5, 0
17, 16, 0
17, 15, 0
3, 6, 0
3, 8, 0
3, 4, 1
16, 15, 0
16, 13, 0
16, 17, 0
6, 3, 0
6, 8, 0
6, 4, 0
8, 7, 0
8, 3, 0
8, 4, 0
8, 2, 0
8, 6, 0
8, 11, 0
5, 12, 0
5, 13, 0
5, 10, 0
11, 7, 0
11, 18, 0
11, 8, 0
11, 2, 0
10, 12, 0
10, 14, 0
10, 5, 0
10, 9, 0
7, 18, 0
7, 8, 0
7, 11, 0
7, 2, 0
12, 10, 0
12, 14, 0
12, 5, 0
12, 9, 0
4, 6, 0
4, 8, 0
4, 3, 1
14, 18, 0
14, 12, 0
14, 9, 0
14, 10, 0
2, 7, 0
2, 18, 0
2, 8, 0
2, 11, 0
19, 0, 0
19, 15, 0
19, 1, 0
1, 0, 1
1, 19, 0
1, 15, 0
15, 0, 0
15, 13, 0
15, 17, 0
15, 16, 0
15, 19, 0
15, 1, 0
18, 7, 0
18, 14, 0
18, 11, 0
18, 2, 0
9, 12, 0
9, 14, 0
9, 10, 0
