12, 37, 0
12, 10, 0
12, 28, 0
12, 24, 0
13, 20, 0
13, 14, 1
13, 26, 0
17, 0, 0
17, 3, 0
17, 8, 0
17, 7, 0
17, 4, 0
31, 9, 0
31, 11, 0
31, 24, 0
23, 18, 0
23, 1, 0
23, 15, 0
23, 22, 0
23, 10, 0
24, 12, 0
24, 25, 1
24, 31, 0
24, 36, 0
24, 11, 0
24, 9, 0
5, 27, 0
5, 6, 0
5, 30, 0
5, 33, 0
5, 35, 0
11, 16, 0
11, 0, 0
11, 31, 0
11, 24, 0
1, 37, 0
1, 20, 0
1, 28, 0
1, 23, 0
1, 10, 0
20, 13, 0
20, 14, 0
20, 32, 0
20, 26, 0
20, 15, 0
20, 22, 0
20, 1, 0
21, 34, 0
21, 29, 0
21, 6, 0
21, 19, 0
21, 8, 0
21, 30, 0
4, 3, 1
4, 8, 0
4, 38, 0
4, 17, 0
4, 35, 0
14, 20, 0
14, 13, 1
14, 26, 0
35, 34, 0
35, 4, 0
35, 33, 0
35, 29, 0
35, 6, 0
35, 5, 0
35, 22, 0
35, 30, 0
28, 37, 0
28, 12, 0
28, 10, 0
28, 1, 0
30, 33, 0
30, 6, 0
30, 35, 0
30, 21, 0
30, 27, 0
30, 5, 0
8, 4, 0
8, 17, 0
8, 2, 0
8, 21, 0
8, 19, 0
8, 38, 0
15, 20, 0
15, 22, 0
15, 23, 0
15, 32, 0
19, 21, 0
19, 2, 0
19, 8, 0
19, 29, 0
22, 20, 0
22, 18, 0
22, 32, 0
22, 23, 0
22, 35, 0
22, 37, 0
22, 15, 0
22, 10, 0
36, 37, 0
36, 25, 0
36, 24, 0
0, 16, 0
0, 7, 0
0, 17, 0
0, 11, 0
38, 3, 0
38, 8, 0
38, 4, 0
3, 38, 0
3, 4, 1
3, 17, 0
16, 7, 0
16, 0, 0
16, 11, 0
6, 34, 0
6, 33, 0
6, 35, 0
6, 21, 0
6, 27, 0
6, 5, 0
6, 30, 0
10, 12, 0
10, 28, 0
10, 23, 0
10, 37, 0
10, 18, 0
10, 22, 0
10, 1, 0
7, 16, 0
7, 0, 0
7, 17, 0
34, 21, 0
34, 6, 0
34, 35, 0
34, 29, 0
25, 36, 0
25, 9, 0
25, 24, 1
33, 27, 0
33, 6, 0
33, 30, 0
33, 5, 0
33, 35, 0
32, 20, 0
32, 15, 0
32, 22, 0
27, 6, 0
27, 33, 0
27, 5, 0
27, 30, 0
37, 12, 0
37, 28, 0
37, 36, 0
37, 10, 0
37, 22, 0
37, 1, 0
29, 21, 0
29, 34, 0
29, 19, 0
29, 2, 0
29, 35, 0
2, 19, 0
2, 8, 0
2, 29, 0
26, 20, 0
26, 13, 0
26, 14, 0
18, 22, 0
18, 23, 0
18, 10, 0
9, 25, 0
9, 31, 0
9, 24, 0
