0, 7, 0
0, 3, 0
0, 4, 0
0, 12, 0
0, 1, 1
0, 8, 0
0, 11, 0
0, 9, 0
13, 7, 0
13, 5, 0
3, 0, 0
3, 4, 0
3, 11, 0
3, 1, 0
6, 4, 0
6, 10, 0
6, 2, 0
8, 0, 0
8, 9, 0
8, 11, 0
8, 1, 0
5, 13, 0
11, 0, 0
11, 12, 1
11, 7, 0
11, 4, 0
11, 3, 0
11, 1, 0
11, 8, 0
11, 9, 0
10, 6, 0
10, 4, 0
10, 2, 0
7, 0, 0
7, 12, 0
7, 13, 0
7, 11, 0
12, 0, 0
12, 7, 0
12, 11, 1
12, 9, 0
4, 0, 0
4, 6, 0
4, 3, 0
4, 11, 0
4, 10, 0
2, 6, 0
2, 10, 0
1, 0, 1
1, 3, 0
1, 8, 0
1, 11, 0
9, 0, 0
9, 12, 0
9, 8, 0
9, 11, 0
