0, 12, 0
0, 13, 0
0, 5, 0
0, 6, 0
7, 14, 0
7, 2, 0
13, 0, 0
13, 12, 1
13, 5, 0
13, 6, 0
17, 20, 0
3, 20, 0
3, 14, 0
3, 9, 0
16, 19, 0
16, 11, 0
16, 2, 0
6, 0, 0
6, 12, 0
6, 13, 0
6, 18, 0
8, 15, 0
8, 10, 0
5, 0, 0
5, 12, 0
5, 13, 0
5, 15, 0
5, 10, 0
11, 16, 0
11, 19, 0
11, 1, 0
10, 8, 0
10, 15, 0
10, 5, 0
20, 3, 0
20, 14, 0
20, 17, 0
20, 9, 0
12, 0, 0
12, 6, 0
12, 13, 1
12, 5, 0
4, 18, 0
4, 1, 0
14, 7, 0
14, 3, 0
14, 20, 0
14, 2, 0
14, 9, 0
2, 16, 0
2, 7, 0
2, 19, 0
2, 14, 0
19, 16, 0
19, 11, 0
19, 2, 0
1, 18, 0
1, 4, 0
1, 11, 0
15, 8, 0
15, 5, 0
15, 10, 0
18, 6, 0
18, 4, 0
18, 1, 0
9, 20, 0
9, 3, 0
9, 14, 0
