0, 16, 0
0, 3, 0
0, 4, 0
0, 11, 0
0, 1, 0
13, 12, 0
13, 14, 1
13, 5, 0
13, 2, 0
3, 0, 0
3, 16, 0
3, 4, 0
3, 11, 0
3, 1, 0
16, 0, 0
16, 3, 0
16, 4, 0
16, 10, 0
16, 11, 0
16, 9, 0
6, 12, 0
8, 7, 0
8, 15, 0
8, 11, 0
8, 2, 0
5, 7, 0
5, 12, 0
5, 13, 0
5, 14, 0
5, 2, 0
11, 0, 0
11, 7, 0
11, 4, 0
11, 3, 0
11, 2, 0
11, 16, 0
11, 8, 0
11, 15, 0
11, 1, 0
10, 16, 0
10, 9, 0
7, 8, 0
7, 15, 0
7, 5, 0
7, 11, 0
7, 2, 0
12, 6, 0
12, 13, 0
12, 14, 0
12, 5, 0
12, 2, 0
4, 0, 0
4, 3, 0
4, 16, 0
4, 11, 0
4, 1, 0
14, 12, 0
14, 13, 1
14, 5, 0
14, 2, 0
2, 7, 0
2, 12, 0
2, 13, 0
2, 14, 0
2, 8, 0
2, 15, 0
2, 5, 0
2, 11, 0
1, 0, 0
1, 3, 0
1, 4, 0
1, 11, 0
15, 7, 0
15, 8, 0
15, 11, 0
15, 2, 0
9, 16, 0
9, 10, 0
