0, 7, 0
0, 8, 0
0, 9, 0
0, 10, 0
6, 7, 0
6, 3, 0
6, 11, 0
1, 11, 0
5, 4, 0
5, 9, 0
5, 2, 0
11, 7, 0
11, 6, 0
11, 1, 0
10, 0, 0
10, 9, 0
10, 2, 0
7, 0, 0
7, 3, 0
7, 6, 0
7, 8, 1
7, 11, 0
7, 9, 0
3, 7, 0
3, 6, 0
3, 8, 0
4, 2, 0
4, 5, 0
4, 9, 0
2, 4, 0
2, 9, 0
2, 5, 0
2, 10, 0
8, 0, 0
8, 7, 1
8, 3, 0
9, 7, 0
9, 0, 0
9, 4, 0
9, 2, 0
9, 5, 0
9, 10, 0
