13, 7, 0
13, 35, 0
13, 10, 0
17, 18, 1
17, 19, 0
17, 9, 0
23, 39, 0
23, 41, 0
23, 11, 0
23, 31, 0
42, 9, 0
42, 28, 0
42, 24, 0
5, 22, 0
20, 39, 0
20, 44, 0
14, 27, 0
14, 4, 0
14, 25, 0
14, 26, 0
14, 12, 0
24, 37, 0
24, 42, 0
24, 28, 0
24, 29, 0
28, 37, 0
28, 42, 0
28, 9, 0
28, 24, 0
39, 20, 0
39, 23, 0
39, 44, 0
39, 11, 0
39, 31, 0
41, 23, 0
41, 10, 0
0, 16, 0
0, 1, 0
0, 8, 0
0, 2, 0
8, 0, 0
8, 21, 0
8, 16, 0
8, 1, 0
8, 2, 0
12, 27, 0
12, 14, 0
12, 25, 0
12, 26, 0
12, 30, 0
15, 40, 0
15, 36, 0
10, 13, 0
10, 41, 0
7, 3, 0
7, 13, 0
7, 35, 0
3, 7, 0
3, 40, 0
32, 33, 1
32, 19, 0
32, 38, 0
2, 0, 0
2, 16, 0
2, 8, 0
2, 1, 1
21, 6, 0
21, 8, 0
33, 34, 1
33, 19, 0
33, 38, 0
33, 32, 1
33, 9, 0
19, 33, 0
19, 17, 0
19, 32, 0
19, 34, 0
19, 18, 0
19, 38, 0
19, 9, 0
18, 34, 0
18, 19, 0
18, 17, 1
18, 9, 0
31, 34, 0
31, 39, 0
31, 23, 0
31, 11, 0
29, 44, 0
29, 24, 0
40, 3, 0
40, 15, 0
11, 39, 0
11, 31, 0
11, 23, 0
1, 0, 0
1, 16, 0
1, 8, 0
1, 2, 1
37, 9, 0
37, 28, 0
37, 24, 0
4, 25, 0
4, 43, 0
4, 26, 0
4, 27, 0
4, 14, 0
4, 22, 0
35, 7, 0
35, 13, 0
30, 12, 0
30, 38, 0
38, 33, 0
38, 19, 0
38, 34, 0
38, 32, 0
38, 30, 0
22, 4, 0
22, 43, 0
22, 5, 0
36, 6, 0
36, 15, 0
16, 0, 0
16, 1, 0
16, 8, 0
16, 2, 0
27, 12, 0
27, 4, 0
27, 14, 0
27, 26, 1
44, 20, 0
44, 39, 0
44, 29, 0
34, 33, 1
34, 31, 0
34, 18, 0
34, 19, 0
34, 38, 0
34, 9, 0
25, 12, 0
25, 4, 0
25, 14, 0
25, 26, 1
26, 25, 1
26, 12, 0
26, 4, 0
26, 14, 0
26, 27, 1
6, 21, 0
6, 36, 0
43, 4, 0
43, 22, 0
9, 33, 0
9, 28, 0
9, 42, 0
9, 37, 0
9, 17, 0
9, 19, 0
9, 34, 0
9, 18, 0
