0, 13, 0
0, 5, 0
0, 9, 0
13, 0, 0
13, 4, 0
13, 9, 0
13, 5, 0
13, 11, 0
13, 1, 0
3, 7, 0
3, 6, 0
3, 10, 0
6, 7, 1
6, 3, 0
6, 1, 0
6, 10, 0
8, 12, 0
8, 5, 0
8, 11, 0
8, 2, 0
5, 0, 0
5, 8, 0
5, 13, 0
5, 11, 0
5, 2, 0
11, 12, 0
11, 8, 0
11, 13, 0
11, 5, 0
11, 2, 0
10, 7, 0
10, 6, 0
10, 3, 0
10, 1, 0
7, 6, 1
7, 1, 0
7, 3, 0
7, 10, 0
12, 8, 0
12, 11, 0
12, 2, 0
4, 13, 0
4, 9, 0
4, 1, 0
2, 12, 0
2, 8, 0
2, 5, 0
2, 11, 0
1, 7, 0
1, 13, 0
1, 4, 0
1, 6, 0
1, 9, 0
1, 10, 0
9, 0, 0
9, 13, 0
9, 4, 0
9, 1, 0
