12, 21, 0
12, 27, 0
12, 19, 0
13, 7, 0
13, 34, 0
13, 23, 0
13, 37, 0
13, 8, 0
13, 22, 0
13, 30, 0
17, 32, 0
17, 35, 0
17, 18, 1
17, 19, 0
17, 38, 0
17, 36, 0
31, 33, 0
31, 6, 0
31, 10, 0
31, 39, 0
31, 5, 0
31, 1, 0
23, 37, 0
23, 20, 0
23, 8, 0
23, 13, 0
24, 21, 0
24, 16, 0
24, 28, 0
5, 6, 1
5, 1, 0
5, 31, 0
5, 33, 0
11, 16, 0
11, 21, 0
11, 28, 0
1, 33, 0
1, 14, 0
1, 5, 0
1, 31, 0
1, 6, 0
20, 7, 0
20, 34, 0
20, 25, 0
20, 23, 0
20, 26, 0
20, 37, 0
20, 9, 0
21, 27, 0
21, 12, 0
21, 28, 0
21, 11, 0
21, 24, 0
4, 3, 0
4, 29, 0
4, 32, 0
4, 36, 0
14, 0, 0
14, 1, 0
14, 2, 0
39, 31, 0
39, 10, 0
35, 17, 0
35, 32, 0
35, 18, 0
35, 38, 0
35, 19, 0
35, 15, 0
35, 36, 0
28, 16, 0
28, 21, 0
28, 11, 0
28, 24, 0
30, 0, 0
30, 13, 0
8, 37, 0
8, 13, 0
8, 23, 0
15, 19, 0
15, 38, 0
15, 35, 0
22, 37, 0
22, 7, 0
22, 13, 0
22, 9, 0
36, 3, 0
36, 4, 0
36, 17, 0
36, 32, 0
36, 35, 0
36, 18, 0
36, 19, 0
36, 29, 0
0, 30, 0
0, 14, 0
0, 2, 0
6, 33, 0
6, 5, 1
6, 31, 0
6, 1, 0
3, 29, 0
3, 4, 0
3, 32, 0
3, 36, 0
16, 10, 0
16, 28, 0
16, 11, 0
16, 24, 0
38, 17, 0
38, 32, 0
38, 35, 0
38, 18, 0
38, 19, 0
38, 15, 0
27, 21, 0
27, 12, 0
10, 16, 0
10, 39, 0
10, 31, 0
7, 20, 0
7, 34, 0
7, 13, 0
7, 25, 0
7, 26, 0
7, 37, 0
7, 22, 0
7, 9, 0
34, 20, 0
34, 7, 0
34, 13, 0
34, 25, 0
34, 26, 0
34, 9, 0
25, 20, 0
25, 34, 0
25, 7, 0
25, 26, 1
25, 9, 0
33, 6, 0
33, 5, 0
33, 31, 0
33, 1, 0
32, 3, 0
32, 4, 0
32, 17, 0
32, 29, 0
32, 18, 0
32, 19, 0
32, 35, 0
32, 38, 0
32, 36, 0
2, 0, 0
2, 14, 0
37, 20, 0
37, 7, 0
37, 13, 0
37, 23, 0
37, 8, 0
37, 22, 0
29, 3, 0
29, 4, 0
29, 32, 0
29, 36, 0
19, 12, 0
19, 17, 0
19, 32, 0
19, 35, 0
19, 18, 0
19, 38, 0
19, 15, 0
19, 36, 0
26, 20, 0
26, 7, 0
26, 34, 0
26, 25, 1
26, 9, 0
18, 17, 1
18, 32, 0
18, 35, 0
18, 19, 0
18, 38, 0
18, 36, 0
9, 20, 0
9, 34, 0
9, 7, 0
9, 25, 0
9, 26, 0
9, 22, 0
