13, 6, 0
13, 5, 0
17, 0, 0
17, 12, 0
17, 23, 0
17, 2, 0
17, 10, 0
17, 5, 0
17, 1, 0
23, 17, 0
23, 3, 0
23, 18, 0
23, 6, 0
23, 5, 0
23, 10, 0
23, 7, 0
23, 12, 0
23, 4, 0
23, 14, 0
23, 24, 0
23, 19, 0
23, 8, 0
23, 22, 0
23, 9, 0
5, 12, 0
5, 13, 0
5, 17, 0
5, 23, 0
11, 6, 0
11, 8, 0
1, 0, 0
1, 12, 0
1, 10, 0
1, 17, 0
1, 2, 1
20, 21, 1
20, 18, 0
20, 24, 0
4, 7, 0
4, 3, 1
4, 23, 0
4, 21, 0
4, 8, 0
4, 15, 0
4, 22, 0
14, 7, 0
14, 15, 1
14, 22, 0
14, 23, 0
24, 20, 0
24, 21, 0
24, 18, 0
24, 23, 0
8, 7, 0
8, 3, 0
8, 4, 0
8, 23, 0
8, 12, 0
8, 11, 0
15, 7, 0
15, 4, 0
15, 14, 1
15, 22, 0
22, 7, 0
22, 12, 0
22, 4, 0
22, 25, 0
22, 23, 0
22, 14, 0
22, 15, 0
0, 2, 0
0, 12, 0
0, 10, 0
0, 17, 0
0, 1, 0
3, 7, 0
3, 4, 1
3, 8, 0
3, 23, 0
16, 9, 0
16, 10, 0
6, 12, 0
6, 13, 0
6, 11, 0
6, 23, 0
10, 0, 0
10, 12, 0
10, 17, 0
10, 23, 0
10, 2, 0
10, 16, 0
10, 1, 0
7, 3, 0
7, 4, 0
7, 14, 0
7, 23, 0
7, 12, 0
7, 8, 0
7, 15, 0
7, 22, 0
12, 0, 0
12, 17, 0
12, 23, 0
12, 18, 0
12, 6, 0
12, 1, 0
12, 5, 0
12, 10, 0
12, 7, 0
12, 2, 0
12, 19, 0
12, 8, 0
12, 22, 0
12, 9, 0
25, 18, 0
25, 22, 0
2, 0, 0
2, 12, 0
2, 10, 0
2, 17, 0
2, 1, 1
21, 20, 1
21, 18, 0
21, 4, 0
21, 24, 0
19, 12, 0
19, 23, 0
19, 9, 0
18, 20, 0
18, 12, 0
18, 25, 0
18, 23, 0
18, 24, 0
18, 21, 0
9, 16, 0
9, 12, 0
9, 19, 0
9, 23, 0
