0, 3, 0
0, 13, 0
0, 14, 0
0, 4, 0
0, 12, 0
0, 6, 0
0, 8, 0
0, 10, 0
13, 0, 0
13, 12, 1
13, 4, 0
13, 10, 0
3, 0, 0
3, 6, 0
3, 1, 0
3, 8, 0
3, 11, 0
3, 10, 0
6, 7, 0
6, 0, 0
6, 14, 0
6, 3, 0
6, 2, 0
6, 10, 0
6, 8, 0
6, 5, 0
6, 11, 0
6, 1, 0
8, 0, 0
8, 3, 0
8, 7, 0
8, 14, 0
8, 6, 0
8, 1, 0
8, 11, 0
8, 10, 0
5, 7, 0
5, 6, 0
5, 9, 0
5, 1, 0
11, 3, 0
11, 14, 0
11, 2, 0
11, 6, 0
11, 8, 0
11, 1, 0
10, 0, 0
10, 12, 0
10, 13, 0
10, 4, 0
10, 3, 0
10, 6, 0
10, 8, 0
7, 6, 0
7, 8, 0
7, 5, 0
7, 9, 0
12, 0, 0
12, 13, 1
12, 4, 0
12, 10, 0
4, 0, 0
4, 12, 0
4, 13, 0
4, 10, 0
14, 0, 0
14, 6, 0
14, 8, 0
14, 11, 0
2, 6, 0
2, 11, 0
2, 1, 0
1, 3, 0
1, 2, 0
1, 6, 0
1, 8, 0
1, 5, 0
1, 11, 0
9, 7, 0
9, 5, 0
