0, 3, 0
0, 4, 0
0, 1, 0
3, 0, 0
3, 4, 0
3, 9, 0
3, 1, 0
4, 0, 0
4, 3, 0
4, 8, 0
4, 1, 0
2, 7, 0
2, 1, 0
2, 5, 0
2, 9, 0
6, 5, 0
6, 1, 0
1, 0, 0
1, 3, 0
1, 4, 0
1, 9, 0
1, 2, 0
1, 6, 0
1, 8, 0
1, 7, 0
1, 5, 0
8, 4, 0
8, 1, 0
5, 7, 0
5, 6, 0
5, 1, 0
5, 2, 0
7, 1, 0
7, 9, 0
7, 5, 0
7, 2, 0
9, 7, 0
9, 3, 0
9, 2, 0
9, 1, 0
