13, 21, 0
13, 27, 0
13, 14, 0
13, 25, 0
17, 0, 0
17, 20, 0
17, 4, 0
17, 14, 0
17, 23, 0
17, 16, 0
17, 6, 0
17, 8, 0
17, 5, 0
17, 11, 0
17, 1, 0
23, 12, 0
23, 4, 0
23, 14, 0
23, 16, 0
23, 6, 0
23, 17, 0
2, 3, 0
2, 5, 0
2, 1, 1
5, 3, 0
5, 17, 0
5, 2, 0
5, 1, 0
5, 8, 0
5, 11, 0
5, 9, 0
11, 8, 0
11, 17, 0
11, 5, 0
1, 3, 0
1, 17, 0
1, 5, 0
1, 2, 1
20, 0, 0
20, 12, 0
20, 17, 0
20, 24, 0
20, 16, 0
20, 6, 0
20, 14, 0
20, 15, 0
4, 12, 0
4, 17, 0
4, 23, 0
4, 16, 0
4, 6, 0
4, 14, 0
14, 0, 0
14, 20, 0
14, 13, 0
14, 17, 0
14, 23, 0
14, 16, 0
14, 27, 0
14, 7, 0
14, 12, 0
14, 4, 0
14, 25, 0
14, 24, 0
14, 21, 0
14, 19, 0
14, 15, 0
14, 18, 0
14, 22, 0
24, 20, 0
24, 12, 0
24, 14, 0
24, 16, 0
24, 6, 0
24, 15, 0
24, 18, 0
24, 0, 0
8, 17, 0
8, 5, 0
8, 11, 0
8, 9, 0
15, 20, 0
15, 12, 0
15, 14, 0
15, 24, 0
15, 16, 0
15, 0, 0
22, 21, 0
22, 25, 0
22, 14, 0
22, 10, 0
0, 20, 0
0, 12, 0
0, 17, 0
0, 24, 0
0, 16, 0
0, 6, 0
0, 14, 0
0, 15, 0
3, 2, 0
3, 9, 0
3, 5, 0
3, 1, 0
16, 20, 0
16, 12, 0
16, 4, 0
16, 14, 0
16, 23, 0
16, 24, 0
16, 6, 0
16, 15, 0
16, 17, 0
16, 0, 0
6, 20, 0
6, 0, 0
6, 4, 0
6, 17, 0
6, 23, 0
6, 24, 0
6, 16, 0
10, 21, 0
10, 25, 0
10, 22, 0
7, 21, 0
7, 18, 0
7, 14, 0
7, 26, 0
12, 0, 0
12, 20, 0
12, 4, 0
12, 14, 0
12, 23, 0
12, 24, 0
12, 16, 0
12, 15, 0
25, 13, 0
25, 14, 0
25, 21, 0
25, 27, 0
25, 22, 0
25, 10, 0
26, 7, 0
26, 21, 0
26, 19, 0
27, 21, 0
27, 25, 0
27, 13, 0
27, 14, 0
21, 7, 0
21, 25, 0
21, 13, 0
21, 14, 0
21, 26, 0
21, 18, 0
21, 27, 0
21, 19, 0
21, 22, 0
21, 10, 0
19, 21, 0
19, 18, 0
19, 14, 0
19, 26, 0
18, 7, 0
18, 21, 0
18, 19, 0
18, 14, 0
18, 24, 0
9, 3, 0
9, 8, 0
9, 5, 0
