13, 25, 0
13, 24, 0
17, 22, 0
17, 26, 0
17, 31, 0
23, 43, 0
23, 40, 0
23, 5, 0
23, 2, 0
42, 33, 0
42, 38, 0
42, 28, 0
5, 21, 0
5, 43, 0
5, 25, 0
5, 23, 0
20, 8, 0
20, 41, 0
20, 35, 0
14, 16, 0
14, 4, 0
14, 29, 0
24, 37, 0
24, 25, 0
24, 13, 0
24, 15, 0
28, 42, 0
28, 38, 0
28, 33, 0
39, 27, 0
39, 10, 0
39, 3, 0
39, 12, 0
41, 20, 0
41, 35, 0
41, 4, 0
41, 36, 0
0, 7, 0
0, 34, 0
0, 32, 0
0, 11, 0
8, 20, 0
8, 35, 0
8, 18, 0
8, 6, 0
8, 19, 0
8, 30, 0
12, 3, 0
12, 39, 0
12, 1, 0
15, 37, 0
15, 32, 0
15, 24, 0
10, 38, 0
10, 39, 0
10, 3, 0
10, 27, 0
7, 0, 0
7, 34, 0
7, 33, 0
3, 12, 0
3, 10, 0
3, 39, 0
3, 1, 0
32, 0, 0
32, 37, 0
32, 15, 0
32, 11, 0
2, 43, 0
2, 23, 0
21, 25, 0
21, 43, 0
21, 5, 0
33, 7, 0
33, 42, 0
33, 28, 0
33, 34, 0
19, 18, 1
19, 6, 0
19, 8, 0
19, 30, 0
18, 6, 0
18, 19, 1
18, 8, 0
18, 30, 0
31, 1, 0
31, 17, 0
31, 26, 0
31, 9, 0
29, 40, 0
29, 14, 0
40, 23, 0
40, 29, 0
11, 0, 0
11, 34, 0
11, 32, 0
1, 3, 0
1, 12, 0
1, 31, 0
1, 9, 0
37, 15, 0
37, 32, 0
37, 24, 0
4, 16, 0
4, 14, 0
4, 41, 0
4, 36, 0
35, 20, 0
35, 8, 0
35, 41, 0
30, 18, 0
30, 6, 0
30, 19, 0
30, 8, 0
38, 42, 0
38, 28, 0
38, 10, 0
22, 17, 0
22, 26, 0
36, 4, 0
36, 41, 0
16, 4, 0
16, 14, 0
27, 39, 0
27, 10, 0
34, 0, 0
34, 7, 0
34, 11, 0
34, 33, 0
25, 21, 0
25, 13, 0
25, 5, 0
25, 24, 0
26, 17, 0
26, 22, 0
26, 31, 0
26, 9, 0
6, 18, 0
6, 19, 0
6, 8, 0
6, 30, 0
43, 21, 0
43, 5, 0
43, 23, 0
43, 2, 0
9, 26, 0
9, 31, 0
9, 1, 0
