0, 6, 0
0, 4, 0
0, 1, 0
13, 2, 0
13, 8, 0
13, 10, 0
17, 18, 1
17, 12, 0
17, 5, 0
17, 2, 0
3, 7, 0
3, 12, 0
16, 6, 0
16, 4, 0
6, 7, 0
6, 0, 0
6, 4, 0
6, 14, 0
6, 16, 0
6, 1, 0
6, 9, 0
8, 13, 0
8, 15, 0
5, 18, 0
5, 12, 0
5, 17, 0
5, 2, 0
11, 15, 0
10, 13, 0
10, 2, 0
7, 6, 0
7, 9, 0
7, 14, 0
7, 3, 0
12, 3, 0
12, 17, 0
12, 5, 0
4, 0, 0
4, 16, 0
4, 1, 0
4, 6, 0
14, 7, 0
14, 6, 0
14, 9, 0
2, 18, 0
2, 13, 0
2, 17, 0
2, 5, 0
2, 10, 0
1, 0, 0
1, 6, 0
1, 4, 0
15, 8, 0
15, 11, 0
18, 17, 1
18, 5, 0
18, 2, 0
9, 7, 0
9, 6, 0
9, 14, 0
