0, 2, 0
0, 3, 0
0, 10, 0
0, 1, 0
3, 0, 0
3, 1, 0
3, 10, 0
3, 2, 1
4, 7, 0
4, 6, 0
4, 1, 0
4, 8, 0
4, 5, 0
4, 9, 0
2, 0, 0
2, 3, 1
2, 8, 0
2, 10, 0
2, 1, 0
6, 7, 0
6, 4, 0
1, 0, 0
1, 3, 0
1, 4, 0
1, 2, 0
1, 8, 0
1, 10, 0
8, 7, 0
8, 1, 0
8, 10, 0
8, 4, 0
8, 2, 0
5, 4, 0
5, 9, 0
7, 6, 0
7, 8, 0
7, 4, 0
10, 0, 0
10, 3, 0
10, 1, 0
10, 8, 0
10, 2, 0
9, 4, 0
9, 5, 0
