0, 1, 0
0, 9, 0
0, 11, 0
0, 10, 0
8, 7, 0
8, 6, 0
8, 2, 0
8, 11, 0
8, 10, 0
3, 4, 0
3, 5, 0
3, 9, 0
6, 7, 1
6, 8, 0
6, 10, 0
5, 3, 0
5, 4, 0
11, 7, 0
11, 12, 0
11, 2, 0
11, 0, 0
11, 8, 0
11, 10, 0
11, 1, 0
10, 7, 0
10, 12, 0
10, 4, 0
10, 2, 0
10, 6, 0
10, 8, 0
10, 0, 0
10, 11, 0
10, 1, 0
7, 6, 1
7, 8, 0
7, 11, 0
7, 10, 0
12, 2, 0
12, 10, 0
12, 11, 0
12, 1, 0
4, 3, 0
4, 2, 0
4, 10, 0
4, 9, 0
4, 5, 0
4, 1, 0
2, 12, 0
2, 4, 0
2, 9, 0
2, 1, 0
2, 8, 0
2, 11, 0
2, 10, 0
1, 0, 0
1, 12, 0
1, 4, 0
1, 2, 0
1, 10, 0
1, 11, 0
1, 9, 0
9, 0, 0
9, 3, 0
9, 2, 0
9, 4, 0
9, 1, 0
