13, 25, 0
13, 8, 0
13, 14, 1
13, 22, 0
17, 7, 0
17, 27, 0
17, 10, 0
17, 18, 0
17, 9, 0
23, 21, 0
23, 6, 0
23, 5, 0
23, 1, 0
2, 20, 0
2, 7, 0
2, 16, 0
2, 15, 0
2, 5, 0
2, 18, 0
2, 9, 0
5, 20, 0
5, 21, 0
5, 23, 0
5, 2, 0
5, 16, 0
5, 15, 0
5, 18, 0
5, 1, 0
11, 19, 0
11, 24, 0
11, 26, 0
11, 10, 0
1, 21, 0
1, 6, 0
1, 5, 0
1, 23, 0
20, 16, 0
20, 18, 0
20, 15, 0
20, 5, 0
20, 2, 0
4, 0, 0
4, 3, 1
4, 12, 0
4, 6, 0
14, 13, 1
14, 8, 0
14, 25, 0
14, 22, 0
24, 19, 0
24, 8, 0
24, 26, 0
24, 11, 0
24, 10, 0
8, 13, 0
8, 14, 0
8, 26, 0
8, 24, 0
8, 25, 0
8, 22, 0
15, 20, 0
15, 16, 1
15, 5, 0
15, 18, 0
15, 2, 0
22, 25, 0
22, 8, 0
22, 13, 0
22, 14, 0
0, 3, 0
0, 6, 0
0, 4, 0
0, 12, 0
3, 0, 0
3, 6, 0
3, 4, 1
16, 20, 0
16, 18, 0
16, 15, 1
16, 5, 0
16, 2, 0
6, 0, 0
6, 3, 0
6, 4, 0
6, 23, 0
6, 12, 0
6, 21, 0
6, 1, 0
10, 7, 0
10, 17, 0
10, 24, 0
10, 27, 0
10, 19, 0
10, 11, 0
7, 17, 0
7, 2, 0
7, 18, 0
7, 27, 0
7, 9, 0
7, 10, 0
12, 0, 0
12, 6, 0
12, 4, 0
25, 13, 0
25, 8, 0
25, 14, 0
25, 22, 0
26, 19, 0
26, 8, 0
26, 11, 0
26, 24, 0
27, 7, 0
27, 17, 0
27, 10, 0
21, 6, 0
21, 5, 0
21, 23, 0
21, 1, 0
19, 10, 0
19, 26, 0
19, 11, 0
19, 24, 0
18, 20, 0
18, 7, 0
18, 17, 0
18, 2, 0
18, 16, 0
18, 15, 0
18, 5, 0
18, 9, 0
9, 7, 0
9, 18, 0
9, 17, 0
9, 2, 0
