2, 16, 0
2, 21, 0
2, 29, 0
13, 7, 0
13, 3, 0
13, 14, 0
13, 26, 0
13, 29, 0
13, 28, 0
13, 15, 0
13, 27, 0
17, 0, 0
17, 18, 0
17, 5, 0
17, 11, 0
17, 1, 0
17, 7, 0
17, 4, 0
17, 14, 0
17, 19, 0
17, 8, 0
17, 15, 0
17, 10, 0
17, 22, 0
17, 9, 0
23, 20, 0
23, 12, 0
23, 19, 0
23, 7, 0
23, 11, 0
29, 16, 0
29, 4, 0
29, 25, 0
29, 26, 0
29, 24, 0
29, 21, 0
29, 28, 0
29, 2, 0
29, 13, 0
5, 0, 0
5, 4, 0
5, 17, 0
5, 8, 0
5, 15, 0
5, 10, 0
5, 9, 0
11, 0, 0
11, 17, 0
11, 23, 0
11, 3, 0
11, 18, 0
11, 6, 0
11, 10, 0
11, 7, 0
11, 12, 0
11, 4, 0
11, 14, 0
11, 25, 0
11, 19, 0
11, 1, 0
11, 15, 0
11, 22, 0
11, 9, 0
1, 0, 0
1, 17, 0
1, 22, 0
1, 11, 0
1, 10, 0
20, 6, 0
20, 23, 0
20, 12, 0
4, 0, 0
4, 28, 0
4, 26, 0
4, 29, 0
4, 17, 0
4, 10, 0
4, 8, 0
4, 15, 0
4, 5, 0
4, 11, 0
4, 9, 0
14, 7, 0
14, 15, 0
14, 13, 0
14, 17, 0
14, 11, 0
24, 21, 0
24, 29, 0
28, 21, 0
28, 13, 0
28, 25, 0
28, 26, 0
28, 29, 0
28, 16, 0
28, 6, 0
28, 8, 0
28, 15, 0
28, 4, 0
28, 12, 0
8, 0, 0
8, 4, 0
8, 28, 0
8, 26, 0
8, 17, 0
8, 5, 0
8, 9, 1
15, 13, 0
15, 17, 0
15, 26, 0
15, 4, 0
15, 28, 0
15, 14, 0
15, 5, 0
15, 11, 0
22, 7, 0
22, 17, 0
22, 26, 0
22, 18, 0
22, 1, 0
22, 11, 0
22, 10, 0
0, 4, 0
0, 17, 0
0, 9, 0
0, 10, 0
0, 8, 0
0, 5, 0
0, 11, 0
0, 1, 0
12, 20, 0
12, 7, 0
12, 28, 0
12, 26, 0
12, 23, 0
12, 18, 0
12, 11, 0
16, 21, 0
16, 2, 0
16, 28, 0
16, 29, 0
6, 20, 0
6, 28, 0
6, 26, 0
6, 11, 0
10, 0, 0
10, 7, 0
10, 4, 0
10, 17, 0
10, 22, 0
10, 18, 0
10, 1, 0
10, 5, 0
10, 11, 0
10, 9, 1
7, 13, 0
7, 17, 0
7, 23, 0
7, 12, 0
7, 18, 0
7, 27, 0
7, 11, 0
7, 10, 0
7, 3, 0
7, 25, 0
7, 26, 0
7, 21, 0
7, 14, 0
7, 19, 0
7, 22, 0
3, 7, 0
3, 13, 0
3, 25, 0
3, 26, 0
3, 27, 0
3, 11, 0
25, 7, 0
25, 3, 0
25, 28, 0
25, 26, 0
25, 29, 0
25, 21, 0
25, 19, 0
25, 11, 0
26, 13, 0
26, 28, 0
26, 12, 0
26, 18, 0
26, 6, 0
26, 7, 0
26, 3, 0
26, 4, 0
26, 25, 0
26, 29, 0
26, 21, 0
26, 8, 0
26, 15, 0
26, 22, 0
27, 7, 0
27, 3, 0
27, 13, 0
21, 7, 0
21, 2, 0
21, 28, 0
21, 26, 0
21, 24, 0
21, 16, 0
21, 25, 0
21, 19, 0
21, 29, 0
19, 7, 0
19, 18, 0
19, 25, 0
19, 23, 0
19, 21, 0
19, 17, 0
19, 11, 0
18, 7, 0
18, 12, 0
18, 17, 0
18, 11, 0
18, 26, 0
18, 19, 0
18, 9, 0
18, 22, 0
18, 10, 0
9, 0, 0
9, 4, 0
9, 17, 0
9, 18, 0
9, 8, 1
9, 5, 0
9, 11, 0
9, 10, 1
