12, 7, 0
12, 23, 0
13, 18, 0
13, 3, 0
13, 8, 0
17, 18, 1
17, 3, 0
17, 26, 0
31, 27, 0
31, 9, 0
31, 35, 0
23, 16, 0
23, 12, 0
23, 7, 0
23, 15, 0
23, 32, 0
24, 5, 0
24, 10, 0
5, 20, 0
5, 19, 0
5, 32, 0
5, 24, 0
11, 28, 0
11, 30, 0
1, 21, 0
1, 10, 0
1, 22, 0
1, 2, 0
20, 19, 1
20, 5, 0
20, 32, 0
21, 10, 0
21, 22, 1
21, 1, 0
4, 25, 0
4, 30, 0
14, 37, 0
14, 7, 0
14, 8, 0
14, 36, 0
35, 34, 1
35, 38, 0
35, 31, 0
35, 27, 0
28, 33, 0
28, 11, 0
30, 4, 0
30, 11, 0
8, 37, 0
8, 13, 0
8, 14, 0
8, 36, 0
15, 16, 1
15, 23, 0
15, 32, 0
19, 20, 1
19, 5, 0
19, 32, 0
22, 21, 1
22, 10, 0
22, 1, 0
36, 37, 1
36, 8, 0
36, 14, 0
0, 33, 0
0, 26, 0
0, 29, 0
38, 34, 0
38, 6, 0
38, 2, 0
38, 27, 0
38, 35, 0
3, 18, 0
3, 13, 0
3, 17, 0
3, 26, 0
16, 15, 1
16, 23, 0
16, 32, 0
6, 38, 0
6, 2, 0
10, 21, 0
10, 1, 0
10, 22, 0
10, 24, 0
7, 12, 0
7, 14, 0
7, 23, 0
34, 27, 0
34, 38, 0
34, 35, 1
25, 4, 0
33, 0, 0
33, 28, 0
32, 20, 0
32, 23, 0
32, 16, 0
32, 19, 0
32, 15, 0
32, 5, 0
27, 34, 0
27, 38, 0
27, 31, 0
27, 35, 0
37, 8, 0
37, 14, 0
37, 36, 1
29, 0, 0
29, 26, 0
2, 6, 0
2, 38, 0
2, 1, 0
26, 18, 0
26, 3, 0
26, 0, 0
26, 17, 0
26, 29, 0
18, 3, 0
18, 13, 0
18, 17, 1
18, 26, 0
9, 31, 0
