0, 12, 0
0, 13, 0
0, 9, 0
0, 5, 0
0, 10, 0
13, 0, 0
13, 7, 0
13, 14, 0
3, 8, 0
3, 9, 0
3, 5, 0
3, 1, 0
6, 11, 0
8, 3, 0
8, 10, 0
8, 5, 0
8, 9, 1
5, 0, 0
5, 3, 0
5, 8, 0
5, 10, 0
5, 9, 0
11, 6, 0
11, 10, 0
10, 0, 0
10, 2, 0
10, 8, 0
10, 5, 0
10, 11, 0
10, 1, 0
7, 13, 0
7, 14, 0
12, 0, 0
12, 4, 0
4, 12, 0
4, 14, 0
14, 7, 0
14, 13, 0
14, 4, 0
2, 10, 0
2, 1, 0
1, 3, 0
1, 10, 0
1, 2, 0
9, 0, 0
9, 3, 0
9, 8, 1
9, 5, 0
