0, 8, 0
0, 4, 0
0, 1, 0
3, 8, 0
3, 5, 0
3, 2, 1
4, 0, 0
4, 8, 0
4, 1, 0
7, 6, 1
7, 1, 0
2, 3, 1
2, 8, 0
2, 5, 0
6, 7, 1
6, 1, 0
8, 0, 0
8, 3, 0
8, 4, 0
8, 5, 0
8, 2, 0
5, 3, 0
5, 8, 0
5, 2, 0
1, 0, 0
1, 7, 0
1, 4, 0
1, 6, 0
