0, 1, 0
3, 7, 0
3, 6, 0
3, 5, 0
3, 2, 0
4, 7, 0
4, 2, 0
4, 8, 0
4, 5, 0
4, 9, 0
2, 7, 0
2, 3, 0
2, 4, 0
2, 6, 0
2, 8, 0
2, 5, 0
6, 7, 0
6, 3, 0
6, 2, 0
1, 0, 0
1, 8, 0
1, 5, 0
1, 9, 0
8, 7, 0
8, 1, 0
8, 4, 0
8, 9, 0
8, 2, 0
5, 7, 0
5, 3, 0
5, 1, 0
5, 4, 0
5, 2, 0
7, 3, 0
7, 4, 0
7, 2, 0
7, 6, 0
7, 8, 0
7, 5, 0
9, 8, 0
9, 4, 0
9, 1, 0
