0, 7, 0
0, 3, 0
0, 16, 0
0, 8, 0
0, 11, 0
0, 10, 0
13, 12, 0
13, 4, 0
13, 5, 0
13, 10, 0
13, 1, 0
3, 7, 0
3, 12, 0
3, 9, 0
3, 2, 1
3, 6, 0
3, 8, 0
3, 0, 0
3, 5, 0
3, 10, 0
3, 1, 0
16, 0, 0
16, 7, 0
16, 14, 0
16, 6, 0
16, 9, 0
16, 15, 0
16, 11, 0
16, 10, 0
6, 3, 0
6, 14, 0
6, 9, 0
6, 2, 0
6, 16, 0
6, 8, 0
6, 10, 0
8, 7, 0
8, 3, 0
8, 9, 0
8, 2, 0
8, 6, 0
8, 10, 0
8, 0, 0
8, 5, 0
8, 1, 0
5, 12, 0
5, 13, 0
5, 3, 0
5, 4, 1
5, 2, 0
5, 8, 0
5, 10, 0
5, 1, 0
11, 0, 0
11, 16, 0
11, 7, 0
11, 10, 0
10, 0, 0
10, 13, 0
10, 3, 0
10, 16, 0
10, 6, 0
10, 5, 0
10, 11, 0
10, 1, 0
10, 7, 0
10, 12, 0
10, 4, 0
10, 14, 0
10, 2, 0
10, 8, 0
10, 15, 0
10, 9, 0
7, 0, 0
7, 3, 0
7, 2, 0
7, 16, 0
7, 8, 0
7, 15, 0
7, 11, 0
7, 10, 0
12, 3, 0
12, 13, 0
12, 5, 0
12, 4, 0
12, 10, 0
4, 12, 0
4, 1, 0
4, 13, 0
4, 5, 1
4, 10, 0
14, 16, 0
14, 6, 0
14, 15, 0
14, 10, 0
2, 7, 0
2, 3, 1
2, 9, 0
2, 6, 0
2, 8, 0
2, 15, 0
2, 5, 0
2, 10, 0
2, 1, 0
1, 3, 0
1, 13, 0
1, 4, 0
1, 2, 0
1, 8, 0
1, 5, 0
1, 10, 0
15, 16, 0
15, 7, 0
15, 2, 0
15, 14, 0
15, 10, 0
9, 3, 0
9, 2, 0
9, 16, 0
9, 6, 0
9, 8, 0
9, 10, 0
