0, 7, 0
0, 12, 0
0, 13, 0
0, 2, 0
0, 6, 0
0, 8, 0
0, 5, 0
0, 11, 0
0, 1, 0
13, 0, 0
13, 3, 0
13, 4, 0
13, 2, 0
13, 6, 0
13, 8, 0
13, 10, 0
13, 9, 0
3, 13, 0
3, 4, 0
3, 2, 0
3, 6, 0
3, 8, 0
3, 10, 0
3, 9, 0
6, 0, 0
6, 3, 0
6, 13, 0
6, 4, 0
6, 2, 0
6, 1, 0
6, 8, 0
6, 10, 0
6, 11, 0
6, 9, 0
8, 0, 0
8, 3, 0
8, 13, 0
8, 6, 0
8, 9, 0
8, 10, 0
5, 0, 0
5, 12, 0
5, 7, 0
5, 4, 0
5, 2, 0
5, 11, 0
5, 1, 0
11, 0, 0
11, 12, 1
11, 7, 0
11, 4, 0
11, 2, 0
11, 6, 0
11, 5, 0
11, 1, 0
10, 6, 0
10, 8, 0
10, 13, 0
10, 3, 0
10, 9, 1
7, 0, 0
7, 12, 0
7, 2, 0
7, 5, 0
7, 11, 0
7, 1, 0
12, 0, 0
12, 7, 0
12, 4, 0
12, 2, 0
12, 5, 0
12, 11, 1
12, 1, 0
4, 12, 0
4, 13, 0
4, 3, 0
4, 2, 0
4, 6, 0
4, 5, 0
4, 11, 0
2, 0, 0
2, 12, 0
2, 13, 0
2, 4, 0
2, 3, 0
2, 6, 0
2, 5, 0
2, 7, 0
2, 11, 0
2, 1, 0
1, 0, 0
1, 12, 0
1, 7, 0
1, 2, 0
1, 6, 0
1, 5, 0
1, 11, 0
9, 6, 0
9, 8, 0
9, 13, 0
9, 3, 0
9, 10, 1
