0, 7, 0
0, 2, 0
0, 10, 0
0, 1, 0
6, 2, 0
6, 10, 0
6, 1, 0
1, 0, 0
1, 6, 0
1, 4, 0
1, 10, 0
1, 2, 0
5, 3, 0
5, 8, 0
11, 7, 0
11, 8, 0
11, 9, 0
10, 0, 0
10, 6, 0
10, 2, 0
10, 4, 0
10, 1, 0
7, 0, 0
7, 11, 0
3, 8, 0
3, 5, 0
3, 9, 0
4, 2, 0
4, 10, 0
4, 1, 0
2, 0, 0
2, 6, 0
2, 4, 0
2, 10, 0
2, 1, 0
8, 3, 0
8, 5, 0
8, 11, 0
8, 9, 0
9, 3, 0
9, 8, 0
9, 11, 0
