0, 3, 0
0, 6, 0
0, 1, 0
0, 5, 0
0, 2, 0
3, 0, 0
3, 5, 0
3, 1, 0
4, 7, 0
4, 6, 0
4, 8, 0
4, 5, 0
7, 6, 0
7, 8, 1
7, 4, 0
2, 0, 0
2, 6, 0
2, 5, 0
2, 1, 1
6, 0, 0
6, 7, 0
6, 4, 0
6, 2, 0
6, 8, 0
6, 5, 0
6, 1, 0
8, 7, 1
8, 6, 0
8, 4, 0
5, 0, 0
5, 3, 0
5, 4, 0
5, 2, 0
5, 6, 0
5, 1, 0
1, 0, 0
1, 6, 0
1, 3, 0
1, 5, 0
1, 2, 1
