0, 7, 0
0, 2, 0
0, 8, 0
0, 10, 0
0, 9, 0
3, 7, 0
3, 6, 0
4, 6, 0
4, 5, 0
4, 1, 0
2, 0, 0
2, 8, 0
2, 10, 0
2, 9, 0
6, 3, 0
6, 4, 0
1, 4, 0
1, 5, 0
8, 0, 0
8, 2, 0
8, 9, 1
8, 10, 0
5, 4, 0
5, 1, 0
7, 0, 0
7, 3, 0
7, 10, 0
10, 0, 0
10, 7, 0
10, 2, 0
10, 8, 0
10, 9, 0
9, 0, 0
9, 2, 0
9, 8, 1
9, 10, 0
