13, 4, 0
13, 14, 0
13, 32, 0
13, 27, 0
13, 8, 0
13, 5, 0
13, 9, 0
17, 28, 0
17, 26, 0
17, 3, 0
17, 16, 0
17, 38, 0
17, 5, 0
17, 1, 0
17, 12, 0
17, 32, 0
17, 42, 0
17, 39, 0
17, 36, 0
23, 20, 0
23, 34, 0
23, 3, 0
23, 2, 0
23, 39, 0
23, 44, 0
42, 45, 0
42, 17, 0
42, 26, 0
42, 16, 0
42, 6, 0
42, 5, 0
42, 3, 0
42, 38, 0
42, 43, 0
42, 32, 0
42, 14, 0
42, 39, 0
42, 9, 0
46, 33, 0
46, 28, 0
46, 32, 0
46, 25, 0
46, 41, 0
46, 11, 0
20, 3, 0
20, 23, 0
20, 24, 0
20, 27, 0
20, 2, 0
20, 39, 0
20, 9, 0
34, 3, 0
34, 23, 0
34, 2, 0
34, 27, 0
34, 39, 0
34, 44, 0
34, 22, 0
34, 9, 0
14, 13, 0
14, 32, 0
14, 42, 0
14, 8, 0
14, 39, 0
14, 9, 0
24, 20, 0
24, 27, 0
24, 9, 0
24, 39, 0
24, 3, 0
28, 7, 0
28, 17, 0
28, 32, 0
28, 31, 0
28, 48, 0
28, 19, 0
28, 1, 0
28, 5, 0
28, 46, 0
28, 11, 0
28, 36, 0
39, 45, 0
39, 17, 0
39, 23, 0
39, 3, 0
39, 16, 0
39, 6, 0
39, 2, 0
39, 44, 0
39, 27, 0
39, 20, 0
39, 34, 0
39, 14, 0
39, 24, 0
39, 43, 0
39, 8, 0
39, 42, 0
39, 22, 0
39, 9, 0
41, 33, 0
41, 25, 0
41, 46, 0
41, 32, 0
0, 36, 0
8, 39, 0
8, 13, 0
8, 14, 0
8, 22, 0
8, 9, 0
33, 41, 0
33, 25, 0
33, 46, 0
33, 32, 0
33, 48, 0
15, 18, 0
15, 29, 0
47, 29, 0
47, 30, 0
10, 19, 0
10, 48, 0
10, 32, 0
7, 19, 0
7, 28, 0
7, 5, 0
7, 32, 0
7, 35, 0
3, 17, 0
3, 23, 0
3, 6, 0
3, 29, 0
3, 27, 0
3, 20, 0
3, 34, 0
3, 24, 0
3, 42, 0
3, 30, 0
3, 39, 0
3, 9, 0
32, 13, 0
32, 17, 0
32, 31, 0
32, 40, 0
32, 5, 0
32, 11, 0
32, 46, 0
32, 21, 0
32, 4, 0
32, 14, 0
32, 35, 0
32, 28, 0
32, 1, 0
32, 42, 0
32, 41, 0
32, 12, 0
32, 38, 0
32, 10, 0
32, 7, 0
32, 33, 0
32, 25, 0
32, 26, 0
32, 37, 0
32, 19, 0
32, 48, 0
2, 20, 0
2, 34, 0
2, 23, 0
2, 27, 0
2, 39, 0
2, 44, 0
21, 4, 0
21, 32, 0
21, 35, 0
21, 37, 0
21, 40, 0
21, 5, 0
19, 7, 0
19, 28, 0
19, 32, 0
19, 35, 0
19, 27, 0
19, 48, 0
19, 10, 0
18, 15, 0
31, 28, 0
31, 32, 0
31, 11, 0
31, 36, 0
29, 3, 0
29, 15, 0
29, 47, 0
29, 30, 0
40, 21, 0
40, 4, 0
40, 32, 0
40, 35, 0
40, 37, 0
40, 27, 0
11, 28, 0
11, 46, 0
11, 31, 0
11, 32, 0
5, 13, 0
5, 17, 0
5, 16, 0
5, 38, 0
5, 7, 0
5, 21, 0
5, 4, 0
5, 32, 0
5, 35, 0
5, 37, 0
5, 28, 0
5, 42, 0
5, 9, 0
37, 4, 0
37, 32, 0
37, 35, 0
37, 21, 0
37, 40, 0
37, 5, 0
4, 21, 0
4, 13, 0
4, 32, 0
4, 37, 0
4, 27, 0
4, 40, 0
4, 5, 0
35, 7, 0
35, 21, 0
35, 32, 0
35, 37, 0
35, 19, 0
35, 40, 0
35, 5, 0
30, 3, 0
30, 47, 0
30, 29, 0
38, 17, 0
38, 32, 0
38, 26, 0
38, 16, 0
38, 42, 0
38, 5, 0
22, 34, 0
22, 8, 0
22, 39, 0
22, 27, 0
36, 0, 0
36, 28, 0
36, 17, 0
36, 31, 0
36, 1, 0
45, 6, 0
45, 43, 0
45, 39, 0
45, 42, 0
16, 43, 0
16, 26, 0
16, 42, 0
16, 39, 0
16, 38, 0
16, 5, 0
16, 17, 0
16, 9, 0
27, 20, 0
27, 3, 0
27, 13, 0
27, 24, 0
27, 4, 0
27, 2, 0
27, 40, 0
27, 19, 0
27, 34, 0
27, 39, 0
27, 22, 0
1, 12, 0
1, 28, 0
1, 17, 0
1, 32, 0
1, 36, 0
44, 34, 0
44, 39, 0
44, 23, 0
44, 2, 0
48, 33, 0
48, 25, 0
48, 32, 0
48, 28, 0
48, 19, 0
48, 10, 0
12, 17, 0
12, 26, 0
12, 32, 0
12, 1, 0
25, 41, 0
25, 33, 0
25, 48, 0
25, 32, 0
25, 46, 0
26, 12, 0
26, 17, 0
26, 32, 0
26, 16, 0
26, 42, 0
26, 38, 0
6, 3, 0
6, 42, 0
6, 39, 0
6, 45, 0
43, 16, 0
43, 45, 0
43, 39, 0
43, 42, 0
9, 20, 0
9, 34, 0
9, 13, 0
9, 14, 0
9, 39, 0
9, 3, 0
9, 16, 0
9, 42, 0
9, 8, 0
9, 24, 0
9, 5, 0
