13, 0, 0
13, 28, 0
13, 23, 0
13, 3, 0
13, 16, 0
13, 1, 0
13, 2, 0
13, 10, 0
13, 20, 0
13, 12, 0
13, 25, 0
13, 26, 0
13, 24, 0
13, 8, 0
13, 15, 0
13, 22, 0
17, 27, 0
17, 19, 0
17, 26, 0
17, 1, 0
23, 0, 0
23, 3, 0
23, 13, 0
23, 22, 1
23, 1, 0
2, 20, 0
2, 12, 0
2, 8, 0
2, 13, 0
2, 21, 0
5, 6, 0
5, 15, 0
5, 11, 0
5, 10, 0
11, 6, 0
11, 15, 0
11, 5, 0
11, 10, 0
1, 0, 0
1, 3, 0
1, 13, 0
1, 17, 0
1, 23, 0
1, 27, 0
1, 19, 0
1, 8, 0
1, 22, 0
20, 21, 0
20, 2, 0
20, 8, 0
20, 13, 0
20, 24, 0
4, 10, 0
4, 24, 0
14, 16, 0
14, 3, 0
14, 26, 0
24, 20, 0
24, 8, 0
24, 13, 0
24, 4, 0
28, 7, 0
28, 13, 0
28, 25, 0
28, 18, 0
28, 8, 0
28, 9, 0
8, 0, 0
8, 13, 0
8, 28, 0
8, 24, 0
8, 1, 0
8, 20, 0
8, 12, 0
8, 25, 0
8, 26, 0
8, 2, 0
8, 21, 0
8, 10, 0
8, 15, 0
15, 0, 0
15, 3, 0
15, 13, 0
15, 8, 0
15, 5, 0
15, 11, 0
22, 0, 0
22, 3, 0
22, 13, 0
22, 23, 1
22, 1, 0
0, 3, 0
0, 13, 0
0, 23, 0
0, 8, 0
0, 15, 0
0, 22, 0
0, 1, 0
12, 7, 0
12, 21, 0
12, 13, 0
12, 2, 0
12, 18, 0
12, 8, 0
16, 13, 0
16, 14, 0
16, 26, 0
6, 5, 0
6, 11, 0
6, 10, 0
10, 4, 0
10, 13, 0
10, 6, 0
10, 8, 0
10, 5, 0
10, 11, 0
7, 18, 0
7, 12, 0
7, 28, 0
7, 9, 0
3, 0, 0
3, 13, 0
3, 14, 0
3, 23, 0
3, 15, 0
3, 22, 0
3, 1, 0
25, 13, 0
25, 8, 0
25, 28, 0
26, 13, 0
26, 14, 0
26, 16, 0
26, 27, 0
26, 8, 0
26, 17, 0
27, 19, 0
27, 17, 0
27, 26, 0
27, 1, 0
21, 20, 0
21, 12, 0
21, 8, 0
21, 2, 0
19, 27, 0
19, 17, 0
19, 1, 0
18, 7, 0
18, 12, 0
18, 28, 0
18, 9, 0
9, 7, 0
9, 18, 0
9, 28, 0
