0, 6, 0
0, 4, 0
0, 17, 0
0, 5, 0
0, 9, 0
13, 16, 0
13, 1, 0
13, 4, 0
13, 2, 0
17, 0, 0
17, 6, 0
17, 4, 0
17, 5, 0
17, 9, 0
3, 12, 0
3, 15, 0
3, 14, 0
16, 2, 0
16, 8, 0
16, 13, 0
16, 4, 0
16, 1, 0
6, 0, 0
6, 4, 0
6, 17, 0
6, 5, 1
6, 9, 0
8, 16, 0
8, 4, 0
8, 1, 0
5, 0, 0
5, 6, 1
5, 4, 0
5, 17, 0
5, 9, 0
11, 7, 0
11, 9, 0
11, 15, 0
11, 10, 1
10, 7, 0
10, 15, 0
10, 11, 1
10, 9, 0
7, 9, 0
7, 15, 0
7, 11, 0
7, 10, 0
12, 3, 0
12, 15, 0
12, 14, 0
4, 0, 0
4, 13, 0
4, 17, 0
4, 2, 0
4, 16, 0
4, 6, 0
4, 8, 0
4, 5, 0
4, 9, 0
14, 12, 0
14, 15, 0
14, 3, 0
2, 16, 0
2, 13, 0
2, 4, 0
2, 1, 0
1, 16, 0
1, 8, 0
1, 13, 0
1, 2, 0
15, 7, 0
15, 12, 0
15, 14, 0
15, 3, 0
15, 9, 0
15, 11, 0
15, 10, 0
9, 0, 0
9, 7, 0
9, 4, 0
9, 17, 0
9, 6, 0
9, 15, 0
9, 5, 0
9, 11, 0
9, 10, 0
