13, 20, 0
13, 12, 1
13, 30, 0
13, 33, 0
17, 37, 0
17, 43, 0
17, 31, 0
17, 23, 0
17, 21, 0
17, 25, 0
17, 9, 0
17, 38, 0
17, 10, 0
23, 0, 0
23, 17, 0
23, 16, 0
23, 6, 0
23, 24, 0
23, 10, 0
23, 7, 0
23, 34, 0
23, 43, 0
23, 31, 0
23, 29, 0
23, 21, 0
23, 19, 0
23, 18, 0
23, 9, 0
42, 20, 0
42, 12, 0
42, 28, 0
42, 29, 0
42, 18, 0
42, 27, 0
42, 19, 0
42, 5, 0
5, 45, 0
5, 28, 0
5, 27, 0
5, 40, 0
5, 44, 0
5, 20, 0
5, 33, 0
5, 25, 0
5, 32, 0
5, 29, 0
5, 42, 0
5, 38, 0
20, 12, 0
20, 13, 0
20, 28, 0
20, 31, 0
20, 33, 0
20, 42, 0
20, 19, 0
20, 29, 0
20, 39, 0
20, 5, 0
20, 44, 0
14, 0, 0
14, 6, 0
14, 24, 0
14, 35, 0
24, 0, 0
24, 23, 0
24, 16, 0
24, 6, 0
24, 11, 0
24, 10, 0
24, 7, 0
24, 34, 0
24, 43, 0
24, 35, 0
24, 14, 0
24, 22, 0
28, 20, 0
28, 29, 0
28, 42, 0
28, 19, 0
28, 5, 0
28, 27, 1
39, 20, 0
39, 45, 0
39, 44, 0
39, 32, 0
39, 31, 0
39, 12, 0
39, 33, 0
39, 29, 0
39, 40, 0
39, 41, 0
39, 30, 0
41, 40, 1
41, 39, 0
41, 44, 0
41, 32, 0
41, 45, 0
0, 7, 0
0, 6, 0
0, 14, 0
0, 23, 0
0, 2, 0
0, 43, 0
0, 36, 0
0, 24, 0
0, 11, 0
0, 1, 0
8, 34, 0
8, 22, 0
12, 20, 0
12, 33, 0
12, 13, 1
12, 31, 0
12, 29, 0
12, 42, 0
12, 39, 0
12, 30, 0
15, 3, 0
15, 4, 0
15, 26, 0
15, 35, 0
15, 6, 0
15, 38, 0
15, 22, 0
10, 16, 0
10, 17, 0
10, 31, 0
10, 23, 0
10, 24, 0
10, 21, 0
10, 43, 0
10, 19, 0
10, 18, 0
10, 9, 1
7, 0, 0
7, 43, 0
7, 23, 0
7, 24, 0
7, 36, 0
7, 11, 0
7, 1, 0
3, 6, 0
3, 4, 1
3, 15, 0
3, 26, 0
3, 22, 0
32, 45, 0
32, 21, 0
32, 38, 0
32, 40, 0
32, 44, 0
32, 5, 0
32, 33, 0
32, 25, 0
32, 31, 0
32, 29, 0
32, 37, 0
32, 39, 0
32, 41, 0
2, 0, 0
2, 37, 0
2, 36, 0
2, 38, 0
2, 1, 1
21, 16, 0
21, 38, 0
21, 17, 0
21, 23, 0
21, 31, 0
21, 37, 0
21, 25, 0
21, 32, 0
21, 10, 0
21, 40, 0
21, 9, 0
33, 45, 0
33, 13, 0
33, 31, 0
33, 5, 0
33, 44, 0
33, 30, 0
33, 20, 0
33, 12, 0
33, 25, 0
33, 32, 0
33, 29, 0
33, 39, 0
19, 20, 0
19, 16, 0
19, 28, 0
19, 31, 0
19, 23, 0
19, 29, 0
19, 18, 0
19, 42, 0
19, 10, 0
19, 9, 0
19, 27, 0
18, 23, 0
18, 31, 0
18, 29, 0
18, 16, 0
18, 42, 0
18, 19, 0
18, 30, 0
18, 10, 0
31, 45, 0
31, 37, 0
31, 17, 0
31, 23, 0
31, 33, 0
31, 16, 0
31, 40, 0
31, 44, 0
31, 10, 0
31, 20, 0
31, 12, 0
31, 25, 0
31, 32, 0
31, 29, 0
31, 21, 0
31, 19, 0
31, 30, 0
31, 39, 0
31, 18, 0
31, 9, 0
29, 45, 0
29, 28, 0
29, 32, 0
29, 23, 0
29, 33, 0
29, 16, 0
29, 27, 0
29, 40, 0
29, 5, 0
29, 30, 0
29, 20, 0
29, 12, 0
29, 31, 0
29, 44, 0
29, 42, 0
29, 19, 0
29, 39, 0
29, 18, 0
29, 9, 0
40, 45, 0
40, 25, 0
40, 32, 0
40, 31, 0
40, 29, 0
40, 21, 0
40, 5, 0
40, 39, 0
40, 41, 1
40, 44, 0
11, 0, 0
11, 7, 0
11, 43, 0
11, 24, 0
11, 1, 0
11, 38, 0
11, 36, 0
1, 0, 0
1, 7, 0
1, 36, 0
1, 11, 0
1, 2, 1
37, 25, 0
37, 32, 0
37, 31, 0
37, 2, 0
37, 21, 0
37, 43, 0
37, 38, 0
37, 17, 0
37, 36, 0
4, 3, 1
4, 38, 0
4, 15, 0
4, 22, 0
4, 6, 0
35, 34, 0
35, 38, 0
35, 14, 0
35, 26, 0
35, 24, 0
35, 6, 0
35, 15, 0
30, 12, 0
30, 13, 0
30, 31, 0
30, 33, 0
30, 16, 0
30, 29, 0
30, 39, 0
30, 18, 0
30, 45, 0
38, 17, 0
38, 35, 0
38, 5, 0
38, 11, 0
38, 37, 0
38, 4, 0
38, 25, 0
38, 32, 0
38, 2, 0
38, 21, 0
38, 43, 0
38, 15, 0
38, 36, 0
22, 24, 0
22, 34, 0
22, 4, 0
22, 26, 0
22, 3, 0
22, 6, 0
22, 8, 0
22, 15, 0
36, 0, 0
36, 7, 0
36, 43, 0
36, 2, 0
36, 37, 0
36, 38, 0
36, 11, 0
36, 1, 0
45, 33, 0
45, 44, 1
45, 25, 0
45, 32, 0
45, 31, 0
45, 29, 0
45, 40, 0
45, 30, 0
45, 39, 0
45, 41, 0
45, 5, 0
16, 21, 0
16, 30, 0
16, 23, 0
16, 31, 0
16, 29, 0
16, 18, 0
16, 19, 0
16, 24, 0
16, 10, 0
16, 9, 0
27, 42, 0
27, 19, 0
27, 28, 1
27, 5, 0
27, 29, 0
44, 20, 0
44, 33, 0
44, 25, 0
44, 31, 0
44, 32, 0
44, 45, 1
44, 40, 0
44, 29, 0
44, 39, 0
44, 5, 0
44, 41, 0
34, 35, 0
34, 26, 0
34, 23, 0
34, 24, 0
34, 6, 0
34, 8, 0
34, 22, 0
25, 33, 0
25, 21, 0
25, 17, 0
25, 32, 0
25, 31, 0
25, 45, 0
25, 37, 0
25, 38, 0
25, 40, 0
25, 5, 0
25, 44, 0
26, 3, 0
26, 34, 0
26, 6, 0
26, 35, 0
26, 15, 0
26, 22, 0
6, 0, 0
6, 3, 0
6, 4, 0
6, 14, 0
6, 26, 0
6, 23, 0
6, 35, 0
6, 34, 0
6, 24, 0
6, 15, 0
6, 22, 0
43, 0, 0
43, 7, 0
43, 17, 0
43, 23, 0
43, 24, 0
43, 37, 0
43, 36, 0
43, 38, 0
43, 11, 0
43, 10, 0
9, 16, 0
9, 17, 0
9, 23, 0
9, 31, 0
9, 29, 0
9, 21, 0
9, 19, 0
9, 10, 1
