0, 8, 0
0, 14, 0
0, 1, 1
13, 3, 0
13, 2, 0
13, 9, 0
3, 13, 0
3, 9, 0
3, 2, 0
6, 14, 0
6, 10, 0
6, 8, 0
6, 5, 0
6, 11, 0
6, 1, 0
8, 0, 0
8, 6, 0
8, 14, 0
8, 1, 0
5, 6, 0
5, 11, 0
5, 10, 0
11, 6, 0
11, 5, 0
11, 10, 0
10, 6, 0
10, 5, 0
10, 11, 0
7, 4, 0
7, 2, 0
12, 14, 0
12, 9, 0
4, 7, 0
4, 2, 0
14, 0, 0
14, 12, 0
14, 9, 0
14, 6, 0
14, 8, 0
14, 1, 0
2, 7, 0
2, 3, 0
2, 13, 0
2, 4, 0
2, 9, 0
1, 0, 1
1, 6, 0
1, 8, 0
1, 14, 0
9, 2, 0
9, 12, 0
9, 13, 0
9, 14, 0
9, 3, 0
