0, 1, 0
0, 8, 0
0, 9, 0
3, 7, 0
3, 6, 0
3, 4, 0
4, 7, 0
4, 3, 0
4, 2, 0
4, 6, 0
2, 7, 0
2, 6, 0
2, 4, 0
2, 5, 0
2, 1, 0
6, 7, 0
6, 3, 0
6, 4, 0
6, 2, 0
1, 0, 0
1, 2, 0
1, 8, 0
1, 5, 0
1, 9, 0
8, 0, 0
8, 1, 0
8, 9, 1
5, 1, 0
5, 2, 0
7, 2, 0
7, 3, 0
7, 4, 0
7, 6, 0
9, 0, 0
9, 8, 1
9, 1, 0
