0, 7, 0
0, 3, 0
0, 4, 0
0, 9, 0
0, 2, 0
0, 6, 0
0, 8, 0
0, 5, 0
0, 10, 0
0, 1, 0
3, 0, 0
3, 7, 0
3, 6, 0
3, 8, 0
3, 10, 0
3, 9, 0
4, 0, 0
4, 2, 0
4, 5, 1
4, 1, 0
2, 0, 0
2, 4, 0
2, 5, 0
2, 1, 1
6, 0, 0
6, 3, 0
6, 8, 0
6, 7, 0
6, 5, 0
1, 0, 0
1, 4, 0
1, 5, 0
1, 2, 1
8, 0, 0
8, 3, 0
8, 6, 0
8, 9, 1
5, 0, 0
5, 6, 0
5, 1, 0
5, 4, 1
5, 2, 0
7, 0, 0
7, 3, 0
7, 6, 0
7, 10, 0
10, 0, 0
10, 3, 0
10, 7, 0
10, 9, 1
9, 0, 0
9, 3, 0
9, 8, 1
9, 10, 1
