0, 7, 0
0, 4, 0
0, 2, 0
0, 9, 0
0, 5, 0
0, 1, 0
8, 12, 0
8, 6, 0
3, 7, 0
3, 10, 0
3, 4, 0
3, 5, 0
3, 1, 0
6, 12, 0
6, 8, 0
6, 11, 0
6, 9, 0
5, 0, 0
5, 3, 0
5, 4, 1
5, 2, 0
5, 9, 0
5, 1, 0
11, 12, 0
11, 4, 0
11, 9, 0
11, 6, 0
10, 7, 0
10, 3, 0
7, 0, 0
7, 3, 0
7, 2, 0
7, 10, 0
7, 1, 0
12, 6, 0
12, 8, 0
12, 4, 0
12, 11, 0
12, 9, 0
4, 0, 0
4, 12, 0
4, 3, 0
4, 2, 0
4, 9, 0
4, 5, 1
4, 11, 0
4, 1, 0
2, 0, 0
2, 7, 0
2, 4, 0
2, 5, 0
2, 1, 0
1, 0, 0
1, 7, 0
1, 4, 0
1, 3, 0
1, 2, 0
1, 5, 0
9, 0, 0
9, 12, 0
9, 4, 0
9, 6, 0
9, 5, 0
9, 11, 0
