13, 3, 0
13, 4, 0
13, 28, 0
13, 23, 0
13, 24, 0
13, 18, 0
13, 25, 0
13, 14, 0
17, 4, 0
17, 22, 0
23, 18, 0
23, 3, 0
23, 13, 0
23, 4, 0
23, 24, 1
2, 21, 0
2, 5, 0
5, 19, 0
5, 26, 0
5, 2, 0
11, 28, 0
11, 15, 0
1, 12, 0
1, 27, 0
20, 16, 0
20, 26, 0
20, 9, 0
4, 3, 0
4, 13, 0
4, 25, 0
4, 26, 0
4, 23, 0
4, 24, 0
4, 18, 0
4, 28, 0
4, 17, 0
14, 13, 0
14, 28, 0
24, 3, 0
24, 4, 0
24, 13, 0
24, 23, 1
24, 18, 0
24, 25, 1
28, 13, 0
28, 4, 0
28, 14, 0
28, 26, 0
28, 11, 0
8, 7, 1
8, 0, 0
8, 21, 0
15, 16, 0
15, 11, 0
22, 0, 0
22, 6, 0
22, 17, 0
22, 26, 0
22, 10, 0
0, 7, 0
0, 26, 0
0, 21, 0
0, 6, 0
0, 8, 0
0, 22, 0
12, 26, 0
12, 1, 0
16, 20, 0
16, 15, 0
6, 0, 0
6, 22, 0
6, 10, 0
10, 6, 0
10, 22, 0
7, 0, 0
7, 21, 0
7, 8, 1
3, 4, 0
3, 13, 0
3, 23, 0
3, 24, 0
3, 18, 0
3, 25, 0
25, 18, 0
25, 3, 0
25, 13, 0
25, 4, 0
25, 24, 1
26, 0, 0
26, 20, 0
26, 4, 0
26, 28, 0
26, 12, 0
26, 21, 0
26, 27, 0
26, 19, 0
26, 5, 0
26, 22, 0
27, 9, 0
27, 26, 0
27, 1, 0
21, 0, 0
21, 7, 0
21, 8, 0
21, 26, 0
21, 2, 0
19, 5, 0
19, 26, 0
18, 3, 0
18, 4, 0
18, 13, 0
18, 23, 0
18, 24, 0
18, 25, 0
9, 20, 0
9, 27, 0
