13, 12, 1
13, 1, 0
13, 15, 0
13, 10, 0
17, 0, 0
17, 3, 0
17, 14, 0
17, 9, 0
5, 16, 0
5, 0, 0
5, 20, 0
5, 4, 1
5, 14, 0
11, 7, 0
11, 21, 0
11, 6, 0
11, 1, 0
11, 8, 0
11, 10, 0
11, 9, 0
1, 12, 0
1, 13, 0
1, 9, 0
1, 15, 0
1, 11, 0
1, 10, 0
20, 0, 0
20, 16, 0
20, 2, 0
20, 18, 0
20, 19, 1
20, 5, 0
4, 16, 0
4, 0, 0
4, 14, 0
4, 5, 1
14, 0, 0
14, 4, 0
14, 17, 0
14, 2, 0
14, 16, 0
14, 5, 0
8, 21, 0
8, 6, 1
8, 11, 0
8, 10, 0
15, 12, 0
15, 13, 0
15, 10, 0
15, 1, 0
0, 20, 0
0, 3, 0
0, 4, 0
0, 14, 0
0, 2, 0
0, 17, 0
0, 5, 0
0, 9, 0
3, 0, 0
3, 21, 0
3, 17, 0
3, 9, 0
16, 20, 0
16, 4, 0
16, 14, 0
16, 2, 0
16, 18, 0
16, 19, 0
16, 5, 0
6, 7, 1
6, 21, 0
6, 8, 1
6, 11, 0
6, 10, 0
10, 12, 0
10, 13, 0
10, 9, 0
10, 21, 0
10, 6, 0
10, 8, 0
10, 15, 0
10, 11, 0
10, 1, 0
7, 21, 0
7, 6, 1
7, 11, 0
12, 13, 1
12, 15, 0
12, 10, 0
12, 1, 0
2, 20, 0
2, 0, 0
2, 14, 0
2, 16, 0
2, 19, 0
2, 18, 0
21, 7, 0
21, 3, 0
21, 6, 0
21, 8, 0
21, 10, 0
21, 11, 0
21, 9, 0
19, 20, 1
19, 16, 0
19, 18, 0
19, 2, 0
18, 20, 0
18, 16, 0
18, 19, 0
18, 2, 0
9, 0, 0
9, 3, 0
9, 17, 0
9, 21, 0
9, 1, 0
9, 11, 0
9, 10, 0
