0, 12, 0
0, 13, 0
0, 5, 0
0, 1, 0
13, 0, 0
13, 12, 1
13, 15, 0
13, 5, 0
13, 1, 0
17, 14, 0
17, 9, 0
3, 6, 0
3, 10, 0
16, 6, 0
16, 4, 0
16, 2, 0
6, 16, 0
6, 3, 0
8, 7, 0
8, 9, 0
8, 14, 0
8, 1, 0
5, 0, 0
5, 12, 0
5, 13, 0
5, 4, 0
5, 2, 0
5, 15, 0
11, 10, 0
10, 3, 0
10, 11, 0
7, 8, 0
7, 14, 0
7, 9, 0
12, 0, 0
12, 13, 1
12, 5, 0
4, 16, 0
4, 15, 0
4, 5, 0
4, 2, 0
14, 7, 0
14, 8, 0
14, 17, 0
14, 9, 0
2, 16, 0
2, 4, 0
2, 15, 0
2, 5, 0
1, 0, 0
1, 8, 0
1, 13, 0
15, 13, 0
15, 5, 0
15, 4, 0
15, 2, 0
9, 7, 0
9, 17, 0
9, 8, 0
9, 14, 0
