0, 20, 0
0, 2, 0
0, 5, 0
0, 1, 1
7, 13, 0
7, 5, 0
7, 4, 0
7, 10, 0
13, 7, 0
13, 4, 0
13, 17, 0
13, 5, 0
17, 13, 0
17, 14, 0
17, 4, 0
17, 10, 0
3, 12, 0
3, 16, 0
3, 6, 0
3, 19, 0
3, 8, 0
3, 18, 0
3, 11, 0
3, 1, 0
16, 18, 0
16, 3, 0
16, 20, 0
16, 6, 0
6, 20, 0
6, 16, 0
6, 18, 0
6, 3, 0
8, 12, 0
8, 19, 0
8, 11, 0
8, 3, 0
5, 0, 0
5, 20, 0
5, 13, 0
5, 4, 0
5, 2, 0
5, 10, 0
5, 7, 0
5, 1, 0
11, 12, 1
11, 19, 0
11, 8, 0
11, 3, 0
10, 7, 0
10, 4, 0
10, 17, 0
10, 5, 0
20, 0, 0
20, 16, 0
20, 2, 0
20, 18, 0
20, 6, 0
20, 5, 0
20, 1, 0
12, 3, 0
12, 19, 0
12, 8, 0
12, 11, 1
4, 7, 0
4, 13, 0
4, 17, 0
4, 5, 0
4, 10, 0
14, 17, 0
14, 9, 0
2, 0, 0
2, 20, 0
2, 5, 0
2, 1, 0
19, 12, 0
19, 8, 0
19, 11, 0
19, 3, 0
1, 0, 1
1, 20, 0
1, 3, 0
1, 5, 0
1, 2, 0
15, 9, 0
18, 20, 0
18, 16, 0
18, 3, 0
18, 6, 0
9, 15, 0
9, 14, 0
