0, 3, 0
0, 1, 0
0, 11, 0
0, 9, 0
13, 6, 0
13, 11, 0
13, 2, 0
3, 0, 0
3, 1, 0
3, 11, 0
3, 9, 0
6, 12, 0
6, 8, 0
6, 13, 0
6, 11, 0
6, 2, 0
8, 2, 0
8, 12, 0
8, 10, 0
8, 6, 0
5, 7, 0
5, 4, 1
5, 10, 0
11, 0, 0
11, 12, 0
11, 13, 0
11, 3, 0
11, 6, 0
10, 7, 0
10, 12, 0
10, 4, 0
10, 2, 0
10, 8, 0
10, 5, 0
7, 4, 0
7, 5, 0
7, 10, 0
12, 6, 0
12, 8, 0
12, 11, 0
12, 10, 0
4, 7, 0
4, 5, 1
4, 10, 0
2, 6, 0
2, 8, 0
2, 13, 0
2, 10, 0
1, 0, 0
1, 3, 0
1, 9, 0
9, 0, 0
9, 3, 0
9, 1, 0
