0, 7, 0
0, 10, 0
0, 4, 0
0, 5, 0
0, 9, 0
8, 7, 1
8, 5, 0
8, 10, 0
3, 12, 0
3, 5, 0
3, 11, 0
3, 2, 1
6, 12, 0
6, 4, 0
6, 5, 0
6, 11, 0
6, 1, 0
5, 0, 0
5, 12, 0
5, 7, 0
5, 3, 0
5, 2, 0
5, 6, 0
5, 8, 0
5, 10, 0
5, 11, 0
5, 1, 0
11, 12, 0
11, 3, 0
11, 5, 0
11, 6, 0
10, 0, 0
10, 7, 0
10, 4, 0
10, 8, 0
10, 5, 0
10, 9, 0
7, 0, 0
7, 8, 1
7, 5, 0
7, 10, 0
12, 3, 0
12, 2, 0
12, 6, 0
12, 5, 0
12, 11, 0
12, 1, 0
4, 0, 0
4, 6, 0
4, 9, 0
4, 10, 0
2, 12, 0
2, 3, 1
2, 5, 0
2, 1, 1
1, 12, 0
1, 2, 1
1, 5, 0
1, 6, 0
9, 0, 0
9, 4, 0
9, 10, 0
