13, 28, 0
13, 32, 0
13, 33, 0
13, 16, 0
13, 27, 0
13, 2, 0
13, 24, 0
13, 30, 0
13, 20, 0
13, 12, 0
13, 4, 0
13, 25, 0
13, 26, 0
13, 6, 0
13, 21, 0
13, 29, 0
13, 15, 0
13, 9, 0
17, 18, 1
17, 0, 0
17, 7, 0
17, 31, 0
17, 10, 0
31, 0, 0
31, 7, 0
31, 17, 0
31, 18, 0
31, 10, 0
23, 14, 0
23, 22, 0
10, 0, 0
10, 3, 0
10, 7, 0
10, 17, 0
10, 26, 0
10, 31, 0
10, 18, 0
10, 30, 0
2, 20, 0
2, 12, 0
2, 13, 0
2, 29, 0
2, 21, 0
2, 6, 0
5, 6, 0
5, 28, 0
5, 29, 0
11, 0, 0
11, 27, 0
11, 26, 0
11, 22, 0
11, 1, 0
1, 22, 0
1, 11, 0
20, 21, 0
20, 12, 0
20, 13, 0
20, 25, 0
20, 24, 0
20, 16, 0
20, 2, 0
20, 29, 0
20, 15, 0
4, 12, 0
4, 13, 0
4, 25, 0
4, 24, 0
4, 21, 0
4, 29, 0
4, 9, 0
14, 7, 0
14, 3, 0
14, 26, 0
14, 23, 0
14, 0, 0
24, 20, 0
24, 0, 0
24, 4, 0
24, 25, 0
24, 29, 0
24, 13, 0
24, 19, 0
28, 6, 0
28, 13, 0
28, 5, 0
28, 29, 0
30, 7, 0
30, 13, 0
30, 32, 0
30, 29, 0
30, 21, 0
30, 27, 0
30, 22, 0
30, 10, 0
8, 34, 0
8, 19, 0
8, 29, 0
15, 20, 0
15, 16, 0
15, 13, 0
22, 0, 0
22, 7, 0
22, 26, 0
22, 23, 0
22, 27, 0
22, 1, 0
22, 11, 0
22, 30, 0
0, 17, 0
0, 26, 0
0, 33, 0
0, 16, 0
0, 27, 0
0, 11, 0
0, 10, 0
0, 3, 0
0, 14, 0
0, 31, 0
0, 24, 0
0, 18, 0
0, 22, 0
3, 0, 0
3, 14, 0
3, 26, 0
3, 10, 0
34, 19, 0
34, 8, 0
34, 29, 0
16, 0, 0
16, 33, 0
16, 13, 0
16, 29, 0
16, 21, 0
16, 20, 0
16, 15, 0
6, 13, 0
6, 28, 0
6, 2, 0
6, 21, 0
6, 29, 0
6, 5, 0
27, 0, 0
27, 7, 0
27, 13, 0
27, 11, 0
27, 26, 0
27, 29, 0
27, 21, 0
27, 22, 0
27, 30, 0
7, 14, 0
7, 32, 0
7, 31, 0
7, 18, 0
7, 27, 0
7, 30, 0
7, 17, 0
7, 22, 0
7, 10, 0
12, 20, 0
12, 29, 0
12, 13, 0
12, 4, 0
12, 2, 0
25, 20, 0
25, 4, 0
25, 13, 0
25, 32, 0
25, 24, 0
25, 19, 0
25, 29, 0
32, 7, 0
32, 13, 0
32, 25, 0
32, 29, 0
32, 21, 0
32, 9, 0
32, 30, 0
29, 6, 0
29, 13, 0
29, 28, 0
29, 12, 0
29, 16, 0
29, 27, 0
29, 24, 0
29, 5, 0
29, 30, 0
29, 20, 0
29, 34, 0
29, 4, 0
29, 25, 0
29, 32, 0
29, 2, 0
29, 21, 0
29, 19, 0
29, 8, 0
21, 13, 0
21, 26, 0
21, 16, 0
21, 6, 0
21, 29, 0
21, 27, 0
21, 20, 0
21, 33, 0
21, 4, 0
21, 32, 0
21, 2, 0
21, 30, 0
33, 0, 0
33, 16, 0
33, 13, 0
33, 26, 0
33, 21, 0
19, 24, 0
19, 34, 0
19, 8, 0
19, 25, 0
19, 29, 0
26, 0, 0
26, 33, 0
26, 13, 0
26, 14, 0
26, 22, 0
26, 3, 0
26, 21, 0
26, 27, 0
26, 11, 0
26, 10, 0
18, 0, 0
18, 7, 0
18, 17, 1
18, 31, 0
18, 10, 0
9, 4, 0
9, 13, 0
9, 32, 0
