0, 8, 0
0, 4, 0
6, 3, 0
6, 9, 0
6, 2, 0
1, 7, 0
1, 3, 0
1, 11, 0
1, 2, 0
5, 7, 0
5, 10, 0
11, 3, 0
11, 2, 0
11, 1, 0
10, 7, 0
10, 5, 0
7, 2, 0
7, 3, 0
7, 10, 0
7, 5, 0
7, 1, 0
3, 7, 0
3, 6, 0
3, 2, 0
3, 11, 0
3, 1, 0
4, 0, 0
4, 8, 0
2, 7, 0
2, 3, 0
2, 6, 0
2, 1, 0
2, 11, 0
2, 9, 0
8, 0, 0
8, 4, 0
8, 9, 0
9, 6, 0
9, 8, 0
9, 2, 0
