0, 6, 0
0, 1, 0
0, 8, 0
0, 9, 0
3, 4, 0
3, 2, 0
4, 3, 0
4, 2, 0
2, 7, 0
2, 3, 0
2, 8, 0
2, 5, 0
2, 4, 0
6, 0, 0
6, 5, 1
1, 0, 0
1, 9, 0
8, 7, 1
8, 0, 0
8, 5, 1
8, 2, 0
5, 7, 1
5, 6, 1
5, 8, 1
5, 2, 0
7, 8, 1
7, 5, 1
7, 2, 0
9, 0, 0
9, 1, 0
