0, 7, 0
0, 5, 0
0, 11, 0
0, 9, 0
6, 11, 0
6, 10, 0
1, 7, 0
1, 3, 0
1, 8, 0
1, 4, 0
5, 0, 0
5, 7, 0
5, 9, 0
11, 0, 0
11, 6, 0
11, 10, 0
10, 6, 0
10, 11, 0
10, 2, 0
7, 0, 0
7, 3, 0
7, 4, 0
7, 1, 0
7, 8, 0
7, 5, 0
7, 9, 0
3, 7, 0
3, 8, 0
3, 4, 1
3, 1, 0
4, 7, 0
4, 3, 1
4, 8, 0
4, 9, 0
4, 1, 0
2, 10, 0
8, 7, 0
8, 3, 0
8, 4, 0
8, 9, 0
8, 1, 0
9, 7, 0
9, 0, 0
9, 8, 0
9, 5, 0
9, 4, 0
