0, 7, 0
0, 12, 0
0, 13, 0
0, 11, 0
0, 9, 0
13, 0, 0
13, 12, 0
13, 7, 0
13, 9, 0
13, 11, 0
13, 10, 0
3, 4, 0
3, 2, 0
3, 6, 0
3, 1, 0
3, 10, 0
3, 5, 0
3, 11, 0
3, 9, 0
6, 3, 0
6, 4, 0
6, 9, 0
6, 2, 0
6, 10, 0
6, 5, 0
6, 11, 0
6, 1, 0
8, 7, 0
5, 3, 0
5, 4, 1
5, 2, 0
5, 6, 0
5, 10, 0
5, 11, 0
5, 1, 0
11, 0, 0
11, 12, 0
11, 13, 0
11, 9, 0
11, 4, 0
11, 3, 0
11, 6, 0
11, 10, 0
11, 5, 0
11, 1, 0
10, 7, 0
10, 3, 0
10, 4, 0
10, 13, 0
10, 6, 0
10, 5, 0
10, 11, 0
10, 9, 1
7, 0, 0
7, 12, 0
7, 13, 0
7, 9, 0
7, 8, 0
7, 10, 0
7, 1, 0
12, 0, 0
12, 7, 0
12, 13, 0
12, 11, 0
12, 1, 0
4, 3, 0
4, 2, 0
4, 6, 0
4, 1, 0
4, 9, 0
4, 5, 1
4, 11, 0
4, 10, 0
2, 6, 0
2, 3, 0
2, 4, 0
2, 5, 0
2, 1, 0
1, 7, 0
1, 12, 0
1, 4, 0
1, 3, 0
1, 6, 0
1, 2, 0
1, 5, 0
1, 11, 0
9, 0, 0
9, 3, 0
9, 4, 0
9, 13, 0
9, 6, 0
9, 7, 0
9, 11, 0
9, 10, 1
