0, 3, 0
3, 0, 0
3, 7, 0
3, 4, 0
3, 2, 0
3, 6, 0
3, 8, 0
3, 5, 0
3, 1, 0
4, 3, 0
4, 1, 0
4, 8, 0
4, 5, 1
4, 2, 0
7, 3, 0
7, 2, 0
7, 5, 0
7, 6, 0
2, 7, 0
2, 3, 0
2, 8, 0
2, 5, 0
2, 4, 0
6, 7, 0
6, 3, 0
6, 5, 1
6, 1, 0
8, 3, 0
8, 1, 0
8, 4, 0
8, 5, 0
8, 2, 0
5, 7, 0
5, 3, 0
5, 4, 1
5, 2, 0
5, 6, 1
5, 8, 0
5, 1, 0
1, 3, 0
1, 8, 0
1, 5, 0
1, 4, 0
1, 6, 0
