0, 2, 0
0, 12, 0
0, 9, 0
0, 14, 0
0, 1, 1
13, 3, 0
13, 4, 0
13, 5, 0
13, 10, 0
17, 7, 0
17, 6, 0
17, 16, 0
17, 8, 0
17, 4, 0
3, 12, 0
3, 13, 0
3, 4, 0
3, 10, 0
3, 1, 0
3, 5, 0
3, 11, 0
3, 9, 0
16, 7, 0
16, 17, 0
16, 2, 0
16, 6, 0
16, 8, 0
16, 15, 1
16, 1, 0
6, 7, 0
6, 17, 0
6, 2, 0
6, 16, 0
6, 8, 0
6, 15, 0
8, 16, 0
8, 6, 0
8, 7, 1
8, 17, 0
5, 3, 0
5, 13, 0
5, 14, 0
5, 4, 1
5, 2, 0
5, 10, 0
11, 12, 1
11, 9, 0
11, 3, 0
11, 1, 0
10, 3, 0
10, 13, 0
10, 5, 0
10, 4, 0
7, 16, 0
7, 6, 0
7, 8, 1
7, 17, 0
7, 2, 0
12, 0, 0
12, 3, 0
12, 14, 0
12, 9, 0
12, 11, 1
12, 1, 0
4, 3, 0
4, 13, 0
4, 14, 0
4, 2, 0
4, 17, 0
4, 10, 0
4, 5, 1
4, 9, 0
14, 0, 0
14, 12, 0
14, 4, 0
14, 2, 0
14, 9, 0
14, 5, 0
14, 1, 0
2, 0, 0
2, 7, 0
2, 4, 0
2, 14, 0
2, 16, 0
2, 6, 0
2, 15, 0
2, 5, 0
2, 1, 0
1, 0, 1
1, 12, 0
1, 14, 0
1, 3, 0
1, 2, 0
1, 16, 0
1, 11, 0
1, 9, 0
15, 16, 1
15, 6, 0
15, 2, 0
9, 0, 0
9, 12, 0
9, 4, 0
9, 14, 0
9, 3, 0
9, 11, 0
9, 1, 0
