0, 7, 0
0, 12, 0
0, 4, 0
0, 14, 0
0, 13, 0
0, 1, 0
0, 5, 0
0, 9, 0
13, 0, 0
13, 7, 0
13, 8, 0
13, 2, 0
3, 12, 0
3, 10, 0
3, 11, 0
3, 6, 0
6, 12, 0
6, 9, 0
6, 3, 0
6, 10, 0
6, 1, 0
8, 13, 0
8, 2, 0
5, 0, 0
5, 4, 0
5, 14, 0
5, 9, 0
11, 12, 0
11, 10, 0
11, 3, 0
10, 12, 0
10, 4, 0
10, 3, 0
10, 6, 0
10, 11, 0
10, 1, 0
7, 0, 0
7, 13, 0
7, 14, 0
7, 4, 0
7, 1, 0
12, 0, 0
12, 3, 0
12, 4, 0
12, 6, 0
12, 10, 0
12, 11, 0
12, 1, 0
4, 0, 0
4, 12, 0
4, 7, 0
4, 14, 0
4, 10, 0
4, 9, 0
4, 5, 0
4, 1, 0
14, 0, 0
14, 7, 0
14, 4, 0
14, 5, 0
2, 8, 0
2, 13, 0
1, 0, 0
1, 12, 0
1, 4, 0
1, 6, 0
1, 10, 0
1, 7, 0
1, 9, 0
9, 0, 0
9, 6, 0
9, 4, 0
9, 5, 0
9, 1, 0
