0, 8, 0
0, 5, 0
0, 9, 0
13, 6, 0
13, 10, 0
13, 5, 0
13, 11, 0
13, 12, 0
3, 7, 0
3, 2, 1
3, 14, 0
3, 1, 0
16, 6, 0
16, 4, 0
16, 15, 1
6, 16, 0
6, 13, 0
6, 15, 0
6, 4, 0
8, 0, 0
8, 5, 0
8, 9, 1
5, 0, 0
5, 12, 0
5, 13, 0
5, 9, 0
5, 8, 0
5, 11, 0
5, 10, 0
11, 12, 1
11, 13, 0
11, 5, 0
10, 12, 1
10, 13, 0
10, 5, 0
7, 3, 0
7, 2, 0
7, 14, 0
7, 1, 0
12, 13, 0
12, 5, 0
12, 11, 1
12, 10, 1
4, 16, 0
4, 6, 0
4, 15, 0
4, 1, 0
14, 7, 0
14, 3, 0
14, 2, 0
14, 1, 0
2, 7, 0
2, 3, 1
2, 14, 0
2, 1, 0
1, 7, 0
1, 3, 0
1, 4, 0
1, 14, 0
1, 2, 0
1, 15, 0
15, 16, 1
15, 6, 0
15, 4, 0
15, 1, 0
9, 0, 0
9, 8, 1
9, 5, 0
