0, 6, 0
0, 1, 0
0, 4, 0
0, 2, 0
3, 7, 0
3, 4, 0
3, 5, 0
3, 1, 0
4, 0, 0
4, 3, 0
4, 7, 0
4, 2, 0
4, 5, 0
4, 1, 0
7, 3, 0
7, 4, 0
7, 5, 0
2, 0, 0
2, 6, 0
2, 4, 0
2, 1, 0
6, 0, 0
6, 2, 0
5, 7, 0
5, 3, 0
5, 4, 0
1, 0, 0
1, 3, 0
1, 4, 0
1, 2, 0
