13, 7, 0
13, 14, 1
13, 2, 0
17, 20, 0
17, 12, 0
17, 27, 0
17, 6, 0
17, 8, 0
17, 10, 0
17, 9, 0
23, 0, 0
23, 7, 0
23, 26, 0
23, 11, 0
23, 24, 0
2, 20, 0
2, 7, 0
2, 13, 0
2, 14, 0
2, 6, 0
2, 27, 0
2, 8, 0
5, 16, 0
5, 3, 0
5, 15, 0
5, 1, 0
11, 7, 0
11, 0, 0
11, 26, 0
11, 23, 0
11, 24, 0
1, 3, 0
1, 4, 0
1, 21, 0
1, 16, 0
1, 18, 0
1, 22, 0
1, 5, 0
20, 6, 0
20, 8, 0
20, 17, 0
20, 27, 0
20, 2, 0
4, 21, 0
4, 16, 0
4, 15, 0
4, 18, 0
4, 22, 0
4, 1, 0
14, 7, 0
14, 13, 1
14, 2, 0
24, 0, 0
24, 7, 0
24, 26, 0
24, 11, 0
24, 23, 0
8, 20, 0
8, 27, 0
8, 2, 0
8, 17, 0
8, 6, 0
15, 3, 0
15, 4, 0
15, 21, 0
15, 16, 1
15, 5, 0
15, 18, 0
22, 21, 1
22, 18, 0
22, 4, 0
22, 1, 0
0, 3, 0
0, 26, 0
0, 23, 0
0, 24, 0
0, 19, 0
0, 11, 0
3, 0, 0
3, 26, 0
3, 18, 0
3, 19, 0
3, 15, 0
3, 5, 0
3, 1, 0
16, 4, 0
16, 15, 1
16, 5, 0
16, 1, 0
6, 20, 0
6, 27, 0
6, 8, 0
6, 17, 0
6, 2, 0
10, 12, 0
10, 25, 0
10, 17, 0
10, 9, 0
7, 13, 0
7, 14, 0
7, 26, 0
7, 23, 0
7, 24, 0
7, 2, 0
7, 11, 0
12, 17, 0
12, 9, 0
12, 25, 0
12, 10, 0
25, 12, 0
25, 10, 0
26, 7, 0
26, 0, 0
26, 3, 0
26, 23, 0
26, 24, 0
26, 11, 0
27, 20, 0
27, 6, 0
27, 8, 0
27, 17, 0
27, 2, 0
21, 18, 0
21, 4, 0
21, 15, 0
21, 22, 1
21, 1, 0
19, 0, 0
19, 3, 0
18, 3, 0
18, 4, 0
18, 21, 0
18, 15, 0
18, 22, 0
18, 1, 0
9, 12, 0
9, 17, 0
9, 10, 0
