0, 3, 0
0, 6, 0
0, 5, 0
0, 1, 0
3, 0, 0
3, 6, 0
3, 9, 0
3, 1, 0
4, 8, 0
4, 2, 0
2, 6, 0
2, 1, 0
2, 4, 0
2, 9, 0
6, 0, 0
6, 3, 0
6, 1, 0
6, 9, 0
6, 2, 0
1, 0, 0
1, 3, 0
1, 2, 0
1, 6, 0
1, 5, 0
1, 9, 0
8, 4, 0
5, 0, 0
5, 7, 0
5, 1, 0
5, 9, 0
7, 5, 0
9, 3, 0
9, 1, 0
9, 2, 0
9, 5, 0
9, 6, 0
