0, 3, 0
0, 4, 0
0, 10, 0
0, 1, 0
6, 7, 0
6, 8, 0
6, 2, 0
1, 0, 0
1, 7, 0
1, 8, 0
1, 4, 0
1, 3, 0
5, 11, 0
5, 9, 0
11, 5, 0
11, 10, 0
10, 0, 0
10, 3, 0
10, 4, 0
10, 11, 0
7, 2, 0
7, 6, 0
7, 8, 0
7, 1, 0
3, 0, 0
3, 1, 0
3, 4, 1
3, 10, 0
4, 0, 0
4, 3, 1
4, 1, 0
4, 10, 0
2, 7, 0
2, 6, 0
8, 7, 0
8, 6, 0
8, 1, 0
9, 5, 0
