13, 37, 0
13, 8, 0
13, 49, 0
13, 48, 0
17, 0, 0
17, 12, 0
17, 27, 0
17, 34, 0
17, 42, 0
17, 10, 0
17, 39, 0
17, 46, 0
17, 30, 0
23, 45, 0
23, 25, 0
23, 31, 0
23, 3, 0
23, 21, 0
23, 33, 0
23, 47, 0
23, 1, 0
46, 0, 0
46, 17, 0
46, 26, 0
46, 2, 0
46, 27, 0
46, 39, 0
46, 10, 0
46, 40, 0
46, 5, 0
46, 30, 0
20, 18, 0
20, 21, 0
20, 15, 0
20, 31, 0
34, 7, 0
34, 33, 0
34, 17, 0
34, 24, 0
34, 16, 0
34, 43, 0
34, 12, 0
34, 10, 0
34, 42, 0
34, 47, 0
34, 1, 0
14, 6, 0
14, 19, 0
14, 53, 0
14, 52, 0
14, 32, 0
24, 12, 0
24, 34, 0
24, 43, 0
24, 47, 0
24, 10, 0
28, 44, 0
15, 20, 0
15, 3, 0
15, 21, 0
15, 31, 0
15, 45, 0
41, 33, 0
41, 26, 0
41, 51, 0
41, 35, 0
41, 1, 0
41, 29, 0
41, 38, 0
41, 47, 0
41, 9, 0
0, 12, 0
0, 17, 0
0, 42, 0
0, 1, 0
0, 10, 0
0, 39, 0
0, 46, 0
0, 47, 0
0, 30, 0
8, 33, 0
8, 13, 0
8, 50, 0
8, 45, 0
8, 37, 0
8, 49, 0
8, 48, 0
8, 47, 0
8, 1, 0
51, 26, 0
51, 35, 0
51, 18, 0
51, 29, 0
51, 5, 0
51, 41, 0
51, 22, 0
51, 9, 0
3, 45, 0
3, 15, 0
3, 31, 0
3, 23, 0
38, 41, 0
38, 22, 0
38, 29, 0
47, 0, 0
47, 8, 0
47, 23, 0
47, 34, 0
47, 40, 0
47, 30, 0
47, 7, 0
47, 33, 0
47, 43, 0
47, 22, 0
47, 26, 0
47, 24, 0
47, 42, 0
47, 1, 0
47, 39, 0
47, 41, 0
47, 10, 0
47, 36, 0
10, 0, 0
10, 12, 0
10, 43, 0
10, 24, 0
10, 17, 0
10, 42, 0
10, 34, 0
10, 39, 0
10, 46, 0
10, 47, 0
10, 1, 0
7, 16, 0
7, 42, 0
7, 47, 0
7, 34, 0
33, 23, 0
33, 47, 0
33, 1, 0
33, 34, 0
33, 50, 0
33, 26, 0
33, 21, 0
33, 42, 0
33, 8, 0
33, 41, 0
33, 22, 0
33, 36, 0
32, 53, 0
32, 14, 0
2, 27, 0
2, 35, 0
2, 5, 0
2, 26, 0
2, 46, 0
21, 20, 0
21, 33, 0
21, 23, 0
21, 31, 0
21, 45, 0
21, 18, 0
21, 29, 0
21, 15, 0
21, 22, 0
21, 1, 0
25, 45, 0
25, 1, 0
25, 23, 0
25, 36, 0
19, 52, 0
19, 53, 0
19, 14, 0
19, 6, 0
49, 13, 0
49, 52, 0
49, 4, 0
49, 37, 0
49, 8, 0
49, 48, 0
49, 11, 0
48, 8, 0
48, 13, 0
48, 49, 0
31, 20, 0
31, 3, 0
31, 23, 0
31, 45, 0
31, 21, 0
31, 29, 0
31, 15, 0
31, 18, 0
31, 22, 0
31, 1, 0
39, 0, 0
39, 17, 0
39, 46, 0
39, 47, 0
39, 10, 0
29, 21, 0
29, 51, 0
29, 31, 0
29, 18, 0
29, 38, 0
29, 41, 0
29, 22, 0
29, 1, 0
40, 27, 0
40, 47, 0
40, 46, 0
40, 26, 0
40, 30, 0
11, 49, 0
11, 52, 0
11, 4, 0
5, 26, 0
5, 51, 0
5, 35, 0
5, 2, 0
5, 46, 0
5, 9, 0
37, 8, 0
37, 13, 0
37, 49, 0
4, 49, 0
4, 52, 0
4, 11, 0
35, 26, 0
35, 51, 0
35, 2, 0
35, 27, 0
35, 5, 0
35, 41, 0
35, 9, 0
30, 0, 0
30, 17, 0
30, 27, 0
30, 40, 0
30, 46, 0
30, 47, 0
42, 7, 0
42, 0, 0
42, 17, 0
42, 33, 0
42, 16, 0
42, 43, 0
42, 1, 0
42, 34, 0
42, 44, 0
42, 47, 0
42, 10, 0
22, 33, 0
22, 45, 0
22, 31, 0
22, 51, 0
22, 29, 0
22, 21, 0
22, 38, 0
22, 47, 0
22, 1, 0
36, 33, 0
36, 25, 0
36, 50, 0
36, 45, 0
36, 47, 0
36, 1, 0
45, 3, 0
45, 25, 0
45, 23, 0
45, 31, 0
45, 21, 0
45, 8, 0
45, 15, 0
45, 22, 0
45, 36, 0
16, 7, 0
16, 34, 0
16, 42, 0
27, 17, 0
27, 26, 0
27, 35, 0
27, 2, 0
27, 40, 0
27, 46, 0
27, 30, 0
1, 0, 0
1, 26, 0
1, 23, 0
1, 34, 0
1, 18, 0
1, 47, 0
1, 10, 0
1, 33, 0
1, 25, 0
1, 50, 0
1, 31, 0
1, 29, 0
1, 21, 0
1, 42, 0
1, 8, 0
1, 41, 0
1, 22, 0
1, 36, 0
53, 6, 0
53, 19, 0
53, 14, 0
53, 52, 0
53, 32, 0
44, 42, 0
44, 28, 0
12, 0, 0
12, 34, 0
12, 10, 0
12, 17, 0
12, 24, 0
18, 20, 0
18, 51, 0
18, 31, 0
18, 29, 0
18, 21, 0
18, 1, 0
52, 4, 0
52, 14, 0
52, 53, 0
52, 6, 0
52, 19, 0
52, 49, 0
52, 11, 0
50, 33, 0
50, 1, 0
50, 8, 0
50, 36, 0
26, 51, 0
26, 46, 0
26, 27, 0
26, 35, 0
26, 40, 0
26, 5, 0
26, 47, 0
26, 1, 0
26, 33, 0
26, 2, 0
26, 41, 0
26, 9, 0
6, 52, 0
6, 19, 0
6, 53, 0
6, 14, 0
43, 34, 0
43, 10, 0
43, 42, 0
43, 47, 0
43, 24, 0
9, 26, 0
9, 35, 0
9, 5, 0
9, 51, 0
9, 41, 0
