0, 7, 0
0, 5, 0
0, 9, 0
13, 17, 0
13, 3, 0
13, 18, 0
13, 6, 0
13, 5, 0
13, 11, 0
13, 10, 0
13, 12, 0
13, 4, 0
13, 14, 1
13, 2, 0
13, 1, 0
13, 9, 0
17, 13, 0
17, 14, 0
17, 18, 0
17, 6, 0
17, 1, 0
17, 5, 0
17, 9, 0
3, 13, 0
3, 14, 0
3, 2, 0
3, 16, 0
3, 6, 0
3, 5, 0
3, 11, 0
3, 1, 0
16, 12, 0
16, 4, 0
16, 3, 0
16, 2, 0
16, 1, 0
16, 8, 0
16, 15, 0
16, 11, 0
16, 10, 0
6, 13, 0
6, 17, 0
6, 3, 0
6, 18, 0
6, 5, 0
6, 11, 0
6, 10, 0
6, 12, 0
6, 4, 0
6, 14, 0
6, 2, 0
6, 1, 0
8, 16, 0
8, 15, 0
8, 1, 0
5, 0, 0
5, 13, 0
5, 17, 0
5, 3, 0
5, 18, 0
5, 6, 0
5, 11, 0
5, 1, 0
5, 7, 0
5, 12, 0
5, 4, 0
5, 14, 0
5, 2, 0
5, 10, 0
5, 9, 0
11, 3, 0
11, 13, 0
11, 14, 0
11, 4, 0
11, 2, 0
11, 16, 0
11, 6, 0
11, 10, 0
11, 15, 0
11, 5, 0
11, 1, 0
10, 12, 0
10, 13, 0
10, 14, 0
10, 16, 0
10, 6, 0
10, 15, 0
10, 5, 0
10, 11, 0
10, 1, 0
7, 0, 0
7, 5, 0
7, 9, 0
12, 16, 0
12, 13, 0
12, 14, 0
12, 9, 0
12, 4, 0
12, 18, 0
12, 6, 0
12, 10, 0
12, 5, 0
12, 1, 0
4, 12, 0
4, 13, 0
4, 14, 0
4, 16, 0
4, 6, 0
4, 9, 0
4, 5, 0
4, 11, 0
4, 1, 0
14, 13, 1
14, 17, 0
14, 3, 0
14, 18, 0
14, 6, 0
14, 5, 0
14, 11, 0
14, 10, 0
14, 12, 0
14, 4, 0
14, 2, 0
14, 1, 0
14, 9, 0
2, 3, 0
2, 13, 0
2, 14, 0
2, 16, 0
2, 6, 0
2, 5, 0
2, 11, 0
2, 1, 0
1, 13, 0
1, 17, 0
1, 3, 0
1, 16, 0
1, 6, 0
1, 5, 0
1, 11, 0
1, 10, 0
1, 12, 0
1, 4, 0
1, 14, 0
1, 2, 0
1, 8, 0
1, 15, 0
1, 18, 0
1, 9, 0
15, 16, 0
15, 8, 0
15, 10, 0
15, 11, 0
15, 1, 0
18, 12, 0
18, 13, 0
18, 14, 0
18, 6, 0
18, 17, 0
18, 5, 0
18, 1, 0
9, 0, 0
9, 12, 0
9, 13, 0
9, 17, 0
9, 4, 0
9, 14, 0
9, 5, 0
9, 7, 0
9, 1, 0
