0, 7, 0
0, 3, 0
0, 8, 0
0, 4, 0
3, 0, 0
3, 7, 0
3, 6, 0
3, 9, 0
3, 2, 0
4, 0, 0
4, 2, 0
2, 7, 0
2, 3, 0
2, 4, 0
6, 3, 0
6, 1, 0
6, 5, 1
6, 9, 0
1, 6, 0
1, 5, 0
1, 9, 0
8, 0, 0
5, 6, 1
5, 1, 0
5, 9, 0
7, 0, 0
7, 3, 0
7, 2, 0
9, 3, 0
9, 1, 0
9, 5, 0
9, 6, 0
