0, 18, 0
0, 12, 0
0, 15, 0
13, 18, 0
13, 10, 0
13, 14, 0
13, 1, 0
17, 16, 1
17, 3, 0
17, 9, 0
3, 16, 0
3, 19, 0
3, 17, 0
3, 9, 0
16, 3, 0
16, 4, 0
16, 17, 1
16, 9, 0
6, 11, 0
6, 2, 0
8, 18, 0
8, 4, 0
8, 10, 0
5, 7, 0
5, 18, 0
5, 14, 0
11, 6, 0
11, 2, 0
11, 9, 0
10, 8, 0
10, 13, 0
10, 1, 0
7, 18, 0
7, 15, 0
7, 5, 0
12, 0, 0
12, 15, 0
4, 16, 0
4, 19, 0
4, 8, 0
4, 9, 0
14, 18, 0
14, 13, 0
14, 5, 0
2, 6, 0
2, 11, 0
19, 3, 0
19, 4, 0
1, 13, 0
1, 10, 0
15, 7, 0
15, 12, 0
15, 18, 0
15, 0, 0
18, 7, 0
18, 0, 0
18, 13, 0
18, 14, 0
18, 8, 0
18, 15, 0
18, 5, 0
9, 16, 0
9, 3, 0
9, 4, 0
9, 17, 0
9, 11, 0
