0, 18, 0
0, 10, 0
13, 3, 0
13, 4, 0
13, 14, 0
13, 6, 0
13, 17, 0
13, 19, 0
13, 15, 0
17, 3, 0
17, 13, 0
17, 4, 0
17, 6, 0
17, 15, 0
17, 5, 0
3, 13, 0
3, 14, 0
3, 4, 1
3, 6, 0
3, 19, 0
3, 17, 0
16, 7, 0
16, 8, 0
16, 11, 0
16, 1, 0
6, 3, 0
6, 13, 0
6, 14, 0
6, 4, 0
6, 17, 0
6, 19, 0
6, 15, 0
6, 5, 0
6, 11, 0
8, 7, 0
8, 12, 0
8, 2, 0
8, 16, 0
8, 5, 0
8, 1, 0
5, 14, 0
5, 6, 0
5, 19, 0
5, 8, 0
5, 15, 0
5, 17, 0
5, 11, 0
11, 7, 0
11, 14, 0
11, 16, 0
11, 6, 0
11, 19, 0
11, 15, 0
11, 5, 0
10, 0, 0
10, 18, 0
10, 9, 0
10, 2, 0
7, 16, 0
7, 8, 0
7, 11, 0
7, 1, 0
12, 2, 0
12, 8, 0
12, 9, 0
12, 1, 0
4, 6, 0
4, 13, 0
4, 15, 0
4, 17, 0
4, 3, 1
14, 3, 0
14, 13, 0
14, 6, 0
14, 19, 0
14, 15, 0
14, 5, 0
14, 11, 0
2, 12, 0
2, 1, 0
2, 8, 0
2, 10, 0
2, 9, 0
19, 3, 0
19, 13, 0
19, 14, 0
19, 6, 0
19, 15, 0
19, 5, 0
19, 11, 0
1, 7, 0
1, 12, 0
1, 2, 0
1, 16, 0
1, 8, 0
1, 9, 0
15, 17, 0
15, 4, 0
15, 13, 0
15, 6, 0
15, 14, 0
15, 19, 0
15, 5, 0
15, 11, 0
18, 0, 0
18, 10, 0
9, 12, 0
9, 1, 0
9, 10, 0
9, 2, 0
