0, 3, 0
0, 6, 0
0, 1, 0
0, 2, 0
3, 0, 0
3, 6, 0
3, 2, 0
4, 6, 0
4, 5, 1
4, 1, 0
2, 0, 0
2, 3, 0
2, 1, 0
2, 5, 0
2, 6, 0
6, 0, 0
6, 3, 0
6, 4, 0
6, 2, 0
6, 5, 0
6, 1, 0
5, 6, 0
5, 1, 0
5, 4, 1
5, 2, 0
1, 0, 0
1, 6, 0
1, 4, 0
1, 5, 0
1, 2, 0
