13, 7, 0
13, 12, 1
13, 18, 0
13, 11, 0
17, 3, 0
23, 16, 0
23, 21, 0
23, 4, 0
23, 5, 0
5, 16, 0
5, 21, 0
5, 23, 0
11, 18, 0
11, 12, 0
11, 13, 0
11, 7, 0
1, 22, 0
1, 2, 0
20, 19, 0
20, 14, 0
4, 16, 0
4, 23, 0
14, 20, 0
14, 19, 0
14, 10, 0
24, 3, 0
24, 22, 0
24, 9, 0
8, 15, 0
8, 25, 0
15, 7, 0
15, 8, 0
15, 25, 0
22, 24, 0
22, 6, 0
22, 9, 0
22, 1, 0
0, 18, 0
0, 21, 0
3, 17, 0
3, 24, 0
16, 21, 0
16, 4, 0
16, 5, 0
16, 23, 0
6, 22, 0
6, 9, 0
10, 14, 0
10, 2, 0
7, 18, 0
7, 12, 0
7, 13, 0
7, 15, 0
7, 11, 0
12, 7, 0
12, 21, 0
12, 13, 1
12, 11, 0
25, 19, 0
25, 8, 0
25, 15, 0
2, 10, 0
2, 1, 0
21, 0, 0
21, 12, 0
21, 23, 0
21, 16, 0
21, 5, 0
21, 18, 0
19, 20, 0
19, 25, 0
19, 14, 0
18, 0, 0
18, 7, 0
18, 13, 0
18, 11, 0
18, 21, 0
9, 6, 0
9, 22, 0
9, 24, 0
