0, 8, 0
0, 13, 0
13, 0, 0
13, 8, 0
3, 7, 0
3, 6, 0
6, 3, 0
6, 10, 0
8, 0, 0
8, 13, 0
8, 2, 0
5, 12, 0
5, 11, 0
11, 12, 0
11, 5, 0
10, 6, 0
10, 2, 0
7, 3, 0
7, 4, 0
12, 5, 0
12, 11, 0
12, 9, 0
4, 7, 0
4, 1, 0
2, 8, 0
2, 10, 0
1, 4, 0
1, 9, 0
9, 12, 0
9, 1, 0
