0, 2, 0
0, 9, 0
0, 10, 0
0, 4, 0
0, 1, 0
3, 7, 0
3, 6, 0
3, 5, 0
3, 10, 0
4, 0, 0
4, 2, 0
2, 0, 0
2, 1, 0
2, 9, 0
2, 4, 0
2, 10, 0
6, 7, 0
6, 3, 0
6, 5, 0
1, 0, 0
1, 2, 0
1, 9, 0
1, 10, 0
8, 7, 0
8, 5, 0
8, 10, 0
5, 7, 0
5, 3, 0
5, 8, 0
5, 10, 0
5, 6, 0
7, 3, 0
7, 8, 0
7, 5, 0
7, 6, 0
10, 0, 0
10, 3, 0
10, 2, 0
10, 1, 0
10, 8, 0
10, 5, 0
10, 9, 0
9, 0, 0
9, 1, 0
9, 10, 0
9, 2, 0
