0, 7, 0
0, 8, 0
0, 4, 0
0, 9, 0
3, 7, 0
3, 4, 0
3, 2, 0
3, 6, 0
3, 8, 0
3, 5, 0
3, 1, 0
4, 0, 0
4, 3, 0
4, 8, 0
4, 7, 0
4, 9, 0
2, 7, 0
2, 3, 0
2, 6, 0
2, 5, 0
2, 1, 1
6, 7, 0
6, 3, 0
6, 2, 0
6, 8, 0
6, 5, 0
6, 1, 0
1, 7, 0
1, 3, 0
1, 6, 0
1, 2, 1
8, 0, 0
8, 3, 0
8, 6, 0
8, 4, 0
8, 9, 1
5, 7, 0
5, 3, 0
5, 6, 0
5, 2, 0
7, 0, 0
7, 3, 0
7, 4, 0
7, 2, 0
7, 6, 0
7, 9, 0
7, 5, 0
7, 1, 0
9, 0, 0
9, 7, 0
9, 8, 1
9, 4, 0
