13, 7, 0
13, 18, 0
13, 4, 0
13, 9, 0
13, 23, 0
13, 2, 0
13, 16, 0
13, 8, 0
13, 1, 0
17, 21, 0
17, 19, 0
17, 14, 0
23, 18, 0
23, 13, 0
23, 4, 0
23, 16, 0
23, 1, 0
23, 9, 0
5, 12, 0
5, 22, 0
11, 7, 0
11, 0, 0
11, 26, 0
11, 2, 0
11, 6, 0
11, 8, 0
11, 24, 0
1, 0, 0
1, 12, 0
1, 13, 0
1, 26, 0
1, 23, 0
1, 21, 0
1, 16, 0
1, 2, 0
1, 18, 0
1, 22, 0
1, 9, 0
20, 3, 0
20, 19, 1
20, 24, 0
20, 12, 0
4, 7, 0
4, 16, 0
4, 13, 0
4, 23, 0
4, 2, 0
4, 18, 0
4, 6, 0
4, 9, 0
14, 17, 0
24, 20, 0
24, 3, 0
24, 25, 0
24, 12, 0
24, 6, 0
24, 11, 0
8, 7, 0
8, 13, 0
8, 11, 0
8, 2, 0
15, 0, 0
15, 26, 0
22, 3, 0
22, 12, 0
22, 21, 0
22, 19, 0
22, 5, 0
22, 1, 0
0, 25, 0
0, 26, 0
0, 6, 0
0, 15, 0
0, 11, 0
0, 1, 0
3, 20, 0
3, 12, 0
3, 24, 0
3, 6, 0
3, 19, 0
3, 22, 0
16, 12, 0
16, 4, 0
16, 13, 0
16, 23, 0
16, 18, 0
16, 9, 0
16, 1, 0
6, 0, 0
6, 3, 0
6, 7, 0
6, 26, 0
6, 12, 0
6, 4, 0
6, 2, 0
6, 24, 0
6, 11, 0
6, 9, 0
10, 18, 0
7, 4, 0
7, 13, 0
7, 2, 0
7, 18, 0
7, 6, 0
7, 8, 0
7, 11, 0
12, 20, 0
12, 3, 0
12, 24, 0
12, 16, 0
12, 6, 0
12, 19, 0
12, 5, 0
12, 22, 0
12, 1, 0
25, 0, 0
25, 24, 0
26, 0, 0
26, 2, 0
26, 6, 0
26, 15, 0
26, 11, 0
26, 1, 0
2, 7, 0
2, 4, 0
2, 13, 0
2, 26, 0
2, 6, 0
2, 8, 0
2, 11, 0
2, 1, 0
21, 19, 0
21, 17, 0
21, 22, 0
21, 1, 0
19, 20, 1
19, 3, 0
19, 17, 0
19, 12, 0
19, 21, 0
19, 22, 0
18, 7, 0
18, 4, 0
18, 13, 0
18, 9, 0
18, 23, 0
18, 16, 0
18, 10, 0
18, 1, 0
9, 18, 0
9, 4, 0
9, 13, 0
9, 23, 0
9, 16, 0
9, 6, 0
9, 1, 0
