0, 5, 0
0, 1, 0
13, 7, 0
13, 3, 0
13, 8, 0
13, 10, 0
3, 13, 0
3, 6, 0
3, 11, 0
3, 1, 0
3, 7, 0
3, 12, 0
3, 4, 1
3, 14, 0
3, 2, 0
3, 8, 0
3, 10, 0
3, 9, 0
6, 3, 0
6, 10, 0
6, 11, 0
6, 2, 0
8, 3, 0
8, 13, 0
8, 11, 0
8, 10, 0
5, 0, 0
5, 1, 0
11, 6, 0
11, 8, 0
11, 3, 0
11, 10, 1
10, 13, 0
10, 3, 0
10, 6, 0
10, 11, 1
10, 1, 0
10, 7, 0
10, 12, 0
10, 4, 0
10, 14, 0
10, 2, 0
10, 8, 0
10, 9, 0
7, 12, 0
7, 13, 0
7, 3, 0
7, 10, 0
12, 7, 0
12, 3, 0
12, 4, 0
12, 10, 0
12, 1, 0
4, 12, 0
4, 10, 0
4, 3, 1
4, 1, 0
14, 2, 0
14, 3, 0
14, 10, 0
14, 9, 0
2, 6, 0
2, 14, 0
2, 3, 0
2, 10, 0
1, 0, 0
1, 12, 0
1, 4, 0
1, 3, 0
1, 5, 0
1, 10, 0
9, 3, 0
9, 14, 0
9, 10, 0
