0, 7, 0
0, 6, 0
0, 4, 0
13, 3, 0
13, 8, 0
13, 5, 0
13, 4, 0
3, 12, 0
3, 13, 0
3, 5, 0
3, 11, 0
6, 0, 0
6, 7, 0
6, 4, 0
6, 5, 0
6, 9, 0
8, 7, 0
8, 13, 0
8, 5, 0
8, 4, 0
5, 7, 0
5, 12, 0
5, 13, 0
5, 14, 0
5, 4, 0
5, 3, 0
5, 6, 0
5, 8, 0
5, 11, 0
5, 10, 0
11, 12, 0
11, 5, 0
11, 3, 0
10, 4, 0
10, 14, 0
10, 5, 0
10, 9, 0
7, 0, 0
7, 6, 0
7, 8, 0
7, 5, 0
7, 4, 0
12, 3, 0
12, 4, 0
12, 5, 0
12, 11, 0
4, 0, 0
4, 7, 0
4, 13, 0
4, 14, 0
4, 9, 0
4, 12, 0
4, 6, 0
4, 8, 0
4, 15, 0
4, 5, 0
4, 10, 0
14, 4, 0
14, 2, 0
14, 1, 0
14, 15, 0
14, 5, 0
14, 10, 0
2, 15, 0
2, 14, 0
2, 1, 1
1, 15, 0
1, 14, 0
1, 2, 1
15, 2, 0
15, 4, 0
15, 14, 0
15, 1, 0
9, 6, 0
9, 4, 0
9, 10, 0
