0, 8, 0
0, 5, 0
0, 1, 1
13, 16, 0
13, 12, 0
13, 14, 0
13, 11, 0
13, 2, 0
3, 4, 0
3, 15, 0
3, 9, 0
3, 10, 0
16, 8, 0
16, 13, 0
6, 7, 1
6, 4, 0
6, 2, 0
8, 0, 0
8, 16, 0
8, 1, 0
5, 0, 0
5, 1, 0
11, 12, 1
11, 13, 0
11, 14, 0
10, 3, 0
10, 4, 0
10, 15, 0
10, 9, 1
7, 6, 1
7, 4, 0
7, 2, 0
12, 13, 0
12, 14, 0
12, 11, 1
4, 7, 0
4, 3, 0
4, 14, 0
4, 2, 0
4, 6, 0
4, 10, 0
4, 9, 0
14, 12, 0
14, 13, 0
14, 4, 0
14, 11, 0
14, 2, 0
2, 7, 0
2, 6, 0
2, 13, 0
2, 14, 0
2, 4, 0
1, 0, 1
1, 8, 0
1, 5, 0
15, 3, 0
15, 10, 0
9, 3, 0
9, 4, 0
9, 10, 1
