13, 45, 0
13, 11, 0
13, 47, 0
13, 3, 0
17, 45, 0
17, 49, 0
17, 28, 0
17, 23, 0
17, 16, 0
17, 27, 0
17, 46, 0
17, 50, 0
17, 26, 0
17, 29, 0
17, 21, 0
17, 42, 0
17, 8, 0
17, 22, 0
23, 0, 0
23, 2, 0
23, 17, 0
23, 50, 0
23, 24, 0
23, 27, 0
23, 8, 0
23, 10, 0
42, 45, 0
42, 17, 0
42, 41, 0
42, 11, 0
46, 34, 0
46, 17, 0
46, 1, 0
20, 4, 0
34, 18, 0
34, 46, 0
34, 26, 0
34, 1, 0
14, 15, 0
14, 40, 0
14, 11, 0
14, 6, 0
24, 0, 0
24, 7, 0
24, 50, 0
24, 23, 0
24, 2, 0
24, 10, 0
28, 8, 0
28, 17, 0
28, 22, 0
28, 10, 0
39, 27, 0
39, 43, 0
41, 33, 0
41, 11, 0
41, 42, 0
0, 50, 0
0, 23, 0
0, 2, 0
0, 27, 0
0, 24, 0
0, 10, 0
8, 28, 0
8, 17, 0
8, 22, 0
8, 23, 0
8, 10, 0
33, 35, 0
33, 21, 0
33, 38, 0
33, 41, 0
33, 11, 0
33, 36, 0
15, 12, 0
15, 14, 0
15, 11, 0
47, 3, 0
47, 13, 0
47, 11, 0
47, 29, 0
10, 0, 0
10, 8, 0
10, 28, 0
10, 23, 0
10, 16, 0
10, 5, 0
10, 11, 0
10, 7, 0
10, 24, 0
10, 37, 0
10, 19, 0
10, 49, 0
10, 38, 0
10, 22, 0
10, 9, 0
7, 43, 0
7, 31, 0
7, 32, 0
7, 24, 0
7, 25, 0
7, 26, 0
7, 5, 0
7, 10, 0
3, 45, 0
3, 13, 0
3, 47, 0
3, 29, 0
32, 7, 0
32, 43, 0
32, 5, 0
32, 26, 0
32, 31, 1
2, 0, 0
2, 27, 0
2, 50, 0
2, 23, 0
2, 24, 0
21, 33, 0
21, 17, 0
21, 35, 0
21, 37, 0
21, 38, 0
21, 48, 0
21, 11, 0
21, 36, 0
19, 37, 0
19, 9, 0
19, 44, 0
19, 48, 0
19, 10, 0
49, 16, 0
49, 17, 0
49, 22, 0
49, 10, 0
18, 34, 0
18, 1, 0
31, 7, 0
31, 43, 0
31, 5, 0
31, 26, 0
31, 32, 1
29, 12, 0
29, 17, 0
29, 11, 0
29, 47, 0
29, 3, 0
40, 6, 0
40, 14, 0
40, 11, 0
11, 45, 0
11, 13, 0
11, 38, 0
11, 40, 0
11, 47, 0
11, 10, 0
11, 33, 0
11, 14, 0
11, 29, 0
11, 21, 0
11, 42, 0
11, 30, 0
11, 15, 0
11, 41, 0
5, 7, 0
5, 25, 0
5, 32, 0
5, 26, 0
5, 31, 0
5, 10, 0
37, 21, 0
37, 44, 0
37, 16, 0
37, 19, 0
37, 10, 0
37, 48, 0
37, 9, 0
4, 20, 0
4, 6, 0
4, 30, 0
35, 21, 0
35, 33, 0
35, 38, 0
35, 36, 1
30, 6, 0
30, 4, 0
30, 11, 0
38, 33, 0
38, 35, 0
38, 21, 0
38, 48, 0
38, 11, 0
38, 10, 0
22, 28, 0
22, 8, 0
22, 17, 0
22, 49, 0
22, 10, 0
36, 21, 0
36, 33, 0
36, 35, 1
45, 3, 0
45, 13, 0
45, 17, 0
45, 11, 0
45, 42, 0
16, 37, 0
16, 49, 0
16, 17, 0
16, 48, 0
16, 10, 0
27, 0, 0
27, 17, 0
27, 50, 0
27, 23, 0
27, 2, 0
27, 26, 0
27, 39, 0
1, 18, 0
1, 34, 0
1, 46, 0
1, 26, 0
44, 37, 0
44, 19, 0
44, 48, 0
44, 9, 0
48, 37, 0
48, 21, 0
48, 16, 0
48, 19, 0
48, 38, 0
48, 44, 0
48, 9, 0
12, 15, 0
12, 29, 0
25, 7, 0
25, 5, 0
25, 26, 0
50, 0, 0
50, 17, 0
50, 23, 0
50, 2, 0
50, 27, 0
50, 24, 0
26, 7, 0
26, 34, 0
26, 43, 0
26, 32, 0
26, 31, 0
26, 27, 0
26, 25, 0
26, 5, 0
26, 17, 0
26, 1, 0
6, 40, 0
6, 4, 0
6, 14, 0
6, 30, 0
43, 7, 0
43, 39, 0
43, 26, 0
43, 32, 0
43, 31, 0
9, 37, 0
9, 19, 0
9, 44, 0
9, 48, 0
9, 10, 0
