13, 7, 0
13, 12, 0
13, 4, 0
13, 9, 0
13, 3, 0
13, 16, 0
13, 19, 0
13, 1, 0
13, 5, 0
13, 10, 0
17, 20, 0
17, 3, 0
17, 25, 0
17, 11, 0
23, 22, 1
5, 13, 0
5, 9, 0
5, 4, 0
5, 1, 0
11, 0, 0
11, 20, 0
11, 14, 0
11, 18, 0
11, 17, 0
11, 25, 0
1, 7, 0
1, 13, 0
1, 16, 0
1, 9, 0
1, 5, 0
1, 10, 0
20, 0, 0
20, 17, 0
20, 6, 0
20, 2, 0
20, 11, 0
20, 10, 0
20, 7, 0
20, 3, 0
20, 25, 0
20, 24, 0
20, 21, 0
20, 8, 0
4, 13, 0
4, 5, 0
4, 9, 0
14, 18, 0
14, 6, 0
14, 15, 1
14, 11, 0
24, 20, 0
24, 12, 0
24, 7, 0
24, 3, 0
24, 16, 0
24, 19, 0
24, 8, 0
24, 10, 0
8, 20, 0
8, 3, 0
8, 10, 0
8, 24, 0
15, 18, 0
15, 6, 0
15, 14, 1
15, 0, 0
22, 21, 0
22, 23, 1
22, 2, 0
0, 20, 0
0, 18, 0
0, 15, 0
0, 11, 0
0, 6, 0
3, 20, 0
3, 12, 0
3, 13, 0
3, 25, 0
3, 24, 0
3, 17, 0
3, 8, 0
3, 7, 0
3, 10, 0
16, 7, 0
16, 12, 0
16, 13, 0
16, 24, 0
16, 10, 0
16, 1, 0
6, 20, 0
6, 0, 0
6, 14, 0
6, 26, 0
6, 18, 0
6, 15, 0
10, 20, 0
10, 3, 0
10, 13, 0
10, 1, 0
10, 24, 0
10, 16, 0
10, 19, 0
10, 8, 0
10, 7, 0
10, 12, 0
7, 20, 0
7, 12, 0
7, 13, 0
7, 3, 0
7, 24, 0
7, 16, 0
7, 1, 0
7, 10, 0
12, 7, 0
12, 3, 0
12, 13, 0
12, 24, 0
12, 16, 0
12, 19, 0
12, 10, 0
25, 20, 0
25, 3, 0
25, 17, 0
25, 11, 0
26, 21, 0
26, 6, 0
2, 20, 0
2, 21, 0
2, 22, 0
21, 20, 0
21, 26, 0
21, 22, 0
21, 2, 0
19, 24, 0
19, 12, 0
19, 13, 0
19, 10, 0
18, 0, 0
18, 15, 0
18, 14, 0
18, 11, 0
18, 6, 0
9, 13, 0
9, 5, 0
9, 4, 0
9, 1, 0
