12, 10, 0
12, 5, 0
12, 2, 0
13, 16, 0
13, 32, 0
17, 28, 0
17, 22, 0
31, 10, 0
31, 5, 0
31, 30, 1
23, 27, 0
23, 19, 0
23, 33, 0
24, 21, 0
24, 5, 0
5, 12, 0
5, 31, 0
5, 24, 0
5, 21, 0
5, 10, 0
5, 30, 0
11, 0, 0
11, 33, 0
11, 14, 0
1, 10, 0
1, 26, 0
1, 2, 0
20, 6, 0
20, 36, 0
20, 8, 0
20, 22, 0
20, 35, 0
4, 25, 0
4, 26, 0
14, 0, 0
14, 33, 0
14, 11, 0
35, 20, 0
35, 6, 0
35, 16, 0
35, 36, 1
28, 7, 0
28, 17, 0
30, 5, 0
30, 31, 1
30, 10, 0
8, 20, 0
8, 22, 0
15, 0, 0
15, 21, 0
22, 20, 0
22, 6, 0
22, 8, 0
22, 17, 0
36, 20, 0
36, 6, 0
36, 16, 0
36, 35, 1
0, 15, 0
0, 14, 0
0, 11, 0
6, 20, 0
6, 16, 0
6, 36, 0
6, 22, 0
6, 35, 0
3, 27, 0
3, 32, 0
16, 6, 0
16, 36, 0
16, 13, 0
16, 32, 0
16, 35, 0
27, 3, 0
27, 19, 0
27, 23, 0
27, 33, 0
10, 12, 0
10, 31, 0
10, 2, 0
10, 1, 0
10, 5, 0
10, 30, 0
7, 34, 0
7, 28, 0
34, 7, 0
25, 4, 0
25, 26, 0
25, 29, 0
33, 27, 0
33, 19, 0
33, 14, 0
33, 11, 0
33, 23, 0
32, 16, 0
32, 3, 0
32, 13, 0
2, 12, 0
2, 10, 0
2, 1, 0
21, 15, 0
21, 5, 0
21, 24, 0
29, 25, 0
29, 26, 0
29, 9, 0
19, 27, 0
19, 23, 0
19, 33, 0
26, 29, 0
26, 4, 0
26, 25, 0
26, 1, 0
18, 9, 0
9, 18, 0
9, 29, 0
