13, 0, 0
13, 17, 0
13, 9, 0
13, 27, 0
13, 8, 0
13, 5, 0
13, 1, 0
17, 0, 0
17, 13, 0
17, 9, 0
17, 26, 0
17, 27, 0
17, 19, 0
17, 8, 0
17, 5, 0
17, 1, 0
23, 20, 0
23, 3, 0
23, 4, 0
23, 16, 0
23, 19, 0
23, 22, 0
2, 0, 0
2, 7, 0
2, 28, 0
2, 26, 0
2, 6, 0
2, 27, 0
2, 14, 0
2, 8, 0
2, 15, 0
2, 5, 0
2, 9, 0
5, 0, 0
5, 13, 0
5, 28, 0
5, 16, 0
5, 1, 0
5, 3, 0
5, 14, 0
5, 26, 0
5, 2, 0
5, 17, 0
5, 8, 0
5, 15, 0
5, 18, 0
5, 22, 0
5, 9, 0
11, 18, 0
11, 12, 1
11, 16, 0
11, 4, 0
11, 10, 1
1, 0, 0
1, 3, 0
1, 13, 0
1, 17, 0
1, 27, 0
1, 19, 0
1, 8, 0
1, 5, 0
1, 9, 0
20, 16, 0
20, 19, 1
20, 4, 0
20, 22, 0
20, 23, 0
4, 20, 0
4, 12, 0
4, 22, 0
4, 23, 0
4, 3, 0
4, 16, 0
4, 19, 0
4, 8, 0
4, 18, 0
4, 11, 0
4, 10, 0
14, 0, 0
14, 7, 0
14, 28, 0
14, 2, 0
14, 27, 0
14, 15, 1
14, 5, 0
14, 9, 0
24, 21, 0
24, 27, 0
24, 15, 0
24, 25, 1
24, 28, 0
28, 0, 0
28, 6, 0
28, 2, 0
28, 5, 0
28, 27, 0
28, 7, 0
28, 14, 0
28, 26, 0
28, 24, 0
28, 21, 0
28, 25, 0
28, 19, 0
28, 15, 0
8, 0, 0
8, 13, 0
8, 17, 0
8, 16, 0
8, 27, 0
8, 5, 0
8, 1, 0
8, 3, 0
8, 4, 0
8, 26, 0
8, 2, 0
8, 15, 0
8, 22, 0
8, 9, 0
15, 0, 0
15, 6, 0
15, 28, 0
15, 16, 0
15, 27, 0
15, 24, 0
15, 5, 0
15, 7, 0
15, 14, 1
15, 2, 0
15, 21, 0
15, 25, 0
15, 8, 0
15, 9, 0
22, 20, 0
22, 3, 0
22, 4, 0
22, 23, 0
22, 16, 0
22, 27, 0
22, 8, 0
22, 5, 0
22, 9, 0
0, 13, 0
0, 28, 0
0, 6, 0
0, 8, 0
0, 5, 0
0, 27, 0
0, 7, 0
0, 14, 0
0, 26, 0
0, 2, 0
0, 17, 0
0, 1, 0
0, 15, 0
0, 9, 0
12, 16, 0
12, 18, 0
12, 4, 0
12, 11, 1
16, 23, 0
16, 18, 0
16, 27, 0
16, 5, 0
16, 11, 0
16, 10, 0
16, 20, 0
16, 12, 0
16, 4, 0
16, 19, 0
16, 8, 0
16, 15, 0
16, 22, 0
16, 9, 0
6, 0, 0
6, 7, 1
6, 28, 0
6, 26, 0
6, 2, 0
6, 27, 0
6, 15, 0
6, 9, 0
10, 18, 0
10, 16, 0
10, 19, 0
10, 4, 0
10, 11, 1
7, 0, 0
7, 28, 0
7, 26, 0
7, 2, 0
7, 6, 1
7, 14, 0
7, 15, 0
3, 4, 0
3, 9, 0
3, 23, 0
3, 19, 0
3, 8, 0
3, 5, 0
3, 22, 0
3, 1, 0
25, 21, 0
25, 27, 0
25, 15, 0
25, 28, 0
25, 24, 1
26, 0, 0
26, 7, 0
26, 17, 0
26, 28, 0
26, 2, 0
26, 6, 0
26, 19, 0
26, 8, 0
26, 5, 0
26, 9, 0
27, 0, 0
27, 13, 0
27, 28, 0
27, 16, 0
27, 6, 0
27, 2, 0
27, 1, 0
27, 25, 0
27, 24, 0
27, 21, 0
27, 17, 0
27, 14, 0
27, 8, 0
27, 15, 0
27, 22, 0
27, 9, 0
21, 25, 0
21, 28, 0
21, 24, 0
21, 27, 0
21, 15, 0
21, 9, 0
19, 20, 1
19, 3, 0
19, 4, 0
19, 17, 0
19, 26, 0
19, 23, 0
19, 16, 0
19, 28, 0
19, 1, 0
19, 18, 0
19, 10, 0
18, 12, 0
18, 4, 0
18, 16, 0
18, 19, 0
18, 5, 0
18, 11, 0
18, 10, 0
9, 0, 0
9, 6, 0
9, 13, 0
9, 17, 0
9, 16, 0
9, 27, 0
9, 5, 0
9, 1, 0
9, 3, 0
9, 14, 0
9, 26, 0
9, 2, 0
9, 21, 0
9, 8, 0
9, 15, 0
9, 22, 0
