13, 21, 0
13, 36, 0
13, 24, 0
13, 44, 0
13, 1, 0
17, 20, 0
17, 0, 0
17, 18, 1
17, 40, 0
17, 41, 0
17, 9, 0
23, 25, 0
23, 46, 0
42, 0, 0
42, 34, 0
42, 6, 0
42, 14, 0
42, 26, 0
42, 35, 0
42, 16, 0
42, 43, 1
42, 5, 0
42, 12, 0
46, 25, 0
46, 23, 0
20, 0, 0
20, 34, 0
20, 17, 0
20, 18, 0
20, 40, 0
20, 41, 0
20, 9, 0
14, 12, 0
14, 43, 0
14, 26, 0
14, 31, 0
14, 29, 0
14, 16, 0
14, 42, 0
14, 22, 0
24, 21, 0
24, 13, 0
24, 44, 0
24, 1, 0
28, 12, 0
28, 30, 0
28, 5, 0
28, 22, 0
28, 29, 1
39, 7, 0
39, 38, 1
39, 32, 0
39, 2, 0
41, 20, 0
41, 0, 0
41, 17, 0
41, 18, 0
41, 40, 1
41, 9, 0
0, 17, 0
0, 18, 0
0, 40, 0
0, 5, 0
0, 11, 0
0, 10, 0
0, 20, 0
0, 34, 0
0, 4, 0
0, 42, 0
0, 41, 0
0, 9, 0
8, 3, 0
8, 32, 0
8, 33, 0
12, 14, 0
12, 28, 0
12, 42, 0
12, 6, 0
12, 5, 0
12, 30, 0
15, 37, 0
15, 45, 0
15, 4, 0
15, 44, 0
10, 0, 0
10, 4, 0
10, 11, 1
7, 38, 0
7, 39, 0
7, 32, 0
7, 2, 0
3, 33, 0
3, 8, 0
32, 7, 0
32, 33, 0
32, 2, 0
32, 39, 0
32, 8, 0
32, 38, 0
2, 7, 0
2, 32, 0
2, 21, 0
2, 38, 0
2, 39, 0
2, 36, 0
21, 2, 0
21, 1, 0
21, 36, 0
21, 13, 0
21, 24, 0
33, 3, 0
33, 25, 0
33, 32, 0
33, 27, 0
33, 19, 0
33, 8, 0
19, 33, 0
19, 25, 0
19, 27, 0
18, 20, 0
18, 0, 0
18, 17, 1
18, 40, 0
18, 41, 0
18, 9, 0
31, 6, 0
31, 14, 0
31, 5, 0
31, 26, 0
29, 28, 1
29, 14, 0
29, 22, 0
40, 20, 0
40, 0, 0
40, 17, 0
40, 34, 0
40, 18, 0
40, 41, 1
40, 9, 0
11, 0, 0
11, 4, 0
11, 10, 1
5, 0, 0
5, 12, 0
5, 43, 0
5, 31, 0
5, 26, 0
5, 35, 0
5, 28, 0
5, 6, 1
5, 42, 0
37, 45, 0
37, 4, 0
37, 15, 0
37, 44, 0
4, 0, 0
4, 45, 0
4, 37, 0
4, 15, 0
4, 44, 0
4, 11, 0
4, 10, 0
35, 16, 0
35, 42, 0
35, 34, 1
35, 5, 0
35, 9, 0
30, 12, 0
30, 28, 0
30, 22, 0
38, 7, 0
38, 39, 1
38, 32, 0
38, 2, 0
22, 28, 0
22, 30, 0
22, 14, 0
22, 29, 0
36, 21, 0
36, 1, 0
36, 13, 0
36, 44, 0
36, 2, 0
45, 37, 0
45, 4, 0
45, 15, 0
16, 34, 0
16, 14, 0
16, 42, 0
16, 43, 0
16, 35, 0
16, 9, 0
27, 33, 0
27, 19, 0
27, 25, 0
1, 21, 0
1, 36, 0
1, 13, 0
1, 44, 0
1, 24, 0
44, 13, 0
44, 4, 0
44, 24, 0
44, 37, 0
44, 36, 0
44, 15, 0
44, 1, 0
34, 20, 0
34, 0, 0
34, 43, 0
34, 26, 0
34, 35, 1
34, 16, 0
34, 6, 0
34, 42, 0
34, 40, 0
34, 9, 0
25, 33, 0
25, 19, 0
25, 46, 0
25, 23, 0
25, 27, 0
26, 34, 0
26, 43, 0
26, 31, 0
26, 42, 0
26, 14, 0
26, 5, 0
6, 42, 0
6, 34, 0
6, 5, 1
6, 31, 0
6, 12, 0
43, 34, 0
43, 14, 0
43, 26, 0
43, 16, 0
43, 42, 1
43, 5, 0
9, 20, 0
9, 0, 0
9, 17, 0
9, 35, 0
9, 16, 0
9, 34, 0
9, 40, 0
9, 18, 0
9, 41, 0
