0, 3, 0
0, 13, 0
0, 2, 0
0, 16, 0
0, 6, 0
0, 5, 0
0, 1, 0
13, 0, 0
13, 3, 0
13, 5, 0
17, 8, 0
17, 10, 0
3, 0, 0
3, 13, 0
3, 5, 0
16, 0, 0
16, 6, 0
16, 1, 0
16, 5, 0
16, 2, 0
6, 0, 0
6, 7, 0
6, 2, 0
6, 16, 0
6, 9, 0
6, 5, 0
6, 1, 0
8, 12, 0
8, 4, 0
8, 17, 0
8, 10, 0
5, 0, 0
5, 3, 0
5, 13, 0
5, 2, 0
5, 16, 0
5, 6, 0
11, 7, 0
11, 14, 0
11, 18, 0
11, 10, 0
11, 15, 0
11, 9, 0
10, 18, 0
10, 8, 0
10, 17, 0
10, 11, 0
7, 18, 0
7, 6, 0
7, 15, 0
7, 11, 0
7, 9, 0
12, 8, 0
12, 4, 0
4, 12, 0
4, 8, 0
14, 15, 1
14, 11, 0
14, 9, 0
2, 0, 0
2, 16, 0
2, 1, 1
2, 5, 0
2, 6, 0
1, 0, 0
1, 16, 0
1, 2, 1
1, 6, 0
15, 7, 0
15, 14, 1
15, 11, 0
15, 9, 0
18, 7, 0
18, 11, 0
18, 10, 0
9, 7, 0
9, 6, 0
9, 15, 0
9, 14, 0
9, 11, 0
