0, 6, 0
0, 1, 0
0, 5, 0
0, 9, 0
6, 0, 0
6, 7, 0
6, 9, 0
6, 10, 0
6, 8, 0
6, 5, 0
6, 11, 0
6, 1, 0
1, 0, 0
1, 6, 0
1, 5, 0
1, 9, 0
5, 0, 0
5, 3, 0
5, 4, 0
5, 2, 0
5, 6, 0
5, 9, 0
5, 1, 0
11, 7, 0
11, 6, 0
11, 8, 0
11, 10, 1
10, 7, 0
10, 6, 0
10, 8, 0
10, 11, 1
7, 6, 0
7, 8, 0
7, 9, 0
7, 11, 0
7, 10, 0
3, 4, 1
3, 5, 0
3, 2, 0
4, 3, 1
4, 5, 0
4, 2, 0
2, 3, 0
2, 4, 0
2, 5, 0
2, 9, 0
8, 7, 0
8, 6, 0
8, 9, 0
8, 11, 0
8, 10, 0
9, 0, 0
9, 7, 0
9, 2, 0
9, 6, 0
9, 8, 0
9, 5, 0
9, 1, 0
