0, 8, 0
0, 5, 0
0, 4, 0
6, 4, 0
6, 1, 0
1, 6, 0
1, 4, 0
5, 0, 0
5, 2, 0
5, 8, 0
5, 4, 0
5, 9, 0
11, 3, 0
11, 10, 0
10, 3, 0
10, 11, 0
10, 2, 0
7, 9, 0
7, 2, 0
3, 2, 0
3, 11, 0
3, 10, 0
4, 0, 0
4, 6, 0
4, 5, 0
4, 1, 0
2, 7, 0
2, 3, 0
2, 9, 0
2, 5, 0
2, 10, 0
8, 0, 0
8, 5, 0
9, 7, 0
9, 5, 0
9, 2, 0
