13, 20, 0
13, 16, 0
13, 17, 0
13, 12, 0
13, 18, 0
13, 25, 0
13, 15, 0
17, 20, 0
17, 12, 0
17, 13, 0
17, 25, 0
17, 22, 0
17, 3, 0
17, 21, 0
17, 8, 0
17, 11, 0
23, 3, 0
23, 10, 0
23, 14, 0
23, 9, 0
5, 7, 0
5, 4, 1
5, 14, 0
5, 22, 0
5, 2, 0
5, 16, 0
5, 6, 0
5, 11, 0
5, 1, 0
11, 17, 0
11, 12, 0
11, 16, 0
11, 6, 0
11, 24, 0
11, 5, 0
11, 1, 0
11, 7, 0
11, 3, 0
11, 4, 0
11, 14, 0
11, 2, 0
11, 22, 0
1, 7, 0
1, 4, 0
1, 2, 0
1, 16, 0
1, 5, 0
1, 11, 0
20, 12, 0
20, 13, 0
20, 17, 0
20, 22, 0
4, 0, 0
4, 12, 0
4, 21, 0
4, 2, 0
4, 16, 0
4, 8, 0
4, 15, 0
4, 5, 1
4, 11, 0
4, 1, 0
14, 7, 0
14, 23, 0
14, 24, 0
14, 6, 0
14, 10, 0
14, 5, 0
14, 11, 0
14, 9, 0
24, 7, 0
24, 3, 0
24, 14, 0
24, 22, 0
24, 6, 0
24, 11, 0
24, 9, 0
8, 0, 0
8, 12, 0
8, 16, 0
8, 4, 0
8, 17, 0
8, 21, 0
8, 25, 0
8, 15, 0
15, 0, 0
15, 12, 0
15, 4, 0
15, 25, 0
15, 21, 0
15, 16, 0
15, 19, 0
15, 8, 0
15, 18, 0
15, 13, 0
22, 20, 0
22, 12, 0
22, 7, 0
22, 17, 0
22, 3, 0
22, 16, 0
22, 6, 0
22, 24, 0
22, 5, 0
22, 11, 0
0, 21, 0
0, 4, 0
0, 12, 0
0, 16, 0
0, 19, 0
0, 8, 0
0, 15, 0
0, 18, 0
3, 7, 0
3, 17, 0
3, 11, 0
3, 23, 0
3, 24, 0
3, 6, 0
3, 22, 0
3, 9, 0
16, 0, 0
16, 12, 0
16, 4, 0
16, 13, 0
16, 11, 0
16, 6, 0
16, 8, 0
16, 15, 0
16, 5, 0
16, 22, 0
16, 1, 0
6, 7, 1
6, 3, 0
6, 14, 0
6, 22, 0
6, 24, 0
6, 16, 0
6, 5, 0
6, 11, 0
10, 14, 0
10, 23, 0
7, 3, 0
7, 14, 0
7, 22, 0
7, 24, 0
7, 6, 1
7, 5, 0
7, 11, 0
7, 1, 0
12, 0, 0
12, 20, 0
12, 4, 0
12, 17, 0
12, 11, 0
12, 21, 0
12, 16, 0
12, 8, 0
12, 15, 0
12, 22, 0
12, 13, 0
25, 21, 0
25, 13, 0
25, 17, 0
25, 18, 0
25, 19, 0
25, 8, 0
25, 15, 0
2, 4, 0
2, 5, 0
2, 11, 0
2, 1, 0
21, 0, 0
21, 12, 0
21, 4, 0
21, 17, 0
21, 18, 0
21, 25, 0
21, 19, 0
21, 8, 0
21, 15, 0
19, 21, 0
19, 25, 0
19, 15, 0
19, 18, 0
19, 0, 0
18, 0, 0
18, 13, 0
18, 25, 0
18, 21, 0
18, 19, 0
18, 15, 0
9, 3, 0
9, 14, 0
9, 23, 0
9, 24, 0
