13, 0, 0
13, 14, 1
13, 22, 0
13, 11, 0
13, 10, 0
17, 18, 1
17, 16, 0
17, 20, 0
17, 9, 0
17, 2, 0
5, 20, 0
5, 12, 0
5, 4, 1
5, 21, 0
5, 6, 0
5, 1, 0
11, 0, 0
11, 13, 0
11, 14, 0
11, 22, 0
11, 10, 0
1, 7, 0
1, 12, 0
1, 4, 0
1, 3, 0
1, 20, 0
1, 8, 0
1, 15, 0
1, 5, 0
1, 22, 0
20, 17, 0
20, 12, 0
20, 16, 0
20, 6, 0
20, 5, 0
20, 1, 0
20, 3, 0
20, 4, 0
20, 2, 0
20, 21, 0
20, 19, 0
20, 18, 0
20, 22, 0
20, 9, 0
4, 20, 0
4, 3, 1
4, 12, 0
4, 21, 0
4, 6, 0
4, 5, 1
4, 1, 0
14, 0, 0
14, 13, 1
14, 22, 0
14, 11, 0
14, 10, 0
8, 7, 0
8, 22, 0
8, 1, 0
15, 7, 0
15, 12, 0
15, 1, 0
22, 20, 0
22, 0, 0
22, 13, 0
22, 14, 0
22, 8, 0
22, 10, 0
22, 11, 0
22, 1, 0
0, 13, 0
0, 14, 0
0, 22, 0
0, 11, 0
0, 10, 0
3, 20, 0
3, 12, 0
3, 4, 1
3, 21, 0
3, 6, 0
3, 1, 0
16, 20, 0
16, 17, 0
16, 2, 0
16, 18, 0
16, 19, 0
16, 9, 0
6, 20, 0
6, 3, 0
6, 4, 0
6, 2, 0
6, 21, 0
6, 5, 0
10, 0, 0
10, 13, 0
10, 14, 0
10, 22, 0
10, 11, 0
7, 8, 0
7, 15, 0
7, 1, 0
12, 20, 0
12, 3, 0
12, 4, 0
12, 21, 0
12, 15, 0
12, 5, 0
12, 1, 0
2, 20, 0
2, 16, 0
2, 9, 0
2, 17, 0
2, 6, 0
21, 20, 0
21, 3, 0
21, 4, 0
21, 12, 0
21, 6, 0
21, 5, 0
19, 20, 0
19, 16, 0
19, 18, 1
19, 9, 0
18, 20, 0
18, 16, 0
18, 19, 1
18, 17, 1
18, 9, 0
9, 20, 0
9, 18, 0
9, 17, 0
9, 2, 0
9, 16, 0
9, 19, 0
