2, 0, 0
2, 17, 0
2, 16, 0
2, 6, 0
2, 5, 0
2, 11, 0
2, 1, 0
2, 20, 0
2, 12, 0
2, 4, 0
2, 14, 0
2, 26, 0
2, 27, 0
2, 21, 0
2, 25, 0
2, 19, 0
2, 8, 0
2, 18, 0
2, 22, 0
13, 7, 0
13, 12, 0
13, 25, 0
13, 11, 0
17, 3, 0
17, 14, 0
17, 11, 0
17, 29, 0
17, 21, 0
17, 2, 0
17, 8, 0
17, 15, 0
17, 18, 0
17, 22, 0
23, 18, 0
23, 9, 0
23, 28, 0
23, 24, 0
23, 10, 0
29, 3, 0
29, 14, 0
29, 21, 0
29, 17, 0
29, 22, 0
29, 1, 0
5, 20, 0
5, 21, 0
5, 14, 0
5, 2, 0
5, 16, 0
5, 6, 1
5, 22, 0
5, 1, 0
11, 20, 0
11, 13, 0
11, 17, 0
11, 16, 0
11, 27, 0
11, 7, 0
11, 12, 0
11, 14, 0
11, 26, 0
11, 2, 0
11, 25, 0
11, 19, 0
11, 18, 0
11, 22, 0
1, 20, 0
1, 12, 0
1, 4, 0
1, 14, 0
1, 29, 0
1, 21, 0
1, 6, 0
1, 2, 0
1, 5, 0
20, 16, 0
20, 18, 0
20, 6, 0
20, 5, 0
20, 11, 0
20, 27, 0
20, 12, 0
20, 4, 0
20, 14, 0
20, 2, 0
20, 21, 0
20, 25, 0
20, 1, 0
20, 22, 0
4, 20, 0
4, 14, 0
4, 2, 0
4, 6, 1
4, 22, 0
4, 1, 0
14, 17, 0
14, 12, 0
14, 18, 0
14, 6, 0
14, 2, 0
14, 5, 0
14, 11, 0
14, 1, 0
14, 20, 0
14, 3, 0
14, 4, 0
14, 29, 0
14, 21, 0
14, 8, 0
14, 15, 0
14, 22, 0
24, 28, 0
24, 23, 0
24, 18, 0
24, 9, 0
24, 15, 0
24, 10, 0
28, 10, 0
28, 23, 0
28, 24, 0
8, 3, 0
8, 14, 0
8, 2, 0
8, 21, 0
8, 17, 0
8, 15, 0
8, 18, 0
8, 22, 0
15, 3, 0
15, 14, 0
15, 24, 0
15, 21, 0
15, 17, 0
15, 8, 0
15, 18, 0
15, 22, 0
15, 12, 0
22, 0, 0
22, 7, 0
22, 17, 0
22, 12, 0
22, 18, 0
22, 6, 0
22, 2, 0
22, 5, 0
22, 11, 0
22, 27, 0
22, 20, 0
22, 3, 0
22, 4, 0
22, 14, 0
22, 29, 0
22, 21, 0
22, 25, 0
22, 19, 0
22, 8, 0
22, 15, 0
0, 7, 0
0, 12, 0
0, 19, 0
0, 22, 0
0, 2, 0
12, 0, 0
12, 20, 0
12, 13, 0
12, 16, 0
12, 11, 0
12, 1, 0
12, 7, 0
12, 18, 0
12, 14, 0
12, 26, 0
12, 2, 0
12, 21, 0
12, 19, 0
12, 15, 0
12, 22, 0
16, 20, 0
16, 12, 0
16, 25, 0
16, 26, 0
16, 2, 0
16, 27, 0
16, 5, 0
16, 11, 0
6, 20, 0
6, 4, 1
6, 14, 0
6, 2, 0
6, 21, 0
6, 5, 1
6, 22, 0
6, 1, 0
10, 18, 0
10, 24, 0
10, 28, 0
10, 23, 0
10, 9, 0
7, 0, 0
7, 12, 0
7, 13, 0
7, 11, 0
7, 19, 0
7, 22, 0
3, 18, 0
3, 14, 0
3, 29, 0
3, 21, 0
3, 17, 0
3, 8, 0
3, 15, 0
3, 22, 0
25, 20, 0
25, 13, 0
25, 11, 0
25, 2, 0
25, 16, 0
25, 27, 1
25, 22, 0
26, 16, 0
26, 27, 1
26, 12, 0
26, 11, 0
26, 2, 0
27, 20, 0
27, 25, 1
27, 22, 0
27, 26, 1
27, 2, 0
27, 16, 0
27, 11, 0
21, 17, 0
21, 12, 0
21, 18, 0
21, 6, 0
21, 2, 0
21, 5, 0
21, 1, 0
21, 20, 0
21, 3, 0
21, 14, 0
21, 29, 0
21, 8, 0
21, 15, 0
21, 22, 0
19, 0, 0
19, 7, 0
19, 11, 0
19, 12, 0
19, 18, 0
19, 2, 0
19, 22, 0
18, 17, 0
18, 23, 0
18, 12, 0
18, 2, 0
18, 11, 0
18, 10, 0
18, 20, 0
18, 3, 0
18, 14, 0
18, 24, 0
18, 21, 0
18, 19, 0
18, 8, 0
18, 15, 0
18, 22, 0
18, 9, 0
9, 18, 0
9, 24, 0
9, 23, 0
9, 10, 0
