13, 0, 0
13, 12, 0
13, 7, 0
13, 20, 0
13, 8, 0
13, 11, 0
13, 1, 0
17, 7, 0
17, 12, 0
17, 4, 0
17, 11, 0
17, 6, 0
5, 18, 0
5, 3, 0
5, 6, 0
5, 11, 0
5, 2, 0
11, 0, 0
11, 13, 0
11, 17, 0
11, 3, 0
11, 16, 0
11, 6, 0
11, 5, 0
11, 7, 0
11, 12, 0
11, 4, 0
11, 14, 0
11, 19, 0
11, 8, 0
11, 15, 0
11, 18, 0
11, 22, 0
1, 16, 0
1, 6, 0
1, 19, 0
1, 13, 0
1, 20, 0
20, 13, 0
20, 14, 0
20, 6, 0
20, 19, 0
20, 8, 0
20, 1, 0
4, 7, 0
4, 17, 0
4, 22, 0
4, 11, 0
14, 20, 0
14, 0, 0
14, 12, 0
14, 6, 0
14, 19, 0
14, 8, 0
14, 11, 0
8, 20, 0
8, 0, 0
8, 13, 0
8, 14, 0
8, 12, 0
8, 6, 0
8, 11, 0
15, 3, 0
15, 11, 0
15, 21, 0
15, 6, 0
15, 10, 0
15, 22, 0
15, 9, 0
22, 7, 0
22, 4, 0
22, 21, 0
22, 6, 0
22, 15, 0
22, 11, 0
0, 12, 0
0, 13, 0
0, 14, 0
0, 6, 0
0, 8, 0
0, 11, 0
3, 2, 0
3, 18, 0
3, 6, 0
3, 10, 0
3, 15, 0
3, 5, 0
3, 11, 0
3, 9, 0
16, 6, 0
16, 19, 0
16, 11, 0
16, 1, 0
6, 0, 0
6, 17, 0
6, 3, 0
6, 16, 0
6, 5, 0
6, 11, 0
6, 1, 0
6, 20, 0
6, 12, 0
6, 14, 0
6, 19, 0
6, 8, 0
6, 15, 0
6, 18, 0
6, 22, 0
10, 3, 0
10, 15, 0
10, 9, 1
7, 12, 0
7, 13, 0
7, 17, 0
7, 22, 0
7, 4, 0
7, 11, 0
12, 0, 0
12, 7, 0
12, 13, 0
12, 17, 0
12, 6, 0
12, 14, 0
12, 8, 0
12, 11, 0
2, 18, 0
2, 3, 0
2, 5, 0
21, 15, 0
21, 22, 0
19, 20, 0
19, 14, 0
19, 16, 0
19, 6, 0
19, 11, 0
19, 1, 0
18, 3, 0
18, 2, 0
18, 5, 0
18, 11, 0
18, 6, 0
9, 3, 0
9, 15, 0
9, 10, 1
