0, 7, 0
0, 12, 0
0, 3, 0
0, 6, 0
0, 1, 1
0, 10, 0
0, 11, 0
0, 9, 0
13, 3, 0
13, 4, 0
3, 0, 0
3, 12, 0
3, 13, 0
3, 11, 0
3, 9, 0
6, 0, 0
6, 10, 0
6, 11, 0
6, 1, 0
8, 5, 0
8, 2, 0
5, 2, 0
5, 8, 0
5, 10, 0
11, 0, 0
11, 12, 1
11, 7, 0
11, 3, 0
11, 6, 0
11, 1, 0
11, 10, 0
11, 9, 0
10, 0, 0
10, 6, 0
10, 5, 0
10, 11, 0
10, 2, 0
7, 0, 0
7, 9, 0
7, 11, 0
7, 1, 0
12, 0, 0
12, 3, 0
12, 11, 1
12, 9, 0
4, 13, 0
2, 8, 0
2, 5, 0
2, 10, 0
1, 0, 1
1, 6, 0
1, 7, 0
1, 11, 0
9, 0, 0
9, 12, 0
9, 7, 0
9, 11, 0
9, 3, 0
