13, 21, 0
13, 42, 0
13, 39, 0
13, 24, 0
17, 45, 0
17, 14, 0
17, 23, 0
17, 42, 0
17, 28, 0
17, 36, 0
23, 45, 0
23, 28, 0
23, 32, 0
23, 12, 0
23, 16, 0
23, 39, 0
23, 40, 0
23, 44, 0
23, 17, 0
23, 34, 0
23, 43, 0
23, 26, 0
23, 42, 0
23, 14, 0
23, 8, 0
23, 38, 0
23, 22, 1
23, 36, 0
42, 0, 0
42, 45, 0
42, 13, 0
42, 17, 0
42, 26, 0
42, 23, 0
42, 16, 0
42, 40, 0
42, 44, 0
42, 11, 0
42, 1, 0
42, 12, 0
42, 25, 0
42, 32, 0
42, 24, 0
42, 28, 0
42, 14, 0
42, 30, 0
42, 39, 0
42, 22, 0
42, 36, 0
5, 18, 0
5, 0, 0
5, 14, 0
5, 32, 0
20, 7, 0
20, 33, 0
20, 26, 0
20, 2, 0
20, 6, 0
20, 30, 0
14, 17, 0
14, 32, 0
14, 23, 0
14, 18, 0
14, 42, 0
14, 36, 0
14, 44, 0
14, 22, 0
14, 5, 0
24, 21, 0
24, 42, 0
24, 13, 0
24, 39, 0
24, 1, 0
28, 42, 0
28, 17, 0
28, 44, 0
28, 23, 0
28, 45, 0
39, 13, 0
39, 23, 0
39, 24, 0
39, 1, 0
39, 34, 0
39, 43, 0
39, 26, 0
39, 29, 0
39, 21, 0
39, 42, 0
39, 19, 0
39, 15, 0
39, 22, 0
39, 36, 0
41, 37, 0
41, 15, 0
41, 4, 0
41, 25, 0
41, 11, 0
0, 18, 0
0, 42, 0
0, 5, 0
0, 32, 0
0, 12, 0
8, 45, 0
8, 23, 0
8, 32, 0
8, 38, 0
8, 44, 0
8, 22, 0
12, 0, 0
12, 23, 0
12, 32, 0
12, 16, 0
12, 42, 0
12, 36, 0
12, 44, 0
12, 30, 0
15, 37, 0
15, 3, 0
15, 4, 0
15, 29, 0
15, 21, 0
15, 27, 0
15, 19, 0
15, 39, 0
15, 41, 0
15, 22, 0
10, 16, 0
10, 30, 0
10, 9, 0
7, 20, 0
7, 33, 0
7, 31, 0
7, 26, 0
7, 2, 0
7, 6, 1
7, 30, 0
3, 21, 0
3, 27, 0
3, 37, 0
3, 15, 0
32, 0, 0
32, 8, 0
32, 23, 0
32, 34, 0
32, 16, 0
32, 6, 0
32, 36, 0
32, 40, 0
32, 44, 0
32, 5, 0
32, 12, 0
32, 14, 0
32, 35, 0
32, 42, 0
32, 30, 0
32, 22, 0
32, 9, 0
2, 20, 0
2, 7, 0
2, 6, 0
2, 31, 0
2, 33, 0
21, 3, 0
21, 13, 0
21, 39, 0
21, 24, 0
21, 37, 0
21, 27, 0
21, 29, 0
21, 15, 0
21, 22, 0
21, 1, 0
33, 20, 0
33, 7, 0
33, 26, 0
33, 35, 0
33, 6, 0
33, 2, 0
33, 30, 0
19, 39, 0
19, 15, 0
19, 29, 0
18, 0, 0
18, 14, 0
18, 5, 0
31, 7, 0
31, 6, 0
31, 2, 0
31, 9, 0
31, 30, 0
29, 34, 0
29, 43, 0
29, 21, 0
29, 39, 0
29, 19, 0
29, 15, 0
29, 22, 0
40, 23, 0
40, 32, 0
40, 35, 0
40, 42, 0
40, 36, 0
40, 26, 0
40, 44, 0
40, 30, 0
11, 37, 0
11, 42, 0
11, 4, 0
11, 25, 0
11, 41, 0
1, 21, 0
1, 42, 0
1, 36, 0
1, 39, 0
1, 24, 0
37, 3, 0
37, 4, 0
37, 25, 0
37, 21, 0
37, 15, 0
37, 41, 0
37, 11, 0
4, 37, 0
4, 27, 0
4, 15, 0
4, 41, 0
4, 11, 0
35, 33, 0
35, 40, 0
35, 26, 0
35, 32, 0
35, 30, 0
30, 7, 0
30, 32, 0
30, 12, 0
30, 16, 0
30, 6, 0
30, 40, 0
30, 44, 0
30, 10, 0
30, 20, 0
30, 33, 0
30, 31, 0
30, 35, 0
30, 42, 0
30, 26, 0
30, 9, 0
38, 34, 0
38, 8, 0
38, 23, 0
22, 32, 0
22, 23, 1
22, 15, 0
22, 44, 0
22, 34, 0
22, 43, 0
22, 26, 0
22, 29, 0
22, 21, 0
22, 42, 0
22, 14, 0
22, 8, 0
22, 39, 0
22, 36, 0
36, 17, 0
36, 32, 0
36, 23, 0
36, 16, 0
36, 40, 0
36, 44, 0
36, 1, 0
36, 12, 0
36, 14, 0
36, 26, 0
36, 42, 0
36, 39, 0
36, 22, 0
45, 28, 0
45, 23, 0
45, 42, 0
45, 8, 0
45, 44, 0
45, 17, 0
16, 12, 0
16, 43, 0
16, 23, 0
16, 32, 0
16, 6, 0
16, 9, 0
16, 42, 0
16, 36, 0
16, 10, 0
16, 30, 0
27, 21, 0
27, 3, 0
27, 4, 0
27, 15, 0
44, 45, 0
44, 28, 0
44, 26, 0
44, 23, 0
44, 34, 0
44, 40, 0
44, 30, 0
44, 12, 0
44, 14, 0
44, 32, 0
44, 42, 0
44, 8, 0
44, 22, 0
44, 36, 0
34, 43, 0
34, 23, 0
34, 32, 0
34, 29, 0
34, 39, 0
34, 38, 0
34, 44, 0
34, 22, 0
25, 37, 0
25, 42, 0
25, 41, 0
25, 11, 0
26, 7, 0
26, 23, 0
26, 6, 0
26, 40, 0
26, 44, 0
26, 30, 0
26, 20, 0
26, 33, 0
26, 35, 0
26, 42, 0
26, 39, 0
26, 22, 0
26, 36, 0
6, 20, 0
6, 7, 1
6, 26, 0
6, 31, 0
6, 2, 0
6, 16, 0
6, 33, 0
6, 32, 0
6, 9, 0
6, 30, 0
43, 34, 0
43, 23, 0
43, 29, 0
43, 16, 0
43, 39, 0
43, 22, 0
9, 31, 0
9, 32, 0
9, 16, 0
9, 6, 0
9, 10, 0
9, 30, 0
