13, 7, 0
13, 0, 0
13, 8, 0
13, 11, 0
13, 9, 0
17, 18, 1
17, 20, 0
17, 11, 0
17, 10, 0
5, 20, 0
5, 3, 0
5, 14, 0
5, 11, 0
11, 0, 0
11, 20, 0
11, 13, 0
11, 17, 0
11, 1, 0
11, 5, 0
11, 10, 0
11, 7, 0
11, 3, 0
11, 4, 0
11, 14, 0
11, 2, 0
11, 21, 0
11, 19, 0
11, 8, 0
1, 3, 0
1, 2, 0
1, 16, 0
1, 19, 0
1, 15, 0
1, 11, 0
20, 3, 0
20, 17, 0
20, 18, 0
20, 19, 0
20, 8, 0
20, 5, 0
20, 11, 0
20, 10, 0
4, 0, 0
4, 3, 0
4, 7, 0
4, 21, 0
4, 19, 0
4, 11, 0
4, 9, 0
14, 5, 0
14, 11, 0
8, 7, 0
8, 20, 0
8, 13, 0
8, 18, 0
8, 11, 0
8, 10, 0
15, 16, 0
15, 3, 0
15, 1, 0
0, 7, 0
0, 4, 0
0, 13, 0
0, 19, 0
0, 11, 0
0, 9, 0
3, 20, 0
3, 16, 0
3, 6, 0
3, 5, 0
3, 11, 0
3, 10, 0
3, 7, 0
3, 4, 0
3, 2, 0
3, 21, 0
3, 19, 0
3, 1, 0
3, 15, 0
16, 3, 0
16, 12, 0
16, 2, 0
16, 6, 0
16, 15, 0
16, 1, 0
6, 3, 0
6, 21, 0
6, 16, 0
6, 19, 0
6, 2, 0
6, 12, 0
10, 20, 0
10, 3, 0
10, 7, 0
10, 17, 0
10, 18, 0
10, 19, 0
10, 8, 0
10, 11, 0
7, 0, 0
7, 3, 0
7, 13, 0
7, 4, 0
7, 19, 0
7, 8, 0
7, 11, 0
7, 10, 0
12, 16, 0
12, 6, 0
12, 19, 0
12, 9, 0
12, 21, 0
2, 3, 0
2, 21, 0
2, 16, 0
2, 6, 0
2, 19, 0
2, 11, 0
2, 1, 0
21, 3, 0
21, 4, 0
21, 12, 0
21, 6, 0
21, 19, 0
21, 2, 0
21, 11, 0
21, 9, 0
19, 0, 0
19, 20, 0
19, 12, 0
19, 6, 0
19, 11, 0
19, 1, 0
19, 7, 0
19, 3, 0
19, 4, 0
19, 2, 0
19, 21, 0
19, 10, 0
19, 9, 0
18, 20, 0
18, 8, 0
18, 17, 1
18, 10, 0
9, 0, 0
9, 12, 0
9, 13, 0
9, 4, 0
9, 21, 0
9, 19, 0
