2, 4, 0
2, 25, 0
2, 26, 0
2, 6, 0
2, 27, 0
2, 19, 0
2, 29, 0
2, 15, 0
2, 17, 0
2, 1, 1
13, 16, 0
13, 7, 0
13, 21, 0
13, 5, 0
13, 24, 0
17, 27, 0
17, 14, 0
17, 15, 0
17, 2, 0
23, 20, 0
23, 3, 0
23, 28, 0
23, 29, 0
23, 18, 0
23, 12, 0
23, 22, 0
23, 10, 0
29, 20, 0
29, 3, 0
29, 28, 1
29, 23, 0
29, 12, 0
29, 18, 0
29, 6, 0
29, 1, 0
29, 2, 0
29, 22, 0
29, 10, 0
5, 7, 0
5, 3, 0
5, 13, 0
5, 24, 0
5, 16, 0
5, 9, 0
11, 0, 0
11, 12, 1
11, 3, 0
11, 20, 0
11, 8, 0
11, 24, 0
11, 9, 0
1, 4, 0
1, 25, 0
1, 26, 0
1, 2, 1
1, 6, 0
1, 19, 0
1, 29, 0
20, 0, 0
20, 28, 0
20, 23, 0
20, 3, 0
20, 18, 0
20, 11, 0
20, 10, 0
20, 12, 0
20, 29, 0
20, 8, 0
20, 22, 0
20, 9, 0
4, 3, 0
4, 25, 0
4, 26, 0
4, 2, 0
4, 19, 0
4, 24, 0
4, 1, 0
14, 3, 0
14, 17, 0
14, 27, 0
14, 6, 0
14, 19, 0
14, 15, 1
14, 22, 0
24, 0, 0
24, 13, 0
24, 12, 0
24, 16, 0
24, 5, 0
24, 11, 0
24, 7, 0
24, 3, 0
24, 4, 0
24, 21, 0
24, 8, 0
24, 22, 0
24, 9, 0
28, 20, 0
28, 3, 0
28, 23, 0
28, 29, 1
28, 18, 0
28, 0, 0
28, 22, 0
28, 10, 0
8, 20, 0
8, 12, 0
8, 9, 0
8, 3, 0
8, 21, 0
8, 24, 0
8, 11, 0
8, 0, 0
15, 14, 1
15, 19, 0
15, 17, 0
15, 2, 0
22, 20, 0
22, 3, 0
22, 14, 0
22, 23, 0
22, 24, 0
22, 18, 0
22, 28, 0
22, 29, 0
22, 0, 0
22, 10, 0
0, 20, 0
0, 3, 0
0, 28, 0
0, 22, 0
0, 24, 0
0, 9, 0
0, 8, 0
0, 11, 0
0, 12, 0
12, 20, 0
12, 0, 0
12, 3, 0
12, 23, 0
12, 29, 0
12, 21, 0
12, 8, 0
12, 24, 0
12, 11, 1
12, 9, 0
16, 7, 0
16, 13, 0
16, 5, 0
16, 24, 0
6, 3, 0
6, 14, 0
6, 29, 0
6, 18, 0
6, 27, 0
6, 2, 0
6, 1, 0
10, 20, 0
10, 3, 0
10, 28, 0
10, 23, 0
10, 29, 0
10, 18, 0
10, 22, 0
7, 3, 0
7, 13, 0
7, 21, 0
7, 16, 0
7, 24, 0
7, 5, 0
7, 9, 0
3, 0, 0
3, 7, 0
3, 6, 0
3, 28, 0
3, 23, 0
3, 18, 0
3, 27, 0
3, 29, 0
3, 5, 0
3, 11, 0
3, 10, 0
3, 20, 0
3, 12, 0
3, 4, 0
3, 14, 0
3, 24, 0
3, 19, 0
3, 8, 0
3, 22, 0
3, 9, 0
25, 2, 0
25, 19, 0
25, 4, 0
25, 26, 1
25, 1, 0
26, 2, 0
26, 19, 0
26, 4, 0
26, 25, 1
26, 1, 0
27, 6, 0
27, 14, 0
27, 2, 0
27, 17, 0
27, 3, 0
21, 7, 0
21, 12, 0
21, 13, 0
21, 24, 0
21, 8, 0
21, 9, 0
19, 3, 0
19, 4, 0
19, 14, 0
19, 26, 0
19, 2, 0
19, 25, 0
19, 15, 0
19, 1, 0
18, 20, 0
18, 3, 0
18, 28, 0
18, 23, 0
18, 29, 0
18, 6, 0
18, 22, 0
18, 10, 0
9, 20, 0
9, 0, 0
9, 7, 0
9, 3, 0
9, 24, 0
9, 21, 0
9, 8, 0
9, 5, 0
9, 11, 0
9, 12, 0
