0, 7, 0
0, 12, 0
0, 14, 0
0, 16, 0
0, 15, 0
0, 5, 0
0, 11, 0
13, 7, 0
13, 15, 0
13, 4, 0
13, 14, 0
13, 11, 0
3, 2, 1
3, 6, 0
3, 8, 0
3, 10, 0
3, 9, 0
16, 0, 0
16, 12, 0
6, 2, 0
6, 3, 0
6, 8, 0
6, 10, 0
6, 9, 0
8, 12, 0
8, 9, 0
8, 3, 0
8, 2, 0
8, 6, 0
8, 10, 0
8, 1, 0
5, 7, 0
5, 0, 0
5, 4, 0
5, 11, 0
11, 0, 0
11, 7, 0
11, 4, 0
11, 14, 0
11, 13, 0
11, 15, 0
11, 5, 0
10, 2, 0
10, 6, 0
10, 8, 0
10, 9, 0
10, 3, 0
7, 0, 0
7, 4, 0
7, 14, 0
7, 13, 0
7, 15, 0
7, 5, 0
7, 11, 0
12, 16, 0
12, 0, 0
12, 8, 0
12, 1, 0
4, 7, 0
4, 13, 0
4, 14, 0
4, 15, 0
4, 5, 0
4, 11, 0
14, 7, 0
14, 0, 0
14, 4, 0
14, 13, 0
14, 15, 1
14, 11, 0
2, 6, 0
2, 8, 0
2, 9, 0
2, 10, 0
2, 3, 1
1, 12, 0
1, 8, 0
15, 7, 0
15, 0, 0
15, 4, 0
15, 14, 1
15, 13, 0
15, 11, 0
9, 2, 0
9, 6, 0
9, 8, 0
9, 10, 0
9, 3, 0
