12, 0, 0
12, 28, 0
12, 31, 0
12, 16, 0
12, 6, 0
12, 2, 0
12, 27, 0
12, 7, 0
12, 25, 0
12, 9, 0
12, 26, 0
12, 24, 0
12, 21, 0
12, 29, 0
12, 30, 0
12, 8, 0
12, 10, 0
12, 19, 0
13, 28, 0
13, 23, 0
13, 16, 0
13, 6, 0
13, 24, 0
13, 11, 0
13, 30, 0
13, 7, 0
13, 18, 0
13, 25, 0
13, 26, 0
13, 29, 0
13, 21, 0
13, 17, 0
13, 14, 0
13, 8, 0
13, 15, 0
13, 10, 0
13, 22, 0
13, 9, 0
17, 18, 1
17, 19, 0
17, 13, 0
17, 11, 0
17, 31, 0
26, 12, 0
26, 13, 0
26, 22, 0
26, 31, 0
26, 29, 0
26, 18, 0
26, 11, 0
26, 1, 0
23, 0, 0
23, 13, 0
23, 28, 0
23, 16, 0
23, 27, 0
23, 29, 0
23, 11, 0
23, 30, 0
23, 7, 0
23, 3, 0
23, 4, 0
23, 25, 0
23, 2, 0
23, 14, 0
23, 15, 0
23, 22, 1
23, 9, 0
2, 28, 0
2, 12, 0
2, 25, 0
2, 23, 0
2, 3, 1
5, 7, 0
5, 30, 0
11, 23, 0
11, 13, 0
11, 17, 0
11, 31, 0
11, 26, 0
11, 18, 0
11, 19, 0
11, 22, 0
11, 1, 0
1, 18, 0
1, 26, 0
1, 11, 0
1, 31, 0
20, 21, 0
20, 19, 0
4, 27, 0
4, 14, 0
4, 23, 0
4, 9, 0
14, 13, 0
14, 28, 0
14, 23, 0
14, 16, 0
14, 6, 0
14, 27, 0
14, 3, 0
14, 4, 0
14, 25, 0
14, 29, 0
14, 15, 1
14, 22, 0
14, 9, 0
24, 12, 0
24, 13, 0
24, 22, 0
24, 10, 0
28, 12, 0
28, 13, 0
28, 14, 0
28, 23, 0
28, 3, 0
28, 25, 0
28, 2, 0
28, 22, 0
28, 27, 0
30, 0, 0
30, 12, 0
30, 13, 0
30, 23, 0
30, 7, 0
30, 22, 0
30, 5, 0
8, 16, 0
8, 12, 0
8, 6, 0
8, 13, 0
8, 29, 0
15, 3, 0
15, 13, 0
15, 14, 1
15, 23, 0
15, 16, 0
15, 22, 0
22, 0, 0
22, 13, 0
22, 28, 0
22, 23, 1
22, 16, 0
22, 27, 0
22, 24, 0
22, 11, 0
22, 30, 0
22, 7, 0
22, 3, 0
22, 25, 0
22, 26, 0
22, 6, 0
22, 29, 0
22, 14, 0
22, 15, 0
22, 18, 0
22, 9, 0
0, 7, 0
0, 12, 0
0, 22, 0
0, 23, 0
0, 30, 0
3, 25, 0
3, 28, 0
3, 23, 0
3, 2, 1
3, 14, 0
3, 15, 0
3, 22, 0
16, 25, 0
16, 12, 0
16, 13, 0
16, 14, 0
16, 23, 0
16, 6, 0
16, 8, 0
16, 15, 0
16, 22, 0
6, 12, 0
6, 13, 0
6, 14, 0
6, 29, 0
6, 16, 0
6, 8, 0
6, 22, 0
27, 12, 0
27, 4, 0
27, 28, 0
27, 23, 0
27, 14, 0
27, 22, 0
7, 0, 0
7, 12, 0
7, 13, 0
7, 23, 0
7, 9, 0
7, 5, 0
7, 22, 0
7, 30, 0
18, 13, 0
18, 17, 1
18, 31, 0
18, 26, 0
18, 19, 0
18, 22, 0
18, 11, 0
18, 1, 0
25, 12, 0
25, 13, 0
25, 28, 0
25, 23, 0
25, 3, 0
25, 16, 0
25, 14, 0
25, 2, 0
25, 22, 0
31, 12, 0
31, 17, 0
31, 26, 0
31, 18, 0
31, 19, 0
31, 11, 0
31, 1, 0
29, 12, 0
29, 13, 0
29, 14, 0
29, 23, 0
29, 26, 0
29, 6, 0
29, 8, 0
29, 22, 0
21, 20, 0
21, 12, 0
21, 13, 0
21, 10, 0
19, 20, 0
19, 12, 0
19, 17, 0
19, 31, 0
19, 18, 0
19, 11, 0
10, 21, 0
10, 12, 0
10, 13, 0
10, 24, 0
9, 7, 0
9, 12, 0
9, 13, 0
9, 14, 0
9, 23, 0
9, 4, 0
9, 22, 0
