0, 16, 0
0, 20, 0
0, 13, 0
7, 20, 0
7, 13, 0
7, 10, 0
13, 0, 0
13, 20, 0
13, 7, 0
13, 10, 0
13, 6, 0
17, 12, 0
17, 4, 0
17, 14, 0
17, 3, 0
17, 2, 0
17, 18, 0
17, 8, 0
17, 15, 0
17, 5, 0
17, 10, 0
3, 8, 0
3, 17, 0
3, 18, 0
3, 6, 0
3, 5, 0
3, 11, 0
3, 10, 0
3, 20, 0
3, 12, 0
3, 4, 0
3, 14, 0
3, 2, 0
3, 19, 0
3, 1, 0
3, 15, 0
3, 9, 0
16, 0, 0
16, 18, 0
16, 6, 0
16, 5, 0
16, 11, 0
16, 1, 0
16, 20, 0
16, 4, 0
16, 14, 0
16, 2, 0
16, 8, 0
16, 15, 0
16, 10, 0
6, 13, 0
6, 3, 0
6, 16, 0
6, 5, 0
6, 11, 0
6, 1, 0
6, 20, 0
6, 12, 0
6, 4, 0
6, 14, 0
6, 2, 0
6, 19, 0
6, 8, 0
6, 15, 0
8, 17, 0
8, 12, 0
8, 16, 0
8, 6, 0
8, 5, 0
8, 11, 0
8, 10, 0
8, 3, 0
8, 4, 0
8, 14, 0
8, 2, 0
8, 19, 0
8, 1, 0
8, 15, 0
5, 17, 0
5, 12, 0
5, 16, 0
5, 6, 0
5, 11, 0
5, 10, 0
5, 3, 0
5, 4, 1
5, 19, 0
5, 8, 0
5, 15, 0
5, 18, 0
11, 16, 0
11, 18, 0
11, 6, 0
11, 5, 0
11, 1, 0
11, 3, 0
11, 4, 0
11, 14, 0
11, 2, 0
11, 19, 0
11, 8, 0
11, 15, 0
11, 9, 0
10, 13, 0
10, 17, 0
10, 12, 0
10, 16, 0
10, 5, 0
10, 1, 0
10, 7, 0
10, 3, 0
10, 4, 0
10, 14, 0
10, 2, 0
10, 8, 0
10, 15, 0
20, 7, 0
20, 0, 0
20, 13, 0
20, 14, 0
20, 3, 0
20, 16, 0
20, 6, 0
20, 2, 0
20, 18, 0
20, 1, 0
12, 3, 0
12, 14, 0
12, 2, 0
12, 18, 0
12, 6, 0
12, 10, 0
12, 8, 0
12, 15, 0
12, 5, 0
12, 17, 0
12, 1, 0
4, 17, 0
4, 16, 0
4, 6, 0
4, 5, 1
4, 11, 0
4, 10, 0
4, 3, 0
4, 14, 0
4, 19, 0
4, 8, 0
4, 18, 0
4, 9, 0
14, 8, 0
14, 17, 0
14, 3, 0
14, 16, 0
14, 6, 0
14, 11, 0
14, 10, 0
14, 20, 0
14, 12, 0
14, 4, 0
14, 19, 0
14, 1, 0
14, 15, 1
14, 18, 0
14, 9, 0
2, 17, 0
2, 3, 0
2, 16, 0
2, 6, 0
2, 11, 0
2, 1, 1
2, 20, 0
2, 12, 0
2, 19, 0
2, 8, 0
2, 15, 0
2, 10, 0
2, 18, 0
19, 3, 0
19, 4, 0
19, 14, 0
19, 9, 0
19, 2, 0
19, 18, 0
19, 6, 0
19, 8, 0
19, 5, 0
19, 11, 0
19, 1, 0
1, 3, 0
1, 16, 0
1, 6, 0
1, 11, 0
1, 10, 0
1, 20, 0
1, 12, 0
1, 14, 0
1, 2, 1
1, 19, 0
1, 8, 0
1, 18, 0
1, 9, 0
15, 17, 0
15, 12, 0
15, 16, 0
15, 6, 0
15, 5, 0
15, 11, 0
15, 10, 0
15, 3, 0
15, 14, 1
15, 2, 0
15, 8, 0
15, 18, 0
15, 9, 0
18, 17, 0
18, 3, 0
18, 16, 0
18, 5, 0
18, 11, 0
18, 1, 0
18, 20, 0
18, 12, 0
18, 4, 0
18, 14, 0
18, 2, 0
18, 19, 0
18, 15, 0
18, 9, 0
9, 3, 0
9, 4, 0
9, 14, 0
9, 18, 0
9, 19, 0
9, 15, 0
9, 11, 0
9, 1, 0
