0, 3, 0
0, 13, 0
0, 14, 0
0, 6, 0
0, 8, 0
0, 1, 0
13, 0, 0
13, 6, 0
13, 8, 0
13, 1, 0
3, 0, 0
3, 2, 1
3, 14, 0
3, 5, 0
3, 1, 0
6, 0, 0
6, 7, 0
6, 13, 0
6, 9, 0
6, 8, 0
6, 1, 0
8, 7, 0
8, 12, 0
8, 13, 0
8, 6, 0
8, 0, 0
8, 9, 0
5, 3, 0
5, 2, 0
5, 14, 0
5, 1, 0
11, 12, 0
11, 4, 0
11, 9, 0
11, 10, 0
10, 12, 0
10, 4, 0
10, 11, 0
7, 12, 0
7, 6, 0
7, 8, 0
7, 9, 0
12, 7, 0
12, 4, 0
12, 8, 0
12, 10, 0
12, 11, 0
12, 9, 0
4, 12, 0
4, 9, 0
4, 11, 0
4, 10, 0
14, 0, 0
14, 3, 0
14, 2, 0
14, 5, 0
14, 1, 0
2, 3, 1
2, 14, 0
2, 5, 0
2, 1, 0
1, 0, 0
1, 3, 0
1, 13, 0
1, 14, 0
1, 2, 0
1, 6, 0
1, 5, 0
9, 7, 0
9, 12, 0
9, 4, 0
9, 6, 0
9, 8, 0
9, 11, 0
