0, 16, 0
0, 2, 0
0, 8, 0
0, 5, 0
0, 10, 0
13, 7, 0
13, 6, 0
13, 17, 0
17, 7, 0
17, 13, 0
17, 4, 0
17, 6, 0
17, 9, 0
17, 1, 0
3, 12, 0
3, 15, 0
3, 8, 0
3, 14, 0
16, 0, 0
16, 2, 0
16, 8, 0
16, 5, 0
16, 10, 0
6, 7, 1
6, 13, 0
6, 17, 0
8, 0, 0
8, 3, 0
8, 16, 0
8, 15, 0
8, 5, 0
8, 10, 0
5, 0, 0
5, 16, 0
5, 8, 0
5, 10, 0
11, 18, 0
11, 2, 0
10, 0, 0
10, 16, 0
10, 8, 0
10, 5, 0
7, 6, 1
7, 13, 0
7, 17, 0
12, 3, 0
12, 15, 0
4, 9, 0
4, 17, 0
4, 1, 0
14, 3, 0
14, 9, 0
2, 0, 0
2, 16, 0
2, 18, 0
2, 11, 0
1, 4, 0
1, 17, 0
15, 12, 0
15, 8, 0
15, 3, 0
18, 11, 0
18, 2, 0
9, 17, 0
9, 4, 0
9, 14, 0
