0, 2, 0
0, 13, 0
0, 11, 0
0, 9, 0
13, 0, 0
13, 3, 0
13, 2, 0
13, 5, 0
13, 11, 0
13, 9, 0
3, 12, 0
3, 13, 0
3, 5, 0
3, 11, 0
3, 2, 0
6, 2, 0
6, 12, 0
6, 4, 0
6, 5, 0
6, 1, 0
8, 7, 1
8, 15, 0
8, 14, 0
8, 10, 0
5, 12, 0
5, 13, 0
5, 14, 0
5, 3, 0
5, 6, 0
11, 0, 0
11, 3, 0
11, 13, 0
11, 9, 0
11, 2, 0
10, 7, 0
10, 4, 0
10, 14, 0
10, 2, 0
10, 8, 0
10, 15, 0
7, 15, 0
7, 8, 1
7, 14, 0
7, 10, 0
12, 3, 0
12, 14, 0
12, 2, 0
12, 6, 0
12, 5, 0
12, 1, 0
4, 6, 0
4, 14, 0
4, 10, 0
14, 7, 0
14, 12, 0
14, 4, 0
14, 8, 0
14, 15, 0
14, 5, 0
14, 10, 0
2, 0, 0
2, 3, 0
2, 13, 0
2, 12, 0
2, 6, 0
2, 11, 0
2, 10, 0
1, 12, 0
1, 6, 0
15, 7, 0
15, 8, 0
15, 14, 0
15, 10, 0
9, 0, 0
9, 13, 0
9, 11, 0
