0, 7, 0
0, 12, 0
0, 14, 0
0, 6, 0
0, 15, 0
0, 11, 0
7, 0, 0
7, 12, 0
7, 18, 0
7, 6, 1
7, 15, 0
7, 5, 0
13, 8, 0
13, 9, 0
13, 11, 0
13, 10, 0
17, 16, 1
17, 2, 0
3, 20, 0
3, 18, 0
3, 19, 0
3, 1, 0
16, 17, 1
16, 2, 0
6, 0, 0
6, 12, 0
6, 7, 1
8, 2, 0
8, 13, 0
8, 9, 0
8, 10, 0
5, 18, 0
5, 12, 0
5, 4, 1
5, 7, 0
11, 0, 0
11, 15, 0
11, 13, 0
11, 14, 0
10, 13, 0
10, 8, 0
10, 15, 0
10, 9, 1
20, 18, 0
20, 3, 0
20, 19, 1
20, 4, 0
20, 1, 0
12, 0, 0
12, 7, 0
12, 4, 0
12, 18, 0
12, 6, 0
12, 5, 0
4, 20, 0
4, 12, 0
4, 18, 0
4, 19, 0
4, 5, 1
4, 1, 0
14, 0, 0
14, 15, 1
14, 11, 0
2, 16, 0
2, 8, 0
2, 17, 0
2, 9, 0
19, 20, 1
19, 3, 0
19, 4, 0
19, 18, 0
19, 1, 0
1, 20, 0
1, 18, 0
1, 19, 0
1, 4, 0
1, 3, 0
15, 0, 0
15, 7, 0
15, 14, 1
15, 11, 0
15, 10, 0
18, 20, 0
18, 12, 0
18, 4, 0
18, 3, 0
18, 19, 0
18, 5, 0
18, 7, 0
18, 1, 0
9, 2, 0
9, 8, 0
9, 13, 0
9, 10, 1
