0, 1, 0
0, 10, 0
0, 5, 0
0, 2, 0
13, 12, 1
13, 4, 0
13, 2, 0
13, 1, 0
13, 5, 0
13, 10, 0
3, 7, 0
3, 4, 1
3, 8, 0
3, 11, 0
3, 9, 0
6, 7, 0
6, 8, 0
6, 4, 0
6, 9, 0
8, 7, 1
8, 6, 0
8, 4, 0
8, 9, 1
8, 3, 0
5, 0, 0
5, 12, 0
5, 13, 0
5, 4, 0
5, 2, 0
5, 10, 0
5, 11, 0
5, 1, 0
11, 7, 0
11, 12, 1
11, 4, 0
11, 5, 0
11, 3, 0
10, 0, 0
10, 12, 0
10, 13, 0
10, 4, 0
10, 2, 0
10, 5, 0
10, 1, 0
7, 6, 0
7, 8, 1
7, 4, 0
7, 11, 0
7, 3, 0
12, 4, 0
12, 13, 1
12, 2, 0
12, 5, 0
12, 11, 1
12, 10, 0
4, 7, 0
4, 12, 0
4, 13, 0
4, 9, 0
4, 3, 1
4, 6, 0
4, 8, 0
4, 5, 0
4, 11, 0
4, 10, 0
2, 0, 0
2, 12, 0
2, 13, 0
2, 10, 0
2, 5, 0
2, 1, 1
1, 0, 0
1, 10, 0
1, 13, 0
1, 5, 0
1, 2, 1
9, 6, 0
9, 8, 1
9, 4, 0
9, 3, 0
