0, 7, 0
0, 3, 0
0, 13, 0
0, 6, 0
0, 8, 0
0, 10, 0
13, 0, 0
13, 3, 0
13, 15, 0
13, 14, 0
13, 12, 1
3, 7, 0
3, 12, 0
3, 13, 0
3, 14, 0
3, 15, 0
3, 11, 0
3, 0, 0
6, 0, 0
6, 4, 0
6, 9, 0
6, 10, 0
6, 5, 0
6, 1, 0
8, 7, 0
8, 0, 0
8, 2, 0
8, 11, 0
8, 1, 0
5, 6, 0
5, 4, 0
5, 9, 0
11, 3, 0
11, 8, 0
11, 14, 0
10, 0, 0
10, 6, 0
10, 7, 0
10, 9, 0
10, 1, 0
7, 0, 0
7, 3, 0
7, 2, 0
7, 1, 0
7, 8, 0
7, 10, 0
12, 3, 0
12, 14, 0
12, 13, 1
12, 15, 0
4, 6, 0
4, 9, 0
4, 5, 0
4, 1, 0
14, 12, 0
14, 13, 0
14, 3, 0
14, 15, 0
14, 11, 0
14, 1, 0
2, 7, 0
2, 8, 0
1, 7, 0
1, 4, 0
1, 14, 0
1, 9, 0
1, 6, 0
1, 8, 0
1, 15, 0
1, 10, 0
15, 12, 0
15, 13, 0
15, 14, 0
15, 3, 0
15, 1, 0
9, 6, 0
9, 4, 0
9, 5, 0
9, 10, 0
9, 1, 0
