0, 7, 0
0, 4, 0
0, 2, 0
0, 6, 0
0, 1, 0
0, 9, 0
3, 5, 0
3, 10, 0
4, 0, 0
4, 1, 0
4, 9, 0
4, 2, 0
2, 0, 0
2, 6, 0
2, 8, 0
2, 4, 0
6, 0, 0
6, 7, 0
6, 1, 0
6, 9, 0
6, 2, 0
1, 0, 0
1, 6, 0
1, 4, 0
1, 9, 0
8, 2, 0
5, 7, 0
5, 3, 0
5, 10, 0
7, 0, 0
7, 6, 0
7, 10, 0
7, 5, 0
7, 9, 0
10, 7, 0
10, 3, 0
10, 5, 0
9, 0, 0
9, 6, 0
9, 4, 0
9, 7, 0
9, 1, 0
