0, 16, 0
0, 12, 0
13, 15, 0
13, 11, 0
3, 7, 0
3, 6, 0
3, 5, 0
16, 0, 0
16, 7, 0
6, 3, 0
6, 5, 0
6, 11, 0
8, 2, 0
8, 12, 0
8, 10, 0
8, 4, 0
8, 1, 0
5, 6, 0
5, 3, 0
11, 6, 0
11, 13, 0
11, 15, 0
10, 2, 0
10, 8, 0
10, 1, 0
7, 16, 0
7, 3, 0
12, 0, 0
12, 8, 0
12, 4, 0
4, 12, 0
4, 8, 0
14, 15, 0
14, 9, 0
2, 8, 0
2, 10, 0
2, 1, 1
1, 8, 0
1, 10, 0
1, 2, 1
15, 13, 0
15, 14, 0
15, 11, 0
9, 14, 0
