13, 7, 0
13, 17, 0
13, 23, 0
13, 3, 0
13, 18, 0
13, 2, 0
13, 10, 0
13, 20, 0
13, 12, 0
13, 25, 0
13, 24, 0
13, 21, 0
13, 14, 0
13, 19, 0
13, 15, 0
17, 0, 0
17, 20, 0
17, 13, 0
17, 23, 0
17, 24, 0
17, 21, 0
17, 4, 0
17, 19, 0
23, 0, 0
23, 7, 0
23, 13, 0
23, 17, 0
23, 6, 0
23, 2, 0
23, 10, 0
23, 20, 0
23, 3, 0
23, 4, 0
23, 25, 0
23, 24, 0
23, 21, 0
23, 19, 0
23, 8, 0
23, 9, 0
5, 0, 0
5, 25, 0
5, 8, 0
5, 15, 0
5, 11, 0
5, 9, 0
11, 7, 0
11, 25, 0
11, 16, 0
11, 8, 0
11, 5, 0
11, 9, 0
1, 18, 0
1, 2, 0
1, 24, 0
20, 4, 0
20, 13, 0
20, 23, 0
20, 24, 0
20, 21, 1
20, 17, 0
20, 19, 0
4, 20, 0
4, 0, 0
4, 17, 0
4, 23, 0
4, 24, 0
4, 21, 0
4, 19, 0
4, 2, 0
4, 18, 0
4, 10, 0
14, 3, 0
14, 13, 0
14, 15, 0
14, 12, 0
24, 20, 0
24, 18, 0
24, 13, 0
24, 17, 0
24, 23, 0
24, 2, 0
24, 21, 0
24, 4, 0
24, 19, 0
24, 10, 0
24, 1, 0
8, 7, 0
8, 0, 0
8, 25, 0
8, 23, 0
8, 16, 0
8, 5, 0
8, 11, 0
8, 9, 1
15, 0, 0
15, 3, 0
15, 13, 0
15, 14, 0
15, 12, 0
15, 16, 0
15, 25, 0
15, 5, 0
22, 10, 0
0, 7, 0
0, 4, 0
0, 17, 0
0, 23, 0
0, 25, 0
0, 8, 0
0, 15, 0
0, 5, 0
0, 9, 0
3, 12, 0
3, 13, 0
3, 25, 0
3, 23, 0
3, 14, 0
3, 15, 0
16, 7, 0
16, 25, 0
16, 8, 0
16, 15, 0
16, 11, 0
6, 25, 0
6, 23, 0
6, 9, 0
10, 4, 0
10, 13, 0
10, 23, 0
10, 24, 0
10, 21, 0
10, 2, 0
10, 22, 0
7, 0, 0
7, 12, 0
7, 13, 0
7, 25, 0
7, 23, 0
7, 16, 0
7, 8, 0
7, 11, 0
7, 9, 0
12, 7, 0
12, 3, 0
12, 15, 0
12, 13, 0
12, 14, 0
25, 0, 0
25, 13, 0
25, 23, 0
25, 16, 0
25, 6, 0
25, 5, 0
25, 11, 0
25, 7, 0
25, 3, 0
25, 8, 0
25, 15, 0
25, 9, 0
2, 21, 0
2, 4, 0
2, 13, 0
2, 23, 0
2, 24, 0
2, 18, 0
2, 10, 0
2, 1, 0
21, 20, 1
21, 4, 0
21, 13, 0
21, 23, 0
21, 24, 0
21, 18, 0
21, 17, 0
21, 19, 0
21, 2, 0
21, 10, 0
19, 20, 0
19, 4, 0
19, 13, 0
19, 23, 0
19, 24, 0
19, 21, 0
19, 17, 0
18, 13, 0
18, 4, 0
18, 24, 0
18, 21, 0
18, 2, 0
18, 1, 0
9, 0, 0
9, 7, 0
9, 25, 0
9, 23, 0
9, 6, 0
9, 8, 1
9, 5, 0
9, 11, 0
