0, 3, 0
0, 4, 0
0, 5, 0
0, 2, 0
3, 0, 0
3, 7, 0
3, 4, 0
3, 2, 0
3, 6, 0
3, 1, 0
4, 0, 0
4, 3, 0
4, 2, 0
7, 3, 0
7, 1, 0
7, 6, 1
2, 0, 0
2, 3, 0
2, 4, 0
2, 5, 0
6, 7, 1
6, 3, 0
6, 1, 0
8, 5, 0
5, 0, 0
5, 8, 0
5, 2, 0
1, 7, 0
1, 3, 0
1, 6, 0
