0, 6, 0
0, 11, 0
0, 10, 0
13, 8, 0
13, 5, 0
13, 9, 0
3, 4, 0
6, 0, 0
6, 11, 0
8, 12, 0
8, 13, 0
8, 14, 0
8, 15, 0
8, 5, 0
8, 1, 0
5, 7, 0
5, 8, 0
5, 13, 0
5, 4, 0
5, 9, 0
11, 0, 0
11, 6, 0
11, 10, 0
11, 2, 0
10, 0, 0
10, 11, 0
10, 2, 0
7, 4, 0
7, 5, 0
12, 15, 0
12, 8, 0
12, 14, 0
12, 1, 0
4, 7, 0
4, 3, 0
4, 5, 0
4, 9, 0
14, 12, 0
14, 8, 0
14, 15, 1
14, 1, 0
2, 10, 0
2, 11, 0
2, 1, 0
1, 12, 0
1, 8, 0
1, 14, 0
1, 2, 0
15, 12, 0
15, 8, 0
15, 14, 1
9, 13, 0
9, 5, 0
9, 4, 0
