2, 7, 0
2, 18, 0
2, 25, 0
2, 24, 0
2, 16, 0
2, 6, 0
13, 25, 0
13, 27, 0
13, 15, 0
17, 3, 0
17, 19, 0
17, 23, 0
17, 12, 0
23, 0, 0
23, 3, 0
23, 4, 0
23, 17, 0
23, 12, 0
23, 19, 0
23, 9, 0
23, 11, 0
23, 10, 0
29, 20, 0
29, 12, 0
29, 4, 0
29, 28, 1
29, 22, 0
5, 16, 0
5, 14, 0
11, 0, 0
11, 3, 0
11, 23, 0
11, 10, 1
1, 18, 0
1, 21, 0
1, 27, 0
20, 0, 0
20, 12, 0
20, 4, 0
20, 28, 0
20, 29, 0
20, 22, 0
4, 20, 0
4, 12, 0
4, 28, 0
4, 23, 0
4, 29, 0
4, 19, 0
4, 22, 0
4, 0, 0
14, 8, 0
14, 5, 0
24, 16, 0
24, 2, 0
28, 20, 0
28, 12, 0
28, 4, 0
28, 22, 0
28, 29, 1
8, 16, 0
8, 14, 0
8, 26, 0
15, 27, 0
15, 13, 0
15, 22, 0
22, 20, 0
22, 12, 0
22, 4, 0
22, 28, 0
22, 3, 0
22, 27, 0
22, 29, 0
22, 15, 0
0, 20, 0
0, 12, 0
0, 4, 0
0, 23, 0
0, 3, 0
0, 19, 0
0, 9, 0
0, 11, 0
0, 10, 0
12, 20, 0
12, 0, 0
12, 4, 0
12, 28, 0
12, 9, 0
12, 23, 0
12, 3, 0
12, 17, 0
12, 29, 0
12, 22, 0
12, 10, 0
16, 2, 0
16, 8, 0
16, 5, 0
16, 26, 0
16, 24, 0
6, 7, 1
6, 18, 0
6, 25, 0
6, 2, 0
10, 0, 0
10, 3, 0
10, 23, 0
10, 12, 0
10, 11, 1
10, 9, 1
7, 18, 0
7, 6, 1
7, 25, 0
7, 2, 0
3, 0, 0
3, 12, 0
3, 17, 0
3, 22, 0
3, 23, 0
3, 19, 0
3, 11, 0
3, 10, 0
25, 7, 0
25, 13, 0
25, 27, 0
25, 18, 0
25, 6, 0
25, 2, 0
26, 16, 0
26, 8, 0
27, 13, 0
27, 25, 0
27, 21, 0
27, 15, 0
27, 22, 0
27, 1, 0
21, 27, 0
21, 1, 0
19, 0, 0
19, 3, 0
19, 4, 0
19, 17, 0
19, 23, 0
18, 7, 0
18, 6, 0
18, 2, 0
18, 25, 0
18, 1, 0
9, 0, 0
9, 12, 0
9, 23, 0
9, 10, 1
