12, 10, 0
13, 30, 0
13, 28, 0
13, 29, 0
17, 14, 0
17, 23, 0
17, 24, 0
17, 25, 0
17, 8, 0
17, 1, 0
26, 25, 0
26, 15, 0
26, 22, 0
23, 25, 0
23, 24, 1
23, 14, 0
23, 8, 0
23, 17, 0
23, 1, 0
2, 20, 0
2, 16, 0
2, 22, 0
2, 21, 0
5, 19, 0
5, 31, 0
11, 3, 0
11, 4, 0
11, 9, 0
11, 18, 0
11, 30, 0
11, 10, 0
1, 0, 0
1, 25, 0
1, 23, 0
1, 14, 0
1, 8, 0
1, 17, 0
20, 21, 1
20, 22, 0
20, 2, 0
4, 18, 0
4, 3, 1
4, 9, 0
4, 11, 0
4, 30, 0
14, 17, 0
14, 23, 0
14, 24, 0
14, 25, 0
14, 8, 0
14, 1, 0
24, 25, 0
24, 8, 0
24, 14, 0
24, 17, 0
24, 23, 1
28, 13, 0
28, 30, 0
30, 3, 0
30, 13, 0
30, 28, 0
30, 4, 0
30, 18, 0
30, 10, 0
30, 11, 0
30, 9, 0
8, 25, 0
8, 23, 0
8, 24, 0
8, 14, 0
8, 17, 0
8, 1, 0
15, 25, 0
15, 26, 0
22, 20, 0
22, 21, 0
22, 26, 0
22, 2, 0
0, 7, 0
0, 6, 0
0, 1, 0
0, 29, 0
3, 4, 1
3, 18, 0
3, 9, 0
3, 10, 0
3, 11, 0
3, 30, 0
16, 27, 0
16, 2, 0
6, 0, 0
6, 7, 1
6, 29, 0
27, 16, 0
27, 19, 0
7, 0, 0
7, 6, 1
7, 29, 0
18, 3, 0
18, 4, 0
18, 9, 0
18, 30, 0
18, 11, 0
18, 10, 0
25, 14, 0
25, 26, 0
25, 23, 0
25, 24, 0
25, 17, 0
25, 8, 0
25, 15, 0
25, 1, 0
31, 19, 0
31, 5, 0
29, 7, 0
29, 6, 0
29, 13, 0
29, 0, 0
21, 20, 1
21, 22, 0
21, 2, 0
19, 27, 0
19, 5, 0
19, 31, 0
10, 12, 0
10, 3, 0
10, 18, 0
10, 9, 0
10, 11, 0
10, 30, 0
9, 3, 0
9, 4, 0
9, 18, 0
9, 10, 0
9, 11, 0
9, 30, 0
