0, 6, 0
0, 9, 0
0, 5, 0
0, 2, 0
3, 7, 0
3, 8, 0
3, 4, 1
4, 7, 0
4, 3, 1
4, 8, 0
2, 0, 0
2, 1, 0
6, 0, 0
6, 5, 0
6, 9, 0
1, 7, 0
1, 2, 0
8, 7, 0
8, 3, 0
8, 4, 0
5, 0, 0
5, 6, 0
7, 3, 0
7, 8, 0
7, 4, 0
7, 1, 0
9, 0, 0
9, 6, 0
