0, 11, 0
0, 1, 0
6, 7, 1
6, 3, 1
6, 5, 1
6, 2, 0
1, 0, 0
1, 7, 0
1, 4, 0
1, 11, 0
5, 7, 1
5, 6, 1
5, 2, 0
5, 3, 1
11, 0, 0
11, 1, 0
10, 2, 0
10, 8, 0
10, 9, 0
7, 3, 1
7, 4, 1
7, 2, 0
7, 6, 1
7, 5, 1
7, 1, 0
3, 7, 1
3, 6, 1
3, 4, 1
3, 5, 1
3, 2, 0
4, 7, 1
4, 3, 1
4, 1, 0
2, 7, 0
2, 3, 0
2, 9, 0
2, 6, 0
2, 8, 0
2, 5, 0
2, 10, 0
8, 2, 0
8, 10, 0
8, 9, 1
9, 2, 0
9, 8, 1
9, 10, 0
