0, 3, 0
0, 8, 0
0, 2, 0
3, 0, 0
3, 8, 0
4, 7, 0
4, 6, 0
4, 2, 0
4, 1, 0
7, 6, 0
7, 1, 0
7, 8, 0
7, 4, 0
7, 2, 0
2, 0, 0
2, 7, 0
2, 4, 0
2, 6, 0
2, 8, 0
2, 1, 0
6, 7, 0
6, 1, 0
6, 4, 0
6, 5, 0
6, 2, 0
8, 0, 0
8, 3, 0
8, 1, 0
8, 7, 0
8, 2, 0
5, 6, 0
5, 1, 0
1, 7, 0
1, 4, 0
1, 2, 0
1, 6, 0
1, 8, 0
1, 5, 0
