0, 5, 0
6, 7, 0
6, 4, 0
6, 10, 0
6, 8, 0
6, 5, 0
6, 9, 0
1, 3, 0
1, 4, 0
1, 11, 0
1, 2, 1
5, 0, 0
5, 6, 0
5, 7, 0
11, 2, 0
11, 3, 0
11, 4, 0
11, 1, 0
10, 6, 0
10, 8, 0
7, 6, 0
7, 5, 0
3, 2, 0
3, 4, 0
3, 11, 0
3, 1, 0
4, 3, 0
4, 2, 0
4, 6, 0
4, 1, 0
4, 8, 0
4, 11, 0
4, 9, 0
2, 3, 0
2, 4, 0
2, 11, 0
2, 1, 1
8, 6, 0
8, 4, 0
8, 9, 0
8, 10, 0
9, 6, 0
9, 8, 0
9, 4, 0
