0, 12, 0
0, 2, 0
0, 10, 0
13, 4, 0
13, 5, 0
3, 7, 0
3, 6, 0
3, 5, 0
3, 1, 0
6, 7, 0
6, 3, 0
6, 8, 0
6, 1, 0
8, 7, 1
8, 6, 0
8, 15, 0
8, 11, 0
8, 1, 0
5, 3, 0
5, 13, 0
5, 4, 0
11, 7, 0
11, 15, 0
11, 8, 0
11, 14, 0
10, 0, 0
10, 12, 0
10, 2, 0
7, 6, 0
7, 8, 1
7, 11, 0
7, 3, 0
12, 0, 0
12, 2, 0
12, 10, 0
4, 13, 0
4, 5, 0
4, 2, 0
14, 15, 1
14, 11, 0
14, 9, 0
2, 0, 0
2, 12, 0
2, 4, 0
2, 10, 0
1, 6, 0
1, 8, 0
1, 3, 0
15, 8, 0
15, 14, 1
15, 11, 0
15, 9, 0
9, 15, 0
9, 14, 0
