13, 18, 0
13, 19, 0
13, 22, 0
17, 16, 0
17, 0, 0
17, 8, 0
17, 15, 0
17, 4, 0
5, 16, 0
5, 21, 0
5, 10, 0
5, 11, 0
5, 9, 0
11, 16, 0
11, 9, 0
11, 21, 0
11, 18, 0
11, 19, 0
11, 10, 0
11, 5, 0
11, 22, 0
11, 1, 0
1, 19, 0
1, 11, 0
20, 21, 1
20, 7, 0
4, 16, 0
4, 15, 0
4, 8, 0
4, 17, 0
14, 0, 0
14, 12, 0
14, 8, 0
14, 6, 0
8, 0, 0
8, 4, 0
8, 14, 0
8, 2, 0
8, 16, 0
8, 6, 0
8, 15, 0
8, 17, 0
15, 16, 0
15, 8, 0
15, 17, 0
15, 4, 0
15, 2, 0
22, 18, 0
22, 3, 0
22, 19, 0
22, 13, 0
22, 11, 0
0, 12, 0
0, 8, 0
0, 14, 0
0, 17, 0
0, 6, 0
3, 7, 0
3, 18, 0
3, 22, 0
3, 21, 0
16, 4, 0
16, 17, 0
16, 9, 0
16, 2, 0
16, 8, 0
16, 15, 0
16, 5, 0
16, 11, 0
16, 10, 0
6, 0, 0
6, 8, 0
6, 14, 0
10, 16, 0
10, 5, 0
10, 11, 0
10, 9, 0
7, 20, 0
7, 3, 0
7, 21, 0
12, 0, 0
12, 14, 0
2, 16, 0
2, 8, 0
2, 15, 0
21, 20, 1
21, 7, 0
21, 5, 0
21, 11, 0
21, 3, 0
19, 13, 0
19, 22, 0
19, 11, 0
19, 1, 0
18, 3, 0
18, 13, 0
18, 11, 0
18, 22, 0
18, 9, 0
9, 16, 0
9, 18, 0
9, 5, 0
9, 11, 0
9, 10, 0
