13, 0, 0
13, 17, 0
13, 23, 0
13, 12, 0
13, 16, 0
13, 27, 0
13, 44, 0
13, 11, 0
13, 20, 0
13, 3, 0
13, 43, 0
13, 31, 0
13, 29, 0
13, 52, 0
13, 34, 0
13, 42, 0
17, 20, 0
17, 3, 0
17, 13, 0
17, 52, 0
17, 23, 0
17, 29, 0
17, 6, 0
17, 34, 0
17, 44, 0
23, 0, 0
23, 13, 0
23, 17, 0
23, 16, 0
23, 11, 0
23, 20, 0
23, 12, 0
23, 43, 0
23, 31, 0
23, 29, 0
23, 52, 0
23, 42, 0
46, 51, 0
46, 15, 0
46, 30, 0
46, 7, 0
46, 14, 0
46, 50, 0
46, 32, 0
46, 35, 0
46, 21, 0
46, 10, 0
46, 8, 0
46, 39, 0
46, 48, 0
46, 9, 0
20, 3, 0
20, 13, 0
20, 17, 0
20, 23, 0
20, 29, 0
20, 6, 0
20, 34, 0
20, 52, 0
34, 20, 0
34, 0, 0
34, 13, 0
34, 43, 0
34, 12, 0
34, 16, 0
34, 17, 0
34, 42, 0
34, 52, 0
34, 11, 0
34, 44, 0
14, 7, 0
14, 37, 0
14, 46, 0
14, 32, 0
24, 45, 0
24, 51, 0
24, 5, 0
24, 1, 0
24, 21, 0
24, 50, 0
24, 32, 0
24, 35, 0
24, 37, 0
24, 30, 0
24, 49, 0
24, 39, 0
24, 36, 0
28, 25, 0
28, 53, 0
28, 38, 0
28, 47, 0
15, 0, 0
15, 48, 0
15, 35, 0
15, 41, 0
15, 19, 0
15, 8, 0
15, 40, 0
15, 46, 0
15, 9, 0
41, 0, 0
41, 15, 0
41, 40, 0
0, 45, 0
0, 13, 0
0, 51, 0
0, 23, 0
0, 34, 0
0, 16, 0
0, 27, 0
0, 40, 0
0, 11, 0
0, 12, 0
0, 43, 0
0, 50, 0
0, 31, 0
0, 42, 0
0, 19, 0
0, 8, 0
0, 15, 0
0, 41, 0
0, 9, 0
8, 0, 0
8, 46, 0
8, 32, 0
8, 21, 0
8, 15, 0
8, 9, 0
8, 39, 0
8, 48, 0
8, 10, 0
51, 0, 0
51, 45, 0
51, 37, 0
51, 1, 0
51, 24, 0
51, 46, 0
51, 30, 0
51, 7, 0
51, 33, 0
51, 4, 0
51, 50, 0
51, 35, 0
51, 21, 0
51, 49, 0
51, 5, 0
51, 22, 0
51, 36, 0
3, 20, 0
3, 6, 0
3, 13, 0
3, 17, 0
3, 52, 0
38, 25, 0
38, 28, 0
38, 47, 0
47, 28, 0
47, 25, 0
47, 53, 0
47, 38, 0
47, 22, 0
10, 54, 0
10, 9, 0
10, 21, 0
10, 8, 0
10, 48, 0
10, 46, 0
7, 4, 0
7, 14, 0
7, 32, 0
7, 51, 0
7, 35, 0
7, 21, 0
7, 39, 0
7, 46, 0
7, 50, 0
33, 5, 0
33, 51, 0
33, 1, 0
32, 45, 0
32, 49, 0
32, 1, 0
32, 35, 0
32, 46, 0
32, 5, 0
32, 7, 0
32, 21, 0
32, 4, 0
32, 14, 0
32, 50, 0
32, 24, 0
32, 37, 0
32, 30, 0
32, 8, 0
32, 39, 0
32, 22, 0
32, 36, 0
2, 18, 0
2, 25, 0
2, 26, 0
2, 1, 0
21, 45, 0
21, 8, 0
21, 51, 0
21, 39, 0
21, 35, 0
21, 46, 0
21, 10, 0
21, 7, 0
21, 4, 0
21, 50, 0
21, 32, 0
21, 24, 0
21, 30, 0
21, 49, 0
21, 5, 0
21, 48, 0
21, 36, 0
52, 20, 0
52, 3, 0
52, 13, 0
52, 43, 0
52, 23, 0
52, 34, 0
52, 16, 0
52, 17, 0
52, 42, 0
52, 44, 0
52, 12, 0
19, 0, 0
19, 40, 0
19, 15, 0
19, 9, 0
49, 45, 0
49, 32, 0
49, 51, 0
49, 18, 0
49, 35, 0
49, 1, 0
49, 4, 0
49, 50, 0
49, 26, 0
49, 24, 0
49, 21, 0
49, 22, 0
49, 36, 0
48, 54, 0
48, 9, 0
48, 21, 0
48, 8, 0
48, 15, 0
48, 46, 0
48, 10, 0
31, 0, 0
31, 13, 0
31, 43, 0
31, 23, 0
31, 27, 0
31, 16, 0
31, 42, 0
31, 11, 0
39, 45, 0
39, 24, 0
39, 46, 0
39, 1, 0
39, 7, 0
39, 4, 0
39, 32, 0
39, 35, 0
39, 21, 0
39, 30, 0
39, 8, 0
39, 5, 0
39, 36, 0
29, 20, 0
29, 43, 0
29, 13, 0
29, 17, 0
29, 23, 0
29, 16, 0
29, 42, 0
29, 44, 0
40, 0, 0
40, 19, 0
40, 15, 0
40, 41, 0
11, 0, 0
11, 34, 0
11, 13, 0
11, 43, 0
11, 23, 0
11, 31, 0
11, 16, 0
11, 42, 0
5, 51, 0
5, 21, 0
5, 35, 0
5, 1, 0
5, 33, 0
5, 4, 0
5, 50, 0
5, 32, 0
5, 24, 0
5, 37, 0
5, 39, 0
5, 36, 0
37, 4, 0
37, 14, 0
37, 51, 0
37, 32, 0
37, 24, 0
37, 5, 0
37, 50, 0
4, 51, 0
4, 5, 0
4, 30, 0
4, 7, 0
4, 37, 0
4, 50, 0
4, 32, 0
4, 35, 0
4, 21, 0
4, 49, 0
4, 39, 0
4, 36, 0
35, 49, 0
35, 51, 0
35, 15, 0
35, 5, 0
35, 46, 0
35, 30, 0
35, 7, 0
35, 4, 0
35, 50, 0
35, 32, 0
35, 24, 0
35, 21, 0
35, 1, 0
35, 39, 0
35, 22, 0
35, 36, 1
30, 4, 0
30, 51, 0
30, 32, 0
30, 24, 0
30, 21, 0
30, 36, 0
30, 35, 0
30, 39, 0
30, 46, 0
30, 22, 0
30, 50, 0
42, 0, 0
42, 13, 0
42, 23, 0
42, 12, 0
42, 16, 0
42, 27, 0
42, 11, 0
42, 34, 0
42, 43, 0
42, 31, 0
42, 29, 0
42, 52, 0
22, 32, 0
22, 25, 0
22, 50, 0
22, 51, 0
22, 35, 0
22, 18, 0
22, 36, 0
22, 49, 0
22, 47, 0
22, 30, 0
36, 45, 0
36, 51, 0
36, 1, 0
36, 24, 0
36, 5, 0
36, 30, 0
36, 4, 0
36, 50, 0
36, 32, 0
36, 35, 1
36, 21, 0
36, 49, 0
36, 39, 0
36, 22, 0
25, 28, 0
25, 47, 0
25, 2, 0
25, 18, 0
25, 53, 0
25, 38, 0
25, 22, 0
25, 1, 0
45, 0, 0
45, 49, 0
45, 9, 0
45, 50, 0
45, 51, 0
45, 24, 0
45, 21, 0
45, 36, 0
45, 39, 0
45, 32, 0
16, 0, 0
16, 13, 0
16, 23, 0
16, 12, 0
16, 27, 0
16, 44, 0
16, 11, 0
16, 34, 0
16, 52, 0
16, 31, 0
16, 29, 0
16, 42, 0
27, 0, 0
27, 13, 0
27, 43, 0
27, 31, 0
27, 16, 0
27, 42, 0
1, 2, 0
1, 26, 0
1, 51, 0
1, 24, 0
1, 5, 0
1, 33, 0
1, 25, 0
1, 50, 0
1, 32, 0
1, 35, 0
1, 49, 0
1, 39, 0
1, 36, 0
53, 25, 0
53, 28, 0
53, 47, 0
44, 34, 0
44, 13, 0
44, 52, 0
44, 29, 0
44, 16, 0
44, 6, 0
44, 17, 0
12, 0, 0
12, 34, 0
12, 13, 0
12, 43, 0
12, 23, 0
12, 16, 0
12, 42, 0
12, 52, 0
18, 49, 0
18, 25, 0
18, 22, 0
18, 26, 0
18, 2, 0
54, 48, 0
54, 10, 0
50, 0, 0
50, 45, 0
50, 49, 0
50, 51, 0
50, 35, 0
50, 46, 0
50, 30, 0
50, 7, 0
50, 21, 0
50, 4, 0
50, 32, 0
50, 24, 0
50, 37, 0
50, 1, 0
50, 5, 0
50, 22, 0
50, 36, 0
26, 18, 0
26, 1, 0
26, 49, 0
26, 2, 0
6, 20, 0
6, 3, 0
6, 17, 0
6, 44, 0
43, 0, 0
43, 12, 0
43, 13, 0
43, 52, 0
43, 23, 0
43, 31, 0
43, 29, 0
43, 42, 0
43, 34, 0
43, 11, 0
43, 27, 0
9, 0, 0
9, 45, 0
9, 46, 0
9, 19, 0
9, 8, 0
9, 15, 0
9, 48, 0
9, 10, 0
