0, 9, 0
13, 7, 0
13, 3, 0
13, 4, 0
13, 14, 0
13, 2, 0
13, 12, 0
13, 8, 0
13, 5, 0
13, 11, 0
13, 1, 0
17, 16, 1
17, 6, 0
17, 4, 0
17, 5, 0
17, 10, 0
3, 12, 0
3, 13, 0
3, 14, 0
3, 2, 1
3, 11, 0
3, 1, 1
16, 6, 0
16, 4, 0
16, 17, 1
16, 5, 0
16, 10, 0
6, 4, 0
6, 17, 0
6, 16, 0
6, 5, 0
6, 11, 0
6, 10, 0
8, 7, 1
8, 13, 0
8, 5, 0
8, 4, 0
5, 7, 0
5, 13, 0
5, 17, 0
5, 4, 1
5, 16, 0
5, 6, 0
5, 8, 0
5, 11, 0
5, 10, 0
11, 12, 0
11, 13, 0
11, 14, 0
11, 3, 0
11, 6, 0
11, 5, 0
11, 1, 0
10, 7, 0
10, 4, 0
10, 17, 0
10, 16, 0
10, 6, 0
10, 5, 0
10, 9, 0
7, 8, 1
7, 13, 0
7, 5, 0
7, 4, 0
7, 10, 0
12, 3, 0
12, 13, 0
12, 14, 0
12, 2, 0
12, 11, 0
12, 1, 0
4, 7, 0
4, 13, 0
4, 17, 0
4, 16, 0
4, 6, 0
4, 8, 0
4, 5, 1
4, 10, 0
14, 12, 0
14, 13, 0
14, 3, 0
14, 2, 0
14, 15, 1
14, 11, 0
14, 1, 0
2, 12, 0
2, 13, 0
2, 14, 0
2, 3, 1
1, 3, 1
1, 13, 0
1, 14, 0
1, 11, 0
1, 12, 0
15, 14, 1
9, 0, 0
9, 10, 0
