0, 12, 0
0, 1, 0
13, 12, 0
13, 11, 0
3, 7, 0
3, 6, 0
3, 5, 0
6, 7, 1
6, 3, 0
6, 4, 0
6, 2, 0
6, 8, 0
6, 10, 0
6, 9, 0
8, 6, 0
8, 11, 0
8, 10, 0
5, 3, 0
5, 2, 0
11, 8, 0
11, 13, 0
10, 6, 0
10, 8, 0
10, 2, 0
7, 6, 1
7, 9, 0
7, 3, 0
12, 0, 0
12, 13, 0
12, 1, 0
4, 6, 0
4, 9, 0
2, 6, 0
2, 5, 0
2, 10, 0
1, 0, 0
1, 12, 0
9, 7, 0
9, 6, 0
9, 4, 0
