12, 2, 0
12, 32, 0
12, 1, 0
13, 37, 0
13, 4, 0
13, 25, 0
17, 20, 0
17, 34, 0
17, 7, 0
17, 14, 0
17, 22, 0
17, 32, 0
17, 2, 0
17, 18, 0
17, 11, 0
17, 1, 0
31, 7, 0
31, 33, 0
31, 4, 0
31, 26, 0
31, 2, 0
23, 0, 0
23, 6, 0
23, 24, 0
24, 0, 0
24, 3, 0
24, 23, 0
24, 6, 0
24, 30, 0
24, 8, 0
24, 5, 0
24, 10, 0
5, 0, 0
5, 27, 0
5, 8, 0
5, 10, 0
5, 24, 0
11, 20, 0
11, 34, 0
11, 16, 0
11, 17, 0
1, 20, 0
1, 12, 0
1, 17, 0
1, 32, 0
1, 35, 0
1, 2, 0
20, 17, 0
20, 22, 0
20, 35, 0
20, 2, 0
20, 11, 0
20, 1, 0
21, 3, 0
21, 6, 0
4, 7, 0
4, 13, 0
4, 25, 0
4, 31, 0
4, 26, 0
4, 2, 0
4, 37, 0
4, 28, 0
4, 8, 0
4, 9, 0
14, 18, 0
14, 15, 1
14, 17, 0
14, 22, 0
14, 34, 0
35, 20, 0
35, 1, 0
28, 37, 0
28, 8, 0
28, 25, 0
28, 4, 0
28, 9, 0
30, 10, 0
30, 24, 0
8, 0, 0
8, 3, 0
8, 4, 0
8, 28, 0
8, 29, 0
8, 37, 0
8, 6, 0
8, 24, 0
8, 5, 0
8, 9, 0
15, 16, 1
15, 18, 0
15, 14, 1
15, 22, 0
15, 36, 0
22, 20, 0
22, 34, 0
22, 14, 0
22, 16, 0
22, 17, 0
22, 19, 0
22, 15, 0
22, 18, 0
22, 36, 0
36, 34, 0
36, 16, 0
36, 19, 0
36, 15, 0
36, 18, 0
36, 22, 0
0, 6, 0
0, 8, 0
0, 5, 0
0, 23, 0
0, 24, 0
6, 0, 0
6, 3, 0
6, 23, 0
6, 24, 0
6, 21, 0
6, 8, 0
3, 21, 0
3, 6, 0
3, 29, 0
3, 8, 0
3, 24, 0
16, 18, 0
16, 15, 1
16, 11, 0
16, 22, 0
16, 36, 0
27, 5, 0
27, 10, 0
10, 27, 0
10, 30, 0
10, 5, 0
10, 24, 0
7, 33, 0
7, 4, 0
7, 17, 0
7, 31, 0
7, 32, 0
7, 2, 0
34, 17, 0
34, 11, 0
34, 18, 0
34, 14, 0
34, 19, 0
34, 22, 0
34, 36, 0
25, 37, 0
25, 13, 0
25, 28, 0
25, 4, 0
33, 7, 0
33, 31, 0
32, 7, 0
32, 12, 0
32, 1, 0
32, 17, 0
32, 2, 0
2, 7, 0
2, 20, 0
2, 4, 0
2, 17, 0
2, 31, 0
2, 26, 0
2, 12, 0
2, 37, 0
2, 1, 0
2, 9, 0
2, 32, 0
37, 2, 0
37, 13, 0
37, 28, 0
37, 4, 0
37, 29, 0
37, 25, 0
37, 8, 0
37, 9, 0
29, 37, 0
29, 3, 0
29, 8, 0
19, 34, 0
19, 22, 0
19, 36, 0
26, 4, 0
26, 9, 0
26, 31, 0
26, 2, 0
18, 34, 0
18, 14, 0
18, 16, 0
18, 17, 0
18, 15, 0
18, 22, 0
18, 36, 0
9, 4, 0
9, 28, 0
9, 26, 0
9, 2, 0
9, 37, 0
9, 8, 0
