12, 3, 0
12, 25, 0
12, 33, 0
12, 23, 0
12, 35, 0
12, 37, 0
12, 17, 0
12, 9, 0
12, 38, 0
12, 11, 0
12, 1, 0
13, 7, 0
13, 37, 0
13, 4, 0
13, 25, 0
13, 26, 0
13, 21, 0
13, 19, 0
13, 8, 0
13, 38, 0
13, 18, 0
13, 9, 0
17, 12, 0
17, 33, 0
17, 11, 0
17, 36, 0
31, 0, 0
31, 34, 0
31, 14, 0
31, 32, 0
31, 35, 0
31, 2, 0
31, 29, 0
31, 10, 0
31, 30, 0
23, 37, 0
23, 3, 0
23, 1, 0
23, 38, 0
23, 12, 0
24, 34, 0
24, 32, 0
24, 2, 0
24, 29, 0
24, 10, 0
24, 30, 0
5, 20, 0
5, 18, 0
5, 4, 1
5, 25, 0
5, 26, 0
5, 21, 0
5, 19, 0
11, 12, 0
11, 17, 0
11, 35, 0
11, 33, 0
11, 38, 0
11, 36, 0
1, 37, 0
1, 3, 0
1, 12, 0
1, 23, 0
1, 9, 0
20, 21, 0
20, 19, 0
20, 25, 0
20, 5, 0
20, 26, 0
21, 20, 0
21, 7, 0
21, 13, 0
21, 25, 0
21, 26, 0
21, 18, 0
21, 4, 0
21, 19, 0
21, 8, 0
21, 5, 0
4, 21, 0
4, 13, 0
4, 25, 0
4, 26, 0
4, 18, 0
4, 5, 1
14, 0, 0
14, 10, 0
14, 31, 0
14, 22, 0
14, 35, 0
35, 3, 0
35, 6, 0
35, 36, 0
35, 2, 0
35, 11, 0
35, 27, 0
35, 12, 0
35, 14, 0
35, 31, 0
35, 29, 0
35, 33, 0
35, 10, 0
35, 38, 0
35, 9, 0
28, 16, 0
28, 27, 1
28, 33, 0
28, 6, 0
30, 24, 0
30, 34, 0
30, 31, 0
30, 32, 0
30, 29, 0
30, 2, 0
8, 21, 0
8, 7, 1
8, 19, 0
8, 13, 0
8, 18, 0
15, 16, 1
15, 6, 0
15, 29, 0
19, 20, 0
19, 18, 0
19, 13, 0
19, 26, 0
19, 21, 0
19, 8, 0
19, 5, 0
22, 14, 0
22, 10, 0
36, 33, 0
36, 17, 0
36, 11, 0
36, 35, 0
0, 14, 0
0, 31, 0
38, 3, 0
38, 13, 0
38, 25, 0
38, 23, 0
38, 26, 0
38, 12, 0
38, 37, 0
38, 33, 0
38, 35, 0
38, 11, 0
38, 9, 0
3, 12, 0
3, 23, 0
3, 35, 0
3, 1, 0
3, 38, 0
3, 9, 0
16, 6, 0
16, 15, 1
16, 33, 0
16, 28, 0
16, 29, 0
6, 33, 0
6, 28, 0
6, 35, 0
6, 16, 0
6, 27, 0
6, 29, 0
6, 15, 0
10, 34, 0
10, 14, 0
10, 31, 0
10, 32, 0
10, 35, 0
10, 2, 0
10, 29, 0
10, 24, 0
10, 33, 0
10, 22, 0
7, 18, 0
7, 21, 0
7, 8, 1
7, 13, 0
34, 24, 0
34, 32, 0
34, 31, 0
34, 2, 0
34, 30, 0
34, 29, 0
34, 10, 0
25, 20, 0
25, 12, 0
25, 4, 0
25, 13, 0
25, 26, 0
25, 21, 0
25, 5, 0
25, 38, 0
25, 18, 0
25, 9, 0
33, 12, 0
33, 28, 0
33, 35, 0
33, 16, 0
33, 6, 0
33, 10, 0
33, 36, 0
33, 38, 0
33, 17, 0
33, 11, 0
33, 27, 0
32, 34, 0
32, 31, 0
32, 29, 0
32, 2, 0
32, 24, 0
32, 10, 0
32, 30, 0
27, 6, 0
27, 29, 0
27, 28, 1
27, 33, 0
27, 35, 0
37, 12, 0
37, 13, 0
37, 23, 0
37, 1, 0
37, 38, 0
37, 9, 0
29, 2, 0
29, 6, 0
29, 32, 0
29, 16, 0
29, 27, 0
29, 35, 0
29, 10, 0
29, 34, 0
29, 31, 0
29, 24, 0
29, 30, 0
29, 15, 0
2, 34, 0
2, 35, 0
2, 31, 0
2, 32, 0
2, 29, 0
2, 24, 0
2, 10, 0
2, 30, 0
26, 20, 0
26, 21, 0
26, 4, 0
26, 25, 0
26, 18, 0
26, 19, 0
26, 38, 0
26, 5, 0
26, 13, 0
18, 7, 0
18, 4, 0
18, 13, 0
18, 26, 0
18, 21, 0
18, 25, 0
18, 19, 0
18, 8, 0
18, 5, 0
9, 3, 0
9, 13, 0
9, 25, 0
9, 35, 0
9, 37, 0
9, 12, 0
9, 38, 0
9, 1, 0
