13, 7, 0
13, 0, 0
13, 14, 0
13, 2, 0
13, 16, 0
13, 6, 0
13, 1, 0
13, 8, 0
13, 10, 0
13, 11, 0
13, 9, 0
17, 3, 0
17, 4, 0
17, 12, 0
17, 18, 0
17, 15, 0
17, 11, 0
5, 18, 0
5, 12, 0
5, 19, 0
5, 14, 0
11, 20, 0
11, 7, 0
11, 13, 0
11, 17, 0
11, 0, 0
11, 16, 0
11, 6, 0
11, 14, 0
11, 15, 0
11, 1, 0
1, 0, 1
1, 8, 0
1, 14, 0
1, 11, 0
1, 13, 0
20, 21, 0
20, 6, 0
20, 7, 0
20, 11, 0
4, 3, 1
4, 17, 0
4, 12, 0
14, 0, 0
14, 12, 0
14, 13, 0
14, 18, 0
14, 19, 0
14, 8, 0
14, 15, 0
14, 5, 0
14, 11, 0
14, 1, 0
8, 0, 0
8, 13, 0
8, 14, 0
8, 2, 0
8, 19, 0
8, 9, 0
8, 1, 0
15, 12, 0
15, 14, 0
15, 17, 0
15, 11, 0
0, 13, 0
0, 14, 0
0, 1, 1
0, 8, 0
0, 11, 0
0, 9, 0
3, 4, 1
3, 17, 0
16, 21, 0
16, 7, 0
16, 13, 0
16, 11, 0
16, 6, 0
6, 20, 0
6, 7, 1
6, 13, 0
6, 21, 0
6, 16, 0
6, 11, 0
6, 10, 0
10, 7, 0
10, 6, 0
10, 2, 0
10, 13, 0
10, 9, 1
7, 20, 0
7, 21, 0
7, 13, 0
7, 2, 0
7, 16, 0
7, 6, 1
7, 11, 0
7, 10, 0
12, 4, 0
12, 14, 0
12, 18, 0
12, 17, 0
12, 19, 0
12, 15, 0
12, 5, 0
2, 7, 0
2, 8, 0
2, 13, 0
2, 9, 0
2, 10, 0
21, 20, 0
21, 16, 0
21, 7, 0
21, 6, 0
19, 18, 1
19, 12, 0
19, 8, 0
19, 14, 0
19, 5, 0
18, 12, 0
18, 19, 1
18, 14, 0
18, 5, 0
18, 17, 0
9, 0, 0
9, 2, 0
9, 8, 0
9, 13, 0
9, 10, 1
