0, 16, 0
0, 2, 0
0, 10, 0
0, 11, 0
0, 1, 0
13, 16, 0
13, 15, 0
13, 2, 0
3, 10, 0
3, 11, 0
3, 1, 0
16, 0, 0
16, 13, 0
16, 2, 0
6, 4, 0
6, 14, 0
8, 4, 0
8, 15, 0
5, 7, 0
5, 14, 0
11, 0, 0
11, 3, 0
11, 10, 1
11, 1, 0
10, 0, 0
10, 3, 0
10, 11, 1
10, 1, 0
7, 12, 0
7, 5, 0
12, 7, 0
12, 9, 0
4, 6, 0
4, 14, 0
4, 8, 0
4, 15, 0
14, 6, 0
14, 4, 0
14, 5, 0
2, 16, 0
2, 0, 0
2, 13, 0
1, 0, 0
1, 3, 0
1, 11, 0
1, 10, 0
15, 8, 0
15, 13, 0
15, 4, 0
9, 12, 0
