13, 12, 1
13, 19, 0
13, 5, 0
17, 19, 0
17, 14, 0
17, 11, 0
5, 12, 0
5, 19, 0
5, 8, 0
5, 13, 0
11, 14, 0
11, 19, 0
11, 17, 0
11, 10, 0
1, 0, 1
1, 18, 0
1, 9, 0
20, 6, 0
20, 19, 0
20, 15, 0
20, 12, 0
4, 16, 0
4, 3, 1
4, 2, 0
14, 17, 0
14, 11, 0
8, 7, 0
8, 5, 0
15, 20, 0
15, 12, 0
15, 19, 0
15, 18, 0
15, 6, 0
0, 18, 0
0, 9, 0
0, 1, 1
3, 16, 0
3, 4, 1
3, 2, 0
16, 7, 0
16, 3, 0
16, 19, 0
16, 4, 0
16, 2, 0
6, 20, 0
6, 18, 0
6, 19, 0
6, 15, 0
6, 12, 0
10, 21, 0
10, 19, 0
10, 11, 0
7, 16, 0
7, 19, 0
7, 8, 0
12, 20, 0
12, 13, 1
12, 6, 0
12, 19, 0
12, 15, 0
12, 5, 0
2, 16, 0
2, 3, 0
2, 4, 0
2, 21, 0
21, 2, 0
21, 10, 0
19, 7, 0
19, 13, 0
19, 17, 0
19, 16, 0
19, 6, 0
19, 5, 0
19, 11, 0
19, 10, 0
19, 20, 0
19, 12, 0
19, 15, 0
19, 18, 0
18, 0, 0
18, 6, 0
18, 19, 0
18, 9, 0
18, 15, 0
18, 1, 0
9, 0, 0
9, 18, 0
9, 1, 0
