0, 2, 0
0, 8, 0
0, 10, 0
0, 11, 0
0, 1, 0
6, 7, 0
6, 4, 0
6, 5, 0
1, 0, 0
1, 8, 0
1, 11, 0
1, 4, 0
1, 9, 0
5, 6, 0
5, 4, 0
5, 3, 0
11, 0, 0
11, 8, 0
11, 10, 1
11, 1, 0
10, 0, 0
10, 8, 0
10, 11, 1
7, 6, 0
7, 4, 0
7, 2, 0
3, 4, 0
3, 5, 0
4, 7, 0
4, 3, 0
4, 2, 0
4, 6, 0
4, 1, 0
4, 8, 0
4, 5, 0
4, 9, 0
2, 7, 0
2, 0, 0
2, 8, 0
2, 4, 0
2, 9, 0
8, 0, 0
8, 4, 0
8, 2, 0
8, 1, 0
8, 9, 0
8, 11, 0
8, 10, 0
9, 2, 0
9, 8, 0
9, 4, 0
9, 1, 0
