2, 0, 0
2, 21, 0
2, 11, 0
13, 21, 0
13, 20, 0
13, 19, 0
13, 18, 0
13, 29, 0
17, 16, 0
17, 12, 0
17, 1, 0
17, 15, 0
17, 6, 0
23, 8, 0
23, 14, 0
23, 26, 0
23, 22, 0
29, 21, 0
29, 13, 0
29, 28, 0
5, 21, 0
5, 3, 0
5, 4, 0
5, 10, 0
11, 10, 0
11, 2, 0
1, 12, 0
1, 17, 0
1, 21, 0
1, 6, 0
1, 19, 0
1, 15, 0
1, 18, 0
20, 18, 0
20, 19, 1
20, 13, 0
4, 21, 0
4, 28, 0
4, 5, 0
14, 23, 0
14, 8, 0
14, 25, 0
14, 22, 0
14, 26, 0
24, 0, 0
24, 27, 0
24, 7, 0
24, 21, 0
28, 21, 0
28, 4, 0
28, 29, 0
8, 25, 0
8, 23, 0
8, 26, 0
8, 21, 0
8, 14, 0
8, 22, 0
15, 16, 0
15, 6, 0
15, 12, 0
15, 17, 0
15, 1, 0
22, 25, 0
22, 8, 0
22, 14, 0
22, 26, 0
22, 23, 0
0, 21, 0
0, 2, 0
0, 24, 0
12, 21, 0
12, 17, 0
12, 16, 0
12, 6, 0
12, 15, 0
12, 1, 0
16, 6, 0
16, 9, 0
16, 15, 0
16, 17, 0
16, 12, 0
6, 16, 0
6, 12, 0
6, 15, 0
6, 17, 0
6, 1, 0
10, 21, 0
10, 3, 0
10, 5, 0
10, 11, 0
7, 27, 0
7, 24, 0
3, 21, 0
3, 5, 0
3, 10, 0
25, 14, 0
25, 26, 0
25, 21, 0
25, 8, 0
25, 22, 0
25, 9, 0
26, 25, 0
26, 8, 0
26, 14, 0
26, 23, 0
26, 22, 0
27, 7, 0
27, 21, 0
27, 24, 0
21, 0, 0
21, 13, 0
21, 28, 0
21, 12, 0
21, 18, 0
21, 27, 0
21, 8, 0
21, 2, 0
21, 5, 0
21, 10, 0
21, 3, 0
21, 4, 0
21, 25, 0
21, 24, 0
21, 29, 0
21, 19, 0
21, 1, 0
19, 20, 1
19, 18, 0
19, 1, 0
19, 13, 0
19, 21, 0
18, 20, 0
18, 21, 0
18, 19, 0
18, 13, 0
18, 1, 0
9, 16, 0
9, 25, 0
