12, 13, 0
12, 11, 1
13, 7, 0
13, 17, 0
13, 23, 0
13, 16, 0
13, 6, 0
13, 11, 0
13, 20, 0
13, 12, 0
13, 4, 0
13, 25, 0
13, 21, 0
13, 28, 0
13, 19, 0
13, 18, 0
17, 16, 1
17, 13, 0
17, 25, 0
17, 11, 0
17, 26, 0
26, 7, 0
26, 21, 0
26, 17, 0
26, 16, 0
26, 25, 1
26, 8, 0
26, 11, 0
23, 0, 0
23, 20, 0
23, 13, 0
23, 6, 0
23, 8, 0
23, 29, 0
23, 5, 0
23, 11, 0
23, 10, 0
23, 7, 0
23, 4, 0
23, 31, 0
23, 24, 1
23, 2, 0
23, 1, 0
23, 22, 0
23, 9, 0
2, 7, 0
2, 28, 0
2, 23, 0
2, 29, 0
2, 6, 0
2, 8, 0
2, 24, 0
2, 22, 0
2, 1, 1
5, 0, 0
5, 28, 0
5, 23, 0
5, 6, 0
5, 24, 0
5, 27, 0
5, 7, 0
5, 4, 0
5, 31, 0
5, 29, 0
5, 30, 0
5, 10, 0
5, 22, 0
11, 13, 0
11, 17, 0
11, 23, 0
11, 16, 0
11, 6, 0
11, 7, 0
11, 12, 1
11, 25, 0
11, 26, 0
11, 24, 0
11, 21, 0
11, 8, 0
1, 7, 0
1, 29, 0
1, 28, 0
1, 23, 0
1, 2, 1
1, 6, 0
1, 8, 0
1, 22, 0
20, 7, 0
20, 3, 0
20, 13, 0
20, 28, 0
20, 23, 0
20, 18, 0
20, 6, 0
20, 19, 0
20, 4, 0
20, 9, 0
4, 0, 0
4, 7, 0
4, 13, 0
4, 28, 0
4, 23, 0
4, 27, 0
4, 5, 0
4, 10, 0
4, 20, 0
4, 14, 0
4, 31, 0
4, 29, 0
4, 30, 0
4, 15, 0
4, 22, 0
14, 27, 0
14, 4, 0
14, 15, 1
24, 7, 0
24, 2, 0
24, 31, 0
24, 23, 1
24, 29, 0
24, 6, 0
24, 8, 0
24, 5, 0
24, 11, 0
28, 0, 0
28, 20, 0
28, 4, 0
28, 13, 0
28, 2, 0
28, 21, 0
28, 27, 0
28, 8, 0
28, 5, 0
28, 22, 0
28, 1, 0
30, 0, 0
30, 4, 0
30, 31, 1
30, 29, 0
30, 27, 0
30, 5, 0
30, 10, 0
8, 28, 0
8, 23, 0
8, 16, 0
8, 6, 0
8, 2, 0
8, 11, 0
8, 1, 0
8, 7, 0
8, 25, 0
8, 26, 0
8, 24, 0
8, 21, 0
8, 29, 0
8, 22, 0
15, 0, 0
15, 7, 0
15, 4, 0
15, 14, 1
15, 29, 0
15, 6, 0
15, 27, 0
22, 7, 0
22, 29, 0
22, 4, 0
22, 28, 0
22, 23, 0
22, 31, 0
22, 2, 0
22, 6, 0
22, 8, 0
22, 5, 0
22, 1, 0
0, 28, 0
0, 23, 0
0, 6, 0
0, 5, 0
0, 27, 0
0, 7, 0
0, 4, 0
0, 31, 0
0, 29, 0
0, 30, 0
0, 15, 0
0, 10, 0
3, 20, 0
3, 9, 0
16, 7, 0
16, 13, 0
16, 17, 1
16, 26, 0
16, 21, 0
16, 25, 0
16, 8, 0
16, 11, 0
6, 0, 0
6, 20, 0
6, 13, 0
6, 23, 0
6, 2, 0
6, 5, 0
6, 11, 0
6, 1, 0
6, 7, 1
6, 31, 0
6, 24, 0
6, 29, 0
6, 8, 0
6, 15, 0
6, 22, 0
6, 9, 0
27, 0, 0
27, 4, 0
27, 14, 0
27, 31, 0
27, 28, 0
27, 10, 0
27, 15, 0
27, 5, 0
27, 30, 0
7, 0, 0
7, 13, 0
7, 26, 0
7, 23, 0
7, 16, 0
7, 6, 1
7, 2, 0
7, 5, 0
7, 11, 0
7, 1, 0
7, 20, 0
7, 4, 0
7, 31, 0
7, 24, 0
7, 29, 0
7, 8, 0
7, 15, 0
7, 22, 0
7, 9, 0
18, 20, 0
18, 19, 1
18, 13, 0
25, 21, 0
25, 13, 0
25, 17, 0
25, 26, 1
25, 16, 0
25, 8, 0
25, 11, 0
31, 0, 0
31, 23, 0
31, 6, 0
31, 24, 0
31, 5, 0
31, 27, 0
31, 7, 0
31, 4, 0
31, 29, 0
31, 30, 1
31, 10, 0
31, 22, 0
29, 0, 0
29, 8, 0
29, 23, 0
29, 6, 0
29, 24, 0
29, 5, 0
29, 30, 0
29, 7, 0
29, 4, 0
29, 31, 0
29, 2, 0
29, 1, 0
29, 15, 0
29, 10, 0
29, 22, 0
21, 13, 0
21, 25, 0
21, 26, 0
21, 16, 0
21, 28, 0
21, 8, 0
21, 11, 0
19, 20, 0
19, 18, 1
19, 13, 0
10, 0, 0
10, 4, 0
10, 31, 0
10, 23, 0
10, 29, 0
10, 27, 0
10, 5, 0
10, 30, 0
9, 7, 0
9, 3, 0
9, 20, 0
9, 23, 0
9, 6, 0
