58, 2, 0
58, 13, 0
58, 65, 0
13, 58, 0
13, 20, 0
13, 2, 0
13, 25, 0
13, 65, 0
17, 34, 0
17, 45, 0
17, 54, 0
17, 35, 0
17, 16, 1
17, 33, 0
17, 29, 0
17, 47, 0
23, 32, 0
23, 56, 0
23, 24, 1
23, 1, 0
23, 20, 0
23, 33, 0
23, 43, 0
23, 26, 0
23, 35, 0
23, 72, 0
23, 10, 0
23, 73, 0
63, 68, 0
63, 44, 0
63, 49, 0
63, 65, 0
63, 46, 0
63, 11, 0
63, 48, 0
24, 20, 0
24, 33, 0
24, 43, 0
24, 23, 1
24, 26, 0
24, 35, 0
24, 32, 0
24, 56, 0
24, 40, 0
24, 73, 0
24, 10, 0
46, 63, 0
46, 49, 0
46, 65, 0
46, 44, 0
46, 11, 0
46, 48, 0
65, 58, 0
65, 13, 0
65, 2, 0
65, 63, 0
65, 42, 0
65, 49, 0
65, 46, 0
65, 11, 0
20, 45, 0
20, 13, 0
20, 23, 0
20, 56, 0
20, 18, 0
20, 35, 0
20, 44, 0
20, 47, 0
20, 1, 0
20, 43, 0
20, 25, 0
20, 50, 0
20, 24, 0
20, 37, 0
20, 54, 0
20, 2, 0
20, 10, 0
20, 38, 0
20, 19, 0
20, 73, 0
34, 33, 0
34, 45, 0
34, 17, 0
34, 29, 0
34, 16, 0
34, 52, 0
14, 12, 0
14, 4, 0
14, 28, 0
14, 66, 0
14, 18, 0
14, 69, 0
14, 49, 0
14, 5, 0
14, 44, 0
53, 37, 0
53, 0, 0
53, 19, 0
53, 36, 0
66, 67, 1
66, 4, 0
66, 14, 0
66, 18, 0
66, 28, 0
66, 5, 0
66, 44, 0
42, 2, 0
42, 11, 0
42, 65, 0
15, 7, 0
15, 61, 0
15, 51, 0
15, 60, 0
15, 6, 0
15, 55, 0
15, 64, 0
15, 59, 0
15, 47, 0
15, 41, 0
41, 7, 0
41, 33, 0
41, 62, 0
41, 60, 0
41, 6, 0
41, 15, 0
41, 22, 0
41, 50, 0
0, 75, 0
0, 70, 0
0, 37, 0
0, 27, 0
0, 53, 0
0, 36, 0
68, 69, 1
68, 63, 0
68, 49, 0
68, 44, 0
68, 11, 0
68, 48, 0
62, 7, 0
62, 50, 0
62, 31, 0
62, 61, 0
62, 6, 0
62, 38, 0
62, 41, 0
62, 22, 0
51, 52, 1
51, 60, 0
51, 59, 0
51, 55, 0
51, 15, 0
51, 47, 0
33, 17, 0
33, 31, 0
33, 23, 0
33, 16, 0
33, 35, 0
33, 5, 0
33, 47, 0
33, 73, 0
33, 41, 0
33, 34, 0
33, 52, 0
33, 26, 0
33, 24, 0
33, 49, 0
33, 60, 0
33, 10, 0
6, 7, 1
6, 50, 0
6, 61, 0
6, 15, 0
6, 38, 0
6, 41, 0
6, 62, 0
74, 3, 0
74, 31, 0
74, 21, 0
74, 38, 0
74, 18, 0
74, 22, 0
74, 30, 0
47, 45, 0
47, 17, 0
47, 51, 0
47, 16, 0
47, 64, 0
47, 55, 0
47, 59, 0
47, 60, 0
47, 20, 0
47, 33, 0
47, 54, 0
47, 50, 0
47, 29, 0
47, 37, 0
47, 52, 0
47, 15, 0
10, 57, 0
10, 20, 0
10, 43, 0
10, 26, 0
10, 23, 0
10, 24, 0
10, 33, 0
10, 1, 0
10, 35, 0
10, 73, 0
7, 50, 0
7, 64, 0
7, 60, 0
7, 6, 1
7, 55, 0
7, 15, 0
7, 41, 0
7, 62, 0
3, 67, 0
3, 38, 0
3, 31, 0
3, 21, 0
3, 39, 0
3, 30, 0
3, 74, 0
3, 18, 0
3, 5, 0
69, 68, 1
69, 44, 0
69, 14, 0
69, 12, 0
69, 49, 0
69, 48, 0
69, 11, 0
69, 5, 0
32, 8, 0
32, 43, 0
32, 56, 0
32, 23, 0
32, 24, 0
2, 58, 0
2, 20, 0
2, 13, 0
2, 37, 0
2, 42, 0
2, 65, 0
37, 0, 0
37, 70, 0
37, 75, 0
37, 27, 0
37, 53, 0
37, 44, 0
37, 11, 0
37, 20, 0
37, 18, 0
37, 25, 0
37, 47, 0
37, 2, 0
37, 19, 0
37, 36, 0
37, 38, 0
37, 9, 0
52, 33, 0
52, 45, 0
52, 51, 1
52, 29, 0
52, 60, 0
52, 34, 0
52, 59, 0
52, 47, 0
19, 20, 0
19, 37, 0
19, 53, 0
19, 25, 0
49, 68, 0
49, 69, 0
49, 14, 0
49, 48, 1
49, 33, 0
49, 63, 0
49, 44, 0
49, 46, 0
49, 11, 0
49, 65, 0
60, 7, 0
60, 33, 0
60, 52, 0
60, 47, 0
60, 51, 0
60, 45, 0
60, 15, 0
60, 29, 0
60, 59, 1
60, 41, 0
60, 64, 0
48, 68, 0
48, 69, 0
48, 63, 0
48, 49, 1
48, 46, 0
48, 11, 0
48, 44, 0
16, 34, 0
16, 35, 0
16, 45, 0
16, 17, 1
16, 33, 0
16, 54, 0
16, 29, 0
16, 47, 0
70, 0, 0
70, 37, 0
70, 75, 0
70, 27, 0
31, 33, 0
31, 38, 0
31, 62, 0
31, 3, 0
31, 21, 0
31, 39, 0
31, 67, 0
31, 74, 0
31, 22, 0
31, 30, 1
28, 67, 0
28, 4, 0
28, 14, 0
28, 66, 0
28, 18, 0
28, 44, 0
45, 20, 0
45, 34, 0
45, 17, 0
45, 35, 0
45, 16, 0
45, 54, 0
45, 29, 0
45, 60, 0
45, 52, 0
45, 47, 0
75, 37, 0
75, 0, 0
75, 70, 0
75, 27, 0
75, 9, 0
40, 72, 0
40, 1, 0
40, 43, 0
40, 24, 0
71, 27, 0
71, 9, 0
59, 52, 0
59, 51, 0
59, 60, 1
59, 64, 0
59, 55, 0
59, 15, 0
59, 47, 0
11, 37, 0
11, 68, 0
11, 69, 0
11, 48, 0
11, 44, 0
11, 63, 0
11, 42, 0
11, 49, 0
11, 46, 0
11, 65, 0
5, 12, 0
5, 69, 0
5, 14, 0
5, 4, 1
5, 3, 0
5, 18, 0
5, 33, 0
5, 66, 0
5, 38, 0
5, 67, 0
61, 6, 0
61, 15, 0
61, 38, 0
61, 62, 0
61, 50, 0
29, 45, 0
29, 52, 0
29, 34, 0
29, 16, 0
29, 17, 0
29, 54, 0
29, 47, 0
29, 60, 0
4, 12, 0
4, 14, 0
4, 66, 0
4, 18, 0
4, 28, 0
4, 67, 0
4, 5, 1
4, 44, 0
39, 3, 0
39, 67, 0
39, 38, 0
39, 31, 0
39, 30, 0
35, 45, 0
35, 17, 0
35, 23, 0
35, 56, 0
35, 16, 0
35, 73, 0
35, 20, 0
35, 33, 0
35, 43, 0
35, 26, 0
35, 24, 0
35, 54, 0
35, 10, 0
30, 3, 0
30, 38, 0
30, 31, 1
30, 67, 0
30, 21, 0
30, 39, 0
30, 74, 0
30, 18, 0
30, 22, 0
8, 43, 0
8, 32, 0
8, 56, 0
38, 37, 0
38, 62, 0
38, 3, 0
38, 18, 0
38, 6, 0
38, 74, 0
38, 5, 0
38, 30, 0
38, 20, 0
38, 67, 0
38, 21, 0
38, 50, 0
38, 31, 0
38, 61, 0
38, 39, 0
38, 22, 0
22, 62, 0
22, 31, 0
22, 21, 1
22, 74, 0
22, 38, 0
22, 41, 0
22, 30, 0
36, 0, 0
36, 37, 0
36, 53, 0
25, 20, 0
25, 37, 0
25, 19, 0
25, 13, 0
57, 1, 0
57, 43, 0
57, 10, 0
56, 20, 0
56, 43, 0
56, 23, 0
56, 32, 0
56, 35, 0
56, 26, 0
56, 8, 0
56, 24, 0
56, 73, 0
64, 7, 0
64, 60, 0
64, 15, 0
64, 59, 0
64, 47, 0
18, 28, 0
18, 3, 0
18, 74, 0
18, 5, 0
18, 44, 0
18, 20, 0
18, 12, 0
18, 4, 0
18, 14, 0
18, 66, 0
18, 37, 0
18, 30, 0
18, 38, 0
18, 67, 0
27, 0, 0
27, 75, 0
27, 70, 0
27, 37, 0
27, 71, 0
27, 9, 0
1, 57, 0
1, 20, 0
1, 43, 0
1, 23, 0
1, 72, 0
1, 40, 0
1, 10, 0
55, 7, 0
55, 50, 0
55, 51, 0
55, 59, 0
55, 15, 0
55, 47, 0
44, 68, 0
44, 28, 0
44, 63, 0
44, 46, 0
44, 11, 0
44, 20, 0
44, 18, 0
44, 4, 0
44, 14, 0
44, 66, 0
44, 37, 0
44, 69, 0
44, 49, 0
44, 48, 0
73, 20, 0
73, 33, 0
73, 43, 0
73, 56, 0
73, 23, 0
73, 24, 0
73, 26, 0
73, 35, 0
73, 10, 0
12, 18, 0
12, 69, 0
12, 14, 0
12, 5, 0
12, 4, 0
21, 3, 0
21, 31, 0
21, 74, 0
21, 38, 0
21, 22, 1
21, 30, 0
54, 20, 0
54, 45, 0
54, 17, 0
54, 29, 0
54, 16, 0
54, 35, 0
54, 47, 0
50, 20, 0
50, 7, 0
50, 62, 0
50, 61, 0
50, 6, 0
50, 55, 0
50, 38, 0
50, 41, 0
50, 47, 0
26, 73, 0
26, 33, 0
26, 43, 0
26, 56, 0
26, 23, 0
26, 35, 0
26, 24, 0
26, 10, 0
72, 43, 0
72, 40, 0
72, 23, 0
72, 1, 0
43, 20, 0
43, 23, 0
43, 56, 0
43, 24, 0
43, 40, 0
43, 1, 0
43, 57, 0
43, 32, 0
43, 35, 0
43, 72, 0
43, 26, 0
43, 8, 0
43, 10, 0
43, 73, 0
67, 3, 0
67, 4, 0
67, 28, 0
67, 31, 0
67, 66, 1
67, 18, 0
67, 39, 0
67, 38, 0
67, 5, 0
67, 30, 0
9, 37, 0
9, 75, 0
9, 71, 0
9, 27, 0
