0, 6, 0
0, 8, 0
0, 5, 0
0, 11, 0
6, 0, 0
6, 7, 0
6, 8, 0
6, 5, 0
6, 11, 0
1, 8, 0
1, 9, 0
5, 0, 0
5, 6, 0
5, 8, 0
5, 11, 0
11, 0, 0
11, 6, 0
11, 8, 0
11, 5, 0
10, 7, 0
10, 3, 0
10, 4, 0
10, 2, 0
7, 3, 0
7, 4, 0
7, 2, 0
7, 6, 0
7, 10, 0
7, 9, 0
3, 7, 0
3, 2, 1
3, 4, 0
3, 10, 0
4, 7, 0
4, 3, 0
4, 2, 0
4, 10, 0
2, 7, 0
2, 3, 1
2, 4, 0
2, 10, 0
8, 0, 0
8, 6, 0
8, 5, 0
8, 11, 0
8, 1, 0
9, 7, 0
9, 1, 0
