12, 20, 0
12, 21, 0
12, 31, 0
12, 16, 0
12, 19, 0
12, 10, 0
13, 33, 0
13, 14, 0
13, 32, 0
13, 31, 0
13, 24, 0
13, 16, 0
13, 27, 0
13, 29, 0
13, 26, 0
13, 36, 0
17, 8, 0
17, 5, 0
17, 11, 0
31, 12, 0
31, 13, 0
31, 32, 0
31, 24, 0
31, 16, 0
31, 33, 0
31, 19, 0
31, 27, 0
23, 34, 0
23, 5, 0
24, 0, 0
24, 13, 0
24, 28, 0
24, 31, 0
24, 16, 0
24, 5, 0
24, 11, 0
24, 1, 0
24, 33, 0
24, 14, 0
24, 22, 0
24, 32, 0
24, 29, 0
24, 30, 0
24, 10, 0
24, 18, 0
24, 36, 0
5, 17, 0
5, 23, 0
5, 6, 0
5, 24, 0
5, 11, 0
5, 7, 0
5, 34, 0
5, 35, 0
5, 19, 0
5, 8, 0
5, 22, 0
5, 9, 0
11, 0, 0
11, 17, 0
11, 24, 0
11, 5, 0
11, 1, 0
11, 29, 0
11, 14, 0
11, 32, 0
11, 35, 0
11, 28, 0
11, 19, 0
11, 8, 0
1, 0, 1
1, 33, 0
1, 28, 0
1, 32, 0
1, 24, 0
1, 14, 0
1, 29, 0
1, 11, 0
20, 21, 0
20, 12, 0
20, 10, 0
4, 18, 0
4, 3, 0
4, 15, 0
4, 22, 0
4, 2, 0
14, 0, 0
14, 13, 0
14, 28, 0
14, 32, 0
14, 29, 0
14, 11, 0
14, 1, 0
14, 33, 0
14, 25, 0
14, 26, 0
14, 24, 0
14, 19, 0
14, 36, 0
35, 8, 0
35, 5, 0
35, 11, 0
35, 9, 0
28, 0, 0
28, 33, 0
28, 14, 0
28, 24, 0
28, 19, 0
28, 29, 0
28, 30, 0
28, 11, 0
28, 1, 0
30, 33, 0
30, 28, 0
30, 26, 0
30, 32, 0
30, 29, 1
30, 24, 0
8, 9, 0
8, 17, 0
8, 5, 0
8, 11, 0
8, 35, 0
15, 18, 0
15, 4, 0
15, 22, 0
22, 7, 0
22, 34, 0
22, 4, 0
22, 3, 0
22, 24, 0
22, 18, 0
22, 6, 0
22, 19, 0
22, 2, 0
22, 15, 0
22, 5, 0
36, 33, 0
36, 13, 0
36, 14, 0
36, 32, 0
36, 26, 0
36, 24, 0
36, 25, 0
36, 19, 0
36, 29, 0
36, 27, 0
0, 33, 0
0, 14, 0
0, 24, 0
0, 28, 0
0, 29, 0
0, 11, 0
0, 1, 1
6, 7, 1
6, 34, 0
6, 5, 0
6, 22, 0
3, 18, 0
3, 4, 0
3, 22, 0
3, 2, 0
16, 12, 0
16, 13, 0
16, 32, 0
16, 31, 0
16, 24, 0
16, 33, 0
16, 10, 0
27, 19, 0
27, 13, 0
27, 31, 0
27, 36, 0
10, 20, 0
10, 16, 0
10, 32, 0
10, 12, 0
10, 21, 0
10, 33, 0
10, 24, 0
7, 34, 0
7, 5, 0
7, 22, 0
7, 6, 1
34, 7, 0
34, 6, 0
34, 22, 0
34, 5, 0
34, 23, 0
25, 33, 0
25, 19, 0
25, 14, 0
25, 26, 1
25, 36, 0
33, 0, 0
33, 25, 0
33, 13, 0
33, 28, 0
33, 32, 1
33, 16, 0
33, 29, 0
33, 1, 0
33, 14, 0
33, 31, 0
33, 24, 0
33, 26, 0
33, 30, 0
33, 10, 0
33, 36, 0
32, 13, 0
32, 26, 0
32, 16, 0
32, 29, 0
32, 11, 0
32, 1, 0
32, 33, 1
32, 14, 0
32, 31, 0
32, 24, 0
32, 30, 0
32, 10, 0
32, 36, 0
2, 18, 0
2, 3, 0
2, 4, 0
2, 22, 0
21, 20, 0
21, 12, 0
21, 19, 0
21, 10, 0
29, 0, 0
29, 13, 0
29, 28, 0
29, 32, 0
29, 11, 0
29, 30, 1
29, 33, 0
29, 14, 0
29, 26, 0
29, 24, 0
29, 1, 0
29, 36, 0
19, 12, 0
19, 25, 0
19, 22, 0
19, 31, 0
19, 27, 0
19, 21, 0
19, 28, 0
19, 14, 0
19, 5, 0
19, 11, 0
19, 36, 0
26, 33, 0
26, 13, 0
26, 25, 1
26, 32, 0
26, 29, 0
26, 14, 0
26, 30, 0
26, 36, 0
18, 3, 0
18, 4, 0
18, 24, 0
18, 2, 0
18, 15, 0
18, 22, 0
9, 8, 0
9, 5, 0
9, 35, 0
