0, 3, 0
0, 1, 0
0, 9, 0
0, 11, 0
0, 2, 0
6, 7, 1
6, 4, 0
6, 8, 0
6, 5, 0
6, 11, 0
6, 10, 0
1, 0, 0
1, 3, 0
1, 2, 0
1, 11, 0
1, 9, 0
5, 7, 0
5, 6, 0
5, 4, 1
5, 11, 0
5, 10, 0
11, 0, 0
11, 3, 0
11, 4, 0
11, 9, 0
11, 2, 0
11, 6, 0
11, 8, 0
11, 5, 0
11, 10, 0
11, 1, 0
10, 7, 0
10, 4, 0
10, 6, 0
10, 8, 0
10, 5, 0
10, 11, 0
7, 6, 1
7, 4, 0
7, 5, 0
7, 10, 0
3, 0, 0
3, 2, 1
3, 11, 0
3, 1, 0
4, 7, 0
4, 6, 0
4, 5, 1
4, 11, 0
4, 10, 0
2, 0, 0
2, 3, 1
2, 11, 0
2, 1, 0
8, 6, 0
8, 11, 0
8, 10, 0
9, 0, 0
9, 11, 0
9, 1, 0
