13, 4, 0
13, 14, 0
13, 16, 0
13, 17, 0
13, 19, 0
13, 10, 0
17, 16, 1
17, 19, 0
17, 13, 0
17, 14, 0
17, 4, 0
5, 14, 0
5, 18, 0
5, 6, 0
5, 1, 0
5, 8, 0
5, 15, 0
5, 10, 0
5, 9, 0
11, 20, 0
11, 2, 0
11, 6, 0
11, 19, 0
11, 8, 0
11, 15, 0
11, 9, 0
1, 0, 0
1, 7, 0
1, 14, 0
1, 21, 0
1, 6, 0
1, 5, 0
1, 8, 0
1, 15, 0
1, 18, 0
1, 22, 0
1, 10, 0
20, 6, 0
20, 15, 0
20, 11, 0
20, 9, 0
4, 16, 0
4, 14, 0
4, 19, 0
4, 13, 0
4, 17, 0
14, 13, 0
14, 17, 0
14, 4, 0
14, 16, 0
14, 19, 0
14, 10, 0
14, 5, 0
14, 1, 0
8, 0, 0
8, 18, 0
8, 22, 0
8, 21, 0
8, 15, 0
8, 5, 0
8, 11, 0
8, 1, 0
15, 20, 0
15, 18, 0
15, 8, 0
15, 5, 0
15, 11, 0
15, 1, 0
22, 0, 0
22, 7, 0
22, 3, 0
22, 2, 0
22, 21, 0
22, 8, 0
22, 1, 0
0, 21, 0
0, 8, 0
0, 22, 0
0, 1, 0
3, 21, 0
3, 12, 0
3, 7, 0
3, 22, 0
3, 2, 0
16, 14, 0
16, 19, 0
16, 13, 0
16, 17, 1
16, 4, 0
6, 20, 0
6, 1, 0
6, 19, 0
6, 9, 0
6, 5, 0
6, 11, 0
6, 10, 0
10, 13, 0
10, 14, 0
10, 6, 0
10, 19, 0
10, 5, 0
10, 1, 0
7, 21, 0
7, 3, 0
7, 2, 0
7, 22, 0
7, 1, 0
12, 21, 0
12, 3, 0
2, 7, 0
2, 3, 0
2, 22, 0
2, 11, 0
2, 21, 0
21, 7, 0
21, 3, 0
21, 12, 0
21, 2, 0
21, 0, 0
21, 8, 0
21, 22, 0
21, 1, 0
19, 4, 0
19, 13, 0
19, 6, 0
19, 16, 0
19, 14, 0
19, 17, 0
19, 11, 0
19, 10, 0
18, 8, 0
18, 15, 0
18, 5, 0
18, 1, 0
9, 20, 0
9, 6, 0
9, 5, 0
9, 11, 0
