0, 6, 0
0, 15, 0
0, 1, 1
13, 12, 0
13, 5, 0
17, 11, 0
17, 10, 0
3, 6, 0
3, 5, 0
3, 2, 1
16, 7, 0
16, 4, 0
16, 9, 0
6, 0, 0
6, 3, 0
6, 2, 0
6, 15, 0
6, 5, 0
6, 1, 0
8, 18, 0
8, 19, 0
5, 2, 0
5, 12, 0
5, 13, 0
5, 3, 0
5, 6, 0
11, 14, 0
11, 17, 0
10, 12, 0
10, 17, 0
7, 16, 0
7, 18, 0
7, 9, 0
12, 13, 0
12, 5, 0
12, 10, 0
4, 16, 0
4, 15, 0
14, 11, 0
2, 6, 0
2, 5, 0
2, 3, 1
19, 8, 0
1, 0, 1
1, 6, 0
1, 15, 0
15, 0, 0
15, 6, 0
15, 4, 0
15, 1, 0
18, 7, 0
18, 8, 0
18, 9, 0
9, 7, 0
9, 18, 0
9, 16, 0
