0, 3, 0
0, 13, 0
0, 5, 0
0, 2, 0
13, 0, 0
13, 5, 0
13, 9, 0
3, 0, 0
3, 5, 0
3, 2, 0
6, 12, 0
6, 8, 0
8, 12, 0
8, 14, 0
8, 6, 0
8, 15, 0
8, 5, 0
8, 11, 0
8, 10, 0
5, 0, 0
5, 13, 0
5, 12, 0
5, 1, 0
5, 11, 0
5, 10, 0
5, 7, 0
5, 3, 0
5, 4, 0
5, 2, 0
5, 8, 0
5, 9, 0
11, 15, 0
11, 8, 0
11, 14, 0
11, 5, 0
11, 10, 0
10, 15, 0
10, 8, 0
10, 14, 0
10, 5, 0
10, 11, 0
7, 5, 0
7, 9, 0
12, 6, 0
12, 8, 0
12, 5, 0
12, 4, 0
4, 12, 0
4, 5, 0
4, 1, 0
14, 8, 0
14, 15, 1
14, 11, 0
14, 10, 0
2, 0, 0
2, 3, 0
2, 5, 0
2, 1, 0
1, 4, 0
1, 5, 0
1, 2, 0
15, 8, 0
15, 14, 1
15, 11, 0
15, 10, 0
9, 7, 0
9, 13, 0
9, 5, 0
