0, 12, 0
0, 8, 0
0, 1, 1
13, 7, 0
13, 3, 0
13, 9, 0
13, 11, 0
13, 2, 0
3, 12, 0
3, 13, 0
3, 11, 0
3, 9, 0
6, 14, 0
6, 5, 1
8, 0, 0
8, 12, 0
8, 2, 0
8, 5, 0
8, 1, 0
5, 6, 1
5, 8, 0
5, 14, 0
5, 2, 0
11, 3, 0
11, 13, 0
11, 12, 0
11, 9, 0
10, 4, 0
10, 14, 0
7, 13, 0
7, 2, 0
12, 0, 0
12, 3, 0
12, 9, 0
12, 2, 0
12, 8, 0
12, 11, 0
12, 1, 0
4, 14, 0
4, 10, 0
14, 2, 0
14, 6, 0
14, 4, 0
14, 5, 0
14, 10, 0
2, 7, 0
2, 12, 0
2, 13, 0
2, 14, 0
2, 8, 0
2, 5, 0
2, 9, 0
1, 0, 1
1, 12, 0
1, 8, 0
9, 2, 0
9, 12, 0
9, 13, 0
9, 11, 0
9, 3, 0
