13, 28, 0
13, 26, 0
13, 18, 0
13, 27, 0
13, 17, 0
13, 9, 0
17, 20, 0
17, 3, 0
17, 13, 0
17, 28, 0
17, 23, 0
17, 32, 0
17, 21, 0
17, 27, 0
17, 19, 0
17, 9, 0
17, 10, 0
31, 0, 0
31, 3, 0
31, 14, 0
31, 21, 0
31, 8, 0
31, 5, 0
23, 27, 0
23, 17, 0
23, 2, 0
10, 28, 0
10, 32, 0
10, 16, 0
10, 17, 0
10, 19, 0
10, 15, 0
2, 27, 0
2, 26, 0
2, 23, 0
2, 32, 0
5, 7, 0
5, 3, 0
5, 25, 0
5, 31, 0
5, 29, 0
5, 21, 0
5, 6, 0
5, 8, 0
5, 22, 0
5, 1, 0
11, 7, 0
11, 6, 0
11, 4, 0
11, 12, 0
11, 1, 0
1, 7, 0
1, 12, 0
1, 4, 0
1, 25, 0
1, 11, 0
1, 3, 0
1, 21, 0
1, 6, 0
1, 5, 0
1, 22, 0
20, 19, 0
20, 17, 0
20, 32, 0
20, 9, 0
4, 12, 0
4, 25, 0
4, 22, 0
4, 32, 0
4, 24, 0
4, 6, 0
4, 11, 0
4, 1, 0
14, 21, 0
14, 3, 0
14, 8, 0
14, 31, 0
14, 30, 0
24, 12, 0
24, 4, 0
24, 25, 1
24, 32, 0
24, 3, 0
24, 21, 0
28, 3, 0
28, 13, 0
28, 17, 0
28, 32, 0
28, 19, 0
28, 9, 0
28, 15, 0
28, 10, 0
30, 0, 0
30, 3, 0
30, 14, 0
30, 21, 0
30, 8, 0
30, 22, 0
8, 0, 0
8, 3, 0
8, 14, 0
8, 31, 0
8, 5, 0
8, 30, 0
15, 3, 0
15, 28, 0
15, 32, 0
15, 21, 0
15, 16, 1
15, 10, 0
22, 7, 0
22, 0, 0
22, 4, 0
22, 29, 0
22, 6, 0
22, 30, 0
22, 5, 0
22, 1, 0
0, 3, 0
0, 25, 0
0, 31, 0
0, 29, 0
0, 21, 0
0, 8, 0
0, 22, 0
0, 30, 0
12, 3, 0
12, 4, 0
12, 25, 0
12, 32, 0
12, 24, 0
12, 21, 0
12, 11, 0
12, 1, 0
16, 15, 1
16, 32, 0
16, 10, 0
6, 7, 0
6, 4, 0
6, 11, 0
6, 5, 0
6, 22, 0
6, 1, 0
27, 13, 0
27, 17, 0
27, 23, 0
27, 26, 0
27, 2, 0
27, 18, 0
7, 25, 0
7, 11, 0
7, 32, 0
7, 29, 0
7, 6, 0
7, 5, 0
7, 22, 0
7, 1, 0
3, 0, 0
3, 17, 0
3, 32, 0
3, 28, 0
3, 5, 0
3, 1, 0
3, 12, 0
3, 25, 0
3, 31, 0
3, 24, 0
3, 21, 0
3, 14, 0
3, 30, 0
3, 8, 0
3, 15, 0
25, 7, 0
25, 12, 0
25, 4, 0
25, 32, 0
25, 3, 0
25, 21, 0
25, 0, 0
25, 24, 1
25, 5, 0
25, 1, 0
32, 7, 0
32, 28, 0
32, 3, 0
32, 16, 0
32, 2, 0
32, 10, 0
32, 20, 0
32, 12, 0
32, 4, 0
32, 25, 0
32, 26, 0
32, 24, 0
32, 21, 0
32, 17, 0
32, 15, 0
32, 9, 0
29, 7, 0
29, 0, 0
29, 5, 0
29, 22, 0
21, 0, 0
21, 17, 0
21, 31, 0
21, 12, 0
21, 5, 0
21, 1, 0
21, 3, 0
21, 25, 0
21, 32, 0
21, 24, 0
21, 14, 0
21, 30, 0
21, 15, 0
26, 13, 0
26, 32, 0
26, 2, 0
26, 18, 0
26, 27, 0
26, 9, 0
19, 20, 0
19, 28, 0
19, 9, 0
19, 17, 0
19, 10, 0
18, 27, 0
18, 13, 0
18, 26, 0
9, 20, 0
9, 13, 0
9, 28, 0
9, 32, 0
9, 26, 0
9, 17, 0
9, 19, 0
