0, 12, 0
0, 11, 0
0, 9, 0
13, 7, 0
13, 14, 0
13, 8, 0
13, 15, 0
13, 5, 0
3, 16, 0
3, 2, 0
3, 10, 0
3, 15, 0
3, 1, 0
16, 12, 0
16, 4, 0
16, 3, 0
16, 2, 0
16, 10, 0
16, 15, 0
16, 1, 0
6, 8, 0
6, 14, 0
6, 5, 1
8, 7, 0
8, 13, 0
8, 14, 0
8, 6, 0
8, 15, 0
8, 5, 0
8, 10, 0
5, 7, 1
5, 6, 1
5, 8, 0
5, 14, 0
5, 13, 0
11, 0, 0
11, 12, 0
11, 4, 0
11, 9, 0
10, 3, 0
10, 2, 0
10, 16, 0
10, 8, 0
10, 15, 0
10, 1, 0
7, 13, 0
7, 8, 0
7, 14, 0
7, 5, 1
12, 0, 0
12, 16, 0
12, 4, 0
12, 11, 0
12, 9, 0
4, 16, 0
4, 12, 0
4, 11, 0
4, 9, 0
14, 7, 0
14, 6, 0
14, 8, 0
14, 13, 0
14, 5, 0
2, 16, 0
2, 3, 0
2, 10, 0
2, 15, 0
2, 1, 1
1, 16, 0
1, 3, 0
1, 10, 0
1, 2, 1
15, 3, 0
15, 13, 0
15, 2, 0
15, 16, 0
15, 8, 0
15, 10, 0
9, 0, 0
9, 12, 0
9, 4, 0
9, 11, 0
