0, 7, 0
0, 3, 0
0, 14, 0
0, 6, 0
0, 8, 0
0, 11, 0
0, 9, 0
13, 7, 0
13, 6, 0
13, 8, 0
13, 11, 0
13, 2, 0
3, 0, 0
3, 6, 0
3, 14, 0
3, 9, 0
6, 0, 0
6, 3, 0
6, 13, 0
6, 11, 0
6, 9, 0
8, 0, 0
8, 7, 0
8, 13, 0
8, 2, 0
8, 1, 0
8, 5, 0
8, 11, 0
8, 10, 0
5, 7, 0
5, 8, 0
5, 10, 0
5, 11, 0
5, 1, 0
11, 0, 0
11, 7, 0
11, 13, 0
11, 6, 0
11, 8, 0
11, 5, 0
11, 9, 0
10, 7, 0
10, 8, 0
10, 5, 0
10, 2, 0
7, 0, 0
7, 13, 0
7, 9, 0
7, 2, 0
7, 8, 0
7, 5, 0
7, 11, 0
7, 10, 0
12, 4, 0
12, 1, 0
4, 12, 0
4, 1, 0
14, 0, 0
14, 3, 0
14, 9, 0
2, 7, 0
2, 8, 0
2, 13, 0
2, 10, 0
1, 12, 0
1, 8, 0
1, 5, 0
1, 4, 0
9, 0, 0
9, 7, 0
9, 14, 0
9, 3, 0
9, 6, 0
9, 11, 0
