0, 4, 0
0, 5, 0
0, 2, 0
13, 7, 0
13, 12, 1
13, 8, 0
13, 15, 0
17, 16, 0
17, 6, 0
17, 1, 0
3, 7, 0
3, 18, 0
16, 6, 0
16, 8, 0
16, 17, 0
6, 16, 0
6, 8, 0
6, 17, 0
6, 1, 0
8, 7, 0
8, 13, 0
8, 16, 0
8, 6, 0
8, 15, 0
8, 11, 0
5, 0, 0
5, 18, 0
5, 4, 0
5, 2, 0
11, 8, 0
11, 15, 0
10, 9, 1
10, 14, 0
10, 1, 0
7, 13, 0
7, 12, 0
7, 8, 0
7, 15, 0
7, 3, 0
12, 7, 0
12, 13, 1
12, 15, 0
4, 0, 0
4, 5, 0
14, 9, 0
14, 10, 0
14, 1, 0
2, 0, 0
2, 18, 0
2, 5, 0
1, 6, 0
1, 10, 0
1, 14, 0
1, 17, 0
1, 9, 0
15, 7, 0
15, 12, 0
15, 8, 0
15, 13, 0
15, 11, 0
18, 3, 0
18, 5, 0
18, 2, 0
9, 10, 1
9, 14, 0
9, 1, 0
