0, 7, 0
0, 5, 0
0, 2, 0
3, 6, 0
3, 4, 0
3, 5, 0
3, 2, 0
4, 3, 0
4, 5, 1
4, 2, 0
7, 0, 0
7, 5, 0
7, 1, 0
2, 0, 0
2, 3, 0
2, 4, 0
2, 5, 0
6, 3, 0
6, 5, 0
5, 0, 0
5, 3, 0
5, 4, 1
5, 2, 0
5, 6, 0
5, 7, 0
1, 7, 0
