0, 16, 0
0, 7, 0
0, 5, 0
13, 12, 0
13, 4, 0
17, 7, 0
17, 3, 0
17, 16, 0
17, 8, 0
17, 15, 0
17, 5, 0
3, 17, 0
3, 5, 0
3, 11, 0
16, 0, 0
16, 7, 0
16, 17, 0
16, 12, 0
16, 18, 0
16, 6, 0
16, 14, 0
16, 15, 0
16, 5, 0
16, 9, 0
6, 7, 0
6, 16, 0
6, 8, 0
6, 14, 0
6, 9, 0
8, 4, 0
8, 14, 0
8, 18, 0
8, 6, 0
8, 15, 0
8, 17, 0
8, 9, 1
5, 0, 0
5, 16, 0
5, 17, 0
5, 11, 0
5, 3, 0
11, 3, 0
11, 5, 0
10, 18, 0
10, 4, 0
7, 0, 0
7, 18, 0
7, 14, 0
7, 2, 0
7, 16, 0
7, 6, 0
7, 9, 0
7, 15, 0
7, 17, 0
7, 1, 0
12, 16, 0
12, 13, 0
12, 4, 0
4, 12, 0
4, 13, 0
4, 14, 0
4, 18, 0
4, 8, 0
4, 10, 0
14, 7, 0
14, 18, 0
14, 4, 0
14, 2, 0
14, 16, 0
14, 6, 0
14, 1, 0
14, 8, 0
14, 9, 0
2, 7, 0
2, 18, 0
2, 14, 0
2, 1, 1
1, 18, 0
1, 7, 0
1, 14, 0
1, 2, 1
15, 16, 0
15, 7, 0
15, 8, 0
15, 17, 0
15, 9, 0
18, 7, 0
18, 4, 0
18, 14, 0
18, 2, 0
18, 16, 0
18, 1, 0
18, 8, 0
18, 10, 0
9, 7, 0
9, 14, 0
9, 16, 0
9, 6, 0
9, 8, 1
9, 15, 0
