0, 7, 0
0, 3, 0
0, 4, 0
0, 1, 0
0, 2, 0
0, 8, 0
0, 10, 0
0, 5, 0
0, 9, 0
13, 3, 0
13, 9, 0
13, 5, 0
13, 1, 0
3, 0, 0
3, 13, 0
3, 5, 0
3, 1, 0
6, 7, 0
6, 4, 0
6, 2, 0
6, 8, 0
6, 10, 0
6, 11, 0
6, 9, 0
8, 0, 0
8, 7, 0
8, 4, 0
8, 9, 0
8, 2, 0
8, 6, 0
8, 10, 0
8, 1, 0
5, 0, 0
5, 7, 0
5, 13, 0
5, 9, 0
5, 3, 0
5, 10, 0
5, 1, 0
11, 12, 0
11, 6, 0
11, 2, 0
10, 0, 0
10, 7, 0
10, 4, 0
10, 6, 0
10, 8, 0
10, 5, 0
10, 9, 0
7, 0, 0
7, 4, 0
7, 9, 0
7, 6, 0
7, 8, 0
7, 5, 0
7, 10, 0
7, 1, 0
12, 4, 0
12, 11, 0
12, 2, 0
4, 0, 0
4, 12, 0
4, 7, 0
4, 2, 0
4, 6, 0
4, 8, 0
4, 10, 0
2, 0, 0
2, 12, 0
2, 4, 0
2, 6, 0
2, 8, 0
2, 11, 0
1, 0, 0
1, 3, 0
1, 13, 0
1, 8, 0
1, 7, 0
1, 5, 0
9, 0, 0
9, 7, 0
9, 13, 0
9, 6, 0
9, 8, 0
9, 5, 0
9, 10, 0
