13, 49, 0
13, 52, 0
13, 48, 0
13, 47, 0
13, 30, 0
17, 20, 0
17, 33, 0
17, 29, 0
17, 45, 0
17, 52, 0
17, 31, 0
17, 35, 0
17, 18, 0
17, 27, 0
17, 49, 0
23, 0, 0
23, 16, 0
23, 10, 0
23, 34, 0
23, 4, 0
23, 50, 0
23, 32, 0
23, 24, 1
23, 21, 0
23, 42, 0
23, 8, 0
23, 39, 0
46, 40, 0
46, 25, 0
46, 44, 0
46, 12, 0
20, 45, 0
20, 43, 0
20, 26, 0
20, 28, 0
20, 49, 0
20, 17, 0
20, 11, 0
34, 28, 0
34, 23, 0
34, 16, 0
34, 39, 0
34, 36, 0
34, 1, 0
34, 37, 0
34, 14, 0
34, 50, 0
34, 21, 0
34, 42, 0
34, 19, 0
34, 10, 0
34, 38, 0
34, 22, 0
34, 9, 0
14, 45, 0
14, 43, 0
14, 26, 0
14, 34, 0
14, 19, 0
14, 36, 0
14, 41, 0
14, 11, 0
14, 1, 0
24, 16, 0
24, 39, 0
24, 23, 1
28, 37, 0
28, 9, 0
28, 20, 0
28, 34, 0
28, 50, 0
28, 26, 0
28, 21, 0
28, 42, 0
28, 19, 0
28, 49, 0
28, 38, 0
28, 22, 0
28, 36, 0
15, 41, 0
15, 45, 0
15, 43, 0
15, 26, 0
15, 5, 0
15, 47, 0
15, 30, 0
41, 45, 0
41, 43, 0
41, 26, 0
41, 2, 0
41, 14, 0
41, 30, 0
41, 1, 0
41, 15, 0
41, 48, 0
41, 11, 0
41, 36, 0
0, 8, 0
0, 23, 0
0, 4, 0
0, 32, 0
8, 0, 0
8, 4, 0
8, 23, 0
51, 3, 0
51, 12, 0
51, 44, 0
51, 31, 0
51, 29, 0
3, 33, 0
3, 31, 0
3, 51, 0
3, 29, 0
38, 34, 0
38, 1, 0
38, 28, 0
38, 50, 0
38, 37, 0
38, 42, 0
38, 19, 0
38, 36, 0
38, 9, 0
47, 45, 0
47, 13, 0
47, 52, 0
47, 30, 0
47, 49, 0
47, 15, 0
47, 48, 0
47, 5, 0
10, 34, 0
10, 16, 0
10, 50, 0
10, 23, 0
10, 21, 0
10, 42, 0
10, 39, 0
10, 22, 0
10, 1, 0
7, 12, 0
7, 25, 0
7, 2, 0
33, 3, 0
33, 29, 0
33, 17, 0
33, 31, 0
33, 27, 0
32, 0, 0
32, 4, 0
32, 23, 0
2, 7, 0
2, 12, 0
2, 25, 0
2, 31, 0
2, 49, 0
2, 40, 0
2, 41, 0
2, 44, 0
21, 34, 0
21, 28, 0
21, 50, 0
21, 23, 0
21, 16, 0
21, 42, 0
21, 1, 0
21, 39, 0
21, 22, 0
21, 10, 0
25, 7, 0
25, 12, 0
25, 46, 0
25, 2, 0
19, 9, 0
19, 28, 0
19, 1, 0
19, 34, 0
19, 14, 0
19, 50, 0
19, 37, 0
19, 42, 0
19, 49, 0
19, 38, 0
19, 22, 0
19, 36, 0
49, 45, 0
49, 13, 0
49, 17, 0
49, 18, 0
49, 2, 0
49, 52, 0
49, 47, 0
49, 20, 0
49, 43, 0
49, 11, 0
49, 26, 0
49, 35, 0
49, 28, 0
49, 19, 0
49, 36, 0
49, 9, 0
48, 13, 0
48, 41, 0
48, 47, 0
48, 30, 0
31, 33, 0
31, 17, 0
31, 51, 0
31, 3, 0
31, 18, 0
31, 6, 0
31, 2, 0
31, 29, 0
31, 44, 0
31, 27, 0
31, 12, 0
39, 34, 0
39, 21, 0
39, 50, 0
39, 23, 0
39, 24, 0
39, 16, 0
39, 42, 0
39, 1, 0
39, 22, 0
39, 10, 0
29, 3, 0
29, 17, 0
29, 31, 0
29, 51, 0
29, 33, 0
29, 18, 0
29, 6, 0
29, 44, 0
40, 6, 0
40, 12, 0
40, 46, 0
40, 2, 0
11, 20, 0
11, 45, 0
11, 14, 0
11, 26, 0
11, 43, 0
11, 49, 0
11, 41, 0
5, 45, 0
5, 15, 0
5, 47, 0
5, 30, 0
37, 34, 0
37, 28, 0
37, 36, 1
37, 16, 0
37, 42, 0
37, 19, 0
37, 9, 0
37, 38, 0
37, 1, 0
4, 0, 0
4, 8, 0
4, 32, 0
4, 23, 0
35, 18, 0
35, 52, 0
35, 49, 0
35, 17, 0
30, 41, 0
30, 13, 0
30, 15, 0
30, 48, 0
30, 47, 0
30, 5, 0
42, 37, 0
42, 28, 0
42, 23, 0
42, 16, 0
42, 39, 0
42, 1, 0
42, 34, 0
42, 21, 0
42, 19, 0
42, 10, 0
42, 38, 0
42, 36, 0
22, 34, 0
22, 16, 0
22, 28, 0
22, 50, 0
22, 21, 0
22, 19, 0
22, 9, 0
22, 39, 0
22, 10, 0
36, 28, 0
36, 16, 0
36, 1, 0
36, 34, 0
36, 43, 0
36, 9, 0
36, 37, 1
36, 42, 0
36, 14, 0
36, 49, 0
36, 38, 0
36, 41, 0
36, 19, 0
45, 20, 0
45, 17, 0
45, 43, 0
45, 11, 0
45, 26, 0
45, 14, 0
45, 49, 0
45, 15, 0
45, 5, 0
45, 47, 0
45, 41, 0
16, 21, 0
16, 50, 0
16, 23, 0
16, 24, 0
16, 37, 0
16, 42, 0
16, 36, 0
16, 34, 0
16, 39, 0
16, 22, 0
16, 10, 0
27, 18, 0
27, 33, 0
27, 17, 0
27, 31, 0
1, 37, 0
1, 39, 0
1, 10, 0
1, 34, 0
1, 14, 0
1, 50, 0
1, 21, 0
1, 42, 0
1, 19, 0
1, 38, 0
1, 41, 0
1, 36, 0
44, 12, 0
44, 51, 0
44, 31, 0
44, 29, 0
44, 6, 0
44, 2, 0
44, 46, 0
12, 7, 0
12, 25, 0
12, 51, 0
12, 31, 0
12, 2, 0
12, 6, 0
12, 40, 0
12, 44, 0
12, 46, 0
18, 49, 0
18, 17, 0
18, 31, 0
18, 29, 0
18, 27, 0
18, 35, 0
52, 13, 0
52, 17, 0
52, 49, 0
52, 47, 0
52, 35, 0
50, 28, 0
50, 23, 0
50, 16, 0
50, 38, 0
50, 1, 0
50, 34, 0
50, 21, 0
50, 19, 0
50, 10, 0
50, 39, 0
50, 22, 0
50, 9, 0
26, 20, 0
26, 45, 0
26, 43, 0
26, 28, 0
26, 14, 0
26, 49, 0
26, 15, 0
26, 41, 0
26, 11, 0
6, 12, 0
6, 40, 0
6, 44, 0
6, 31, 0
6, 29, 0
43, 20, 0
43, 45, 0
43, 14, 0
43, 26, 0
43, 49, 0
43, 15, 0
43, 41, 0
43, 11, 0
43, 36, 0
9, 34, 0
9, 28, 0
9, 50, 0
9, 37, 0
9, 19, 0
9, 49, 0
9, 38, 0
9, 22, 0
9, 36, 0
