0, 12, 0
0, 15, 0
0, 1, 1
13, 18, 0
13, 7, 0
13, 2, 0
17, 3, 0
17, 5, 0
17, 11, 0
17, 10, 0
3, 17, 0
3, 11, 0
3, 10, 0
16, 6, 0
16, 8, 0
16, 14, 0
16, 9, 0
6, 7, 0
6, 12, 0
6, 4, 0
6, 14, 0
6, 16, 0
6, 8, 0
6, 15, 0
6, 5, 0
8, 16, 0
8, 6, 0
8, 4, 0
8, 9, 0
5, 6, 0
5, 17, 0
5, 11, 0
5, 10, 0
11, 3, 0
11, 17, 0
11, 5, 0
11, 10, 0
10, 3, 0
10, 17, 0
10, 5, 0
10, 11, 0
10, 2, 0
7, 18, 0
7, 6, 0
7, 13, 0
7, 15, 0
7, 2, 0
12, 0, 0
12, 14, 0
12, 6, 0
12, 9, 0
12, 15, 0
12, 1, 0
4, 6, 0
4, 8, 0
14, 16, 0
14, 12, 0
14, 9, 0
14, 6, 0
2, 7, 0
2, 18, 0
2, 13, 0
2, 15, 0
2, 10, 0
1, 0, 1
1, 12, 0
1, 15, 0
15, 0, 0
15, 12, 0
15, 7, 0
15, 2, 0
15, 18, 0
15, 6, 0
15, 1, 0
18, 7, 0
18, 13, 0
18, 15, 0
18, 2, 0
9, 16, 0
9, 12, 0
9, 8, 0
9, 14, 0
