0, 3, 0
0, 4, 0
0, 2, 0
3, 0, 0
3, 7, 0
3, 1, 0
3, 2, 0
4, 0, 0
4, 2, 0
7, 3, 0
7, 6, 0
7, 5, 0
7, 1, 0
2, 0, 0
2, 3, 0
2, 4, 0
2, 5, 0
6, 7, 0
6, 5, 0
6, 1, 0
5, 7, 0
5, 6, 0
5, 2, 0
1, 7, 0
1, 6, 0
1, 3, 0
