0, 8, 0
0, 10, 0
13, 12, 0
13, 9, 0
13, 1, 0
3, 12, 0
3, 5, 0
3, 6, 0
6, 12, 0
6, 5, 1
6, 3, 0
8, 0, 0
8, 11, 0
8, 10, 0
5, 12, 0
5, 3, 0
5, 6, 1
11, 8, 0
11, 2, 0
10, 0, 0
10, 7, 0
10, 8, 0
7, 4, 0
7, 10, 0
12, 6, 0
12, 3, 0
12, 13, 0
12, 5, 0
12, 1, 0
4, 7, 0
4, 14, 0
14, 4, 0
2, 11, 0
2, 9, 0
1, 12, 0
1, 13, 0
9, 13, 0
9, 2, 0
