0, 4, 0
0, 5, 0
0, 1, 0
3, 2, 0
3, 8, 0
3, 9, 0
3, 5, 0
3, 10, 0
4, 0, 0
4, 1, 0
2, 7, 0
2, 3, 0
2, 6, 0
2, 8, 0
2, 5, 0
2, 9, 0
6, 7, 0
6, 2, 0
6, 5, 0
6, 9, 0
1, 0, 0
1, 8, 0
1, 5, 0
1, 4, 0
1, 10, 0
8, 3, 0
8, 1, 0
8, 9, 0
8, 10, 0
8, 2, 0
5, 0, 0
5, 3, 0
5, 2, 0
5, 6, 0
5, 9, 0
5, 1, 0
7, 6, 0
7, 2, 0
7, 9, 0
10, 3, 0
10, 8, 0
10, 1, 0
9, 7, 0
9, 3, 0
9, 2, 0
9, 6, 0
9, 8, 0
9, 5, 0
