0, 2, 0
0, 10, 0
0, 15, 0
0, 1, 0
13, 3, 0
13, 8, 0
13, 6, 0
3, 13, 0
3, 4, 1
3, 9, 0
6, 7, 0
6, 12, 0
6, 13, 0
6, 14, 0
6, 2, 0
6, 8, 0
6, 15, 0
6, 5, 0
6, 1, 0
8, 12, 0
8, 13, 0
8, 6, 0
5, 7, 0
5, 6, 0
5, 2, 0
5, 1, 0
11, 7, 0
11, 12, 0
10, 0, 0
10, 2, 0
10, 15, 0
10, 1, 0
7, 12, 0
7, 5, 0
7, 11, 0
7, 6, 0
12, 7, 0
12, 6, 0
12, 8, 0
12, 11, 0
4, 3, 1
4, 9, 0
14, 6, 0
14, 9, 0
2, 0, 0
2, 6, 0
2, 1, 0
2, 15, 0
2, 5, 0
2, 10, 0
1, 0, 0
1, 2, 0
1, 6, 0
1, 15, 0
1, 5, 0
1, 10, 0
15, 0, 0
15, 6, 0
15, 2, 0
15, 10, 0
15, 1, 0
9, 3, 0
9, 4, 0
9, 14, 0
