13, 52, 0
13, 11, 0
17, 20, 0
17, 34, 0
17, 48, 0
17, 31, 0
17, 45, 0
23, 31, 0
23, 26, 0
23, 18, 0
23, 8, 0
23, 44, 0
23, 22, 1
23, 9, 0
46, 6, 0
46, 19, 0
46, 47, 0
46, 42, 0
20, 45, 0
20, 17, 0
20, 3, 0
20, 31, 0
20, 34, 0
20, 21, 0
20, 43, 0
20, 1, 0
20, 48, 0
20, 10, 0
34, 20, 0
34, 3, 0
34, 21, 0
34, 17, 0
34, 45, 0
14, 40, 0
14, 15, 1
14, 38, 0
14, 41, 0
14, 47, 0
24, 0, 0
24, 27, 0
24, 4, 0
24, 42, 0
28, 12, 0
28, 5, 0
28, 32, 0
28, 29, 0
15, 14, 1
15, 2, 0
15, 35, 0
15, 40, 0
15, 41, 0
15, 47, 0
41, 14, 0
41, 51, 0
41, 2, 0
41, 40, 0
41, 15, 0
41, 49, 0
41, 38, 0
0, 42, 0
0, 4, 0
0, 27, 0
0, 24, 0
8, 37, 0
8, 23, 0
8, 29, 0
8, 18, 0
8, 5, 0
8, 9, 0
51, 2, 0
51, 52, 0
51, 47, 0
51, 35, 0
51, 38, 0
51, 49, 0
51, 40, 0
51, 41, 0
51, 11, 0
3, 20, 0
3, 21, 0
3, 34, 0
3, 31, 0
3, 45, 0
38, 49, 0
38, 14, 0
38, 11, 0
38, 51, 0
38, 2, 0
38, 35, 0
38, 40, 0
38, 41, 0
38, 47, 0
47, 51, 0
47, 6, 0
47, 15, 0
47, 46, 0
47, 33, 0
47, 25, 0
47, 39, 0
47, 2, 0
47, 14, 0
47, 19, 0
47, 38, 0
47, 36, 0
10, 20, 0
10, 21, 0
10, 48, 0
7, 33, 0
7, 36, 0
7, 25, 0
7, 39, 0
7, 6, 0
33, 7, 0
33, 6, 0
33, 39, 0
33, 47, 0
33, 36, 0
32, 12, 0
32, 28, 0
2, 38, 0
2, 15, 0
2, 41, 0
2, 51, 0
2, 47, 0
21, 20, 0
21, 3, 0
21, 45, 0
21, 31, 0
21, 34, 0
21, 48, 0
21, 10, 0
25, 7, 0
25, 6, 0
25, 39, 0
25, 47, 0
19, 42, 0
19, 46, 0
19, 47, 0
19, 6, 0
49, 50, 0
49, 51, 0
49, 35, 0
49, 16, 0
49, 38, 0
49, 48, 0
49, 41, 0
48, 20, 0
48, 16, 0
48, 43, 0
48, 50, 0
48, 35, 0
48, 21, 0
48, 17, 0
48, 1, 0
48, 49, 0
48, 10, 0
31, 45, 0
31, 17, 0
31, 23, 0
31, 44, 0
31, 1, 0
31, 20, 0
31, 3, 0
31, 43, 0
31, 29, 0
31, 21, 0
31, 5, 0
31, 22, 0
31, 9, 0
39, 7, 0
39, 33, 0
39, 25, 0
39, 6, 0
39, 47, 0
39, 36, 0
29, 12, 0
29, 28, 0
29, 31, 0
29, 26, 0
29, 37, 0
29, 8, 0
29, 44, 0
29, 5, 0
40, 14, 0
40, 51, 0
40, 15, 0
40, 38, 0
40, 52, 0
40, 41, 0
11, 38, 0
11, 13, 0
11, 52, 0
11, 51, 0
11, 35, 0
5, 37, 0
5, 28, 0
5, 31, 0
5, 26, 0
5, 29, 0
5, 18, 0
5, 8, 0
5, 44, 0
5, 22, 0
37, 12, 0
37, 8, 0
37, 9, 0
37, 5, 0
37, 29, 0
4, 0, 0
4, 42, 0
4, 27, 0
4, 24, 0
35, 50, 0
35, 51, 0
35, 16, 0
35, 38, 0
35, 49, 0
35, 15, 0
35, 48, 0
35, 11, 0
30, 42, 0
30, 6, 0
30, 36, 0
42, 0, 0
42, 4, 0
42, 36, 0
42, 27, 0
42, 6, 0
42, 19, 0
42, 24, 0
42, 46, 0
42, 30, 0
22, 18, 0
22, 26, 0
22, 5, 0
22, 23, 1
22, 31, 0
36, 7, 0
36, 33, 0
36, 6, 0
36, 42, 0
36, 39, 0
36, 47, 0
36, 30, 0
45, 20, 0
45, 3, 0
45, 17, 0
45, 31, 0
45, 34, 0
45, 21, 0
16, 49, 0
16, 50, 0
16, 48, 0
16, 35, 0
27, 0, 0
27, 42, 0
27, 4, 0
27, 24, 0
1, 20, 0
1, 43, 0
1, 48, 0
1, 31, 0
44, 23, 0
44, 31, 0
44, 26, 0
44, 29, 0
44, 5, 0
44, 9, 0
12, 37, 0
12, 28, 0
12, 32, 0
12, 29, 0
18, 8, 0
18, 22, 0
18, 5, 0
18, 23, 0
18, 9, 0
52, 13, 0
52, 40, 0
52, 51, 0
52, 11, 0
50, 16, 0
50, 49, 0
50, 48, 0
50, 35, 0
26, 23, 0
26, 29, 0
26, 9, 0
26, 44, 0
26, 22, 0
26, 5, 0
6, 7, 0
6, 33, 0
6, 25, 0
6, 42, 0
6, 19, 0
6, 36, 0
6, 39, 0
6, 46, 0
6, 47, 0
6, 30, 0
43, 20, 0
43, 48, 0
43, 31, 0
43, 1, 0
9, 18, 0
9, 23, 0
9, 26, 0
9, 31, 0
9, 37, 0
9, 8, 0
9, 44, 0
