13, 20, 0
13, 6, 0
13, 17, 0
17, 6, 0
17, 13, 0
5, 3, 0
5, 19, 0
5, 4, 0
5, 6, 0
5, 12, 0
11, 7, 0
11, 14, 0
11, 9, 0
11, 2, 0
11, 16, 0
11, 8, 0
11, 15, 0
11, 10, 0
1, 0, 1
1, 18, 0
1, 15, 0
20, 6, 0
20, 13, 0
4, 3, 1
4, 5, 0
4, 12, 0
14, 7, 0
14, 12, 0
14, 21, 0
14, 9, 0
14, 2, 0
14, 16, 0
14, 8, 0
14, 11, 0
14, 10, 0
8, 7, 0
8, 14, 0
8, 2, 0
8, 16, 0
8, 11, 0
8, 9, 1
15, 0, 0
15, 18, 0
15, 11, 0
15, 1, 0
0, 18, 0
0, 15, 0
0, 1, 1
3, 12, 0
3, 4, 1
3, 5, 0
16, 7, 0
16, 14, 0
16, 9, 0
16, 2, 0
16, 8, 0
16, 11, 0
16, 10, 0
6, 20, 0
6, 19, 0
6, 13, 0
6, 17, 0
6, 5, 0
10, 7, 0
10, 16, 0
10, 14, 0
10, 11, 0
10, 9, 1
7, 14, 0
7, 2, 0
7, 16, 0
7, 8, 0
7, 10, 0
7, 11, 0
7, 9, 0
12, 21, 0
12, 3, 0
12, 4, 0
12, 14, 0
12, 5, 0
2, 7, 0
2, 14, 0
2, 16, 0
2, 8, 0
2, 11, 0
2, 9, 0
21, 12, 0
21, 14, 0
19, 6, 0
19, 5, 0
18, 0, 0
18, 15, 0
18, 1, 0
9, 7, 0
9, 14, 0
9, 2, 0
9, 16, 0
9, 8, 1
9, 11, 0
9, 10, 1
