0, 7, 0
0, 3, 0
0, 2, 0
0, 6, 0
0, 8, 0
0, 1, 0
6, 0, 0
6, 3, 0
6, 9, 0
6, 2, 0
6, 8, 0
6, 5, 1
6, 1, 0
1, 0, 0
1, 6, 0
1, 9, 0
1, 5, 0
1, 2, 1
5, 2, 0
5, 6, 1
5, 9, 0
5, 1, 0
11, 2, 0
11, 4, 0
11, 10, 1
10, 4, 0
10, 11, 1
7, 0, 0
7, 3, 0
7, 8, 1
7, 4, 0
3, 0, 0
3, 7, 0
3, 4, 0
3, 2, 0
3, 6, 0
3, 8, 0
4, 7, 0
4, 3, 0
4, 11, 0
4, 10, 0
2, 0, 0
2, 3, 0
2, 6, 0
2, 1, 1
2, 8, 0
2, 5, 0
2, 11, 0
2, 9, 0
8, 0, 0
8, 6, 0
8, 2, 0
8, 7, 1
8, 3, 0
9, 6, 0
9, 2, 0
9, 5, 0
9, 1, 0
