0, 6, 0
0, 4, 0
0, 12, 0
0, 3, 0
0, 1, 1
8, 7, 0
8, 4, 0
8, 2, 0
8, 9, 0
8, 5, 0
8, 11, 0
8, 10, 0
3, 0, 0
3, 12, 0
3, 7, 0
3, 4, 0
3, 6, 0
3, 5, 0
3, 1, 0
6, 0, 0
6, 12, 0
6, 4, 0
6, 3, 0
6, 1, 0
5, 7, 0
5, 12, 0
5, 4, 0
5, 3, 0
5, 2, 0
5, 8, 0
5, 11, 0
5, 10, 0
11, 4, 0
11, 2, 0
11, 10, 0
11, 8, 0
11, 5, 0
11, 9, 0
10, 2, 0
10, 8, 0
10, 5, 0
10, 11, 0
10, 9, 0
7, 3, 0
7, 8, 0
7, 5, 0
7, 4, 0
7, 2, 0
12, 0, 0
12, 3, 0
12, 4, 0
12, 6, 0
12, 5, 0
12, 1, 0
4, 0, 0
4, 12, 0
4, 7, 0
4, 3, 0
4, 2, 0
4, 6, 0
4, 8, 0
4, 5, 0
4, 11, 0
4, 1, 0
2, 7, 0
2, 4, 0
2, 9, 0
2, 8, 0
2, 5, 0
2, 11, 0
2, 10, 0
1, 0, 1
1, 6, 0
1, 4, 0
1, 3, 0
1, 12, 0
9, 2, 0
9, 8, 0
9, 11, 0
9, 10, 0
