12, 8, 0
12, 14, 0
12, 5, 0
13, 7, 0
13, 20, 0
13, 4, 0
13, 17, 0
13, 32, 0
13, 2, 0
13, 21, 0
13, 6, 0
13, 38, 0
13, 5, 0
13, 11, 0
17, 13, 0
17, 15, 0
17, 32, 0
17, 11, 0
17, 2, 0
31, 28, 0
31, 23, 0
31, 3, 0
31, 16, 0
31, 27, 0
31, 24, 0
31, 1, 0
31, 33, 0
31, 25, 0
31, 29, 0
31, 14, 0
31, 39, 0
31, 22, 0
31, 36, 0
23, 28, 0
23, 14, 0
23, 31, 0
23, 22, 0
24, 28, 0
24, 25, 0
24, 31, 0
24, 22, 0
24, 36, 0
5, 0, 0
5, 13, 0
5, 32, 0
5, 34, 0
5, 2, 0
5, 30, 0
5, 20, 0
5, 12, 0
5, 14, 0
5, 26, 0
5, 35, 0
5, 21, 0
5, 19, 0
5, 8, 0
5, 15, 0
5, 9, 0
11, 0, 0
11, 13, 0
11, 17, 0
11, 6, 0
11, 15, 0
11, 7, 0
11, 21, 0
11, 4, 0
11, 32, 0
11, 2, 0
11, 37, 0
11, 38, 0
11, 9, 0
1, 3, 0
1, 31, 0
1, 33, 0
1, 16, 0
1, 27, 0
1, 39, 0
20, 34, 0
20, 13, 0
20, 26, 0
20, 32, 0
20, 2, 0
20, 21, 0
20, 35, 0
20, 18, 0
20, 5, 0
21, 0, 0
21, 7, 0
21, 13, 0
21, 6, 0
21, 15, 0
21, 5, 0
21, 11, 0
21, 20, 0
21, 4, 0
21, 2, 0
21, 37, 0
21, 38, 0
21, 9, 0
4, 13, 0
4, 21, 0
4, 6, 0
4, 38, 0
4, 11, 0
4, 9, 0
14, 12, 0
14, 28, 0
14, 31, 0
14, 23, 0
14, 25, 0
14, 19, 0
14, 8, 0
14, 5, 0
14, 22, 0
14, 30, 0
39, 33, 0
39, 31, 0
39, 29, 0
39, 16, 0
39, 27, 0
39, 1, 0
35, 20, 0
35, 0, 0
35, 26, 0
35, 18, 0
35, 15, 0
35, 5, 0
28, 14, 0
28, 31, 0
28, 23, 0
28, 24, 0
28, 22, 0
28, 36, 0
30, 19, 0
30, 8, 0
30, 14, 0
30, 5, 0
8, 12, 0
8, 19, 0
8, 14, 0
8, 5, 0
8, 30, 0
15, 7, 0
15, 21, 0
15, 17, 0
15, 32, 0
15, 35, 0
15, 18, 0
15, 6, 0
15, 0, 0
15, 5, 0
15, 11, 0
15, 9, 0
22, 25, 0
22, 31, 0
22, 23, 0
22, 24, 0
22, 28, 0
22, 14, 0
36, 25, 0
36, 28, 0
36, 31, 0
36, 24, 0
0, 7, 0
0, 21, 0
0, 32, 0
0, 26, 0
0, 35, 0
0, 18, 0
0, 15, 0
0, 5, 0
0, 11, 0
0, 9, 0
6, 7, 0
6, 21, 0
6, 4, 0
6, 13, 0
6, 37, 0
6, 38, 0
6, 15, 0
6, 11, 0
6, 9, 0
3, 16, 0
3, 33, 0
3, 27, 0
3, 31, 0
3, 1, 0
16, 3, 0
16, 31, 0
16, 33, 0
16, 27, 0
16, 1, 0
16, 39, 0
16, 10, 0
38, 7, 0
38, 21, 0
38, 4, 0
38, 13, 0
38, 2, 0
38, 37, 0
38, 6, 0
38, 11, 0
38, 9, 0
27, 16, 0
27, 3, 0
27, 39, 0
27, 31, 0
27, 1, 0
10, 16, 0
7, 0, 0
7, 21, 0
7, 13, 0
7, 38, 0
7, 37, 0
7, 6, 0
7, 15, 0
7, 11, 0
7, 9, 0
34, 18, 0
34, 20, 0
34, 5, 0
34, 32, 0
25, 36, 0
25, 14, 0
25, 31, 0
25, 22, 0
25, 24, 0
33, 3, 0
33, 31, 0
33, 29, 0
33, 16, 0
33, 39, 0
33, 1, 0
32, 20, 0
32, 34, 0
32, 13, 0
32, 17, 0
32, 2, 0
32, 18, 0
32, 15, 0
32, 5, 0
32, 11, 0
32, 0, 0
2, 20, 0
2, 13, 0
2, 17, 0
2, 32, 0
2, 21, 0
2, 38, 0
2, 5, 0
2, 11, 0
37, 7, 0
37, 21, 0
37, 6, 0
37, 38, 0
37, 11, 0
37, 9, 0
29, 33, 0
29, 39, 0
29, 31, 0
19, 8, 0
19, 14, 0
19, 5, 0
19, 30, 0
26, 20, 0
26, 0, 0
26, 5, 0
26, 35, 0
18, 20, 0
18, 34, 0
18, 32, 0
18, 35, 0
18, 15, 0
18, 0, 0
9, 0, 0
9, 7, 0
9, 4, 0
9, 37, 0
9, 21, 0
9, 6, 0
9, 15, 0
9, 38, 0
9, 5, 0
9, 11, 0
