0, 10, 0
0, 2, 0
6, 2, 0
6, 8, 0
6, 10, 0
6, 1, 0
1, 6, 0
1, 2, 0
1, 10, 0
5, 7, 0
5, 8, 0
5, 11, 0
5, 4, 0
11, 7, 0
11, 3, 0
11, 4, 0
11, 5, 0
11, 9, 0
10, 0, 0
10, 6, 0
10, 2, 0
10, 1, 0
7, 3, 0
7, 4, 0
7, 5, 0
7, 11, 0
7, 9, 0
3, 7, 0
3, 4, 0
3, 11, 0
3, 9, 0
4, 7, 0
4, 3, 0
4, 5, 0
4, 11, 0
4, 9, 0
2, 0, 0
2, 6, 0
2, 10, 0
2, 1, 0
8, 6, 0
8, 5, 0
9, 7, 0
9, 3, 0
9, 4, 0
9, 11, 0
