0, 3, 0
0, 4, 0
0, 9, 0
0, 6, 0
0, 10, 0
0, 5, 0
0, 11, 0
0, 1, 0
6, 0, 0
6, 4, 0
6, 5, 0
1, 0, 0
1, 3, 0
1, 7, 0
1, 4, 0
1, 2, 0
1, 8, 0
1, 5, 0
1, 11, 0
1, 9, 0
5, 0, 0
5, 4, 0
5, 6, 0
5, 1, 0
5, 11, 0
5, 9, 0
11, 0, 0
11, 10, 1
11, 4, 0
11, 5, 0
11, 1, 0
10, 0, 0
10, 4, 0
10, 11, 1
10, 9, 1
7, 2, 0
7, 3, 0
7, 8, 1
7, 1, 0
3, 0, 0
3, 7, 0
3, 4, 0
3, 2, 0
3, 8, 0
3, 1, 0
4, 0, 0
4, 3, 0
4, 10, 0
4, 6, 0
4, 9, 0
4, 5, 0
4, 11, 0
4, 1, 0
2, 7, 0
2, 3, 0
2, 8, 0
2, 1, 0
8, 7, 1
8, 3, 0
8, 2, 0
8, 1, 0
9, 0, 0
9, 10, 1
9, 4, 0
9, 5, 0
9, 1, 0
