12, 0, 0
12, 28, 0
12, 16, 0
12, 19, 0
12, 8, 0
12, 10, 0
13, 17, 0
13, 11, 0
17, 13, 0
17, 23, 0
17, 1, 0
26, 9, 0
26, 23, 0
26, 24, 0
23, 9, 0
23, 16, 0
23, 17, 0
23, 26, 0
23, 31, 0
23, 21, 0
23, 8, 0
23, 1, 0
2, 20, 0
2, 3, 0
2, 14, 0
2, 1, 0
5, 4, 1
5, 29, 0
11, 13, 0
1, 20, 0
1, 14, 0
1, 17, 0
1, 23, 0
1, 2, 0
20, 3, 0
20, 1, 0
20, 14, 0
20, 27, 0
20, 2, 0
4, 5, 1
4, 29, 0
14, 20, 0
14, 3, 0
14, 2, 0
14, 1, 0
24, 27, 0
24, 26, 0
24, 31, 0
24, 9, 0
28, 0, 0
28, 12, 0
28, 7, 0
28, 29, 0
28, 18, 0
28, 10, 0
30, 0, 0
30, 7, 0
30, 29, 0
30, 16, 0
30, 6, 0
30, 18, 0
30, 22, 0
8, 0, 0
8, 12, 0
8, 21, 0
8, 25, 0
8, 31, 0
8, 23, 0
8, 29, 0
8, 16, 0
8, 27, 0
8, 19, 0
8, 9, 0
15, 0, 0
15, 21, 0
15, 25, 0
15, 31, 0
15, 29, 0
15, 16, 0
15, 6, 0
22, 0, 0
22, 7, 0
22, 29, 0
22, 18, 0
22, 6, 0
22, 30, 0
0, 28, 0
0, 16, 0
0, 6, 0
0, 10, 0
0, 7, 0
0, 12, 0
0, 29, 0
0, 19, 0
0, 8, 0
0, 15, 0
0, 18, 0
0, 22, 0
0, 30, 0
3, 20, 0
3, 27, 0
3, 9, 0
3, 14, 0
3, 2, 0
16, 0, 0
16, 12, 0
16, 25, 0
16, 23, 0
16, 31, 0
16, 29, 0
16, 21, 0
16, 6, 0
16, 8, 0
16, 15, 0
16, 30, 0
6, 0, 0
6, 29, 0
6, 16, 0
6, 15, 0
6, 22, 0
6, 30, 0
27, 20, 0
27, 3, 0
27, 8, 0
27, 9, 0
27, 24, 0
7, 0, 0
7, 28, 0
7, 29, 0
7, 18, 0
7, 22, 0
7, 30, 0
18, 0, 0
18, 7, 0
18, 28, 0
18, 29, 0
18, 22, 0
18, 30, 0
25, 16, 0
25, 21, 0
25, 8, 0
25, 15, 0
25, 31, 0
31, 16, 0
31, 25, 0
31, 23, 0
31, 24, 0
31, 21, 0
31, 8, 0
31, 15, 0
31, 9, 0
29, 0, 0
29, 28, 0
29, 16, 0
29, 6, 0
29, 5, 0
29, 30, 0
29, 7, 0
29, 18, 0
29, 4, 0
29, 8, 0
29, 15, 0
29, 10, 0
29, 22, 0
21, 25, 0
21, 31, 0
21, 23, 0
21, 16, 0
21, 8, 0
21, 15, 0
19, 0, 0
19, 12, 0
19, 8, 0
10, 0, 0
10, 12, 0
10, 28, 0
10, 29, 0
9, 3, 0
9, 23, 0
9, 31, 0
9, 26, 0
9, 24, 0
9, 27, 0
9, 8, 0
