0, 12, 0
0, 14, 0
0, 2, 0
0, 16, 0
0, 17, 0
0, 9, 0
0, 15, 0
0, 18, 0
0, 11, 0
0, 10, 0
7, 20, 0
7, 12, 0
7, 4, 0
7, 14, 0
7, 3, 0
7, 6, 0
7, 8, 0
7, 17, 0
7, 11, 0
13, 19, 0
13, 8, 0
17, 20, 0
17, 3, 0
17, 4, 0
17, 14, 0
17, 16, 0
17, 6, 0
17, 8, 0
17, 15, 0
17, 7, 0
17, 11, 0
17, 0, 0
3, 20, 0
3, 7, 0
3, 4, 0
3, 17, 0
3, 16, 0
3, 6, 0
3, 14, 0
3, 8, 0
3, 11, 0
16, 0, 0
16, 17, 0
16, 3, 0
16, 18, 0
16, 11, 0
16, 10, 0
16, 20, 0
16, 12, 0
16, 14, 0
16, 2, 0
16, 15, 0
16, 9, 0
6, 20, 0
6, 12, 0
6, 4, 0
6, 17, 0
6, 3, 0
6, 18, 0
6, 10, 0
6, 8, 0
6, 7, 0
6, 11, 0
6, 9, 0
8, 7, 0
8, 13, 0
8, 17, 0
8, 6, 0
8, 5, 0
8, 11, 0
8, 1, 0
8, 20, 0
8, 3, 0
8, 4, 0
8, 14, 0
8, 19, 0
8, 15, 0
5, 19, 0
5, 8, 0
5, 1, 0
11, 7, 0
11, 3, 0
11, 4, 0
11, 14, 0
11, 16, 0
11, 6, 0
11, 20, 0
11, 8, 0
11, 15, 0
11, 17, 0
11, 0, 0
10, 0, 0
10, 12, 0
10, 2, 0
10, 16, 0
10, 6, 0
10, 18, 0
10, 9, 0
20, 7, 0
20, 3, 0
20, 4, 0
20, 14, 0
20, 11, 0
20, 16, 0
20, 6, 0
20, 8, 0
20, 17, 0
20, 9, 0
12, 0, 0
12, 7, 0
12, 4, 0
12, 2, 0
12, 16, 0
12, 6, 0
12, 9, 0
12, 18, 0
12, 10, 0
4, 20, 0
4, 12, 0
4, 7, 0
4, 17, 0
4, 3, 0
4, 6, 0
4, 8, 0
4, 11, 0
4, 9, 0
14, 0, 0
14, 7, 0
14, 17, 0
14, 16, 0
14, 11, 0
14, 20, 0
14, 3, 0
14, 2, 0
14, 8, 0
14, 15, 0
14, 18, 0
14, 9, 0
2, 0, 0
2, 12, 0
2, 14, 0
2, 16, 0
2, 9, 0
2, 15, 0
2, 18, 0
2, 10, 0
19, 8, 0
19, 13, 0
19, 5, 0
19, 1, 0
1, 19, 0
1, 8, 0
1, 5, 0
15, 0, 0
15, 18, 0
15, 14, 0
15, 2, 0
15, 16, 0
15, 17, 0
15, 8, 0
15, 11, 0
15, 9, 0
18, 0, 0
18, 12, 0
18, 14, 0
18, 2, 0
18, 16, 0
18, 6, 0
18, 9, 0
18, 15, 0
18, 10, 0
9, 0, 0
9, 20, 0
9, 4, 0
9, 14, 0
9, 12, 0
9, 16, 0
9, 6, 0
9, 2, 0
9, 15, 0
9, 18, 0
9, 10, 0
