13, 12, 0
13, 14, 0
13, 18, 0
13, 6, 0
13, 19, 0
13, 8, 0
13, 5, 0
13, 10, 0
17, 16, 1
17, 9, 0
5, 12, 0
5, 13, 0
5, 14, 0
5, 2, 0
5, 18, 0
5, 6, 0
5, 19, 0
5, 8, 0
11, 0, 0
11, 7, 0
11, 20, 0
11, 4, 0
11, 15, 0
1, 6, 0
1, 10, 0
1, 12, 0
1, 3, 0
1, 2, 1
20, 4, 0
20, 15, 0
20, 11, 0
20, 9, 0
4, 20, 0
4, 0, 0
4, 12, 0
4, 15, 0
4, 11, 0
4, 9, 0
14, 12, 0
14, 13, 0
14, 18, 0
14, 6, 0
14, 19, 0
14, 8, 0
14, 5, 0
8, 12, 0
8, 13, 0
8, 14, 0
8, 18, 0
8, 6, 0
8, 19, 0
8, 5, 0
15, 20, 0
15, 0, 0
15, 4, 0
15, 11, 0
0, 7, 0
0, 12, 0
0, 4, 0
0, 15, 0
0, 11, 0
3, 7, 0
3, 12, 0
3, 2, 0
3, 21, 0
3, 6, 0
3, 1, 0
3, 10, 0
16, 17, 1
16, 9, 0
6, 3, 0
6, 13, 0
6, 14, 0
6, 12, 0
6, 18, 0
6, 10, 0
6, 19, 0
6, 2, 0
6, 5, 0
6, 8, 0
6, 1, 0
10, 3, 0
10, 13, 0
10, 12, 0
10, 21, 0
10, 6, 0
10, 2, 0
10, 18, 0
10, 1, 0
7, 0, 0
7, 3, 0
7, 2, 0
7, 11, 0
7, 21, 0
12, 0, 0
12, 13, 0
12, 18, 0
12, 6, 0
12, 1, 0
12, 5, 0
12, 10, 0
12, 3, 0
12, 4, 0
12, 14, 0
12, 2, 0
12, 21, 0
12, 19, 0
12, 8, 0
12, 9, 0
2, 7, 0
2, 3, 0
2, 12, 0
2, 21, 0
2, 6, 0
2, 19, 0
2, 1, 1
2, 5, 0
2, 10, 0
21, 7, 0
21, 3, 0
21, 2, 0
21, 12, 0
21, 10, 0
19, 12, 0
19, 13, 0
19, 14, 0
19, 2, 0
19, 18, 1
19, 6, 0
19, 8, 0
19, 5, 0
18, 12, 0
18, 13, 0
18, 14, 0
18, 6, 0
18, 19, 1
18, 8, 0
18, 5, 0
18, 10, 0
9, 20, 0
9, 16, 0
9, 4, 0
9, 17, 0
9, 12, 0
