13, 21, 0
13, 12, 1
13, 24, 0
13, 5, 0
13, 9, 0
17, 21, 0
17, 4, 0
17, 5, 0
17, 10, 0
23, 21, 0
23, 4, 0
23, 14, 0
23, 16, 0
23, 19, 0
23, 10, 0
23, 15, 0
23, 1, 0
2, 20, 0
2, 0, 0
2, 4, 0
5, 12, 0
5, 13, 0
5, 17, 0
5, 4, 0
5, 21, 0
5, 9, 0
11, 24, 0
11, 12, 1
11, 4, 0
11, 9, 0
1, 19, 0
1, 23, 0
20, 21, 0
20, 4, 0
20, 25, 0
20, 2, 0
4, 0, 0
4, 20, 0
4, 17, 0
4, 23, 0
4, 27, 0
4, 2, 0
4, 5, 0
4, 11, 0
4, 10, 0
4, 7, 0
4, 3, 0
4, 14, 0
4, 26, 0
4, 24, 0
4, 25, 0
4, 8, 0
4, 22, 0
4, 9, 0
14, 4, 0
14, 15, 1
14, 23, 0
14, 10, 0
24, 12, 0
24, 4, 0
24, 13, 0
24, 21, 0
24, 27, 0
24, 11, 0
24, 9, 0
8, 7, 0
8, 3, 0
8, 4, 0
8, 21, 0
8, 6, 0
8, 22, 0
15, 16, 1
15, 14, 1
15, 23, 0
15, 10, 0
22, 7, 0
22, 3, 0
22, 4, 0
22, 21, 0
22, 6, 0
22, 8, 0
0, 21, 0
0, 19, 0
0, 4, 0
0, 26, 0
0, 2, 0
3, 6, 0
3, 8, 0
3, 4, 0
3, 22, 0
16, 21, 0
16, 15, 1
16, 23, 0
16, 10, 0
6, 3, 0
6, 8, 0
6, 22, 0
10, 21, 0
10, 4, 0
10, 14, 0
10, 23, 0
10, 16, 0
10, 17, 0
10, 15, 0
7, 21, 0
7, 27, 0
7, 8, 0
7, 4, 0
7, 22, 0
12, 13, 1
12, 9, 0
12, 5, 0
12, 11, 1
12, 24, 0
25, 20, 0
25, 18, 0
25, 4, 0
25, 21, 0
26, 0, 0
26, 19, 0
26, 4, 0
27, 7, 0
27, 21, 0
27, 4, 0
27, 24, 0
21, 0, 0
21, 20, 0
21, 13, 0
21, 17, 0
21, 23, 0
21, 16, 0
21, 27, 0
21, 5, 0
21, 10, 0
21, 7, 0
21, 18, 0
21, 25, 0
21, 24, 0
21, 8, 0
21, 22, 0
19, 0, 0
19, 23, 0
19, 26, 0
19, 1, 0
18, 21, 0
18, 25, 0
9, 12, 0
9, 4, 0
9, 13, 0
9, 24, 0
9, 5, 0
9, 11, 0
