0, 18, 0
0, 6, 0
0, 8, 0
0, 4, 0
13, 16, 0
13, 3, 0
13, 9, 0
13, 12, 1
17, 3, 0
17, 2, 0
3, 16, 0
3, 12, 0
3, 13, 0
3, 17, 0
3, 9, 0
16, 12, 0
16, 13, 0
16, 14, 0
16, 4, 0
16, 3, 0
16, 9, 0
16, 5, 0
16, 1, 0
6, 0, 0
6, 18, 0
6, 8, 0
6, 15, 0
8, 7, 0
8, 0, 0
8, 4, 0
8, 18, 0
8, 6, 0
8, 15, 0
8, 11, 0
8, 10, 0
5, 4, 0
5, 14, 0
5, 16, 0
5, 1, 0
5, 9, 0
5, 11, 0
5, 10, 0
11, 8, 0
11, 14, 0
11, 5, 0
11, 10, 0
10, 4, 0
10, 14, 0
10, 18, 0
10, 8, 0
10, 5, 0
10, 11, 0
7, 18, 0
7, 8, 0
7, 15, 0
12, 16, 0
12, 3, 0
12, 13, 1
4, 0, 0
4, 16, 0
4, 2, 0
4, 18, 0
4, 8, 0
4, 5, 0
4, 10, 0
14, 16, 0
14, 9, 0
14, 5, 0
14, 11, 0
14, 10, 0
2, 4, 0
2, 17, 0
1, 16, 0
1, 5, 0
1, 9, 0
15, 7, 0
15, 6, 0
15, 8, 0
15, 18, 0
18, 0, 0
18, 7, 0
18, 4, 0
18, 6, 0
18, 8, 0
18, 15, 0
18, 10, 0
9, 3, 0
9, 13, 0
9, 14, 0
9, 16, 0
9, 5, 0
9, 1, 0
