0, 3, 0
0, 10, 0
13, 5, 0
13, 11, 0
3, 0, 0
3, 12, 0
3, 5, 0
3, 10, 0
6, 12, 0
6, 8, 0
6, 4, 0
6, 10, 0
8, 12, 0
8, 4, 0
8, 10, 0
8, 6, 0
5, 3, 0
5, 13, 0
11, 7, 0
11, 2, 0
11, 13, 0
11, 9, 0
11, 1, 0
10, 0, 0
10, 6, 0
10, 8, 0
10, 4, 0
10, 3, 0
7, 2, 0
7, 9, 0
7, 11, 0
7, 1, 0
12, 3, 0
12, 8, 0
12, 6, 0
4, 6, 0
4, 8, 0
4, 10, 0
2, 7, 0
2, 9, 0
2, 11, 0
2, 1, 1
1, 7, 0
1, 9, 0
1, 11, 0
1, 2, 1
9, 7, 0
9, 2, 0
9, 11, 0
9, 1, 0
