0, 2, 0
0, 9, 0
0, 1, 1
3, 2, 0
3, 8, 0
3, 9, 0
3, 4, 0
3, 1, 0
4, 3, 0
4, 8, 0
4, 5, 0
4, 6, 0
2, 0, 0
2, 3, 0
2, 1, 0
2, 9, 0
6, 7, 1
6, 8, 0
6, 5, 1
6, 4, 0
1, 0, 1
1, 3, 0
1, 2, 0
1, 9, 0
8, 7, 0
8, 3, 0
8, 4, 0
8, 6, 0
8, 5, 0
8, 9, 0
5, 6, 1
5, 8, 0
5, 4, 0
7, 6, 1
7, 8, 0
9, 0, 0
9, 3, 0
9, 2, 0
9, 8, 0
9, 1, 0
