0, 4, 0
0, 5, 0
0, 1, 0
13, 6, 0
13, 9, 0
13, 12, 0
3, 7, 0
3, 10, 0
3, 11, 0
3, 1, 0
6, 7, 0
6, 13, 0
8, 9, 0
8, 2, 0
5, 0, 0
5, 1, 0
11, 7, 0
11, 3, 0
11, 10, 1
11, 1, 0
10, 3, 0
10, 11, 1
10, 1, 0
7, 6, 0
7, 11, 0
7, 3, 0
12, 13, 0
12, 9, 0
12, 2, 0
4, 0, 0
2, 12, 0
2, 8, 0
2, 9, 0
1, 0, 0
1, 3, 0
1, 9, 0
1, 5, 0
1, 11, 0
1, 10, 0
9, 12, 0
9, 1, 0
9, 8, 0
9, 13, 0
9, 2, 0
