58, 57, 0
58, 34, 0
58, 47, 0
58, 50, 0
58, 24, 0
58, 21, 0
58, 42, 0
58, 49, 0
58, 18, 0
58, 11, 0
58, 48, 0
13, 33, 0
13, 25, 0
13, 31, 0
13, 26, 0
13, 35, 0
13, 6, 0
13, 2, 0
13, 59, 0
13, 54, 0
17, 0, 0
17, 19, 0
17, 55, 0
17, 30, 0
23, 33, 0
23, 25, 0
23, 31, 0
23, 12, 0
23, 16, 0
23, 54, 0
23, 35, 0
23, 59, 0
23, 22, 0
23, 9, 0
46, 4, 0
46, 28, 0
46, 51, 0
46, 38, 0
46, 40, 0
46, 44, 0
46, 41, 0
20, 40, 0
20, 6, 0
20, 28, 0
20, 26, 0
20, 56, 0
20, 31, 0
20, 59, 0
20, 38, 0
20, 44, 0
34, 58, 0
34, 57, 0
34, 49, 0
34, 50, 0
34, 11, 0
14, 21, 0
14, 48, 0
14, 36, 0
24, 58, 0
24, 27, 0
24, 57, 0
24, 49, 0
24, 11, 0
28, 20, 0
28, 4, 0
28, 59, 0
28, 51, 0
28, 46, 0
28, 40, 0
28, 38, 0
28, 41, 0
28, 44, 0
15, 7, 0
15, 53, 0
15, 9, 0
41, 4, 0
41, 28, 0
41, 51, 0
41, 38, 0
41, 40, 0
41, 46, 0
41, 44, 0
0, 7, 0
0, 17, 0
0, 32, 0
0, 52, 0
0, 19, 0
0, 55, 0
0, 39, 0
0, 30, 0
8, 60, 0
8, 45, 0
8, 43, 0
8, 10, 0
38, 20, 0
38, 4, 0
38, 28, 0
38, 56, 0
38, 51, 0
38, 35, 0
38, 46, 0
38, 40, 0
38, 41, 0
38, 44, 0
51, 4, 0
51, 28, 0
51, 38, 0
51, 40, 0
51, 46, 0
51, 41, 0
3, 18, 0
3, 29, 0
3, 48, 0
3, 36, 0
39, 0, 0
39, 7, 0
39, 55, 0
39, 32, 0
39, 30, 0
54, 13, 0
54, 23, 0
54, 12, 0
54, 16, 0
54, 6, 0
54, 35, 0
54, 59, 0
54, 33, 0
54, 31, 0
54, 2, 0
54, 22, 0
54, 9, 0
47, 58, 0
47, 57, 0
47, 29, 0
47, 18, 0
47, 49, 0
47, 48, 0
10, 60, 0
10, 45, 0
10, 8, 0
10, 40, 0
10, 37, 0
7, 0, 0
7, 53, 0
7, 15, 0
7, 55, 0
7, 5, 0
7, 30, 0
7, 52, 0
7, 32, 0
7, 19, 0
7, 1, 0
7, 39, 0
7, 9, 0
33, 12, 0
33, 13, 0
33, 54, 0
33, 23, 0
33, 31, 0
33, 35, 0
33, 16, 0
33, 6, 0
33, 2, 0
33, 22, 0
53, 7, 0
53, 9, 0
53, 15, 0
53, 1, 0
32, 0, 0
32, 7, 0
32, 39, 0
32, 30, 0
2, 33, 0
2, 13, 0
2, 54, 0
2, 26, 0
2, 31, 0
2, 35, 0
2, 6, 0
2, 4, 0
21, 58, 0
21, 14, 0
21, 29, 0
21, 18, 0
21, 48, 0
21, 36, 0
52, 0, 0
52, 7, 0
52, 19, 0
19, 0, 0
19, 7, 0
19, 17, 0
19, 52, 0
19, 55, 0
19, 30, 0
49, 58, 0
49, 34, 0
49, 4, 0
49, 43, 0
49, 47, 0
49, 57, 0
49, 24, 0
49, 27, 0
49, 40, 0
49, 11, 0
48, 58, 0
48, 3, 0
48, 14, 0
48, 29, 0
48, 21, 0
48, 42, 0
48, 18, 0
48, 47, 0
48, 36, 0
31, 13, 0
31, 23, 0
31, 12, 0
31, 16, 0
31, 6, 0
31, 2, 0
31, 59, 0
31, 20, 0
31, 33, 0
31, 25, 0
31, 26, 0
31, 35, 0
31, 54, 0
31, 22, 0
31, 9, 0
45, 60, 0
45, 8, 0
45, 43, 0
45, 10, 0
60, 45, 0
60, 43, 0
60, 37, 0
60, 8, 0
60, 40, 0
60, 10, 0
59, 13, 0
59, 28, 0
59, 26, 0
59, 23, 0
59, 16, 0
59, 6, 0
59, 40, 0
59, 44, 0
59, 20, 0
59, 12, 0
59, 25, 0
59, 31, 0
59, 54, 0
59, 22, 0
29, 21, 0
29, 3, 0
29, 48, 0
29, 47, 0
40, 57, 0
40, 28, 0
40, 51, 0
40, 60, 0
40, 59, 0
40, 44, 0
40, 46, 0
40, 20, 0
40, 4, 0
40, 41, 0
40, 37, 0
40, 49, 0
40, 38, 0
40, 10, 0
11, 58, 0
11, 34, 0
11, 49, 0
11, 24, 0
5, 7, 0
5, 55, 0
5, 30, 0
37, 60, 0
37, 40, 0
37, 10, 0
4, 2, 0
4, 38, 0
4, 28, 0
4, 56, 0
4, 51, 0
4, 35, 0
4, 26, 0
4, 49, 0
4, 40, 0
4, 46, 0
4, 41, 0
35, 33, 0
35, 23, 0
35, 13, 0
35, 25, 0
35, 26, 0
35, 31, 0
35, 2, 0
35, 6, 0
35, 38, 0
35, 54, 0
35, 4, 0
30, 0, 0
30, 7, 0
30, 17, 0
30, 32, 0
30, 19, 0
30, 55, 0
30, 39, 0
30, 5, 0
42, 58, 0
42, 18, 0
42, 50, 0
42, 57, 0
42, 48, 0
22, 33, 0
22, 54, 0
22, 23, 0
22, 31, 0
22, 12, 0
22, 16, 0
22, 25, 0
22, 59, 0
22, 26, 0
22, 9, 0
36, 21, 0
36, 3, 0
36, 14, 0
36, 48, 0
57, 58, 0
57, 34, 0
57, 50, 0
57, 24, 0
57, 18, 0
57, 42, 0
57, 49, 0
57, 40, 0
57, 47, 0
56, 20, 0
56, 4, 0
56, 38, 0
56, 26, 0
16, 33, 0
16, 54, 0
16, 31, 0
16, 23, 0
16, 12, 0
16, 25, 0
16, 59, 0
16, 22, 0
16, 9, 0
27, 49, 0
27, 43, 0
27, 24, 0
1, 7, 0
1, 53, 0
1, 9, 0
55, 0, 0
55, 7, 0
55, 17, 0
55, 19, 0
55, 39, 0
55, 5, 0
55, 30, 0
44, 20, 0
44, 28, 0
44, 59, 0
44, 40, 0
44, 38, 0
44, 41, 0
44, 46, 0
12, 33, 0
12, 54, 0
12, 23, 0
12, 31, 0
12, 16, 0
12, 25, 0
12, 59, 0
12, 22, 0
12, 9, 0
18, 58, 0
18, 57, 0
18, 3, 0
18, 21, 0
18, 42, 0
18, 48, 0
18, 47, 0
25, 12, 0
25, 13, 0
25, 23, 0
25, 31, 0
25, 35, 0
25, 16, 0
25, 6, 0
25, 59, 0
25, 26, 0
25, 22, 0
25, 9, 0
50, 58, 0
50, 42, 0
50, 57, 0
50, 34, 0
26, 20, 0
26, 13, 0
26, 25, 0
26, 31, 0
26, 56, 0
26, 2, 0
26, 6, 0
26, 35, 0
26, 59, 0
26, 4, 0
26, 22, 0
6, 20, 0
6, 33, 0
6, 13, 0
6, 54, 0
6, 26, 0
6, 31, 0
6, 2, 0
6, 25, 0
6, 35, 0
6, 59, 0
43, 60, 0
43, 45, 0
43, 8, 0
43, 49, 0
43, 27, 0
9, 7, 0
9, 12, 0
9, 54, 0
9, 23, 0
9, 31, 0
9, 16, 0
9, 25, 0
9, 53, 0
9, 15, 0
9, 22, 0
9, 1, 0
