13, 20, 0
13, 18, 0
13, 38, 0
13, 43, 0
13, 23, 0
13, 21, 0
13, 27, 0
13, 28, 0
13, 40, 0
13, 36, 0
17, 3, 0
17, 18, 0
17, 6, 0
17, 35, 0
17, 5, 0
17, 11, 0
17, 30, 0
17, 20, 0
17, 12, 0
17, 27, 0
17, 29, 0
17, 33, 0
17, 15, 0
17, 41, 0
23, 13, 0
23, 28, 0
23, 33, 0
23, 18, 0
23, 27, 0
23, 40, 0
23, 20, 0
23, 12, 0
23, 43, 0
23, 31, 0
23, 21, 0
23, 38, 0
23, 36, 0
42, 2, 0
42, 14, 0
42, 24, 0
42, 37, 0
42, 19, 0
42, 8, 0
42, 39, 0
42, 44, 0
5, 15, 0
5, 17, 0
5, 41, 0
5, 35, 0
20, 33, 0
20, 13, 0
20, 43, 0
20, 23, 0
20, 21, 0
20, 16, 0
20, 6, 0
20, 18, 0
20, 17, 0
14, 2, 0
14, 24, 0
14, 37, 0
14, 42, 0
14, 8, 0
14, 39, 0
14, 44, 0
14, 22, 0
24, 4, 0
24, 14, 0
24, 2, 0
24, 37, 0
24, 42, 0
24, 8, 0
24, 39, 0
24, 44, 0
24, 22, 0
28, 18, 0
28, 13, 0
28, 43, 0
28, 23, 0
28, 31, 0
28, 21, 0
28, 27, 0
28, 38, 0
39, 34, 0
39, 2, 0
39, 14, 0
39, 24, 0
39, 37, 0
39, 42, 0
39, 19, 0
39, 8, 0
39, 44, 0
39, 10, 0
41, 7, 0
41, 25, 0
41, 26, 0
41, 35, 0
41, 17, 0
41, 2, 0
41, 15, 0
41, 5, 0
41, 11, 0
41, 1, 0
0, 33, 0
0, 12, 0
0, 3, 0
0, 29, 0
0, 6, 0
0, 27, 0
8, 14, 0
8, 2, 0
8, 42, 0
8, 24, 0
8, 39, 0
8, 44, 0
12, 0, 0
12, 6, 0
12, 17, 0
12, 23, 0
12, 27, 0
12, 35, 0
12, 30, 0
12, 43, 0
12, 2, 0
12, 29, 0
12, 38, 0
12, 36, 0
15, 35, 0
15, 17, 0
15, 41, 0
15, 11, 0
15, 5, 0
10, 34, 0
10, 39, 0
10, 44, 0
7, 25, 0
7, 32, 0
7, 2, 0
7, 1, 0
7, 41, 0
7, 9, 0
3, 0, 0
3, 6, 0
3, 17, 0
3, 33, 0
32, 7, 0
32, 2, 0
32, 26, 0
32, 9, 0
2, 26, 0
2, 42, 0
2, 44, 0
2, 1, 0
2, 7, 0
2, 12, 0
2, 4, 0
2, 25, 0
2, 32, 0
2, 24, 0
2, 37, 0
2, 14, 0
2, 8, 0
2, 39, 0
2, 41, 0
2, 22, 0
2, 9, 0
21, 20, 0
21, 43, 0
21, 13, 0
21, 28, 0
21, 23, 0
21, 31, 0
21, 18, 0
21, 27, 0
21, 38, 0
21, 40, 0
21, 36, 0
33, 20, 0
33, 0, 0
33, 17, 0
33, 23, 0
33, 3, 0
33, 18, 0
33, 6, 0
33, 29, 0
33, 30, 0
19, 42, 0
19, 39, 0
19, 44, 0
19, 34, 0
18, 13, 0
18, 28, 0
18, 23, 0
18, 16, 0
18, 6, 0
18, 40, 0
18, 20, 0
18, 33, 0
18, 43, 0
18, 31, 0
18, 21, 0
18, 17, 0
18, 36, 0
31, 40, 0
31, 21, 0
31, 43, 0
31, 23, 0
31, 27, 0
31, 18, 0
31, 28, 0
31, 38, 0
31, 36, 0
29, 0, 0
29, 12, 0
29, 17, 0
29, 33, 0
29, 27, 0
29, 30, 0
40, 21, 0
40, 13, 0
40, 23, 0
40, 31, 0
40, 18, 0
40, 38, 0
40, 36, 0
11, 15, 0
11, 17, 0
11, 41, 0
1, 7, 0
1, 25, 0
1, 26, 0
1, 2, 0
1, 41, 0
1, 9, 0
37, 4, 0
37, 14, 0
37, 24, 0
37, 42, 0
37, 2, 0
37, 39, 0
4, 37, 0
4, 2, 0
4, 22, 0
4, 24, 0
35, 12, 0
35, 15, 0
35, 5, 0
35, 17, 0
35, 41, 0
30, 12, 0
30, 17, 0
30, 33, 0
30, 29, 0
38, 28, 0
38, 12, 0
38, 13, 0
38, 43, 0
38, 31, 0
38, 23, 0
38, 21, 0
38, 27, 0
38, 40, 0
38, 36, 0
22, 2, 0
22, 4, 0
22, 14, 0
22, 24, 0
36, 12, 0
36, 38, 0
36, 13, 0
36, 43, 0
36, 23, 0
36, 31, 0
36, 21, 0
36, 27, 0
36, 40, 0
36, 18, 0
16, 20, 0
16, 6, 0
16, 43, 0
16, 18, 0
16, 27, 0
27, 0, 0
27, 13, 0
27, 28, 0
27, 23, 0
27, 16, 0
27, 6, 0
27, 12, 0
27, 43, 0
27, 31, 0
27, 29, 0
27, 21, 0
27, 17, 0
27, 38, 0
27, 36, 0
44, 2, 0
44, 14, 0
44, 24, 0
44, 42, 0
44, 19, 0
44, 8, 0
44, 39, 0
44, 10, 0
34, 19, 0
34, 39, 0
34, 10, 0
25, 7, 0
25, 2, 0
25, 41, 0
25, 1, 0
26, 2, 0
26, 9, 0
26, 41, 0
26, 32, 0
26, 1, 0
6, 20, 0
6, 0, 0
6, 43, 0
6, 3, 0
6, 16, 0
6, 33, 0
6, 12, 0
6, 18, 0
6, 17, 0
6, 27, 0
43, 13, 0
43, 28, 0
43, 23, 0
43, 16, 0
43, 6, 0
43, 20, 0
43, 12, 0
43, 31, 0
43, 27, 0
43, 21, 0
43, 38, 0
43, 18, 0
43, 36, 0
9, 7, 0
9, 2, 0
9, 26, 0
9, 32, 0
9, 1, 0
