0, 16, 0
0, 3, 0
0, 11, 0
0, 2, 0
13, 16, 0
13, 12, 0
13, 4, 0
13, 14, 0
3, 0, 0
3, 11, 0
3, 2, 1
16, 0, 0
16, 13, 0
16, 6, 0
16, 1, 0
16, 5, 0
16, 11, 0
16, 10, 0
16, 7, 0
16, 12, 0
16, 4, 0
16, 2, 0
16, 8, 0
16, 9, 0
6, 16, 0
6, 5, 0
6, 10, 0
8, 16, 0
8, 11, 0
8, 10, 0
5, 16, 0
5, 6, 0
5, 7, 0
5, 1, 0
11, 0, 0
11, 16, 0
11, 2, 0
11, 8, 0
11, 3, 0
10, 16, 0
10, 6, 0
10, 8, 0
7, 16, 0
7, 15, 0
7, 5, 0
7, 1, 0
12, 16, 0
12, 13, 0
12, 9, 0
4, 16, 0
4, 13, 0
4, 14, 0
14, 13, 0
14, 4, 0
2, 0, 0
2, 3, 1
2, 16, 0
2, 11, 0
1, 7, 0
1, 16, 0
1, 5, 0
15, 7, 0
15, 9, 0
9, 16, 0
9, 12, 0
9, 15, 0
