2, 27, 0
2, 28, 0
2, 23, 0
2, 9, 0
13, 27, 0
13, 9, 0
13, 3, 0
13, 23, 0
13, 29, 0
17, 18, 0
17, 20, 0
17, 1, 0
17, 15, 0
17, 30, 0
23, 27, 0
23, 13, 0
23, 28, 0
23, 9, 0
23, 2, 0
29, 0, 0
29, 3, 0
29, 13, 0
29, 5, 0
5, 27, 0
5, 29, 0
11, 16, 0
11, 14, 0
1, 20, 0
1, 15, 0
1, 19, 0
1, 17, 0
1, 30, 0
20, 17, 0
20, 1, 0
20, 18, 0
20, 19, 0
20, 8, 0
20, 15, 0
20, 10, 0
4, 12, 0
4, 19, 0
4, 28, 0
4, 26, 0
14, 21, 0
14, 7, 0
14, 22, 0
14, 11, 0
14, 3, 0
24, 16, 0
24, 0, 0
24, 25, 1
24, 3, 0
28, 12, 0
28, 4, 0
28, 23, 0
28, 6, 0
28, 27, 0
28, 19, 0
28, 2, 0
28, 15, 0
28, 9, 0
30, 15, 0
30, 17, 0
30, 1, 0
8, 20, 0
8, 18, 0
8, 15, 0
8, 10, 0
15, 20, 0
15, 28, 0
15, 1, 0
15, 26, 0
15, 18, 0
15, 17, 0
15, 19, 0
15, 8, 0
15, 10, 0
15, 30, 0
22, 21, 0
22, 7, 0
22, 14, 0
0, 16, 0
0, 3, 0
0, 24, 0
0, 25, 0
0, 29, 0
12, 6, 0
12, 4, 0
12, 28, 0
16, 0, 0
16, 3, 0
16, 25, 0
16, 11, 0
16, 24, 0
6, 27, 0
6, 19, 0
6, 9, 0
6, 28, 0
6, 12, 0
10, 20, 0
10, 8, 0
10, 15, 0
7, 21, 0
7, 14, 0
7, 22, 0
3, 0, 0
3, 13, 0
3, 14, 0
3, 24, 0
3, 16, 0
3, 27, 0
3, 29, 0
25, 0, 0
25, 16, 0
25, 24, 1
26, 4, 0
26, 15, 0
27, 3, 0
27, 13, 0
27, 28, 0
27, 23, 0
27, 2, 0
27, 6, 0
27, 19, 0
27, 5, 0
27, 9, 0
21, 7, 0
21, 14, 0
21, 22, 0
19, 20, 0
19, 4, 0
19, 28, 0
19, 6, 0
19, 27, 0
19, 15, 0
19, 1, 0
18, 20, 0
18, 15, 0
18, 8, 0
18, 17, 0
9, 13, 0
9, 28, 0
9, 23, 0
9, 2, 0
9, 6, 0
9, 27, 0
