58, 13, 0
58, 17, 0
58, 23, 0
58, 63, 0
58, 42, 0
58, 46, 0
58, 20, 0
58, 14, 0
58, 24, 0
58, 28, 0
58, 39, 0
58, 41, 0
58, 0, 0
58, 8, 0
58, 62, 0
58, 51, 0
58, 21, 0
58, 15, 0
58, 64, 0
58, 10, 0
58, 7, 0
58, 3, 0
58, 32, 0
58, 2, 0
58, 37, 0
58, 33, 0
58, 19, 0
58, 49, 0
58, 48, 0
58, 31, 0
58, 60, 0
58, 59, 0
58, 29, 0
58, 40, 0
58, 11, 0
58, 5, 0
58, 61, 0
58, 55, 0
58, 4, 0
58, 30, 0
58, 38, 0
58, 22, 0
58, 36, 0
58, 57, 0
58, 56, 0
58, 18, 0
58, 27, 0
58, 1, 0
58, 53, 0
58, 12, 0
58, 34, 0
58, 25, 0
58, 50, 0
58, 6, 0
58, 43, 0
58, 9, 0
13, 58, 0
13, 12, 0
13, 2, 0
13, 19, 0
13, 5, 0
13, 41, 0
17, 58, 0
17, 0, 0
17, 25, 0
17, 27, 0
17, 42, 0
17, 18, 0
17, 6, 0
17, 8, 0
17, 10, 0
17, 9, 0
23, 63, 0
23, 58, 0
23, 64, 0
63, 58, 0
63, 12, 0
63, 50, 0
63, 23, 0
63, 19, 0
63, 64, 0
42, 58, 0
42, 0, 0
42, 17, 0
42, 51, 0
42, 6, 0
42, 46, 0
42, 47, 0
42, 10, 0
42, 34, 0
42, 54, 0
42, 21, 0
42, 8, 0
42, 9, 0
46, 58, 0
46, 54, 0
46, 51, 0
46, 21, 0
46, 42, 0
46, 8, 0
46, 10, 0
46, 47, 1
46, 9, 0
20, 58, 0
20, 33, 0
20, 19, 0
20, 48, 0
20, 5, 0
34, 58, 0
34, 52, 0
34, 31, 0
34, 18, 0
34, 42, 0
34, 41, 0
14, 58, 0
14, 57, 0
14, 52, 0
14, 41, 0
24, 0, 0
24, 58, 0
24, 54, 0
24, 26, 0
24, 35, 0
24, 6, 0
24, 8, 0
24, 25, 0
28, 61, 0
28, 58, 0
28, 64, 0
28, 50, 0
15, 58, 0
15, 59, 0
15, 55, 0
15, 38, 0
15, 36, 0
41, 58, 0
41, 57, 0
41, 13, 0
41, 52, 0
41, 50, 0
41, 33, 0
41, 34, 0
41, 14, 0
41, 19, 0
41, 8, 0
41, 5, 0
0, 58, 0
0, 45, 0
0, 17, 0
0, 16, 0
0, 6, 0
0, 44, 0
0, 10, 0
0, 54, 0
0, 26, 0
0, 24, 0
0, 25, 0
0, 8, 0
0, 42, 0
0, 9, 0
37, 58, 0
37, 49, 0
37, 30, 0
38, 58, 0
38, 53, 0
38, 43, 0
38, 2, 0
38, 60, 0
38, 15, 0
38, 55, 0
38, 59, 0
62, 58, 0
62, 7, 0
62, 3, 0
62, 2, 0
62, 61, 0
62, 39, 0
62, 11, 0
51, 58, 0
51, 49, 0
51, 54, 0
51, 35, 0
51, 21, 0
51, 42, 0
51, 8, 0
51, 59, 0
51, 46, 0
51, 22, 0
51, 30, 0
33, 20, 0
33, 58, 0
33, 57, 0
33, 2, 0
33, 41, 0
33, 19, 0
33, 48, 0
33, 5, 0
39, 58, 0
39, 3, 0
39, 62, 0
54, 0, 0
54, 51, 0
54, 6, 0
54, 24, 0
54, 44, 0
54, 46, 0
54, 25, 0
54, 26, 0
54, 35, 0
54, 21, 0
54, 42, 0
54, 8, 0
54, 10, 0
54, 22, 0
54, 9, 0
47, 21, 0
47, 42, 0
47, 9, 0
47, 46, 1
47, 10, 0
10, 0, 0
10, 58, 0
10, 17, 0
10, 21, 0
10, 16, 0
10, 42, 0
10, 8, 0
10, 54, 0
10, 46, 0
10, 47, 0
10, 9, 1
7, 58, 0
7, 62, 0
7, 11, 0
7, 2, 0
3, 61, 0
3, 58, 0
3, 39, 0
3, 62, 0
3, 2, 0
53, 58, 0
53, 56, 0
53, 60, 0
53, 59, 0
53, 55, 0
53, 38, 0
32, 21, 0
32, 58, 0
32, 40, 0
32, 29, 0
2, 58, 0
2, 57, 0
2, 13, 0
2, 62, 0
2, 33, 0
2, 38, 0
2, 59, 0
2, 5, 0
2, 11, 0
2, 7, 0
2, 3, 0
2, 61, 0
2, 64, 0
21, 58, 0
21, 51, 0
21, 16, 0
21, 35, 0
21, 40, 0
21, 46, 0
21, 47, 0
21, 10, 0
21, 54, 0
21, 32, 0
21, 29, 0
21, 42, 0
21, 8, 0
21, 22, 0
21, 9, 0
25, 58, 0
25, 0, 0
25, 45, 0
25, 17, 0
25, 54, 0
25, 26, 1
25, 35, 0
25, 6, 0
25, 8, 0
25, 24, 0
25, 44, 0
19, 58, 0
19, 12, 0
19, 13, 0
19, 50, 0
19, 33, 0
19, 63, 0
19, 20, 0
19, 64, 0
19, 41, 0
19, 5, 0
49, 58, 0
49, 55, 0
49, 51, 0
49, 37, 0
49, 8, 0
49, 59, 0
49, 36, 0
48, 20, 0
48, 58, 0
48, 5, 0
48, 33, 0
31, 58, 0
31, 34, 0
31, 18, 0
45, 0, 0
45, 8, 0
45, 25, 0
45, 44, 1
45, 26, 0
60, 58, 0
60, 38, 0
60, 53, 0
60, 43, 0
60, 55, 0
59, 58, 0
59, 53, 0
59, 51, 0
59, 2, 0
59, 38, 0
59, 49, 0
59, 15, 0
59, 11, 0
59, 36, 0
29, 58, 0
29, 4, 0
29, 32, 0
29, 21, 0
29, 30, 0
29, 8, 0
29, 40, 0
29, 1, 0
40, 58, 0
40, 4, 0
40, 32, 0
40, 29, 0
40, 21, 0
40, 8, 0
40, 30, 0
11, 58, 0
11, 7, 0
11, 62, 0
11, 56, 0
11, 2, 0
11, 59, 0
5, 20, 0
5, 58, 0
5, 13, 0
5, 33, 0
5, 19, 0
5, 2, 0
5, 41, 0
5, 48, 0
61, 58, 0
61, 3, 0
61, 28, 0
61, 62, 0
61, 2, 0
61, 50, 0
4, 58, 0
4, 1, 0
4, 30, 0
4, 40, 0
4, 29, 0
35, 25, 0
35, 54, 0
35, 51, 0
35, 24, 0
35, 21, 0
35, 6, 0
35, 8, 0
35, 44, 0
35, 22, 0
8, 58, 0
8, 17, 0
8, 24, 0
8, 40, 0
8, 46, 0
8, 35, 0
8, 42, 0
8, 41, 0
8, 22, 0
8, 0, 0
8, 45, 0
8, 51, 0
8, 16, 0
8, 6, 0
8, 55, 0
8, 44, 0
8, 10, 0
8, 54, 0
8, 26, 0
8, 29, 0
8, 21, 0
8, 25, 0
8, 49, 0
8, 9, 0
30, 58, 0
30, 4, 0
30, 51, 0
30, 29, 0
30, 37, 0
30, 40, 0
30, 1, 0
64, 58, 0
64, 28, 0
64, 50, 0
64, 23, 0
64, 2, 0
64, 63, 0
64, 19, 0
22, 58, 0
22, 54, 0
22, 51, 0
22, 35, 0
22, 21, 0
22, 8, 0
36, 58, 0
36, 59, 0
36, 49, 0
36, 15, 0
36, 55, 0
57, 58, 0
57, 33, 0
57, 14, 0
57, 2, 0
57, 52, 0
57, 41, 0
56, 58, 0
56, 53, 0
56, 11, 0
16, 0, 0
16, 21, 0
16, 8, 0
16, 9, 0
16, 10, 0
27, 58, 0
27, 18, 0
27, 17, 0
1, 58, 0
1, 30, 0
1, 4, 0
1, 29, 0
55, 58, 0
55, 53, 0
55, 60, 0
55, 15, 0
55, 8, 0
55, 49, 0
55, 38, 0
55, 36, 0
44, 0, 0
44, 45, 1
44, 25, 0
44, 26, 0
44, 35, 0
44, 6, 0
44, 8, 0
44, 54, 0
12, 63, 0
12, 58, 0
12, 19, 0
12, 13, 0
12, 50, 0
18, 58, 0
18, 27, 0
18, 17, 0
18, 31, 0
18, 34, 0
52, 57, 0
52, 34, 0
52, 14, 0
52, 41, 0
50, 58, 0
50, 63, 0
50, 28, 0
50, 12, 0
50, 61, 0
50, 19, 0
50, 64, 0
50, 41, 0
26, 0, 0
26, 45, 0
26, 25, 1
26, 24, 0
26, 6, 0
26, 8, 0
26, 54, 0
26, 44, 0
6, 58, 0
6, 0, 0
6, 17, 0
6, 35, 0
6, 44, 0
6, 25, 0
6, 54, 0
6, 26, 0
6, 24, 0
6, 42, 0
6, 8, 0
6, 9, 0
43, 60, 0
43, 58, 0
43, 38, 0
9, 58, 0
9, 0, 0
9, 17, 0
9, 16, 0
9, 6, 0
9, 46, 0
9, 47, 0
9, 10, 1
9, 54, 0
9, 21, 0
9, 42, 0
9, 8, 0
