0, 7, 0
0, 12, 0
0, 4, 0
0, 13, 0
0, 3, 0
0, 6, 0
0, 2, 0
0, 5, 0
0, 11, 0
0, 10, 0
13, 0, 0
13, 5, 0
13, 2, 0
3, 0, 0
3, 8, 0
3, 9, 0
3, 5, 0
3, 1, 0
6, 0, 0
6, 12, 0
6, 4, 0
6, 7, 0
6, 11, 0
8, 3, 0
8, 9, 1
8, 5, 0
8, 1, 0
5, 0, 0
5, 3, 0
5, 13, 0
5, 1, 0
5, 8, 0
5, 11, 0
5, 9, 0
11, 0, 0
11, 12, 0
11, 6, 0
11, 5, 0
11, 10, 0
10, 0, 0
10, 12, 0
10, 11, 0
10, 2, 0
7, 0, 0
7, 12, 0
7, 4, 0
7, 6, 0
12, 0, 0
12, 7, 0
12, 4, 0
12, 6, 0
12, 11, 0
12, 10, 0
4, 0, 0
4, 6, 0
4, 7, 0
4, 12, 0
2, 0, 0
2, 13, 0
2, 10, 0
1, 3, 0
1, 8, 0
1, 5, 0
1, 9, 0
9, 3, 0
9, 8, 1
9, 5, 0
9, 1, 0
