12, 0, 0
12, 18, 0
12, 1, 0
12, 8, 0
12, 11, 0
12, 30, 0
13, 7, 0
13, 6, 0
13, 24, 0
17, 0, 0
17, 15, 0
17, 30, 0
26, 27, 0
26, 14, 0
26, 24, 0
23, 21, 1
23, 16, 0
23, 22, 1
23, 10, 0
2, 16, 0
2, 15, 0
2, 10, 0
5, 0, 0
5, 30, 0
5, 8, 0
5, 31, 0
5, 1, 0
11, 18, 0
11, 12, 0
11, 19, 0
11, 8, 0
11, 29, 0
1, 12, 0
1, 5, 0
20, 28, 0
4, 3, 1
4, 19, 0
4, 27, 0
14, 26, 0
14, 24, 0
24, 6, 0
24, 13, 0
24, 14, 0
24, 26, 0
28, 20, 0
28, 25, 0
30, 0, 0
30, 12, 0
30, 17, 0
30, 5, 0
30, 29, 0
8, 0, 0
8, 12, 0
8, 29, 0
8, 18, 0
8, 5, 0
8, 11, 0
15, 0, 0
15, 16, 0
15, 17, 0
15, 2, 0
22, 16, 0
22, 23, 1
22, 10, 0
0, 12, 0
0, 17, 0
0, 31, 0
0, 29, 0
0, 16, 0
0, 8, 0
0, 15, 0
0, 5, 0
0, 30, 0
3, 27, 0
3, 19, 0
3, 4, 1
16, 0, 0
16, 31, 0
16, 23, 0
16, 2, 0
16, 21, 0
16, 15, 0
16, 22, 0
16, 10, 0
6, 7, 0
6, 13, 0
6, 25, 0
6, 24, 0
6, 9, 0
27, 3, 0
27, 19, 0
27, 4, 0
27, 26, 0
7, 6, 0
7, 13, 0
18, 12, 0
18, 19, 0
18, 8, 0
18, 11, 0
18, 29, 0
25, 6, 0
25, 28, 0
25, 9, 0
31, 0, 0
31, 16, 0
31, 5, 0
31, 29, 0
29, 0, 0
29, 31, 0
29, 18, 0
29, 19, 0
29, 8, 0
29, 11, 0
29, 30, 0
21, 16, 0
21, 23, 1
21, 10, 0
19, 3, 0
19, 4, 0
19, 29, 0
19, 18, 0
19, 27, 0
19, 11, 0
10, 16, 0
10, 21, 0
10, 22, 0
10, 23, 0
10, 2, 0
9, 6, 0
9, 25, 0
