13, 12, 0
13, 17, 0
13, 32, 0
13, 33, 0
13, 6, 0
13, 8, 0
13, 5, 0
13, 22, 0
17, 12, 0
17, 13, 0
17, 32, 0
17, 24, 0
17, 6, 0
17, 8, 0
31, 6, 0
31, 15, 0
31, 32, 0
31, 24, 0
23, 20, 0
23, 1, 0
23, 9, 0
10, 34, 0
10, 4, 0
10, 25, 0
10, 26, 0
10, 3, 0
10, 18, 0
10, 19, 0
10, 22, 0
10, 30, 0
2, 0, 0
2, 29, 0
5, 21, 0
5, 6, 0
5, 13, 0
5, 22, 0
5, 33, 0
11, 0, 0
11, 3, 0
11, 14, 0
11, 12, 0
11, 18, 0
11, 19, 0
11, 34, 0
1, 7, 0
1, 20, 0
1, 23, 0
1, 26, 0
1, 16, 0
1, 9, 0
20, 23, 0
20, 1, 0
4, 12, 0
4, 25, 0
4, 26, 0
4, 18, 0
4, 27, 0
4, 10, 0
4, 30, 0
14, 34, 0
14, 19, 0
14, 28, 0
14, 11, 0
14, 3, 0
24, 6, 0
24, 17, 0
24, 31, 0
24, 32, 0
24, 12, 0
28, 0, 0
28, 34, 0
28, 14, 0
28, 3, 0
28, 29, 0
28, 22, 0
30, 12, 0
30, 4, 0
30, 25, 0
30, 26, 0
30, 18, 0
30, 27, 0
30, 22, 0
30, 10, 0
8, 13, 0
8, 17, 0
15, 31, 0
22, 0, 0
22, 3, 0
22, 13, 0
22, 28, 0
22, 29, 0
22, 6, 0
22, 30, 0
22, 34, 0
22, 5, 0
22, 10, 0
0, 3, 0
0, 28, 0
0, 11, 0
0, 2, 0
0, 29, 0
0, 22, 0
3, 0, 0
3, 34, 0
3, 28, 0
3, 11, 0
3, 14, 0
3, 19, 0
3, 22, 0
3, 10, 0
34, 3, 0
34, 28, 0
34, 22, 0
34, 18, 0
34, 14, 0
34, 19, 0
34, 11, 0
34, 10, 0
16, 7, 0
16, 9, 0
16, 26, 0
16, 1, 0
6, 33, 0
6, 13, 0
6, 17, 0
6, 31, 0
6, 32, 0
6, 24, 0
6, 5, 0
6, 22, 0
27, 12, 0
27, 4, 0
27, 25, 0
27, 26, 1
27, 30, 0
7, 16, 0
7, 9, 0
7, 26, 0
7, 1, 0
12, 4, 0
12, 25, 0
12, 26, 0
12, 24, 0
12, 18, 0
12, 27, 0
12, 13, 0
12, 17, 0
12, 11, 0
12, 30, 0
25, 12, 0
25, 4, 0
25, 26, 0
25, 18, 0
25, 27, 0
25, 30, 0
25, 10, 0
32, 33, 1
32, 13, 0
32, 17, 0
32, 31, 0
32, 24, 0
32, 6, 0
29, 21, 0
29, 0, 0
29, 28, 0
29, 22, 0
29, 2, 0
21, 5, 0
21, 29, 0
33, 6, 0
33, 13, 0
33, 5, 0
33, 32, 1
19, 3, 0
19, 14, 0
19, 34, 0
19, 18, 0
19, 11, 0
19, 10, 0
26, 7, 0
26, 12, 0
26, 4, 0
26, 25, 0
26, 9, 0
26, 16, 0
26, 27, 1
26, 1, 0
26, 10, 0
26, 18, 0
26, 30, 0
18, 34, 0
18, 4, 0
18, 25, 0
18, 26, 0
18, 12, 0
18, 19, 0
18, 30, 0
18, 11, 0
18, 10, 0
9, 7, 0
9, 16, 0
9, 26, 0
9, 23, 0
9, 1, 0
