58, 54, 0
58, 62, 0
58, 66, 0
58, 64, 0
58, 46, 0
58, 11, 0
58, 10, 0
13, 67, 0
13, 14, 0
13, 50, 0
13, 40, 0
13, 47, 0
13, 1, 0
17, 7, 0
17, 33, 0
17, 28, 0
17, 2, 0
17, 18, 1
17, 19, 0
17, 53, 0
17, 44, 0
17, 22, 0
17, 65, 0
23, 20, 0
23, 27, 0
23, 47, 0
23, 32, 0
23, 35, 0
63, 50, 0
63, 27, 0
63, 40, 0
63, 46, 0
63, 47, 0
63, 1, 0
24, 28, 0
24, 62, 0
24, 56, 0
24, 12, 0
24, 53, 0
24, 46, 0
24, 30, 0
24, 34, 0
24, 65, 0
24, 31, 0
24, 66, 0
24, 61, 0
24, 33, 0
24, 8, 0
24, 38, 0
24, 22, 0
5, 7, 0
5, 4, 1
5, 48, 0
5, 47, 0
5, 35, 0
65, 33, 0
65, 28, 0
65, 24, 0
65, 18, 0
65, 17, 0
65, 19, 0
65, 34, 0
65, 44, 0
65, 22, 0
20, 23, 0
20, 32, 0
20, 35, 0
20, 55, 0
20, 44, 0
20, 47, 0
34, 8, 0
34, 62, 0
34, 56, 0
34, 21, 0
34, 53, 0
34, 46, 0
34, 65, 0
34, 66, 0
34, 12, 0
34, 25, 0
34, 31, 0
34, 24, 0
34, 61, 0
34, 30, 0
34, 38, 0
34, 22, 0
34, 9, 0
14, 67, 0
14, 13, 0
14, 46, 0
66, 58, 0
66, 0, 0
66, 29, 0
66, 19, 0
66, 34, 0
66, 64, 0
66, 68, 0
66, 24, 0
66, 46, 0
42, 45, 0
42, 16, 0
42, 61, 0
42, 26, 0
42, 31, 0
42, 37, 0
15, 57, 0
15, 61, 0
15, 39, 0
15, 56, 0
41, 8, 0
41, 30, 0
0, 66, 0
0, 68, 0
0, 29, 0
0, 19, 0
0, 53, 0
0, 46, 0
68, 0, 0
68, 19, 0
68, 53, 0
68, 66, 0
68, 29, 0
62, 58, 0
62, 3, 0
62, 43, 0
62, 24, 0
62, 54, 0
62, 34, 0
62, 46, 0
62, 11, 0
62, 10, 0
51, 7, 0
51, 49, 0
51, 2, 0
51, 46, 0
51, 55, 0
51, 48, 0
51, 22, 0
51, 44, 0
33, 55, 0
33, 28, 0
33, 24, 0
33, 17, 0
33, 19, 0
33, 53, 0
33, 44, 0
33, 22, 0
33, 65, 0
6, 60, 0
6, 12, 0
6, 52, 0
6, 31, 0
64, 58, 0
64, 19, 0
64, 10, 0
64, 66, 0
47, 7, 0
47, 13, 0
47, 23, 0
47, 63, 0
47, 27, 0
47, 55, 0
47, 40, 0
47, 5, 0
47, 20, 0
47, 4, 0
47, 32, 0
47, 35, 0
47, 2, 0
47, 49, 0
47, 48, 0
47, 22, 0
10, 58, 0
10, 64, 0
10, 19, 0
10, 54, 0
10, 62, 0
7, 55, 0
7, 17, 0
7, 51, 0
7, 2, 0
7, 44, 0
7, 47, 0
7, 46, 0
7, 4, 0
7, 35, 0
7, 19, 0
7, 5, 0
7, 48, 0
7, 22, 0
3, 43, 0
3, 8, 0
3, 59, 0
3, 62, 0
53, 0, 0
53, 68, 0
53, 17, 0
53, 33, 0
53, 34, 0
53, 28, 0
53, 19, 0
53, 24, 0
53, 44, 0
32, 20, 0
32, 23, 0
32, 35, 0
32, 27, 0
32, 46, 0
32, 47, 0
2, 7, 0
2, 17, 0
2, 47, 0
2, 51, 0
2, 19, 0
2, 55, 0
2, 44, 0
2, 22, 0
2, 48, 0
37, 16, 0
37, 42, 0
37, 19, 0
37, 61, 0
37, 45, 0
52, 60, 0
52, 6, 0
52, 31, 0
19, 17, 0
19, 29, 0
19, 11, 0
19, 65, 0
19, 66, 0
19, 28, 0
19, 8, 0
19, 64, 0
19, 22, 0
19, 0, 0
19, 68, 0
19, 16, 0
19, 53, 0
19, 44, 0
19, 10, 0
19, 7, 0
19, 33, 0
19, 25, 0
19, 26, 0
19, 2, 0
19, 37, 0
19, 54, 0
19, 18, 0
19, 9, 0
49, 55, 0
49, 47, 0
49, 51, 0
49, 48, 1
48, 7, 0
48, 35, 0
48, 55, 0
48, 22, 0
48, 51, 0
48, 2, 0
48, 49, 1
48, 5, 0
48, 47, 0
31, 45, 0
31, 52, 0
31, 34, 0
31, 60, 0
31, 6, 0
31, 24, 0
31, 42, 0
28, 33, 0
28, 17, 0
28, 24, 0
28, 19, 0
28, 53, 0
28, 65, 0
45, 37, 0
45, 42, 0
45, 31, 0
60, 6, 0
60, 52, 0
60, 31, 0
60, 12, 0
40, 63, 0
40, 13, 0
40, 50, 0
40, 47, 0
29, 0, 0
29, 68, 0
29, 19, 0
29, 66, 0
59, 3, 0
59, 8, 0
59, 43, 0
11, 58, 0
11, 19, 0
11, 54, 0
11, 62, 0
46, 58, 0
46, 12, 0
46, 35, 0
46, 63, 0
46, 24, 0
46, 1, 0
46, 61, 0
46, 4, 0
46, 14, 0
46, 66, 0
46, 30, 0
46, 38, 0
46, 22, 0
46, 36, 0
46, 0, 0
46, 8, 0
46, 62, 0
46, 51, 0
46, 67, 0
46, 27, 0
46, 56, 0
46, 7, 0
46, 34, 0
46, 32, 0
46, 21, 0
46, 9, 0
61, 16, 0
61, 26, 0
61, 24, 0
61, 37, 0
61, 42, 0
61, 39, 0
61, 34, 0
61, 15, 0
61, 46, 0
4, 7, 0
4, 35, 0
4, 46, 0
4, 47, 0
4, 5, 1
39, 57, 0
39, 61, 0
39, 15, 0
39, 56, 0
35, 20, 0
35, 7, 0
35, 4, 0
35, 32, 0
35, 23, 0
35, 44, 0
35, 55, 0
35, 48, 0
35, 46, 0
35, 47, 0
35, 5, 0
30, 46, 0
30, 34, 0
30, 9, 0
30, 41, 0
30, 24, 0
8, 3, 0
8, 43, 0
8, 24, 0
8, 19, 0
8, 34, 0
8, 59, 0
8, 41, 0
8, 46, 0
38, 34, 0
38, 36, 0
38, 46, 0
38, 56, 0
38, 24, 0
22, 55, 0
22, 17, 0
22, 51, 0
22, 34, 0
22, 2, 0
22, 44, 0
22, 47, 0
22, 46, 0
22, 7, 0
22, 33, 0
22, 24, 0
22, 19, 0
22, 65, 0
22, 48, 0
36, 38, 0
36, 46, 0
25, 21, 0
25, 12, 0
25, 19, 0
25, 9, 0
25, 34, 0
57, 15, 0
57, 39, 0
57, 56, 0
56, 57, 0
56, 34, 0
56, 24, 0
56, 39, 0
56, 15, 0
56, 38, 0
56, 46, 0
16, 37, 0
16, 61, 0
16, 19, 0
16, 26, 0
16, 42, 0
27, 63, 0
27, 32, 0
27, 46, 0
27, 23, 0
27, 47, 0
1, 63, 0
1, 67, 0
1, 13, 0
1, 46, 0
1, 50, 0
55, 20, 0
55, 33, 0
55, 7, 0
55, 22, 0
55, 51, 0
55, 35, 0
55, 2, 0
55, 49, 0
55, 48, 0
55, 47, 0
55, 44, 0
44, 20, 0
44, 55, 0
44, 17, 0
44, 51, 0
44, 18, 0
44, 53, 0
44, 65, 0
44, 7, 0
44, 33, 0
44, 35, 0
44, 2, 0
44, 19, 0
44, 22, 0
12, 34, 0
12, 25, 0
12, 24, 0
12, 21, 0
12, 6, 0
12, 60, 0
12, 46, 0
18, 19, 0
18, 17, 1
18, 44, 0
18, 65, 0
21, 12, 0
21, 9, 0
21, 25, 0
21, 46, 0
21, 34, 0
54, 58, 0
54, 19, 0
54, 62, 0
54, 11, 0
54, 10, 0
50, 63, 0
50, 13, 0
50, 40, 0
50, 1, 0
26, 61, 0
26, 42, 0
26, 19, 0
26, 16, 0
43, 3, 0
43, 8, 0
43, 59, 0
43, 62, 0
67, 13, 0
67, 14, 0
67, 46, 0
67, 1, 0
9, 34, 0
9, 25, 0
9, 21, 0
9, 19, 0
9, 46, 0
9, 30, 0
