13, 7, 0
13, 3, 0
13, 4, 0
13, 17, 0
13, 23, 0
13, 6, 0
13, 10, 0
17, 7, 0
17, 13, 0
17, 4, 0
17, 21, 0
17, 6, 0
17, 15, 0
17, 10, 0
23, 7, 0
23, 3, 0
23, 6, 0
23, 13, 0
23, 10, 0
5, 16, 0
5, 20, 0
5, 4, 0
5, 9, 0
5, 2, 0
11, 18, 0
11, 12, 0
11, 22, 0
11, 1, 0
1, 18, 0
1, 12, 0
1, 19, 0
1, 22, 0
1, 11, 0
20, 2, 0
20, 4, 0
20, 5, 0
20, 9, 0
4, 20, 0
4, 13, 0
4, 14, 0
4, 2, 0
4, 21, 0
4, 17, 0
4, 10, 0
4, 15, 0
4, 5, 0
4, 9, 0
14, 21, 0
14, 4, 0
14, 15, 0
24, 16, 0
24, 0, 0
24, 25, 1
8, 19, 0
15, 21, 0
15, 14, 0
15, 4, 0
15, 17, 0
15, 10, 0
22, 18, 0
22, 0, 0
22, 19, 0
22, 11, 0
22, 1, 0
0, 12, 0
0, 25, 0
0, 24, 0
0, 16, 0
0, 18, 0
0, 22, 0
3, 13, 0
3, 23, 0
3, 10, 0
16, 0, 0
16, 25, 0
16, 2, 0
16, 24, 0
16, 5, 0
16, 9, 0
6, 7, 0
6, 13, 0
6, 17, 0
6, 23, 0
10, 7, 0
10, 3, 0
10, 13, 0
10, 17, 0
10, 23, 0
10, 4, 0
10, 15, 0
7, 13, 0
7, 17, 0
7, 23, 0
7, 21, 0
7, 6, 0
7, 10, 0
12, 0, 0
12, 18, 0
12, 11, 0
12, 1, 0
25, 0, 0
25, 16, 0
25, 24, 1
2, 20, 0
2, 16, 0
2, 4, 0
2, 5, 0
2, 9, 0
21, 7, 0
21, 15, 0
21, 4, 0
21, 14, 0
21, 17, 0
19, 18, 0
19, 8, 0
19, 22, 0
19, 1, 0
18, 0, 0
18, 12, 0
18, 11, 0
18, 19, 0
18, 22, 0
18, 1, 0
9, 20, 0
9, 16, 0
9, 4, 0
9, 5, 0
9, 2, 0
