13, 0, 0
13, 12, 0
13, 14, 1
13, 3, 0
13, 2, 0
13, 8, 0
13, 15, 0
13, 11, 0
17, 1, 0
17, 16, 1
17, 6, 0
17, 19, 0
17, 8, 0
17, 15, 0
17, 5, 0
17, 22, 0
17, 10, 0
23, 20, 0
23, 3, 0
23, 10, 0
5, 0, 0
5, 18, 0
5, 4, 0
5, 17, 0
5, 16, 0
5, 6, 1
5, 19, 0
5, 10, 0
5, 15, 0
5, 1, 0
11, 0, 0
11, 12, 1
11, 13, 0
11, 14, 0
11, 2, 0
11, 8, 0
11, 15, 0
1, 0, 0
1, 18, 0
1, 4, 0
1, 17, 0
1, 21, 0
1, 6, 0
1, 5, 0
1, 22, 0
1, 10, 0
20, 18, 0
20, 3, 0
20, 0, 0
20, 23, 0
20, 10, 0
4, 18, 0
4, 21, 0
4, 6, 0
4, 1, 0
4, 5, 0
4, 22, 0
4, 10, 0
14, 0, 0
14, 12, 0
14, 13, 1
14, 2, 0
14, 8, 0
14, 11, 0
8, 0, 0
8, 3, 0
8, 13, 0
8, 14, 0
8, 2, 0
8, 18, 0
8, 17, 0
8, 12, 0
8, 15, 0
8, 11, 0
8, 10, 0
15, 0, 0
15, 13, 0
15, 17, 0
15, 18, 0
15, 6, 0
15, 5, 0
15, 11, 0
15, 10, 0
15, 12, 0
15, 2, 0
15, 19, 0
15, 8, 0
22, 7, 0
22, 21, 1
22, 4, 0
22, 17, 0
22, 16, 0
22, 6, 0
22, 19, 0
22, 10, 0
22, 18, 0
22, 1, 0
0, 13, 0
0, 3, 0
0, 18, 0
0, 6, 0
0, 1, 0
0, 5, 0
0, 11, 0
0, 10, 0
0, 20, 0
0, 12, 0
0, 14, 0
0, 2, 0
0, 8, 0
0, 15, 0
3, 20, 0
3, 0, 0
3, 13, 0
3, 23, 0
3, 2, 0
3, 8, 0
3, 10, 0
16, 17, 1
16, 6, 0
16, 19, 0
16, 5, 0
16, 22, 0
16, 10, 0
6, 0, 0
6, 4, 0
6, 17, 0
6, 16, 0
6, 19, 0
6, 10, 0
6, 15, 0
6, 5, 1
6, 22, 0
6, 1, 0
10, 0, 0
10, 17, 0
10, 23, 0
10, 12, 0
10, 16, 0
10, 6, 0
10, 5, 0
10, 1, 0
10, 20, 0
10, 3, 0
10, 4, 0
10, 21, 0
10, 19, 0
10, 8, 0
10, 15, 0
10, 18, 0
10, 22, 0
7, 18, 0
7, 22, 0
7, 9, 0
12, 0, 0
12, 13, 0
12, 14, 0
12, 2, 0
12, 8, 0
12, 15, 0
12, 11, 1
12, 10, 0
2, 0, 0
2, 3, 0
2, 13, 0
2, 14, 0
2, 12, 0
2, 8, 0
2, 15, 0
2, 11, 0
21, 18, 0
21, 4, 0
21, 10, 0
21, 22, 1
21, 1, 0
19, 17, 0
19, 16, 0
19, 6, 0
19, 15, 0
19, 5, 0
19, 22, 0
19, 10, 0
18, 0, 0
18, 7, 0
18, 1, 0
18, 5, 0
18, 10, 0
18, 20, 0
18, 4, 0
18, 21, 0
18, 8, 0
18, 15, 0
18, 22, 0
18, 9, 0
9, 7, 0
9, 18, 0
