0, 7, 0
0, 12, 0
0, 4, 0
0, 2, 0
0, 8, 0
0, 5, 0
0, 11, 0
0, 9, 0
8, 0, 0
8, 12, 0
8, 7, 0
8, 3, 0
8, 2, 0
8, 9, 0
8, 11, 0
8, 10, 0
3, 12, 0
3, 9, 0
3, 1, 0
3, 8, 0
3, 11, 0
3, 10, 0
6, 7, 0
6, 4, 0
6, 9, 0
6, 2, 0
5, 0, 0
5, 7, 0
5, 4, 0
5, 9, 0
11, 0, 0
11, 12, 0
11, 3, 0
11, 1, 0
11, 8, 0
11, 10, 0
11, 9, 0
10, 3, 0
10, 8, 0
10, 9, 0
10, 11, 0
10, 1, 0
7, 0, 0
7, 4, 0
7, 2, 0
7, 6, 0
7, 8, 0
7, 5, 0
7, 9, 0
12, 0, 0
12, 3, 0
12, 8, 0
12, 11, 0
4, 7, 0
4, 6, 0
4, 0, 0
4, 5, 0
4, 2, 0
2, 0, 0
2, 7, 0
2, 4, 0
2, 6, 0
2, 8, 0
2, 9, 0
1, 3, 0
1, 11, 0
1, 10, 0
9, 0, 0
9, 7, 0
9, 3, 0
9, 2, 0
9, 6, 0
9, 8, 0
9, 5, 0
9, 11, 0
9, 10, 0
