0, 6, 0
0, 8, 0
0, 1, 0
3, 2, 0
3, 8, 0
3, 10, 0
4, 9, 0
4, 5, 1
4, 2, 0
2, 3, 0
2, 4, 0
2, 9, 0
2, 8, 0
2, 5, 0
2, 10, 0
6, 0, 0
6, 7, 0
1, 0, 0
1, 8, 0
8, 0, 0
8, 3, 0
8, 2, 0
8, 10, 0
8, 1, 0
5, 2, 0
5, 4, 1
5, 9, 0
7, 6, 0
10, 3, 0
10, 8, 0
10, 2, 0
9, 4, 0
9, 5, 0
9, 2, 0
