0, 6, 0
0, 4, 0
3, 7, 0
3, 2, 0
3, 4, 0
3, 1, 0
4, 0, 0
4, 3, 0
4, 7, 0
4, 1, 0
7, 3, 0
7, 8, 0
7, 5, 0
7, 4, 0
7, 2, 0
2, 7, 0
2, 3, 0
2, 8, 0
2, 5, 0
6, 0, 0
8, 7, 0
8, 5, 0
8, 2, 0
5, 7, 0
5, 8, 0
5, 2, 0
1, 3, 0
1, 4, 0
