13, 12, 0
13, 4, 0
13, 3, 0
13, 16, 0
13, 19, 0
13, 11, 0
17, 18, 1
17, 8, 0
17, 15, 0
17, 5, 0
17, 9, 0
5, 0, 0
5, 18, 0
5, 17, 0
5, 16, 0
5, 8, 0
5, 15, 0
5, 9, 0
11, 12, 1
11, 19, 0
11, 13, 0
11, 3, 0
1, 16, 0
1, 19, 0
1, 2, 1
20, 0, 0
20, 14, 0
4, 7, 0
4, 12, 0
4, 13, 0
4, 21, 0
4, 6, 0
4, 19, 0
4, 22, 0
4, 10, 0
14, 20, 0
14, 0, 0
14, 15, 0
8, 18, 0
8, 15, 0
8, 17, 0
8, 5, 0
8, 9, 1
15, 0, 0
15, 14, 0
15, 18, 0
15, 17, 0
15, 8, 0
15, 5, 0
15, 9, 0
22, 21, 1
22, 6, 0
22, 4, 0
22, 7, 0
22, 10, 0
0, 20, 0
0, 14, 0
0, 2, 0
0, 18, 0
0, 15, 0
0, 5, 0
0, 9, 0
3, 12, 0
3, 19, 0
3, 13, 0
3, 11, 0
16, 2, 0
16, 19, 0
16, 13, 0
16, 5, 0
16, 1, 0
6, 7, 1
6, 21, 0
6, 4, 0
6, 22, 0
6, 10, 0
10, 7, 0
10, 6, 0
10, 4, 0
10, 22, 0
10, 21, 0
7, 12, 0
7, 4, 0
7, 21, 0
7, 6, 1
7, 22, 0
7, 10, 0
12, 7, 0
12, 3, 0
12, 13, 0
12, 4, 0
12, 2, 0
12, 19, 0
12, 11, 1
2, 0, 0
2, 16, 0
2, 19, 0
2, 12, 0
2, 1, 1
21, 7, 0
21, 6, 0
21, 4, 0
21, 22, 1
21, 10, 0
19, 3, 0
19, 13, 0
19, 4, 0
19, 12, 0
19, 16, 0
19, 2, 0
19, 11, 0
19, 1, 0
18, 0, 0
18, 17, 1
18, 8, 0
18, 15, 0
18, 5, 0
18, 9, 0
9, 0, 0
9, 17, 0
9, 18, 0
9, 8, 1
9, 15, 0
9, 5, 0
