13, 20, 0
13, 12, 1
13, 14, 1
13, 3, 0
13, 2, 0
13, 9, 0
13, 15, 0
13, 1, 0
17, 7, 0
17, 18, 1
17, 16, 1
17, 6, 0
17, 5, 0
17, 9, 0
23, 20, 0
23, 3, 0
23, 9, 0
23, 1, 0
5, 7, 0
5, 3, 0
5, 4, 0
5, 17, 0
5, 18, 0
5, 6, 0
5, 9, 0
11, 3, 0
11, 14, 0
11, 21, 0
11, 19, 0
11, 1, 0
11, 9, 0
1, 7, 0
1, 13, 0
1, 23, 0
1, 12, 0
1, 11, 0
1, 20, 0
1, 3, 0
1, 4, 0
1, 14, 0
1, 2, 0
1, 21, 0
1, 19, 0
1, 8, 0
1, 15, 0
1, 22, 0
20, 12, 0
20, 13, 0
20, 14, 0
20, 9, 0
20, 23, 0
20, 3, 0
20, 2, 0
20, 1, 0
4, 7, 0
4, 3, 0
4, 18, 0
4, 1, 0
4, 8, 0
4, 5, 0
4, 22, 0
4, 9, 0
14, 20, 0
14, 0, 0
14, 13, 1
14, 3, 0
14, 2, 0
14, 9, 0
14, 15, 0
14, 11, 0
14, 1, 0
8, 3, 0
8, 4, 0
8, 19, 0
8, 9, 0
8, 22, 0
8, 1, 0
15, 0, 0
15, 3, 0
15, 13, 0
15, 14, 0
15, 9, 0
15, 10, 0
15, 1, 0
22, 3, 0
22, 4, 0
22, 9, 0
22, 19, 0
22, 8, 0
22, 1, 0
0, 12, 0
0, 15, 0
0, 14, 0
0, 2, 0
3, 7, 0
3, 13, 0
3, 23, 0
3, 5, 0
3, 11, 0
3, 1, 0
3, 20, 0
3, 12, 0
3, 4, 0
3, 14, 0
3, 2, 0
3, 21, 0
3, 19, 0
3, 8, 0
3, 15, 0
3, 22, 0
3, 9, 0
16, 7, 0
16, 6, 0
16, 17, 1
16, 9, 0
6, 7, 0
6, 18, 0
6, 17, 0
6, 16, 0
6, 5, 0
6, 9, 0
10, 21, 0
10, 15, 0
7, 3, 0
7, 4, 0
7, 17, 0
7, 16, 0
7, 6, 0
7, 9, 0
7, 5, 0
7, 18, 0
7, 1, 0
12, 20, 0
12, 3, 0
12, 13, 1
12, 2, 0
12, 0, 0
12, 1, 0
2, 0, 0
2, 3, 0
2, 13, 0
2, 14, 0
2, 12, 0
2, 20, 0
2, 1, 0
21, 3, 0
21, 1, 0
21, 19, 0
21, 9, 0
21, 11, 0
21, 10, 0
19, 3, 0
19, 9, 0
19, 11, 0
19, 21, 0
19, 8, 0
19, 22, 0
19, 1, 0
18, 7, 0
18, 4, 0
18, 17, 1
18, 6, 0
18, 5, 0
18, 9, 0
9, 20, 0
9, 13, 0
9, 17, 0
9, 23, 0
9, 16, 0
9, 6, 0
9, 5, 0
9, 11, 0
9, 7, 0
9, 3, 0
9, 4, 0
9, 14, 0
9, 21, 0
9, 19, 0
9, 8, 0
9, 15, 0
9, 18, 0
9, 22, 0
