13, 7, 0
13, 6, 0
13, 20, 0
13, 11, 0
13, 1, 0
17, 20, 0
17, 12, 0
17, 7, 0
17, 14, 0
17, 21, 0
17, 6, 0
17, 9, 0
17, 15, 0
17, 11, 0
17, 10, 0
23, 0, 0
23, 18, 0
23, 8, 0
23, 2, 0
5, 16, 0
5, 19, 0
5, 14, 0
5, 22, 0
5, 2, 0
11, 21, 0
11, 20, 0
11, 13, 0
11, 17, 0
1, 7, 0
1, 6, 0
1, 13, 0
20, 21, 1
20, 13, 0
20, 17, 0
20, 11, 0
4, 3, 0
4, 9, 0
14, 7, 0
14, 12, 0
14, 17, 0
14, 3, 0
14, 16, 0
14, 6, 0
14, 10, 0
14, 15, 1
14, 5, 0
14, 22, 0
14, 9, 0
8, 23, 0
15, 12, 0
15, 9, 0
15, 14, 1
15, 17, 0
15, 10, 0
22, 0, 0
22, 14, 0
22, 5, 0
22, 2, 0
0, 18, 0
0, 22, 0
0, 23, 0
0, 2, 0
3, 4, 0
3, 14, 0
3, 9, 0
16, 6, 0
16, 19, 0
16, 14, 0
16, 5, 0
6, 7, 0
6, 13, 0
6, 14, 0
6, 16, 0
6, 17, 0
6, 10, 0
6, 1, 0
10, 7, 0
10, 14, 0
10, 15, 0
10, 17, 0
10, 6, 0
7, 13, 0
7, 14, 0
7, 6, 0
7, 10, 0
7, 17, 0
7, 1, 0
12, 14, 0
12, 15, 0
12, 17, 0
12, 9, 0
2, 0, 0
2, 18, 0
2, 22, 0
2, 5, 0
2, 23, 0
21, 20, 1
21, 17, 0
21, 11, 0
19, 16, 0
19, 5, 0
18, 0, 0
18, 23, 0
18, 2, 0
9, 3, 0
9, 4, 0
9, 14, 0
9, 12, 0
9, 17, 0
9, 15, 0
