0, 7, 0
0, 9, 0
13, 3, 0
13, 9, 0
13, 11, 0
13, 1, 0
3, 12, 0
3, 13, 0
3, 14, 0
3, 2, 0
3, 6, 0
3, 1, 0
6, 12, 0
6, 2, 0
6, 3, 0
8, 4, 0
8, 5, 0
5, 8, 0
5, 14, 0
5, 4, 0
5, 2, 0
11, 13, 0
11, 9, 0
10, 7, 0
10, 9, 0
10, 1, 0
7, 0, 0
7, 10, 0
7, 1, 0
12, 6, 0
12, 1, 0
12, 14, 0
12, 3, 0
12, 2, 0
4, 8, 0
4, 5, 0
4, 2, 0
14, 12, 0
14, 3, 0
14, 2, 0
14, 5, 0
14, 1, 0
2, 12, 0
2, 4, 0
2, 14, 0
2, 3, 0
2, 6, 0
2, 5, 0
2, 1, 0
1, 7, 0
1, 3, 0
1, 13, 0
1, 14, 0
1, 12, 0
1, 2, 0
1, 10, 0
1, 9, 0
9, 0, 0
9, 13, 0
9, 10, 0
9, 11, 0
9, 1, 0
