58, 57, 1
58, 60, 0
58, 4, 0
58, 54, 0
58, 56, 0
58, 18, 0
58, 30, 0
58, 8, 0
58, 46, 0
58, 47, 0
58, 44, 0
61, 4, 0
61, 10, 0
61, 49, 0
61, 5, 0
61, 44, 0
61, 11, 0
61, 1, 0
13, 12, 1
13, 4, 0
13, 54, 0
13, 3, 0
13, 18, 0
13, 5, 0
13, 44, 0
13, 1, 0
17, 16, 1
17, 53, 0
17, 52, 0
17, 51, 0
23, 34, 0
23, 28, 0
23, 56, 0
23, 27, 0
23, 39, 0
23, 5, 0
46, 58, 0
46, 45, 1
46, 57, 0
46, 18, 0
46, 56, 0
46, 60, 0
46, 1, 0
46, 40, 0
46, 5, 0
46, 47, 1
46, 30, 0
20, 31, 0
20, 32, 0
20, 2, 0
20, 21, 1
20, 6, 0
20, 15, 0
34, 42, 0
34, 28, 0
34, 23, 0
34, 27, 0
14, 7, 0
14, 33, 0
14, 56, 0
14, 38, 0
14, 8, 0
14, 40, 0
24, 0, 0
24, 33, 0
24, 25, 1
24, 56, 0
24, 26, 1
24, 2, 0
24, 6, 0
24, 15, 0
24, 9, 0
28, 42, 0
28, 27, 0
28, 39, 0
28, 23, 0
28, 34, 0
39, 28, 0
39, 56, 0
39, 23, 0
39, 27, 0
39, 49, 0
39, 5, 0
41, 35, 0
41, 43, 0
41, 27, 0
41, 42, 1
41, 1, 0
41, 49, 0
41, 5, 0
41, 36, 0
0, 33, 0
0, 25, 0
0, 31, 0
0, 26, 0
0, 24, 0
0, 21, 0
0, 6, 0
0, 2, 0
0, 29, 0
0, 22, 0
38, 7, 0
38, 33, 0
38, 55, 0
38, 14, 0
38, 56, 0
38, 21, 0
38, 19, 0
38, 8, 0
38, 40, 0
38, 9, 0
51, 33, 0
51, 52, 0
51, 50, 0
51, 31, 0
51, 16, 0
51, 17, 0
51, 53, 0
33, 32, 0
33, 59, 0
33, 24, 0
33, 40, 0
33, 57, 0
33, 14, 0
33, 31, 0
33, 8, 0
33, 15, 0
33, 0, 0
33, 38, 0
33, 56, 0
33, 51, 0
33, 18, 0
33, 6, 0
33, 55, 0
33, 7, 0
33, 25, 0
33, 26, 0
33, 2, 0
33, 19, 0
33, 9, 0
15, 20, 0
15, 33, 0
15, 56, 0
15, 31, 0
15, 24, 0
15, 21, 0
15, 6, 0
15, 2, 0
15, 55, 0
15, 32, 0
15, 9, 0
54, 58, 0
54, 3, 0
54, 13, 0
54, 4, 0
54, 12, 0
54, 18, 0
54, 44, 0
54, 1, 0
47, 58, 0
47, 57, 0
47, 18, 0
47, 5, 0
47, 1, 0
47, 40, 0
47, 46, 1
47, 30, 0
10, 4, 0
10, 61, 0
10, 1, 0
10, 49, 0
10, 44, 0
10, 11, 1
10, 5, 0
7, 33, 0
7, 14, 0
7, 56, 0
7, 38, 0
7, 8, 1
7, 40, 0
7, 9, 0
3, 13, 0
3, 54, 0
3, 4, 0
3, 1, 0
3, 5, 0
3, 44, 0
53, 52, 1
53, 50, 0
53, 51, 0
53, 31, 0
53, 16, 0
53, 17, 0
53, 29, 0
32, 20, 0
32, 33, 0
32, 2, 0
32, 15, 0
32, 21, 0
2, 20, 0
2, 0, 0
2, 25, 0
2, 26, 0
2, 32, 0
2, 33, 0
2, 21, 0
2, 6, 0
2, 24, 0
2, 15, 0
21, 20, 1
21, 0, 0
21, 8, 0
21, 32, 0
21, 2, 0
21, 38, 0
21, 19, 0
21, 55, 0
21, 15, 0
21, 9, 0
25, 0, 0
25, 33, 0
25, 56, 0
25, 2, 0
25, 6, 0
25, 24, 1
19, 33, 0
19, 56, 0
19, 21, 0
19, 55, 0
19, 38, 0
19, 9, 0
49, 27, 0
49, 5, 0
49, 11, 0
49, 10, 0
49, 41, 0
49, 61, 0
49, 4, 0
49, 43, 0
49, 35, 0
49, 37, 0
49, 44, 0
49, 1, 0
49, 39, 0
49, 48, 0
49, 36, 0
48, 35, 0
48, 43, 0
48, 27, 0
48, 37, 0
48, 42, 0
48, 49, 0
48, 11, 0
48, 36, 0
31, 20, 0
31, 0, 0
31, 6, 0
31, 50, 0
31, 51, 0
31, 29, 0
31, 33, 0
31, 53, 0
31, 15, 0
31, 22, 0
31, 1, 0
45, 57, 0
45, 60, 0
45, 56, 0
45, 18, 0
45, 1, 0
45, 40, 0
45, 46, 1
45, 30, 0
60, 58, 0
60, 57, 0
60, 56, 0
60, 45, 0
60, 18, 0
60, 8, 0
60, 40, 0
60, 46, 0
60, 30, 0
59, 33, 0
59, 56, 0
59, 9, 0
29, 0, 0
29, 6, 0
29, 53, 0
29, 22, 0
29, 31, 0
40, 45, 0
40, 56, 0
40, 60, 0
40, 5, 0
40, 1, 0
40, 46, 0
40, 47, 0
40, 30, 0
40, 7, 0
40, 33, 0
40, 4, 0
40, 14, 0
40, 57, 0
40, 8, 0
40, 38, 0
40, 18, 0
40, 9, 0
11, 4, 0
11, 61, 0
11, 10, 1
11, 1, 0
11, 49, 0
11, 5, 0
11, 48, 0
11, 44, 0
5, 13, 0
5, 23, 0
5, 40, 0
5, 46, 0
5, 11, 0
5, 1, 0
5, 61, 0
5, 4, 0
5, 43, 0
5, 35, 0
5, 42, 0
5, 39, 0
5, 41, 0
5, 3, 0
5, 18, 0
5, 27, 0
5, 44, 0
5, 47, 0
5, 10, 0
5, 12, 0
5, 37, 0
5, 49, 0
5, 9, 0
37, 49, 0
37, 43, 0
37, 48, 0
37, 27, 0
37, 42, 0
37, 35, 1
37, 5, 0
37, 36, 1
4, 58, 0
4, 13, 0
4, 56, 0
4, 12, 0
4, 18, 0
4, 27, 0
4, 1, 0
4, 40, 0
4, 5, 0
4, 11, 0
4, 10, 0
4, 3, 0
4, 54, 0
4, 44, 0
4, 61, 0
4, 49, 0
4, 9, 0
35, 43, 0
35, 37, 1
35, 27, 0
35, 49, 0
35, 5, 0
35, 41, 0
35, 48, 0
30, 58, 0
30, 60, 0
30, 45, 0
30, 18, 0
30, 8, 0
30, 40, 0
30, 46, 0
30, 47, 0
30, 1, 0
8, 58, 0
8, 56, 0
8, 60, 0
8, 40, 0
8, 1, 0
8, 7, 1
8, 33, 0
8, 14, 0
8, 21, 0
8, 30, 0
8, 38, 0
8, 9, 0
42, 34, 0
42, 43, 0
42, 28, 0
42, 37, 0
42, 27, 0
42, 36, 0
42, 5, 0
42, 41, 1
42, 48, 0
22, 0, 0
22, 6, 0
22, 31, 0
22, 29, 0
36, 43, 0
36, 27, 0
36, 37, 1
36, 42, 0
36, 49, 0
36, 41, 0
36, 48, 0
57, 58, 1
57, 60, 0
57, 56, 0
57, 45, 0
57, 18, 0
57, 33, 0
57, 40, 0
57, 46, 0
57, 47, 0
56, 58, 0
56, 23, 0
56, 60, 0
56, 40, 0
56, 15, 0
56, 59, 0
56, 46, 0
56, 1, 0
56, 57, 0
56, 4, 0
56, 14, 0
56, 39, 0
56, 24, 0
56, 8, 0
56, 38, 0
56, 45, 0
56, 12, 0
56, 18, 0
56, 6, 0
56, 55, 0
56, 7, 0
56, 33, 0
56, 25, 0
56, 26, 0
56, 27, 0
56, 19, 0
56, 9, 0
16, 52, 0
16, 53, 0
16, 17, 1
16, 51, 0
27, 28, 0
27, 23, 0
27, 56, 0
27, 5, 0
27, 1, 0
27, 34, 0
27, 4, 0
27, 43, 0
27, 35, 0
27, 37, 0
27, 42, 0
27, 49, 0
27, 39, 0
27, 41, 0
27, 48, 0
27, 36, 0
1, 13, 0
1, 40, 0
1, 46, 0
1, 11, 0
1, 30, 0
1, 4, 0
1, 8, 0
1, 41, 0
1, 45, 0
1, 56, 0
1, 3, 0
1, 18, 0
1, 6, 0
1, 44, 0
1, 47, 0
1, 10, 0
1, 12, 0
1, 54, 0
1, 31, 0
1, 27, 0
1, 61, 0
1, 49, 0
1, 5, 0
1, 9, 0
55, 33, 0
55, 56, 0
55, 21, 0
55, 38, 0
55, 19, 0
55, 15, 0
55, 9, 0
44, 58, 0
44, 3, 0
44, 4, 0
44, 13, 0
44, 61, 0
44, 54, 0
44, 1, 0
44, 49, 0
44, 5, 0
44, 11, 0
44, 10, 0
12, 13, 1
12, 54, 0
12, 56, 0
12, 4, 0
12, 5, 0
12, 1, 0
18, 58, 0
18, 45, 0
18, 13, 0
18, 56, 0
18, 60, 0
18, 40, 0
18, 46, 0
18, 47, 0
18, 5, 0
18, 57, 0
18, 33, 0
18, 4, 0
18, 54, 0
18, 30, 0
18, 1, 0
18, 9, 0
52, 16, 0
52, 53, 1
52, 17, 0
52, 51, 0
50, 53, 0
50, 31, 0
50, 51, 0
26, 0, 0
26, 33, 0
26, 56, 0
26, 2, 0
26, 6, 0
26, 24, 1
6, 0, 0
6, 26, 0
6, 56, 0
6, 2, 0
6, 24, 0
6, 1, 0
6, 20, 0
6, 33, 0
6, 25, 0
6, 31, 0
6, 29, 0
6, 15, 0
6, 22, 0
6, 9, 0
43, 35, 0
43, 48, 0
43, 27, 0
43, 37, 0
43, 42, 0
43, 36, 0
43, 49, 0
43, 41, 0
43, 5, 0
9, 6, 0
9, 38, 0
9, 56, 0
9, 18, 0
9, 40, 0
9, 55, 0
9, 59, 0
9, 5, 0
9, 1, 0
9, 7, 0
9, 33, 0
9, 4, 0
9, 24, 0
9, 21, 0
9, 19, 0
9, 8, 0
9, 15, 0
