0, 8, 0
0, 11, 0
6, 7, 0
6, 3, 0
6, 4, 0
6, 10, 0
6, 9, 0
6, 5, 0
6, 1, 0
1, 6, 0
1, 4, 0
1, 3, 0
1, 11, 0
1, 2, 0
5, 7, 0
5, 6, 0
5, 9, 0
5, 10, 0
11, 0, 0
11, 3, 0
11, 4, 0
11, 1, 0
10, 7, 0
10, 6, 0
10, 5, 0
10, 9, 1
7, 6, 0
7, 9, 0
7, 5, 0
7, 10, 0
3, 2, 1
3, 6, 0
3, 4, 0
3, 11, 0
3, 1, 0
4, 3, 0
4, 6, 0
4, 2, 0
4, 11, 0
4, 1, 0
2, 3, 1
2, 4, 0
2, 1, 0
8, 0, 0
9, 7, 0
9, 6, 0
9, 5, 0
9, 10, 1
