13, 20, 0
13, 3, 0
13, 6, 0
13, 4, 0
13, 14, 0
13, 35, 0
13, 43, 0
13, 24, 0
13, 11, 0
13, 1, 0
17, 45, 0
17, 4, 0
17, 28, 0
17, 32, 0
17, 29, 0
23, 7, 0
23, 31, 0
23, 2, 0
23, 21, 0
23, 27, 0
23, 1, 0
23, 8, 0
23, 42, 0
23, 41, 0
23, 10, 0
23, 9, 0
42, 23, 0
42, 21, 0
42, 27, 0
42, 30, 0
42, 10, 0
42, 1, 0
46, 43, 0
46, 38, 0
46, 22, 0
20, 3, 0
20, 13, 0
20, 43, 0
20, 4, 0
20, 24, 0
20, 19, 0
20, 35, 0
20, 11, 0
14, 6, 0
14, 13, 0
14, 43, 0
14, 35, 0
24, 20, 0
24, 3, 0
24, 13, 0
24, 11, 0
24, 36, 0
28, 0, 0
28, 45, 0
28, 17, 0
28, 32, 0
28, 16, 0
28, 40, 0
28, 5, 0
28, 34, 0
28, 4, 0
28, 25, 0
28, 26, 0
28, 29, 0
28, 15, 0
39, 7, 0
39, 12, 0
39, 21, 0
39, 2, 0
39, 37, 0
39, 27, 0
39, 1, 0
39, 8, 0
39, 10, 0
41, 27, 0
41, 31, 0
41, 23, 0
41, 9, 0
0, 34, 0
0, 4, 0
0, 28, 0
0, 32, 0
0, 16, 0
0, 15, 0
0, 44, 0
8, 7, 1
8, 21, 0
8, 23, 0
8, 31, 0
8, 37, 0
8, 27, 0
8, 1, 0
8, 30, 0
8, 39, 0
8, 10, 0
8, 9, 0
34, 0, 0
34, 4, 0
34, 28, 0
34, 26, 0
34, 40, 0
34, 44, 0
34, 5, 0
15, 0, 0
15, 16, 0
15, 28, 0
15, 32, 0
47, 18, 0
47, 33, 0
47, 35, 0
47, 43, 0
47, 1, 0
10, 7, 0
10, 9, 0
10, 23, 0
10, 2, 0
10, 21, 0
10, 42, 0
10, 30, 0
10, 8, 0
10, 39, 0
10, 1, 0
7, 21, 0
7, 1, 0
7, 23, 0
7, 31, 0
7, 37, 0
7, 27, 0
7, 30, 0
7, 8, 1
7, 39, 0
7, 10, 0
7, 9, 0
3, 20, 0
3, 13, 0
3, 4, 0
3, 24, 0
3, 19, 0
3, 38, 0
3, 11, 0
3, 36, 0
32, 0, 0
32, 45, 0
32, 4, 0
32, 17, 0
32, 16, 0
32, 28, 0
32, 15, 0
2, 23, 0
2, 31, 0
2, 21, 0
2, 27, 0
2, 30, 0
2, 10, 0
2, 39, 0
2, 1, 0
21, 7, 0
21, 1, 0
21, 9, 0
21, 23, 0
21, 2, 0
21, 42, 0
21, 30, 0
21, 8, 0
21, 39, 0
21, 10, 0
21, 27, 0
33, 18, 0
33, 43, 0
33, 22, 0
33, 47, 0
33, 1, 0
19, 20, 0
19, 3, 0
19, 4, 0
19, 36, 0
18, 33, 0
18, 43, 0
18, 31, 0
18, 35, 0
18, 6, 0
18, 47, 0
18, 1, 0
31, 7, 0
31, 23, 0
31, 2, 0
31, 18, 0
31, 27, 0
31, 1, 0
31, 8, 0
31, 41, 0
31, 9, 0
29, 45, 0
29, 4, 0
29, 28, 0
29, 17, 0
29, 40, 0
29, 5, 0
40, 34, 0
40, 4, 0
40, 28, 0
40, 5, 0
40, 29, 0
11, 20, 0
11, 3, 0
11, 13, 0
11, 43, 0
11, 24, 0
11, 6, 0
11, 1, 0
11, 38, 0
11, 22, 0
11, 36, 0
5, 34, 0
5, 28, 0
5, 26, 0
5, 29, 0
5, 25, 0
5, 40, 0
37, 7, 0
37, 27, 0
37, 8, 0
37, 39, 0
4, 0, 0
4, 45, 0
4, 13, 0
4, 28, 0
4, 3, 0
4, 16, 0
4, 35, 0
4, 40, 0
4, 20, 0
4, 34, 0
4, 32, 0
4, 29, 0
4, 17, 0
4, 19, 0
4, 38, 0
4, 36, 0
35, 20, 0
35, 45, 0
35, 43, 0
35, 13, 0
35, 14, 0
35, 4, 0
35, 18, 0
35, 6, 0
35, 47, 0
35, 1, 0
30, 7, 0
30, 12, 0
30, 2, 0
30, 21, 0
30, 27, 0
30, 1, 0
30, 8, 0
30, 42, 0
30, 10, 0
38, 3, 0
38, 4, 0
38, 43, 0
38, 22, 0
38, 1, 0
38, 46, 0
38, 11, 0
38, 36, 0
22, 33, 0
22, 43, 0
22, 38, 0
22, 46, 0
22, 11, 0
22, 1, 0
36, 3, 0
36, 4, 0
36, 24, 0
36, 19, 0
36, 38, 0
36, 11, 0
45, 4, 0
45, 28, 0
45, 32, 0
45, 29, 0
45, 16, 0
45, 17, 0
45, 35, 0
16, 0, 0
16, 45, 0
16, 4, 0
16, 28, 0
16, 32, 0
16, 15, 0
27, 37, 0
27, 23, 0
27, 1, 0
27, 30, 0
27, 7, 0
27, 12, 0
27, 31, 0
27, 2, 0
27, 21, 0
27, 42, 0
27, 8, 0
27, 39, 0
27, 41, 0
27, 9, 0
1, 6, 0
1, 13, 0
1, 23, 0
1, 18, 0
1, 27, 0
1, 39, 0
1, 2, 0
1, 11, 0
1, 10, 0
1, 7, 0
1, 33, 0
1, 43, 0
1, 47, 0
1, 31, 0
1, 35, 0
1, 21, 0
1, 42, 0
1, 30, 0
1, 8, 0
1, 38, 0
1, 22, 0
44, 0, 0
44, 34, 0
12, 27, 0
12, 39, 0
12, 30, 0
25, 28, 0
25, 5, 0
25, 26, 0
26, 34, 0
26, 25, 0
26, 5, 0
26, 28, 0
6, 13, 0
6, 14, 0
6, 35, 0
6, 18, 0
6, 43, 0
6, 11, 0
6, 1, 0
43, 13, 0
43, 18, 0
43, 6, 0
43, 46, 0
43, 11, 0
43, 1, 0
43, 20, 0
43, 33, 0
43, 14, 0
43, 47, 0
43, 35, 0
43, 38, 0
43, 22, 0
9, 7, 0
9, 31, 0
9, 23, 0
9, 21, 0
9, 27, 0
9, 8, 0
9, 41, 0
9, 10, 0
