2, 0, 0
2, 12, 0
2, 21, 0
13, 0, 0
13, 14, 0
13, 4, 0
13, 15, 0
13, 12, 0
17, 18, 1
17, 3, 0
17, 7, 0
17, 14, 0
17, 6, 0
23, 16, 0
23, 14, 0
23, 5, 0
29, 0, 0
29, 3, 0
29, 19, 0
29, 14, 0
29, 12, 0
5, 16, 0
5, 23, 0
11, 0, 0
11, 8, 0
11, 14, 0
11, 1, 0
1, 14, 0
1, 11, 0
1, 24, 0
20, 0, 0
20, 22, 0
20, 10, 0
4, 21, 0
4, 12, 0
4, 13, 0
4, 26, 0
4, 0, 0
14, 0, 0
14, 13, 0
14, 28, 0
14, 23, 0
14, 12, 0
14, 16, 0
14, 6, 0
14, 24, 0
14, 11, 0
14, 1, 0
14, 7, 0
14, 3, 0
14, 25, 0
14, 27, 0
14, 29, 0
14, 17, 0
14, 19, 0
14, 8, 0
14, 10, 0
14, 22, 0
14, 9, 0
24, 27, 0
24, 14, 0
24, 28, 0
24, 1, 0
28, 0, 0
28, 27, 0
28, 9, 0
28, 14, 0
28, 24, 0
8, 16, 0
8, 0, 0
8, 14, 0
8, 11, 0
15, 0, 0
15, 13, 0
15, 25, 0
22, 20, 0
22, 0, 0
22, 14, 0
22, 12, 0
22, 25, 0
22, 10, 0
0, 13, 0
0, 28, 0
0, 3, 0
0, 6, 0
0, 29, 0
0, 11, 0
0, 10, 0
0, 20, 0
0, 12, 0
0, 4, 0
0, 14, 0
0, 2, 0
0, 21, 0
0, 25, 0
0, 19, 0
0, 8, 0
0, 15, 0
0, 22, 0
0, 9, 0
12, 0, 0
12, 13, 0
12, 6, 0
12, 29, 0
12, 10, 0
12, 3, 0
12, 4, 0
12, 14, 0
12, 26, 0
12, 2, 0
12, 21, 0
12, 25, 0
12, 22, 0
16, 8, 0
16, 14, 0
16, 5, 0
16, 23, 0
6, 0, 0
6, 7, 0
6, 14, 0
6, 12, 0
6, 17, 0
6, 10, 0
10, 20, 0
10, 0, 0
10, 14, 0
10, 12, 0
10, 6, 0
10, 22, 0
7, 18, 0
7, 6, 0
7, 14, 0
7, 17, 0
7, 3, 0
3, 0, 0
3, 7, 0
3, 14, 0
3, 29, 0
3, 18, 0
3, 17, 0
3, 12, 0
25, 0, 0
25, 15, 0
25, 14, 0
25, 22, 0
25, 12, 0
26, 21, 0
26, 12, 0
26, 4, 0
27, 14, 0
27, 28, 0
27, 24, 0
21, 0, 0
21, 12, 0
21, 4, 0
21, 26, 0
21, 2, 0
19, 0, 0
19, 9, 0
19, 14, 0
19, 29, 0
18, 7, 0
18, 3, 0
18, 17, 1
9, 0, 0
9, 28, 0
9, 19, 0
9, 14, 0
