0, 8, 0
0, 17, 0
0, 2, 0
13, 16, 0
13, 15, 0
13, 14, 1
13, 11, 0
17, 0, 0
17, 6, 0
17, 8, 0
17, 7, 0
17, 12, 0
3, 12, 0
3, 4, 0
3, 2, 0
3, 15, 0
3, 11, 0
3, 10, 0
16, 12, 0
16, 13, 0
16, 14, 0
16, 2, 0
16, 15, 0
16, 5, 0
16, 11, 0
6, 7, 0
6, 12, 0
6, 17, 0
6, 9, 0
8, 0, 0
8, 17, 0
8, 2, 0
5, 16, 0
5, 2, 0
11, 12, 0
11, 13, 0
11, 14, 0
11, 4, 0
11, 3, 0
11, 16, 0
11, 15, 0
11, 10, 0
10, 12, 0
10, 4, 0
10, 11, 0
10, 3, 0
7, 6, 0
7, 17, 0
7, 9, 0
12, 3, 0
12, 4, 0
12, 17, 0
12, 2, 0
12, 16, 0
12, 6, 0
12, 15, 0
12, 11, 0
12, 10, 0
4, 12, 0
4, 3, 0
4, 11, 0
4, 10, 0
14, 16, 0
14, 13, 1
14, 15, 0
14, 11, 0
2, 0, 0
2, 12, 0
2, 3, 0
2, 16, 0
2, 8, 0
2, 5, 0
1, 9, 0
15, 12, 0
15, 13, 0
15, 14, 0
15, 3, 0
15, 16, 0
15, 11, 0
9, 7, 0
9, 6, 0
9, 1, 0
