2, 12, 0
2, 14, 0
2, 32, 0
2, 18, 0
2, 8, 0
2, 5, 0
13, 20, 0
13, 34, 0
13, 9, 0
13, 28, 0
13, 35, 0
17, 21, 0
17, 23, 0
17, 24, 0
17, 16, 0
17, 8, 0
17, 30, 0
31, 29, 0
31, 4, 0
31, 14, 0
31, 9, 0
31, 10, 0
23, 21, 0
23, 8, 0
23, 17, 0
23, 24, 1
24, 21, 0
24, 17, 0
24, 23, 1
24, 30, 0
5, 7, 0
5, 12, 0
5, 1, 0
5, 32, 0
5, 2, 0
11, 21, 0
11, 3, 0
11, 8, 0
1, 6, 0
1, 19, 0
1, 5, 0
1, 32, 0
1, 12, 0
20, 34, 0
20, 13, 0
20, 28, 0
20, 33, 0
34, 20, 0
34, 33, 0
34, 13, 0
34, 28, 0
34, 35, 0
4, 31, 0
4, 9, 0
14, 0, 0
14, 26, 0
14, 18, 0
14, 6, 0
14, 29, 0
14, 27, 0
14, 7, 0
14, 33, 0
14, 25, 0
14, 31, 0
14, 2, 0
14, 8, 0
14, 10, 0
14, 22, 0
14, 9, 0
35, 34, 0
35, 13, 0
35, 28, 0
35, 9, 0
28, 20, 0
28, 34, 0
28, 13, 0
28, 35, 0
30, 21, 0
30, 17, 0
30, 24, 0
30, 16, 0
30, 19, 0
30, 8, 0
30, 15, 0
8, 0, 0
8, 17, 0
8, 23, 0
8, 33, 0
8, 16, 0
8, 6, 0
8, 11, 0
8, 30, 0
8, 3, 0
8, 25, 0
8, 2, 0
8, 21, 0
8, 14, 0
8, 19, 0
8, 15, 0
8, 18, 0
8, 9, 0
15, 25, 0
15, 16, 0
15, 6, 0
15, 19, 0
15, 8, 0
15, 30, 0
22, 0, 0
22, 7, 0
22, 14, 0
22, 26, 0
22, 29, 0
22, 27, 0
0, 8, 0
0, 14, 0
0, 26, 0
0, 22, 0
3, 8, 0
3, 11, 0
16, 25, 0
16, 8, 0
16, 15, 0
16, 17, 0
16, 30, 0
27, 7, 0
27, 14, 0
27, 22, 0
10, 14, 0
10, 26, 0
10, 31, 0
10, 29, 0
7, 12, 0
7, 14, 0
7, 32, 0
7, 29, 0
7, 18, 0
7, 27, 0
7, 5, 0
7, 22, 0
12, 7, 0
12, 1, 0
12, 5, 0
12, 32, 0
12, 2, 0
25, 14, 0
25, 16, 0
25, 6, 0
25, 19, 0
25, 8, 0
25, 15, 0
33, 20, 0
33, 34, 0
33, 8, 0
33, 14, 0
32, 7, 0
32, 12, 0
32, 2, 0
32, 18, 0
32, 5, 0
32, 1, 0
6, 14, 0
6, 25, 0
6, 19, 0
6, 8, 0
6, 15, 0
6, 1, 0
21, 17, 0
21, 23, 0
21, 24, 0
21, 8, 0
21, 11, 0
21, 30, 0
29, 7, 0
29, 14, 0
29, 31, 0
29, 26, 0
29, 22, 0
29, 10, 0
19, 25, 0
19, 6, 0
19, 1, 0
19, 8, 0
19, 15, 0
19, 30, 0
26, 0, 0
26, 14, 0
26, 29, 0
26, 9, 0
26, 22, 0
26, 10, 0
18, 7, 0
18, 8, 0
18, 14, 0
18, 32, 0
18, 2, 0
9, 4, 0
9, 13, 0
9, 26, 0
9, 31, 0
9, 35, 0
9, 14, 0
9, 8, 0
