0, 7, 0
0, 3, 0
0, 4, 0
0, 6, 0
0, 8, 0
0, 5, 0
0, 1, 0
3, 0, 0
3, 6, 0
3, 8, 0
3, 5, 0
4, 0, 0
4, 6, 0
4, 1, 0
4, 7, 0
4, 2, 0
7, 0, 0
7, 6, 1
7, 8, 0
7, 4, 0
7, 1, 0
2, 4, 0
6, 0, 0
6, 7, 1
6, 4, 0
6, 3, 0
6, 8, 0
6, 1, 0
8, 0, 0
8, 3, 0
8, 7, 0
8, 6, 0
5, 0, 0
5, 3, 0
5, 1, 0
1, 0, 0
1, 7, 0
1, 4, 0
1, 5, 0
1, 6, 0
