0, 3, 0
0, 4, 0
0, 12, 0
0, 6, 0
0, 8, 0
0, 10, 0
0, 11, 0
0, 9, 0
8, 0, 0
8, 12, 0
8, 2, 0
8, 1, 0
8, 9, 0
8, 5, 0
8, 11, 0
8, 10, 0
3, 0, 0
3, 6, 0
3, 4, 0
6, 0, 0
6, 12, 0
6, 4, 0
6, 3, 0
6, 2, 0
6, 1, 0
6, 11, 0
6, 10, 0
5, 7, 0
5, 12, 0
5, 8, 0
5, 1, 0
11, 0, 0
11, 2, 0
11, 6, 0
11, 1, 0
11, 8, 0
11, 10, 0
11, 9, 0
10, 0, 0
10, 2, 0
10, 6, 0
10, 1, 0
10, 8, 0
10, 11, 0
10, 9, 1
7, 12, 0
7, 5, 0
7, 1, 0
12, 0, 0
12, 7, 0
12, 2, 0
12, 6, 0
12, 8, 0
12, 5, 0
12, 1, 0
4, 0, 0
4, 6, 0
4, 9, 0
4, 3, 0
2, 12, 0
2, 9, 0
2, 6, 0
2, 1, 0
2, 8, 0
2, 11, 0
2, 10, 0
1, 7, 0
1, 12, 0
1, 2, 0
1, 6, 0
1, 10, 0
1, 8, 0
1, 5, 0
1, 11, 0
1, 9, 0
9, 0, 0
9, 4, 0
9, 2, 0
9, 1, 0
9, 8, 0
9, 11, 0
9, 10, 1
