0, 3, 0
0, 8, 0
0, 9, 0
3, 0, 0
3, 9, 0
4, 6, 0
4, 1, 0
4, 2, 0
2, 6, 0
2, 8, 0
2, 4, 0
2, 9, 0
6, 7, 1
6, 1, 0
6, 4, 0
6, 2, 0
1, 7, 0
1, 4, 0
1, 6, 0
1, 9, 0
1, 5, 0
1, 10, 0
8, 0, 0
8, 2, 0
5, 1, 0
5, 9, 0
5, 10, 0
7, 6, 1
7, 1, 0
10, 1, 0
10, 5, 0
10, 9, 1
9, 0, 0
9, 3, 0
9, 2, 0
9, 10, 1
9, 5, 0
9, 1, 0
