0, 7, 0
0, 5, 0
0, 1, 0
3, 7, 0
3, 6, 0
3, 4, 0
3, 1, 0
4, 7, 0
4, 3, 0
4, 1, 0
4, 6, 0
2, 8, 0
2, 9, 0
6, 3, 0
6, 4, 0
6, 1, 0
1, 0, 0
1, 3, 0
1, 4, 0
1, 7, 0
1, 6, 0
8, 2, 0
8, 5, 0
8, 9, 0
5, 0, 0
5, 8, 0
5, 9, 0
7, 0, 0
7, 3, 0
7, 4, 0
7, 1, 0
9, 8, 0
9, 5, 0
9, 2, 0
