0, 6, 0
0, 13, 0
0, 9, 0
0, 10, 0
13, 0, 0
13, 9, 0
3, 4, 1
3, 15, 0
3, 11, 0
16, 5, 0
16, 1, 0
6, 0, 0
6, 14, 0
6, 10, 0
8, 7, 0
8, 2, 0
8, 14, 0
8, 5, 0
8, 10, 0
5, 16, 0
5, 7, 0
5, 2, 0
5, 8, 0
5, 1, 0
11, 12, 0
11, 4, 0
11, 15, 0
11, 9, 0
11, 3, 0
10, 7, 0
10, 0, 0
10, 14, 0
10, 2, 0
10, 6, 0
10, 8, 0
7, 2, 0
7, 8, 0
7, 5, 0
7, 10, 0
12, 11, 0
12, 9, 0
4, 3, 1
4, 15, 0
4, 11, 0
14, 6, 0
14, 8, 0
14, 10, 0
2, 7, 0
2, 8, 0
2, 5, 0
2, 10, 0
1, 16, 0
1, 5, 0
15, 3, 0
15, 4, 0
15, 11, 0
9, 0, 0
9, 12, 0
9, 13, 0
9, 11, 0
