0, 3, 0
0, 14, 0
0, 2, 0
0, 5, 0
0, 11, 0
0, 9, 0
13, 7, 0
13, 14, 0
13, 5, 0
3, 0, 0
3, 9, 0
3, 2, 1
6, 12, 0
6, 4, 0
6, 9, 0
6, 8, 0
6, 10, 0
6, 1, 0
8, 12, 0
8, 1, 0
8, 6, 0
5, 7, 0
5, 0, 0
5, 13, 0
5, 14, 0
11, 0, 0
11, 14, 0
10, 12, 0
10, 4, 0
10, 6, 0
7, 13, 0
7, 5, 0
12, 6, 0
12, 8, 0
12, 9, 0
12, 10, 0
12, 1, 0
4, 6, 0
4, 10, 0
14, 0, 0
14, 13, 0
14, 5, 0
14, 11, 0
2, 0, 0
2, 3, 1
2, 9, 0
1, 12, 0
1, 8, 0
1, 9, 0
1, 6, 0
9, 0, 0
9, 12, 0
9, 3, 0
9, 2, 0
9, 6, 0
9, 1, 0
