0, 7, 0
0, 8, 0
0, 4, 0
6, 8, 0
6, 10, 0
1, 3, 0
1, 5, 0
1, 11, 0
1, 2, 0
5, 3, 0
5, 9, 0
5, 1, 0
11, 3, 0
11, 2, 0
11, 1, 0
10, 6, 0
10, 8, 0
7, 0, 0
7, 4, 0
7, 9, 0
3, 2, 0
3, 9, 0
3, 5, 0
3, 11, 0
3, 1, 0
4, 0, 0
4, 7, 0
2, 3, 0
2, 11, 0
2, 1, 0
8, 0, 0
8, 6, 0
8, 10, 0
9, 7, 0
9, 3, 0
9, 5, 0
