0, 16, 0
0, 17, 0
0, 1, 0
7, 12, 0
7, 8, 1
7, 11, 0
7, 9, 0
13, 6, 0
13, 4, 0
13, 5, 0
17, 18, 1
17, 3, 0
17, 16, 0
17, 0, 0
17, 1, 0
3, 18, 0
3, 2, 0
3, 17, 0
3, 5, 0
3, 1, 0
16, 0, 0
16, 19, 0
16, 17, 0
6, 20, 0
6, 4, 0
6, 13, 0
8, 7, 1
8, 12, 0
8, 11, 0
8, 9, 0
5, 3, 0
5, 13, 0
5, 2, 0
11, 7, 0
11, 12, 0
11, 8, 0
11, 9, 0
10, 9, 1
20, 6, 0
12, 7, 0
12, 8, 0
12, 15, 0
12, 11, 0
12, 9, 0
4, 6, 0
4, 13, 0
14, 19, 0
14, 15, 0
2, 3, 0
2, 5, 0
19, 16, 0
19, 15, 0
19, 14, 0
1, 0, 0
1, 18, 0
1, 17, 0
1, 3, 0
15, 12, 0
15, 19, 0
15, 14, 0
18, 3, 0
18, 17, 1
18, 1, 0
9, 7, 0
9, 12, 0
9, 8, 0
9, 11, 0
9, 10, 1
