0, 7, 0
0, 3, 0
0, 6, 0
0, 8, 0
0, 5, 0
0, 11, 0
0, 10, 0
13, 12, 1
13, 14, 0
13, 3, 0
3, 0, 0
3, 12, 0
3, 13, 0
3, 14, 0
3, 6, 0
3, 5, 0
3, 11, 0
6, 0, 0
6, 3, 0
6, 5, 1
6, 11, 0
8, 0, 0
8, 7, 0
8, 9, 0
8, 15, 0
8, 10, 0
5, 0, 0
5, 6, 1
5, 11, 0
5, 3, 0
11, 0, 0
11, 6, 0
11, 9, 0
11, 5, 0
11, 3, 0
10, 0, 0
10, 8, 0
7, 0, 0
7, 2, 0
7, 1, 0
7, 8, 0
7, 15, 0
7, 9, 0
12, 3, 0
12, 13, 1
12, 14, 0
4, 1, 0
14, 12, 0
14, 13, 0
14, 3, 0
2, 7, 0
2, 9, 0
2, 1, 0
1, 7, 0
1, 4, 0
1, 2, 0
15, 7, 0
15, 8, 0
15, 9, 0
9, 7, 0
9, 8, 0
9, 15, 0
9, 11, 0
9, 2, 0
