13, 20, 0
13, 12, 1
13, 6, 0
13, 9, 0
13, 15, 0
13, 10, 0
17, 21, 0
17, 19, 0
17, 9, 0
23, 3, 0
23, 6, 0
23, 10, 0
23, 1, 0
5, 16, 0
5, 6, 0
5, 4, 1
5, 10, 0
5, 9, 0
11, 7, 0
11, 3, 0
11, 10, 0
11, 6, 0
1, 6, 0
1, 15, 0
1, 23, 0
20, 12, 0
20, 13, 0
20, 4, 0
20, 16, 0
20, 6, 0
20, 8, 0
20, 15, 0
20, 10, 0
20, 9, 0
4, 20, 0
4, 14, 0
4, 9, 0
4, 6, 0
4, 16, 0
4, 25, 0
4, 8, 0
4, 5, 1
4, 10, 0
14, 21, 0
14, 4, 0
14, 18, 0
14, 8, 0
14, 10, 0
14, 22, 0
14, 9, 0
24, 0, 0
24, 6, 0
24, 7, 0
24, 10, 0
8, 20, 0
8, 16, 0
8, 4, 0
8, 25, 0
8, 18, 0
8, 14, 0
8, 10, 0
8, 22, 0
8, 9, 0
15, 20, 0
15, 12, 0
15, 13, 0
15, 9, 0
15, 6, 0
15, 10, 0
15, 1, 0
22, 21, 0
22, 8, 0
22, 14, 0
22, 10, 0
22, 9, 0
0, 7, 0
0, 6, 0
0, 10, 0
0, 24, 0
3, 7, 0
3, 6, 0
3, 11, 0
3, 23, 0
3, 10, 0
16, 20, 0
16, 4, 0
16, 25, 0
16, 10, 0
16, 8, 0
16, 5, 0
16, 9, 0
6, 0, 0
6, 7, 0
6, 13, 0
6, 23, 0
6, 3, 0
6, 5, 0
6, 11, 0
6, 1, 0
6, 20, 0
6, 12, 0
6, 4, 0
6, 24, 0
6, 10, 0
6, 15, 0
6, 9, 0
10, 0, 0
10, 13, 0
10, 23, 0
10, 3, 0
10, 16, 0
10, 6, 0
10, 24, 0
10, 5, 0
10, 11, 0
10, 20, 0
10, 12, 0
10, 4, 0
10, 14, 0
10, 2, 0
10, 8, 0
10, 15, 0
10, 18, 0
10, 22, 0
10, 9, 0
7, 0, 0
7, 6, 0
7, 24, 0
7, 11, 0
7, 3, 0
12, 20, 0
12, 6, 0
12, 13, 1
12, 15, 0
12, 10, 0
25, 16, 0
25, 18, 0
25, 8, 0
25, 4, 0
25, 9, 0
2, 19, 0
2, 9, 0
2, 10, 0
21, 18, 0
21, 14, 0
21, 17, 0
21, 22, 0
19, 9, 0
19, 17, 0
19, 2, 0
18, 25, 0
18, 9, 0
18, 21, 0
18, 14, 0
18, 8, 0
18, 10, 0
9, 13, 0
9, 17, 0
9, 16, 0
9, 6, 0
9, 5, 0
9, 10, 0
9, 20, 0
9, 18, 0
9, 4, 0
9, 25, 0
9, 2, 0
9, 14, 0
9, 19, 0
9, 8, 0
9, 15, 0
9, 22, 0
