0, 3, 0
0, 8, 0
0, 9, 0
0, 4, 0
0, 1, 0
6, 4, 0
6, 9, 0
6, 1, 0
1, 0, 0
1, 6, 0
1, 4, 0
1, 7, 0
1, 9, 0
5, 11, 0
5, 2, 0
11, 10, 0
11, 8, 0
11, 5, 0
11, 2, 0
10, 8, 0
10, 11, 0
10, 2, 0
7, 4, 0
7, 9, 0
7, 1, 0
3, 0, 0
3, 8, 0
4, 0, 0
4, 6, 0
4, 7, 0
4, 9, 0
4, 1, 0
2, 5, 0
2, 11, 0
2, 10, 0
8, 0, 0
8, 3, 0
8, 11, 0
8, 10, 0
9, 7, 0
9, 6, 0
9, 4, 0
9, 0, 0
9, 1, 0
