0, 6, 0
0, 4, 0
0, 3, 0
0, 10, 0
0, 9, 0
6, 0, 0
6, 4, 0
6, 9, 0
6, 10, 0
1, 3, 0
1, 8, 0
1, 5, 0
1, 2, 1
5, 2, 0
5, 3, 0
5, 8, 0
5, 1, 0
11, 7, 0
11, 3, 0
11, 4, 0
10, 0, 0
10, 6, 0
10, 4, 0
10, 9, 1
7, 3, 0
7, 4, 0
7, 11, 0
3, 0, 0
3, 7, 0
3, 4, 0
3, 9, 0
3, 2, 0
3, 8, 0
3, 5, 0
3, 11, 0
3, 1, 0
4, 0, 0
4, 7, 0
4, 3, 0
4, 6, 0
4, 10, 0
4, 11, 0
4, 9, 0
2, 3, 0
2, 8, 0
2, 5, 0
2, 1, 1
8, 3, 0
8, 2, 0
8, 5, 0
8, 1, 0
9, 0, 0
9, 6, 0
9, 4, 0
9, 3, 0
9, 10, 1
