0, 7, 0
0, 8, 0
0, 14, 0
0, 5, 0
13, 3, 0
13, 8, 0
13, 9, 0
13, 10, 0
3, 12, 0
3, 13, 0
3, 2, 0
3, 8, 0
3, 10, 0
3, 9, 0
6, 4, 0
6, 8, 0
6, 11, 0
8, 7, 0
8, 0, 0
8, 4, 0
8, 14, 0
8, 3, 0
8, 13, 0
8, 6, 0
8, 2, 0
8, 5, 0
8, 11, 0
8, 1, 0
5, 0, 0
5, 7, 0
5, 8, 0
5, 14, 0
11, 2, 0
11, 12, 0
11, 8, 0
11, 6, 0
10, 3, 0
10, 13, 0
10, 9, 1
7, 0, 0
7, 8, 0
7, 14, 0
7, 5, 0
7, 1, 0
12, 3, 0
12, 11, 0
12, 2, 0
4, 6, 0
4, 8, 0
4, 1, 0
14, 0, 0
14, 7, 0
14, 8, 0
14, 5, 0
14, 1, 0
2, 12, 0
2, 8, 0
2, 11, 0
2, 3, 0
1, 7, 0
1, 8, 0
1, 14, 0
1, 4, 0
9, 3, 0
9, 13, 0
9, 10, 1
