0, 7, 0
0, 6, 0
0, 11, 0
0, 1, 0
6, 0, 0
6, 7, 1
6, 11, 0
1, 0, 0
1, 7, 0
1, 4, 0
1, 5, 0
5, 3, 0
5, 8, 0
5, 10, 0
5, 4, 0
5, 1, 0
11, 0, 0
11, 6, 0
11, 7, 0
10, 8, 0
10, 5, 0
10, 9, 0
7, 0, 0
7, 6, 1
7, 11, 0
7, 1, 0
3, 8, 0
3, 5, 0
3, 4, 1
4, 3, 1
4, 8, 0
4, 5, 0
4, 1, 0
2, 9, 0
8, 3, 0
8, 4, 0
8, 9, 0
8, 5, 0
8, 10, 0
9, 2, 0
9, 8, 0
9, 10, 0
