0, 7, 0
0, 3, 0
0, 4, 0
0, 2, 0
0, 1, 0
0, 8, 0
0, 10, 0
3, 0, 0
3, 7, 0
3, 4, 0
3, 2, 0
3, 6, 0
3, 1, 0
3, 8, 0
3, 10, 0
3, 9, 0
4, 0, 0
4, 3, 0
4, 2, 0
4, 6, 0
4, 1, 0
4, 10, 0
4, 5, 0
4, 9, 0
2, 0, 0
2, 3, 0
2, 4, 0
2, 10, 0
2, 8, 0
2, 7, 0
2, 1, 1
6, 3, 0
6, 4, 0
6, 5, 1
6, 10, 0
6, 9, 0
1, 7, 0
1, 3, 0
1, 4, 0
1, 2, 1
1, 8, 0
1, 10, 0
1, 0, 0
8, 0, 0
8, 3, 0
8, 7, 1
8, 2, 0
8, 10, 0
8, 1, 0
5, 6, 1
5, 4, 0
5, 10, 0
5, 9, 0
7, 0, 0
7, 3, 0
7, 2, 0
7, 8, 1
7, 1, 0
10, 0, 0
10, 3, 0
10, 4, 0
10, 2, 0
10, 6, 0
10, 1, 0
10, 8, 0
10, 5, 0
10, 9, 1
9, 3, 0
9, 6, 0
9, 4, 0
9, 5, 0
9, 10, 1
