13, 0, 0
13, 18, 0
13, 7, 0
13, 12, 0
17, 3, 0
17, 4, 0
17, 5, 0
23, 20, 0
23, 8, 0
5, 3, 0
5, 4, 1
5, 17, 0
11, 0, 0
11, 12, 1
11, 6, 0
11, 7, 0
11, 21, 0
1, 7, 0
1, 2, 0
1, 8, 0
1, 14, 0
1, 9, 0
20, 7, 0
20, 6, 0
20, 8, 0
20, 22, 0
20, 23, 0
4, 3, 0
4, 17, 0
4, 5, 1
14, 7, 0
14, 8, 0
14, 9, 0
14, 1, 0
8, 7, 0
8, 20, 0
8, 14, 0
8, 23, 0
8, 6, 0
8, 1, 0
15, 7, 0
15, 18, 0
15, 2, 0
15, 16, 1
15, 19, 0
15, 10, 0
22, 20, 0
22, 6, 0
22, 7, 0
0, 21, 0
0, 12, 0
0, 13, 0
0, 7, 0
0, 11, 0
3, 7, 0
3, 12, 0
3, 4, 0
3, 17, 0
3, 21, 0
3, 6, 0
3, 5, 0
16, 18, 0
16, 7, 0
16, 15, 1
16, 10, 0
6, 7, 1
6, 20, 0
6, 22, 0
6, 3, 0
6, 21, 0
6, 8, 0
6, 11, 0
10, 16, 0
10, 18, 0
10, 19, 0
10, 15, 0
7, 0, 0
7, 13, 0
7, 16, 0
7, 6, 1
7, 11, 0
7, 1, 0
7, 20, 0
7, 3, 0
7, 14, 0
7, 2, 0
7, 21, 0
7, 19, 0
7, 8, 0
7, 15, 0
7, 18, 0
7, 22, 0
7, 9, 0
12, 0, 0
12, 21, 0
12, 13, 0
12, 11, 1
12, 3, 0
2, 7, 0
2, 19, 0
2, 9, 0
2, 15, 0
2, 1, 0
21, 0, 0
21, 3, 0
21, 7, 0
21, 12, 0
21, 6, 0
21, 11, 0
19, 7, 0
19, 2, 0
19, 15, 0
19, 10, 0
18, 16, 0
18, 7, 0
18, 13, 0
18, 15, 0
18, 10, 0
9, 7, 0
9, 2, 0
9, 14, 0
9, 1, 0
