0, 6, 0
0, 12, 0
0, 14, 0
0, 5, 0
0, 10, 0
13, 7, 0
13, 4, 0
13, 11, 0
3, 2, 0
3, 12, 0
3, 9, 0
3, 14, 0
3, 6, 0
6, 0, 0
6, 12, 0
6, 14, 0
6, 3, 0
6, 1, 0
8, 7, 0
8, 12, 0
8, 4, 0
8, 9, 0
8, 2, 0
5, 0, 0
5, 10, 0
11, 13, 0
11, 4, 0
10, 0, 0
10, 5, 0
7, 8, 0
7, 13, 0
7, 4, 0
12, 0, 0
12, 3, 0
12, 14, 0
12, 9, 0
12, 2, 0
12, 6, 0
12, 8, 0
12, 1, 0
4, 7, 0
4, 8, 0
4, 13, 0
4, 11, 0
4, 9, 0
14, 0, 0
14, 12, 0
14, 1, 0
14, 3, 0
14, 6, 0
2, 12, 0
2, 8, 0
2, 9, 0
2, 3, 0
1, 12, 0
1, 9, 0
1, 14, 0
1, 6, 0
9, 12, 0
9, 4, 0
9, 3, 0
9, 2, 0
9, 8, 0
9, 1, 0
