0, 14, 0
0, 11, 0
13, 5, 0
13, 11, 0
13, 9, 0
3, 8, 0
3, 14, 0
16, 7, 0
16, 6, 0
16, 15, 1
16, 10, 0
6, 16, 0
6, 12, 0
6, 7, 0
6, 15, 0
6, 10, 0
8, 3, 0
8, 14, 0
8, 2, 0
5, 4, 0
5, 13, 0
5, 9, 0
5, 11, 0
5, 1, 0
11, 0, 0
11, 13, 0
11, 14, 0
11, 5, 0
10, 16, 0
10, 6, 0
10, 7, 0
10, 15, 0
7, 16, 0
7, 6, 0
7, 12, 0
7, 15, 0
7, 10, 0
12, 7, 0
12, 6, 0
12, 14, 0
12, 2, 0
4, 5, 0
4, 1, 0
14, 0, 0
14, 3, 0
14, 2, 0
14, 8, 0
14, 11, 0
14, 12, 0
2, 12, 0
2, 8, 0
2, 14, 0
1, 4, 0
1, 5, 0
15, 16, 1
15, 6, 0
15, 7, 0
15, 10, 0
9, 13, 0
9, 5, 0
