0, 7, 0
0, 4, 0
0, 13, 0
0, 9, 0
0, 10, 0
0, 1, 1
13, 0, 0
13, 7, 0
13, 4, 0
13, 14, 0
13, 8, 0
13, 10, 0
13, 9, 0
3, 12, 0
3, 4, 0
3, 6, 0
3, 8, 0
3, 5, 0
3, 11, 0
6, 7, 0
6, 12, 0
6, 4, 0
6, 3, 0
6, 2, 0
6, 8, 0
6, 5, 1
6, 11, 0
6, 1, 0
8, 3, 0
8, 13, 0
8, 4, 0
8, 2, 0
8, 6, 0
8, 5, 0
8, 11, 0
8, 12, 0
5, 12, 0
5, 4, 0
5, 3, 0
5, 2, 0
5, 6, 1
5, 8, 0
5, 11, 0
5, 1, 0
11, 12, 0
11, 3, 0
11, 2, 0
11, 6, 0
11, 8, 0
11, 5, 0
10, 0, 0
10, 7, 0
10, 13, 0
10, 14, 0
10, 4, 0
10, 9, 1
7, 0, 0
7, 13, 0
7, 14, 0
7, 9, 0
7, 4, 0
7, 6, 0
7, 10, 0
7, 1, 0
12, 3, 0
12, 4, 0
12, 6, 0
12, 8, 0
12, 5, 0
12, 11, 0
12, 1, 0
4, 0, 0
4, 13, 0
4, 3, 0
4, 6, 0
4, 1, 0
4, 5, 0
4, 10, 0
4, 7, 0
4, 12, 0
4, 14, 0
4, 8, 0
4, 9, 0
14, 7, 0
14, 13, 0
14, 9, 0
14, 4, 0
14, 10, 0
2, 6, 0
2, 8, 0
2, 5, 0
2, 11, 0
1, 0, 1
1, 12, 0
1, 4, 0
1, 6, 0
1, 7, 0
1, 5, 0
9, 0, 0
9, 7, 0
9, 13, 0
9, 14, 0
9, 4, 0
9, 10, 1
