12, 13, 1
12, 17, 0
12, 23, 0
12, 16, 0
12, 27, 0
12, 29, 0
12, 5, 0
12, 1, 0
12, 3, 0
12, 26, 0
12, 24, 0
12, 10, 0
12, 18, 0
12, 22, 0
12, 9, 0
13, 6, 0
13, 17, 0
13, 23, 0
13, 3, 0
13, 16, 0
13, 27, 0
13, 29, 0
13, 10, 0
13, 12, 1
13, 26, 0
13, 24, 0
13, 28, 0
13, 19, 0
13, 1, 0
13, 18, 0
13, 22, 0
13, 9, 0
17, 20, 0
17, 12, 0
17, 13, 0
17, 25, 0
17, 26, 0
17, 2, 0
17, 18, 1
17, 9, 0
26, 20, 0
26, 12, 0
26, 13, 0
26, 17, 0
26, 23, 0
26, 2, 0
26, 16, 0
26, 25, 0
26, 10, 0
26, 18, 0
26, 9, 0
23, 13, 0
23, 31, 0
23, 3, 0
23, 16, 0
23, 27, 0
23, 1, 0
23, 12, 0
23, 26, 0
23, 24, 1
23, 10, 0
23, 18, 0
23, 9, 0
2, 7, 0
2, 17, 0
2, 16, 0
2, 27, 0
2, 29, 0
2, 5, 0
2, 30, 0
2, 20, 0
2, 18, 0
2, 25, 0
2, 26, 0
2, 6, 0
2, 22, 0
2, 9, 0
5, 0, 0
5, 12, 0
5, 14, 0
5, 9, 0
5, 31, 0
5, 2, 0
5, 25, 0
5, 20, 0
5, 10, 0
5, 15, 0
5, 1, 0
11, 21, 0
11, 29, 0
1, 0, 1
1, 12, 0
1, 13, 0
1, 31, 0
1, 23, 0
1, 10, 0
1, 5, 0
1, 9, 0
20, 0, 0
20, 25, 0
20, 26, 0
20, 31, 0
20, 2, 0
20, 17, 0
20, 30, 0
20, 5, 0
20, 9, 0
4, 3, 0
4, 19, 0
4, 30, 0
4, 27, 0
4, 6, 0
14, 15, 1
14, 5, 0
24, 18, 0
24, 12, 0
24, 13, 0
24, 23, 1
24, 10, 0
28, 13, 0
28, 22, 0
28, 29, 0
30, 7, 0
30, 20, 0
30, 4, 0
30, 2, 0
30, 6, 0
30, 19, 0
30, 8, 0
30, 22, 0
30, 27, 0
8, 7, 1
8, 6, 0
8, 22, 0
8, 30, 0
15, 14, 1
15, 5, 0
15, 10, 0
22, 7, 0
22, 12, 0
22, 13, 0
22, 28, 0
22, 2, 0
22, 6, 0
22, 30, 0
22, 8, 0
22, 27, 0
0, 20, 0
0, 25, 0
0, 5, 0
0, 31, 0
0, 1, 1
3, 12, 0
3, 13, 0
3, 23, 0
3, 4, 0
3, 27, 0
3, 6, 0
3, 19, 0
3, 10, 0
16, 12, 0
16, 13, 0
16, 23, 0
16, 26, 0
16, 2, 0
16, 27, 0
6, 7, 0
6, 3, 0
6, 13, 0
6, 4, 0
6, 2, 0
6, 27, 0
6, 8, 0
6, 22, 0
6, 30, 0
27, 13, 0
27, 23, 0
27, 3, 0
27, 16, 0
27, 6, 0
27, 30, 0
27, 7, 0
27, 12, 0
27, 4, 0
27, 2, 0
27, 19, 0
27, 22, 0
7, 2, 0
7, 27, 0
7, 6, 0
7, 8, 1
7, 22, 0
7, 30, 0
18, 12, 0
18, 13, 0
18, 17, 1
18, 23, 0
18, 26, 0
18, 24, 0
18, 2, 0
18, 10, 0
18, 9, 0
25, 20, 0
25, 0, 0
25, 17, 0
25, 26, 0
25, 31, 0
25, 2, 0
25, 5, 0
25, 9, 0
31, 0, 0
31, 20, 0
31, 25, 0
31, 23, 0
31, 1, 0
31, 9, 0
31, 5, 0
31, 10, 0
29, 12, 0
29, 13, 0
29, 28, 0
29, 2, 0
29, 21, 0
29, 11, 0
21, 11, 0
21, 29, 0
19, 3, 0
19, 27, 0
19, 13, 0
19, 4, 0
19, 30, 0
10, 13, 0
10, 26, 0
10, 23, 0
10, 3, 0
10, 18, 0
10, 5, 0
10, 1, 0
10, 12, 0
10, 31, 0
10, 24, 0
10, 15, 0
10, 9, 0
9, 13, 0
9, 17, 0
9, 26, 0
9, 23, 0
9, 18, 0
9, 5, 0
9, 1, 0
9, 20, 0
9, 12, 0
9, 25, 0
9, 31, 0
9, 2, 0
9, 10, 0
