0, 4, 0
0, 6, 0
0, 1, 0
0, 8, 0
0, 5, 0
0, 10, 0
0, 9, 0
13, 7, 0
13, 12, 0
13, 15, 0
13, 11, 0
3, 16, 0
3, 12, 0
3, 14, 0
3, 11, 0
3, 2, 1
16, 12, 0
16, 14, 0
16, 3, 0
16, 2, 0
16, 11, 0
16, 10, 0
6, 0, 0
6, 4, 0
6, 1, 0
6, 8, 0
6, 5, 0
6, 9, 0
8, 0, 0
8, 4, 0
8, 9, 1
8, 6, 0
8, 1, 0
8, 5, 0
8, 10, 0
5, 0, 0
5, 6, 0
5, 8, 0
5, 4, 1
5, 9, 0
11, 7, 0
11, 12, 0
11, 13, 0
11, 14, 0
11, 3, 0
11, 16, 0
11, 15, 0
10, 0, 0
10, 4, 0
10, 14, 0
10, 9, 0
10, 16, 0
10, 8, 0
10, 1, 0
7, 12, 0
7, 13, 0
7, 15, 0
7, 11, 0
12, 7, 0
12, 3, 0
12, 13, 0
12, 14, 0
12, 2, 0
12, 16, 0
12, 15, 0
12, 11, 0
4, 0, 0
4, 6, 0
4, 1, 0
4, 8, 0
4, 5, 1
4, 10, 0
4, 9, 0
14, 12, 0
14, 3, 0
14, 2, 0
14, 16, 0
14, 11, 0
14, 10, 0
2, 16, 0
2, 12, 0
2, 14, 0
2, 3, 1
1, 0, 0
1, 4, 0
1, 6, 0
1, 8, 0
1, 10, 0
1, 9, 0
15, 7, 0
15, 12, 0
15, 13, 0
15, 11, 0
9, 0, 0
9, 4, 0
9, 6, 0
9, 8, 1
9, 5, 0
9, 10, 0
9, 1, 0
