0, 7, 0
0, 3, 0
3, 0, 0
3, 9, 0
4, 2, 0
4, 5, 0
4, 10, 0
2, 4, 0
2, 5, 0
2, 1, 0
6, 8, 0
6, 9, 0
1, 5, 0
1, 2, 0
8, 6, 0
8, 9, 0
5, 1, 0
5, 4, 0
5, 2, 0
7, 0, 0
7, 10, 0
10, 7, 0
10, 4, 0
9, 3, 0
9, 8, 0
9, 6, 0
