0, 7, 0
0, 3, 0
0, 6, 0
0, 9, 0
0, 5, 0
0, 10, 0
3, 0, 0
3, 5, 0
3, 9, 0
4, 1, 0
4, 8, 0
4, 5, 0
4, 9, 0
2, 1, 0
6, 0, 0
6, 7, 1
6, 10, 0
1, 8, 0
1, 4, 0
1, 2, 0
8, 4, 0
8, 1, 0
5, 0, 0
5, 3, 0
5, 4, 0
5, 9, 0
7, 0, 0
7, 6, 1
7, 10, 0
10, 0, 0
10, 7, 0
10, 6, 0
9, 0, 0
9, 3, 0
9, 4, 0
9, 5, 0
