0, 6, 0
0, 5, 0
0, 2, 0
3, 7, 0
3, 4, 1
3, 9, 0
4, 7, 0
4, 3, 1
4, 9, 0
2, 0, 0
2, 6, 0
2, 5, 0
6, 0, 0
6, 2, 0
1, 7, 0
1, 8, 0
1, 5, 0
8, 7, 0
8, 5, 0
8, 1, 0
5, 0, 0
5, 2, 0
5, 8, 0
5, 1, 0
7, 3, 0
7, 1, 0
7, 8, 0
7, 4, 0
7, 9, 0
9, 7, 0
9, 3, 0
9, 4, 0
