0, 1, 0
0, 8, 0
0, 9, 0
13, 12, 1
13, 3, 0
13, 11, 0
13, 2, 0
3, 12, 0
3, 13, 0
3, 2, 0
6, 7, 1
6, 4, 0
6, 10, 0
6, 5, 0
6, 11, 0
6, 1, 0
8, 0, 0
8, 9, 1
8, 1, 0
5, 7, 0
5, 4, 0
5, 6, 0
5, 1, 0
5, 11, 0
5, 10, 0
11, 7, 0
11, 4, 0
11, 13, 0
11, 6, 0
11, 1, 0
11, 5, 0
11, 10, 1
10, 7, 0
10, 4, 0
10, 6, 0
10, 5, 0
10, 11, 1
10, 1, 0
7, 4, 0
7, 6, 1
7, 1, 0
7, 5, 0
7, 11, 0
7, 10, 0
12, 3, 0
12, 13, 1
12, 2, 0
4, 7, 0
4, 14, 0
4, 2, 0
4, 6, 0
4, 1, 0
4, 15, 0
4, 5, 0
4, 11, 0
4, 10, 0
14, 4, 0
14, 15, 1
14, 2, 0
2, 12, 0
2, 13, 0
2, 14, 0
2, 4, 0
2, 3, 0
2, 15, 0
1, 0, 0
1, 7, 0
1, 4, 0
1, 10, 0
1, 6, 0
1, 8, 0
1, 5, 0
1, 11, 0
1, 9, 0
15, 4, 0
15, 14, 1
15, 2, 0
9, 0, 0
9, 8, 1
9, 1, 0
