13, 34, 0
13, 6, 0
13, 8, 0
13, 22, 0
13, 29, 0
17, 7, 0
17, 23, 0
17, 2, 0
17, 18, 0
17, 36, 0
17, 40, 0
17, 47, 0
17, 1, 0
23, 7, 0
23, 4, 0
23, 17, 0
23, 26, 0
23, 2, 0
23, 18, 0
23, 24, 0
23, 47, 0
23, 36, 0
42, 7, 0
42, 46, 0
42, 43, 0
42, 11, 0
42, 18, 0
42, 27, 0
42, 15, 0
42, 5, 0
42, 47, 0
42, 48, 0
46, 45, 0
46, 28, 0
46, 16, 0
46, 2, 0
46, 4, 0
46, 25, 0
46, 26, 0
46, 24, 0
46, 42, 0
46, 9, 0
46, 38, 0
46, 36, 0
20, 21, 0
20, 3, 0
20, 50, 0
20, 29, 0
34, 13, 0
34, 32, 0
34, 35, 0
34, 6, 0
34, 19, 0
34, 8, 0
34, 22, 0
34, 30, 0
14, 33, 0
14, 8, 0
14, 29, 0
24, 7, 0
24, 4, 0
24, 25, 0
24, 23, 0
24, 2, 0
24, 18, 0
24, 46, 0
24, 47, 0
28, 41, 0
28, 45, 0
28, 16, 0
28, 10, 0
28, 19, 0
28, 9, 0
28, 38, 0
28, 46, 0
28, 44, 0
39, 21, 0
39, 50, 0
39, 29, 0
41, 0, 0
41, 28, 0
41, 19, 0
41, 9, 0
41, 44, 0
41, 10, 0
0, 19, 0
0, 41, 0
0, 32, 0
0, 10, 0
8, 34, 0
8, 13, 0
8, 14, 0
8, 33, 0
8, 18, 0
8, 6, 0
8, 19, 0
8, 29, 0
8, 47, 0
33, 3, 0
33, 8, 0
33, 14, 0
33, 29, 0
15, 37, 0
15, 12, 0
15, 42, 0
15, 5, 0
15, 48, 0
47, 8, 0
47, 17, 0
47, 23, 0
47, 16, 0
47, 40, 0
47, 11, 0
47, 10, 0
47, 3, 0
47, 32, 0
47, 24, 0
47, 42, 0
47, 49, 0
47, 18, 0
10, 0, 0
10, 28, 0
10, 18, 0
10, 19, 0
10, 41, 0
10, 47, 0
10, 9, 0
7, 24, 0
7, 17, 0
7, 23, 0
7, 2, 0
7, 42, 0
7, 36, 0
7, 49, 0
7, 40, 0
7, 11, 0
7, 1, 0
3, 20, 0
3, 33, 0
3, 18, 0
3, 47, 0
3, 29, 0
32, 0, 0
32, 34, 0
32, 31, 0
32, 35, 0
32, 18, 0
32, 6, 0
32, 19, 0
32, 47, 0
2, 7, 0
2, 4, 0
2, 17, 0
2, 26, 0
2, 23, 0
2, 24, 0
2, 18, 0
2, 36, 0
2, 46, 0
2, 1, 0
21, 20, 0
21, 39, 0
21, 50, 0
21, 29, 0
19, 0, 0
19, 45, 0
19, 28, 0
19, 31, 0
19, 6, 0
19, 44, 0
19, 10, 0
19, 34, 0
19, 32, 0
19, 35, 0
19, 8, 0
19, 41, 0
49, 7, 0
49, 18, 0
49, 40, 0
49, 11, 0
49, 47, 0
18, 8, 0
18, 17, 0
18, 23, 0
18, 16, 0
18, 2, 0
18, 40, 0
18, 47, 0
18, 10, 0
18, 3, 0
18, 4, 0
18, 11, 0
18, 32, 0
18, 24, 0
18, 42, 0
18, 49, 0
18, 9, 0
31, 6, 0
31, 19, 0
31, 32, 0
31, 35, 0
29, 20, 0
29, 3, 0
29, 13, 0
29, 14, 0
29, 50, 0
29, 33, 0
29, 21, 0
29, 8, 0
29, 39, 0
29, 22, 0
40, 7, 0
40, 18, 0
40, 49, 0
40, 17, 0
40, 47, 0
11, 7, 0
11, 18, 0
11, 49, 0
11, 47, 0
11, 42, 0
5, 12, 0
5, 43, 0
5, 15, 0
5, 48, 0
5, 42, 0
37, 12, 0
37, 15, 0
4, 26, 0
4, 23, 0
4, 2, 0
4, 18, 0
4, 24, 0
4, 46, 0
35, 34, 0
35, 31, 0
35, 32, 0
35, 6, 0
35, 19, 0
35, 30, 0
30, 34, 0
30, 6, 0
30, 22, 0
30, 35, 0
38, 16, 0
38, 45, 0
38, 28, 0
38, 46, 0
22, 34, 0
22, 29, 0
22, 13, 0
22, 30, 0
22, 6, 0
36, 7, 0
36, 17, 0
36, 23, 0
36, 26, 0
36, 2, 0
36, 46, 0
36, 1, 0
45, 28, 0
45, 16, 0
45, 19, 0
45, 9, 0
45, 38, 0
45, 44, 0
45, 46, 0
16, 45, 0
16, 25, 0
16, 18, 0
16, 28, 0
16, 38, 0
16, 46, 0
16, 47, 0
16, 9, 0
27, 42, 0
27, 43, 0
27, 48, 0
27, 12, 0
1, 7, 0
1, 36, 0
1, 17, 0
1, 2, 0
44, 45, 0
44, 19, 0
44, 28, 0
44, 41, 0
44, 9, 0
48, 12, 0
48, 43, 0
48, 42, 0
48, 27, 0
48, 15, 0
48, 5, 0
12, 37, 0
12, 27, 0
12, 15, 0
12, 48, 0
12, 5, 0
25, 16, 0
25, 46, 0
25, 24, 0
50, 20, 0
50, 21, 0
50, 39, 0
50, 29, 0
26, 36, 0
26, 4, 0
26, 46, 0
26, 23, 0
26, 2, 0
6, 34, 0
6, 13, 0
6, 31, 0
6, 32, 0
6, 35, 0
6, 19, 0
6, 8, 0
6, 22, 0
6, 30, 0
43, 27, 0
43, 42, 0
43, 5, 0
43, 48, 0
9, 41, 0
9, 45, 0
9, 28, 0
9, 44, 0
9, 16, 0
9, 46, 0
9, 18, 0
9, 10, 0
