0, 6, 0
0, 8, 0
0, 5, 0
0, 11, 0
0, 12, 0
13, 3, 0
13, 8, 0
13, 14, 1
17, 11, 0
3, 13, 0
3, 14, 0
3, 4, 0
3, 16, 0
3, 8, 0
3, 1, 0
16, 3, 0
16, 4, 0
16, 15, 1
16, 1, 0
6, 0, 0
6, 12, 0
6, 8, 0
6, 5, 1
6, 11, 0
8, 0, 0
8, 12, 0
8, 13, 0
8, 14, 0
8, 3, 0
8, 6, 0
5, 0, 0
5, 12, 0
5, 6, 1
11, 0, 0
11, 12, 0
11, 17, 0
11, 6, 0
10, 7, 0
10, 2, 0
10, 9, 1
10, 1, 0
7, 2, 0
7, 10, 0
7, 1, 0
12, 0, 0
12, 6, 0
12, 8, 0
12, 5, 0
12, 11, 0
4, 16, 0
4, 3, 0
4, 15, 0
4, 1, 0
14, 3, 0
14, 8, 0
14, 13, 1
2, 7, 0
2, 9, 0
2, 10, 0
2, 1, 0
1, 7, 0
1, 3, 0
1, 4, 0
1, 2, 0
1, 16, 0
1, 9, 0
1, 15, 0
1, 10, 0
15, 16, 1
15, 4, 0
15, 1, 0
9, 2, 0
9, 10, 1
9, 1, 0
