13, 12, 1
13, 14, 1
13, 3, 0
13, 2, 0
13, 6, 0
13, 5, 0
17, 16, 1
17, 20, 0
17, 22, 0
17, 10, 0
5, 13, 0
5, 3, 0
5, 6, 1
5, 1, 0
5, 10, 0
5, 20, 0
5, 12, 0
5, 14, 0
5, 2, 0
5, 8, 0
5, 15, 0
5, 22, 0
11, 21, 0
11, 18, 0
11, 19, 0
11, 15, 0
1, 7, 0
1, 4, 0
1, 2, 0
1, 18, 0
1, 15, 0
1, 5, 0
1, 9, 0
20, 17, 0
20, 16, 0
20, 14, 0
20, 8, 0
20, 5, 0
20, 22, 0
20, 10, 0
4, 7, 0
4, 18, 0
4, 9, 0
4, 1, 0
14, 20, 0
14, 3, 0
14, 13, 1
14, 2, 0
14, 6, 0
14, 5, 0
14, 22, 0
8, 0, 0
8, 3, 0
8, 12, 0
8, 6, 0
8, 20, 0
8, 2, 0
8, 15, 0
8, 5, 0
8, 22, 0
15, 0, 0
15, 3, 0
15, 22, 0
15, 2, 0
15, 21, 0
15, 19, 0
15, 8, 0
15, 5, 0
15, 11, 0
15, 1, 0
22, 20, 0
22, 3, 0
22, 14, 0
22, 2, 0
22, 16, 0
22, 6, 0
22, 8, 0
22, 15, 0
22, 5, 0
22, 17, 0
22, 10, 0
0, 19, 0
0, 8, 0
0, 15, 0
3, 12, 0
3, 13, 0
3, 14, 0
3, 2, 1
3, 6, 0
3, 8, 0
3, 15, 0
3, 5, 0
3, 22, 0
16, 20, 0
16, 17, 1
16, 22, 0
16, 10, 0
6, 3, 0
6, 13, 0
6, 14, 0
6, 2, 0
6, 8, 0
6, 5, 1
6, 22, 0
6, 12, 0
10, 20, 0
10, 16, 0
10, 17, 0
10, 5, 0
10, 22, 0
7, 18, 0
7, 1, 0
7, 4, 0
7, 9, 0
12, 3, 0
12, 13, 1
12, 2, 0
12, 6, 0
12, 8, 0
12, 5, 0
2, 3, 1
2, 13, 0
2, 14, 0
2, 12, 0
2, 6, 0
2, 8, 0
2, 15, 0
2, 5, 0
2, 22, 0
2, 1, 0
21, 19, 0
21, 15, 0
21, 11, 0
19, 0, 0
19, 21, 0
19, 15, 0
19, 11, 0
18, 7, 0
18, 4, 0
18, 9, 0
18, 11, 0
18, 1, 0
9, 7, 0
9, 18, 0
9, 4, 0
9, 1, 0
