0, 7, 0
0, 4, 0
0, 6, 0
0, 1, 0
0, 10, 0
0, 9, 0
3, 8, 0
3, 5, 0
3, 10, 0
4, 0, 0
4, 10, 0
4, 9, 0
2, 5, 0
6, 0, 0
6, 7, 1
6, 1, 0
1, 0, 0
1, 7, 0
1, 6, 0
8, 3, 0
8, 10, 0
5, 3, 0
5, 2, 0
7, 0, 0
7, 6, 1
7, 1, 0
10, 0, 0
10, 3, 0
10, 8, 0
10, 4, 0
10, 9, 0
9, 0, 0
9, 4, 0
9, 10, 0
