0, 1, 0
0, 8, 0
0, 4, 0
0, 9, 0
13, 7, 0
13, 3, 0
13, 2, 0
13, 8, 0
13, 11, 0
13, 1, 0
3, 13, 0
3, 11, 0
6, 1, 0
6, 8, 0
6, 14, 0
6, 10, 0
8, 0, 0
8, 13, 0
8, 6, 0
8, 5, 0
8, 1, 0
8, 7, 0
8, 12, 0
8, 4, 0
8, 14, 0
8, 2, 0
8, 10, 0
8, 9, 1
5, 8, 0
5, 14, 0
5, 1, 0
11, 3, 0
11, 13, 0
10, 6, 0
10, 8, 0
10, 9, 0
10, 1, 0
7, 2, 0
7, 12, 0
7, 8, 0
7, 13, 0
7, 1, 0
12, 7, 0
12, 8, 0
12, 4, 0
12, 1, 0
4, 0, 0
4, 12, 0
4, 8, 0
4, 1, 0
14, 6, 0
14, 8, 0
14, 5, 0
14, 1, 0
2, 7, 0
2, 8, 0
2, 13, 0
2, 1, 1
1, 0, 0
1, 13, 0
1, 6, 0
1, 5, 0
1, 10, 0
1, 7, 0
1, 12, 0
1, 4, 0
1, 14, 0
1, 2, 1
1, 8, 0
1, 9, 0
9, 0, 0
9, 8, 1
9, 10, 0
9, 1, 0
