0, 12, 0
0, 14, 0
0, 9, 0
13, 7, 0
13, 4, 0
13, 10, 0
13, 6, 0
13, 8, 0
13, 15, 0
13, 5, 0
13, 11, 0
13, 1, 0
3, 12, 0
3, 8, 0
3, 9, 0
3, 1, 0
6, 7, 0
6, 13, 0
6, 4, 0
6, 15, 0
6, 5, 1
6, 11, 0
6, 10, 0
8, 7, 0
8, 3, 0
8, 13, 0
8, 4, 0
8, 9, 0
8, 1, 0
5, 7, 0
5, 13, 0
5, 4, 0
5, 6, 1
5, 1, 0
5, 15, 0
5, 11, 0
5, 10, 0
11, 7, 0
11, 13, 0
11, 6, 0
11, 15, 0
11, 5, 0
11, 10, 1
10, 7, 0
10, 13, 0
10, 4, 0
10, 6, 0
10, 15, 0
10, 5, 0
10, 11, 1
10, 1, 0
7, 13, 0
7, 4, 0
7, 10, 0
7, 6, 0
7, 8, 0
7, 15, 0
7, 5, 0
7, 11, 0
7, 1, 0
12, 0, 0
12, 3, 0
12, 1, 0
12, 9, 0
4, 7, 0
4, 13, 0
4, 6, 0
4, 1, 0
4, 8, 0
4, 15, 0
4, 5, 0
4, 10, 0
14, 0, 0
14, 2, 0
14, 9, 0
14, 1, 0
2, 9, 0
2, 14, 0
2, 1, 0
1, 13, 0
1, 12, 0
1, 5, 0
1, 10, 0
1, 7, 0
1, 3, 0
1, 4, 0
1, 14, 0
1, 2, 0
1, 8, 0
1, 15, 0
1, 9, 0
15, 7, 0
15, 13, 0
15, 4, 0
15, 6, 0
15, 1, 0
15, 5, 0
15, 11, 0
15, 10, 0
9, 0, 0
9, 12, 0
9, 14, 0
9, 3, 0
9, 2, 0
9, 8, 0
9, 1, 0
