12, 20, 0
12, 13, 0
12, 32, 0
12, 23, 0
12, 24, 0
12, 39, 0
12, 19, 0
12, 15, 0
13, 20, 0
13, 12, 0
13, 4, 0
13, 32, 0
13, 23, 0
13, 24, 0
13, 29, 0
13, 15, 0
13, 5, 0
13, 11, 0
13, 30, 0
17, 3, 0
17, 14, 0
17, 35, 0
17, 16, 1
17, 25, 0
17, 22, 0
17, 36, 0
31, 4, 0
31, 28, 0
31, 6, 0
31, 21, 0
31, 14, 0
31, 5, 0
31, 30, 1
23, 12, 0
23, 13, 0
23, 32, 0
23, 24, 1
23, 37, 0
23, 33, 0
23, 15, 0
23, 39, 0
23, 5, 0
24, 12, 0
24, 13, 0
24, 32, 0
24, 23, 1
24, 33, 0
24, 37, 0
24, 4, 0
24, 39, 0
24, 15, 0
24, 5, 0
24, 30, 0
5, 13, 0
5, 28, 0
5, 32, 0
5, 23, 0
5, 18, 0
5, 6, 0
5, 29, 0
5, 11, 0
5, 30, 0
5, 34, 0
5, 4, 1
5, 31, 0
5, 24, 0
5, 21, 0
5, 15, 0
5, 36, 0
11, 13, 0
11, 6, 0
11, 5, 0
11, 30, 0
11, 34, 0
11, 4, 0
11, 32, 0
11, 29, 0
11, 21, 0
11, 8, 0
11, 15, 0
11, 36, 0
1, 18, 0
1, 3, 0
1, 38, 0
1, 25, 0
1, 26, 0
20, 12, 0
20, 19, 0
20, 13, 0
20, 39, 0
20, 2, 0
21, 28, 0
21, 6, 0
21, 5, 0
21, 11, 0
21, 10, 0
21, 4, 0
21, 9, 0
21, 31, 0
21, 29, 0
21, 30, 0
21, 15, 0
21, 36, 0
4, 13, 0
4, 28, 0
4, 6, 0
4, 29, 0
4, 5, 1
4, 11, 0
4, 30, 0
4, 34, 0
4, 31, 0
4, 24, 0
4, 21, 0
4, 8, 0
4, 15, 0
4, 36, 0
14, 0, 0
14, 17, 0
14, 3, 0
14, 6, 0
14, 30, 0
14, 7, 0
14, 34, 0
14, 25, 0
14, 31, 0
14, 35, 0
14, 9, 0
14, 38, 0
14, 22, 0
14, 36, 0
39, 20, 0
39, 33, 0
39, 32, 0
39, 23, 0
39, 12, 0
39, 24, 0
35, 0, 0
35, 17, 0
35, 3, 0
35, 36, 0
35, 7, 0
35, 34, 0
35, 14, 0
35, 25, 0
35, 8, 0
35, 38, 0
35, 22, 0
35, 9, 0
28, 4, 0
28, 9, 0
28, 31, 0
28, 21, 0
28, 6, 0
28, 36, 0
28, 5, 0
28, 30, 0
30, 0, 0
30, 13, 0
30, 28, 0
30, 6, 0
30, 29, 0
30, 5, 0
30, 11, 0
30, 34, 0
30, 4, 0
30, 14, 0
30, 31, 1
30, 24, 0
30, 21, 0
30, 15, 0
30, 22, 0
30, 36, 0
8, 7, 1
8, 34, 0
8, 4, 0
8, 3, 0
8, 35, 0
8, 6, 0
8, 36, 0
8, 29, 0
8, 38, 0
8, 11, 0
8, 0, 0
15, 0, 0
15, 13, 0
15, 23, 0
15, 12, 0
15, 29, 0
15, 5, 0
15, 11, 0
15, 10, 0
15, 37, 0
15, 33, 0
15, 4, 0
15, 32, 0
15, 24, 0
15, 21, 0
15, 30, 0
15, 9, 0
22, 0, 0
22, 34, 0
22, 7, 0
22, 14, 0
22, 9, 0
22, 3, 0
22, 16, 0
22, 17, 0
22, 35, 0
22, 25, 0
22, 30, 0
36, 0, 0
36, 17, 0
36, 34, 0
36, 6, 0
36, 29, 0
36, 5, 0
36, 11, 0
36, 30, 0
36, 21, 0
36, 33, 0
36, 4, 0
36, 14, 0
36, 35, 0
36, 37, 0
36, 28, 0
36, 8, 0
36, 38, 0
36, 9, 0
0, 3, 0
0, 34, 0
0, 6, 0
0, 30, 0
0, 7, 0
0, 33, 0
0, 14, 0
0, 9, 0
0, 35, 0
0, 37, 0
0, 8, 0
0, 15, 0
0, 22, 0
0, 36, 0
6, 0, 0
6, 28, 0
6, 18, 0
6, 5, 0
6, 11, 0
6, 30, 0
6, 7, 0
6, 34, 0
6, 4, 0
6, 14, 0
6, 31, 0
6, 29, 0
6, 21, 0
6, 8, 0
6, 38, 0
6, 36, 0
3, 0, 0
3, 16, 0
3, 17, 0
3, 18, 0
3, 1, 0
3, 7, 0
3, 34, 0
3, 14, 0
3, 35, 0
3, 25, 0
3, 8, 0
3, 38, 0
3, 22, 0
3, 9, 0
16, 3, 0
16, 17, 1
16, 25, 0
16, 26, 0
16, 22, 0
38, 3, 0
38, 18, 0
38, 6, 0
38, 29, 0
38, 1, 0
38, 7, 0
38, 34, 0
38, 14, 0
38, 9, 0
38, 35, 0
38, 25, 0
38, 8, 0
38, 36, 0
27, 25, 0
27, 26, 0
10, 21, 0
10, 15, 0
7, 0, 0
7, 34, 0
7, 14, 0
7, 3, 0
7, 35, 0
7, 6, 0
7, 8, 1
7, 38, 0
7, 25, 0
7, 22, 0
7, 9, 0
34, 0, 0
34, 6, 0
34, 5, 0
34, 11, 0
34, 30, 0
34, 7, 0
34, 3, 0
34, 4, 0
34, 14, 0
34, 35, 0
34, 25, 0
34, 8, 0
34, 38, 0
34, 22, 0
34, 36, 0
25, 17, 0
25, 34, 0
25, 16, 0
25, 27, 0
25, 1, 0
25, 7, 0
25, 3, 0
25, 14, 0
25, 35, 0
25, 38, 0
25, 18, 0
25, 22, 0
33, 0, 0
33, 32, 0
33, 23, 0
33, 24, 0
33, 37, 0
33, 39, 0
33, 9, 0
33, 15, 0
33, 36, 0
32, 13, 0
32, 23, 0
32, 12, 0
32, 15, 0
32, 29, 0
32, 5, 0
32, 11, 0
32, 33, 0
32, 24, 0
32, 37, 0
32, 39, 0
32, 9, 0
2, 20, 0
37, 0, 0
37, 33, 0
37, 32, 0
37, 23, 0
37, 24, 0
37, 9, 0
37, 15, 0
37, 36, 0
29, 13, 0
29, 38, 0
29, 6, 0
29, 5, 0
29, 11, 0
29, 30, 0
29, 4, 0
29, 32, 0
29, 21, 0
29, 8, 0
29, 15, 0
29, 36, 0
19, 20, 0
19, 12, 0
26, 18, 0
26, 16, 0
26, 27, 0
26, 1, 0
18, 3, 0
18, 25, 0
18, 26, 0
18, 6, 0
18, 38, 0
18, 5, 0
18, 1, 0
9, 0, 0
9, 37, 0
9, 28, 0
9, 33, 0
9, 15, 0
9, 7, 0
9, 3, 0
9, 14, 0
9, 32, 0
9, 35, 0
9, 21, 0
9, 38, 0
9, 22, 0
9, 36, 0
