13, 3, 0
13, 19, 0
13, 10, 0
13, 5, 0
13, 11, 0
13, 9, 0
17, 0, 0
17, 16, 0
17, 14, 0
5, 13, 0
5, 18, 0
5, 6, 0
5, 19, 0
5, 10, 0
5, 11, 0
5, 9, 0
11, 20, 0
11, 7, 0
11, 13, 0
11, 18, 0
11, 6, 0
11, 19, 0
11, 9, 0
11, 5, 0
11, 22, 0
11, 10, 1
1, 16, 0
1, 4, 0
1, 14, 0
1, 2, 1
20, 11, 0
20, 18, 0
20, 6, 0
20, 19, 0
20, 9, 0
20, 22, 0
20, 10, 0
4, 3, 0
4, 14, 0
4, 2, 0
4, 16, 0
4, 12, 0
4, 1, 0
14, 16, 0
14, 2, 0
14, 4, 0
14, 17, 0
14, 1, 0
8, 12, 0
8, 19, 0
8, 15, 0
15, 7, 0
15, 12, 0
15, 19, 0
15, 8, 0
15, 3, 0
22, 20, 0
22, 7, 0
22, 21, 1
22, 19, 0
22, 11, 0
22, 10, 0
0, 16, 0
0, 17, 0
3, 12, 0
3, 13, 0
3, 4, 0
3, 21, 0
3, 19, 0
3, 15, 0
16, 0, 0
16, 14, 0
16, 4, 0
16, 17, 0
16, 1, 0
6, 20, 0
6, 18, 0
6, 19, 0
6, 10, 0
6, 5, 0
6, 11, 0
6, 9, 0
10, 20, 0
10, 13, 0
10, 22, 0
10, 18, 0
10, 6, 0
10, 19, 0
10, 5, 0
10, 11, 1
10, 9, 0
7, 12, 0
7, 11, 0
7, 21, 0
7, 19, 0
7, 15, 0
7, 22, 0
12, 7, 0
12, 3, 0
12, 4, 0
12, 21, 0
12, 19, 0
12, 8, 0
12, 15, 0
2, 4, 0
2, 14, 0
2, 1, 1
21, 7, 0
21, 12, 0
21, 19, 0
21, 22, 1
21, 3, 0
19, 7, 0
19, 13, 0
19, 12, 0
19, 18, 0
19, 6, 0
19, 5, 0
19, 11, 0
19, 10, 0
19, 20, 0
19, 3, 0
19, 21, 0
19, 8, 0
19, 15, 0
19, 22, 0
18, 20, 0
18, 6, 0
18, 19, 0
18, 9, 0
18, 5, 0
18, 11, 0
18, 10, 0
9, 20, 0
9, 13, 0
9, 18, 0
9, 6, 0
9, 5, 0
9, 11, 0
9, 10, 0
