0, 7, 0
0, 12, 0
0, 13, 0
0, 1, 0
0, 8, 0
0, 5, 0
0, 10, 0
0, 11, 0
0, 9, 0
13, 0, 0
13, 6, 0
13, 8, 0
13, 9, 0
13, 1, 0
3, 7, 0
3, 4, 1
3, 9, 0
6, 13, 0
6, 11, 0
6, 1, 0
8, 0, 0
8, 7, 0
8, 13, 0
5, 0, 0
5, 10, 0
5, 11, 0
5, 2, 0
11, 0, 0
11, 6, 0
11, 5, 0
10, 0, 0
10, 12, 0
10, 5, 0
10, 2, 0
7, 0, 0
7, 3, 0
7, 8, 0
7, 4, 0
7, 9, 0
12, 0, 0
12, 10, 0
4, 7, 0
4, 3, 1
4, 9, 0
2, 5, 0
2, 10, 0
1, 0, 0
1, 6, 0
1, 13, 0
9, 0, 0
9, 7, 0
9, 4, 0
9, 13, 0
9, 3, 0
