13, 20, 0
13, 37, 0
13, 51, 0
13, 18, 0
13, 5, 0
13, 10, 0
13, 7, 0
13, 33, 0
13, 9, 0
13, 21, 0
13, 19, 0
13, 49, 0
13, 30, 0
17, 18, 0
17, 5, 0
17, 23, 0
23, 18, 0
23, 42, 0
23, 17, 0
23, 5, 0
42, 22, 0
42, 51, 0
42, 23, 0
42, 12, 0
42, 18, 0
42, 5, 0
42, 11, 0
42, 44, 0
42, 3, 0
42, 4, 0
42, 47, 0
42, 26, 0
42, 15, 0
42, 41, 0
42, 48, 0
42, 36, 0
46, 0, 0
46, 3, 0
46, 14, 0
46, 50, 0
46, 26, 0
46, 25, 0
46, 40, 0
46, 48, 0
20, 13, 0
20, 21, 1
20, 18, 0
20, 27, 0
20, 5, 0
20, 7, 0
20, 33, 0
20, 43, 0
20, 37, 0
20, 19, 0
20, 49, 0
20, 38, 0
20, 9, 0
34, 7, 0
34, 33, 1
34, 35, 1
34, 51, 0
34, 2, 0
34, 6, 0
34, 29, 0
14, 0, 0
14, 46, 0
14, 26, 0
14, 48, 0
24, 12, 0
24, 4, 0
28, 45, 0
28, 11, 0
28, 47, 0
28, 3, 0
39, 16, 0
39, 49, 0
39, 30, 0
41, 3, 0
41, 4, 0
41, 50, 0
41, 42, 0
41, 1, 0
41, 36, 0
0, 25, 0
0, 50, 0
0, 26, 0
0, 14, 0
0, 46, 0
0, 48, 0
8, 43, 0
8, 50, 0
8, 29, 0
8, 16, 0
8, 6, 0
8, 10, 0
51, 13, 0
51, 33, 0
51, 18, 0
51, 6, 0
51, 2, 0
51, 5, 0
51, 44, 0
51, 7, 0
51, 34, 0
51, 35, 0
51, 29, 0
51, 42, 0
33, 20, 0
33, 7, 0
33, 2, 0
33, 13, 0
33, 51, 0
33, 34, 1
33, 18, 0
33, 19, 0
33, 29, 0
33, 9, 0
15, 12, 0
15, 4, 0
15, 50, 0
15, 3, 0
15, 42, 0
15, 11, 0
47, 3, 0
47, 28, 0
47, 42, 0
10, 21, 0
10, 13, 0
10, 43, 0
10, 9, 0
10, 16, 0
10, 6, 0
10, 19, 0
10, 8, 0
10, 30, 0
7, 20, 0
7, 33, 0
7, 2, 0
7, 13, 0
7, 51, 0
7, 34, 0
7, 37, 0
7, 29, 0
7, 19, 0
7, 35, 0
7, 9, 0
3, 28, 0
3, 18, 0
3, 40, 0
3, 5, 0
3, 11, 0
3, 46, 0
3, 41, 0
3, 12, 0
3, 4, 0
3, 42, 0
3, 50, 0
3, 26, 0
3, 47, 0
3, 44, 0
3, 15, 0
3, 48, 0
3, 22, 0
3, 36, 0
32, 21, 0
32, 43, 0
2, 7, 0
2, 33, 0
2, 35, 0
2, 51, 0
2, 34, 0
2, 37, 0
2, 29, 0
21, 20, 1
21, 13, 0
21, 43, 0
21, 32, 0
21, 27, 0
21, 19, 0
21, 38, 0
21, 10, 0
19, 7, 0
19, 13, 0
19, 21, 0
19, 27, 0
19, 5, 0
19, 10, 0
19, 20, 0
19, 33, 0
19, 43, 0
19, 37, 0
19, 49, 0
19, 9, 0
49, 20, 0
49, 16, 0
49, 13, 0
49, 31, 0
49, 37, 0
49, 19, 0
49, 9, 0
49, 39, 0
49, 30, 0
18, 13, 0
18, 17, 0
18, 51, 0
18, 23, 0
18, 33, 0
18, 16, 0
18, 6, 0
18, 5, 0
18, 44, 0
18, 20, 0
18, 3, 0
18, 50, 0
18, 35, 0
18, 42, 0
31, 37, 0
31, 16, 0
31, 6, 0
31, 49, 0
31, 29, 0
29, 51, 0
29, 34, 0
29, 16, 0
29, 6, 0
29, 2, 0
29, 44, 0
29, 7, 0
29, 33, 0
29, 31, 0
29, 35, 0
29, 37, 0
29, 8, 0
40, 3, 0
40, 25, 0
40, 50, 0
40, 26, 0
40, 46, 0
40, 44, 0
11, 3, 0
11, 28, 0
11, 50, 0
11, 45, 0
11, 42, 0
11, 15, 0
5, 13, 0
5, 17, 0
5, 51, 0
5, 23, 0
5, 18, 0
5, 44, 0
5, 20, 0
5, 3, 0
5, 26, 0
5, 42, 0
5, 19, 0
5, 9, 0
37, 20, 0
37, 7, 0
37, 13, 0
37, 49, 0
37, 31, 0
37, 29, 0
37, 19, 0
37, 2, 0
37, 9, 0
4, 12, 0
4, 3, 0
4, 24, 0
4, 42, 0
4, 15, 0
4, 41, 0
4, 1, 0
35, 7, 0
35, 34, 1
35, 51, 0
35, 2, 0
35, 16, 0
35, 6, 0
35, 29, 0
35, 18, 0
35, 44, 0
30, 13, 0
30, 9, 0
30, 16, 0
30, 49, 0
30, 39, 0
30, 10, 0
38, 20, 0
38, 21, 0
38, 43, 0
38, 27, 0
22, 3, 0
22, 42, 0
22, 48, 0
22, 36, 0
36, 3, 0
36, 50, 0
36, 42, 0
36, 41, 0
36, 22, 0
36, 48, 0
45, 6, 0
45, 28, 0
45, 50, 0
45, 11, 0
16, 8, 0
16, 18, 0
16, 6, 0
16, 29, 0
16, 44, 0
16, 30, 0
16, 43, 0
16, 50, 0
16, 31, 0
16, 35, 0
16, 49, 0
16, 39, 0
16, 10, 0
16, 9, 0
27, 20, 0
27, 21, 0
27, 19, 0
27, 38, 0
27, 43, 0
1, 6, 0
1, 4, 0
1, 41, 0
1, 50, 0
44, 51, 0
44, 16, 0
44, 6, 0
44, 35, 0
44, 40, 0
44, 5, 0
44, 3, 0
44, 50, 0
44, 26, 0
44, 29, 0
44, 42, 0
44, 18, 0
48, 0, 0
48, 3, 0
48, 14, 0
48, 50, 0
48, 26, 0
48, 42, 0
48, 46, 0
48, 22, 0
48, 36, 0
12, 3, 0
12, 42, 0
12, 4, 0
12, 15, 0
12, 24, 0
25, 0, 0
25, 40, 0
25, 46, 0
25, 50, 0
50, 0, 0
50, 45, 0
50, 16, 0
50, 6, 0
50, 1, 0
50, 40, 0
50, 44, 0
50, 11, 0
50, 46, 0
50, 41, 0
50, 3, 0
50, 25, 0
50, 8, 0
50, 15, 0
50, 48, 0
50, 18, 0
50, 36, 0
26, 0, 0
26, 3, 0
26, 14, 0
26, 44, 0
26, 42, 0
26, 5, 0
26, 40, 0
26, 48, 0
26, 46, 0
6, 45, 0
6, 51, 0
6, 16, 0
6, 1, 0
6, 35, 0
6, 44, 0
6, 10, 0
6, 34, 0
6, 50, 0
6, 31, 0
6, 29, 0
6, 8, 0
6, 18, 0
43, 20, 0
43, 16, 0
43, 9, 0
43, 32, 0
43, 21, 0
43, 27, 0
43, 19, 0
43, 8, 0
43, 38, 0
43, 10, 0
9, 7, 0
9, 13, 0
9, 16, 0
9, 5, 0
9, 30, 0
9, 20, 0
9, 33, 0
9, 43, 0
9, 37, 0
9, 19, 0
9, 49, 0
9, 10, 0
