0, 3, 0
0, 4, 0
0, 9, 0
0, 6, 0
0, 8, 0
0, 10, 0
0, 1, 0
13, 12, 1
13, 3, 0
13, 6, 0
13, 9, 0
13, 5, 0
13, 10, 0
3, 0, 0
3, 12, 0
3, 13, 0
3, 7, 0
3, 6, 0
3, 10, 0
3, 5, 0
3, 1, 0
6, 0, 0
6, 12, 0
6, 13, 0
6, 4, 0
6, 3, 0
6, 10, 0
6, 1, 0
6, 8, 0
6, 5, 0
6, 9, 0
8, 0, 0
8, 6, 0
8, 4, 0
8, 9, 0
8, 1, 0
5, 12, 0
5, 13, 0
5, 3, 0
5, 6, 0
5, 9, 0
5, 10, 0
11, 1, 0
11, 4, 0
11, 2, 0
10, 0, 0
10, 12, 0
10, 13, 0
10, 3, 0
10, 6, 0
10, 5, 0
10, 9, 0
7, 2, 0
7, 3, 0
7, 4, 0
7, 1, 0
12, 6, 0
12, 3, 0
12, 13, 1
12, 5, 0
12, 10, 0
4, 0, 0
4, 7, 0
4, 9, 0
4, 6, 0
4, 8, 0
4, 11, 0
4, 1, 0
2, 7, 0
2, 11, 0
2, 1, 0
1, 0, 0
1, 7, 0
1, 4, 0
1, 3, 0
1, 2, 0
1, 6, 0
1, 8, 0
1, 11, 0
1, 9, 0
9, 0, 0
9, 13, 0
9, 4, 0
9, 6, 0
9, 1, 0
9, 8, 0
9, 5, 0
9, 10, 0
