2, 7, 0
2, 19, 0
2, 4, 0
2, 1, 0
13, 0, 0
13, 3, 0
13, 28, 0
17, 10, 0
17, 29, 0
23, 20, 0
23, 15, 0
23, 11, 0
23, 22, 1
29, 24, 0
29, 8, 0
29, 17, 0
29, 10, 0
29, 9, 0
5, 7, 0
5, 21, 0
5, 14, 0
5, 26, 0
5, 16, 0
5, 25, 0
11, 20, 0
11, 15, 0
11, 22, 0
11, 23, 0
11, 10, 0
1, 7, 0
1, 2, 0
20, 0, 0
20, 22, 0
20, 15, 0
20, 11, 0
20, 23, 0
4, 27, 0
4, 19, 0
4, 2, 0
14, 21, 0
14, 18, 0
14, 5, 0
14, 3, 0
24, 8, 0
24, 9, 0
24, 29, 0
28, 0, 0
28, 12, 0
28, 13, 0
28, 15, 0
8, 24, 0
8, 9, 1
8, 29, 0
15, 20, 0
15, 12, 0
15, 28, 0
15, 11, 0
15, 23, 0
15, 22, 0
22, 20, 0
22, 15, 0
22, 11, 0
22, 23, 1
0, 20, 0
0, 13, 0
0, 28, 0
12, 15, 0
12, 28, 0
16, 7, 0
16, 19, 0
16, 25, 0
16, 5, 0
16, 26, 0
6, 27, 0
10, 17, 0
10, 11, 0
10, 29, 0
7, 25, 0
7, 26, 0
7, 2, 0
7, 16, 0
7, 5, 0
7, 1, 0
3, 18, 0
3, 13, 0
3, 14, 0
25, 16, 0
25, 7, 0
25, 5, 0
25, 26, 1
26, 16, 0
26, 7, 0
26, 25, 1
26, 5, 0
27, 6, 0
27, 4, 0
21, 14, 0
21, 5, 0
19, 16, 0
19, 4, 0
19, 2, 0
18, 3, 0
18, 14, 0
9, 24, 0
9, 8, 1
9, 29, 0
