0, 12, 0
0, 4, 0
0, 13, 0
0, 2, 0
0, 16, 0
0, 6, 0
0, 9, 0
0, 5, 0
0, 17, 0
0, 1, 0
13, 0, 0
13, 3, 0
13, 4, 0
13, 16, 0
13, 6, 0
13, 5, 0
13, 9, 0
17, 0, 0
17, 4, 0
17, 2, 0
17, 16, 0
17, 6, 0
17, 5, 0
17, 1, 0
3, 7, 0
3, 13, 0
3, 14, 0
3, 9, 0
3, 15, 0
3, 11, 0
3, 10, 0
16, 0, 0
16, 13, 0
16, 17, 0
16, 6, 0
16, 5, 0
16, 11, 0
16, 1, 0
16, 12, 0
16, 4, 0
16, 2, 0
16, 8, 0
16, 15, 0
16, 9, 0
6, 0, 0
6, 13, 0
6, 17, 0
6, 16, 0
6, 5, 1
6, 1, 0
8, 16, 0
8, 15, 0
8, 11, 0
8, 9, 1
5, 0, 0
5, 12, 0
5, 13, 0
5, 17, 0
5, 4, 1
5, 16, 0
5, 6, 1
5, 1, 0
11, 16, 0
11, 3, 0
11, 8, 0
11, 15, 0
11, 9, 0
10, 7, 0
10, 12, 0
10, 15, 0
10, 14, 0
10, 3, 0
7, 12, 0
7, 3, 0
7, 10, 0
12, 0, 0
12, 7, 0
12, 2, 0
12, 16, 0
12, 1, 0
12, 15, 0
12, 5, 0
12, 10, 0
4, 0, 0
4, 13, 0
4, 17, 0
4, 2, 0
4, 16, 0
4, 5, 1
4, 1, 0
14, 3, 0
14, 15, 0
14, 10, 0
2, 0, 0
2, 12, 0
2, 4, 0
2, 17, 0
2, 16, 0
2, 1, 0
1, 0, 0
1, 12, 0
1, 4, 0
1, 17, 0
1, 2, 0
1, 16, 0
1, 6, 0
1, 5, 0
15, 12, 0
15, 14, 0
15, 3, 0
15, 16, 0
15, 8, 0
15, 11, 0
15, 10, 0
9, 0, 0
9, 3, 0
9, 13, 0
9, 16, 0
9, 8, 1
9, 11, 0
