0, 2, 0
0, 8, 0
0, 1, 1
3, 7, 0
3, 4, 1
3, 5, 0
4, 7, 0
4, 3, 1
4, 5, 0
7, 3, 0
7, 4, 0
7, 5, 0
7, 6, 0
2, 0, 0
2, 8, 0
2, 1, 0
6, 7, 0
6, 8, 0
8, 0, 0
8, 6, 0
8, 1, 0
8, 2, 0
5, 7, 0
5, 3, 0
5, 4, 0
1, 0, 1
1, 8, 0
1, 2, 0
