0, 7, 0
0, 6, 0
0, 4, 0
0, 1, 1
13, 2, 0
13, 6, 0
13, 8, 0
13, 10, 0
13, 9, 0
3, 6, 0
3, 4, 0
3, 11, 0
6, 0, 0
6, 12, 0
6, 4, 0
6, 13, 0
6, 3, 0
6, 8, 0
6, 7, 0
6, 11, 0
8, 7, 0
8, 13, 0
8, 2, 0
8, 6, 0
8, 9, 0
8, 5, 0
8, 10, 0
5, 7, 0
5, 8, 0
5, 9, 0
5, 10, 0
5, 2, 0
11, 12, 0
11, 4, 0
11, 3, 0
11, 6, 0
10, 7, 0
10, 13, 0
10, 2, 0
10, 8, 0
10, 5, 0
10, 9, 0
7, 0, 0
7, 4, 0
7, 2, 0
7, 6, 0
7, 1, 0
7, 8, 0
7, 5, 0
7, 10, 0
12, 6, 0
12, 11, 0
4, 0, 0
4, 7, 0
4, 3, 0
4, 6, 0
4, 11, 0
4, 1, 0
2, 7, 0
2, 13, 0
2, 10, 0
2, 8, 0
2, 5, 0
2, 9, 0
1, 0, 1
1, 7, 0
1, 4, 0
9, 2, 0
9, 8, 0
9, 13, 0
9, 5, 0
9, 10, 0
