0, 3, 0
0, 4, 0
0, 9, 0
0, 6, 0
0, 8, 0
0, 1, 0
3, 0, 0
3, 6, 0
3, 8, 0
3, 4, 1
3, 1, 0
4, 0, 0
4, 3, 1
4, 1, 0
4, 6, 0
2, 5, 0
2, 9, 0
6, 0, 0
6, 3, 0
6, 4, 0
6, 8, 0
6, 7, 0
6, 1, 0
1, 0, 0
1, 3, 0
1, 4, 0
1, 6, 0
8, 0, 0
8, 3, 0
8, 7, 0
8, 9, 0
8, 6, 0
5, 2, 0
7, 6, 0
7, 8, 0
7, 9, 0
9, 0, 0
9, 7, 0
9, 8, 0
9, 2, 0
