13, 16, 0
13, 3, 0
13, 4, 0
13, 23, 0
17, 18, 1
17, 12, 0
17, 14, 0
17, 24, 0
23, 16, 0
23, 3, 0
23, 13, 0
5, 6, 0
5, 10, 0
11, 6, 0
1, 12, 0
1, 19, 0
1, 24, 0
20, 7, 0
20, 8, 0
20, 15, 0
20, 4, 0
20, 2, 0
4, 20, 0
4, 3, 0
4, 13, 0
4, 15, 0
4, 2, 0
14, 0, 0
14, 7, 0
14, 17, 0
14, 24, 0
14, 18, 0
14, 19, 0
14, 12, 0
24, 12, 0
24, 14, 0
24, 18, 0
24, 17, 0
24, 19, 0
24, 1, 0
8, 7, 1
8, 20, 0
15, 20, 0
15, 3, 0
15, 4, 0
15, 2, 0
22, 0, 0
22, 21, 1
0, 21, 0
0, 7, 0
0, 14, 0
0, 22, 0
3, 4, 0
3, 13, 0
3, 23, 0
3, 2, 0
3, 16, 0
3, 15, 0
16, 3, 0
16, 13, 0
16, 23, 0
6, 5, 0
6, 11, 0
10, 12, 0
10, 19, 0
10, 5, 0
10, 9, 0
7, 20, 0
7, 0, 0
7, 8, 1
7, 14, 0
7, 21, 0
12, 14, 0
12, 9, 0
12, 24, 0
12, 18, 0
12, 17, 0
12, 19, 0
12, 10, 0
12, 1, 0
2, 20, 0
2, 3, 0
2, 4, 0
2, 15, 0
21, 0, 0
21, 7, 0
21, 22, 1
19, 12, 0
19, 14, 0
19, 24, 0
19, 18, 1
19, 10, 0
19, 1, 0
18, 12, 0
18, 19, 1
18, 14, 0
18, 17, 1
18, 24, 0
9, 12, 0
9, 10, 0
