13, 20, 0
13, 0, 0
13, 17, 0
13, 11, 0
13, 9, 0
17, 20, 0
17, 0, 0
17, 13, 0
17, 19, 0
17, 9, 0
17, 11, 0
17, 10, 0
5, 18, 0
5, 6, 0
5, 19, 0
5, 14, 0
5, 2, 0
11, 0, 0
11, 19, 0
11, 13, 0
11, 17, 0
1, 3, 0
1, 4, 0
1, 12, 0
20, 0, 0
20, 12, 0
20, 13, 0
20, 17, 0
20, 21, 0
20, 10, 0
20, 15, 0
20, 9, 0
4, 12, 0
4, 3, 0
4, 1, 0
14, 0, 0
14, 12, 0
14, 21, 0
14, 2, 0
14, 16, 0
14, 6, 0
14, 19, 0
14, 15, 0
14, 5, 0
14, 18, 0
14, 9, 0
8, 7, 1
8, 21, 0
15, 20, 0
15, 12, 0
15, 21, 0
15, 14, 0
15, 2, 0
15, 16, 1
15, 10, 0
0, 20, 0
0, 13, 0
0, 14, 0
0, 2, 0
0, 17, 0
0, 19, 0
0, 10, 0
0, 11, 0
0, 9, 0
3, 2, 0
3, 12, 0
3, 4, 0
3, 9, 0
3, 1, 0
16, 21, 0
16, 14, 0
16, 15, 1
6, 14, 0
6, 5, 0
6, 2, 0
10, 20, 0
10, 0, 0
10, 17, 0
10, 12, 0
10, 21, 0
10, 15, 0
10, 9, 0
7, 21, 0
7, 8, 1
12, 20, 0
12, 3, 0
12, 4, 0
12, 14, 0
12, 2, 0
12, 10, 0
12, 15, 0
12, 1, 0
2, 0, 0
2, 3, 0
2, 14, 0
2, 12, 0
2, 21, 0
2, 6, 0
2, 19, 0
2, 15, 0
2, 5, 0
2, 18, 0
2, 9, 0
21, 20, 0
21, 7, 0
21, 14, 0
21, 2, 0
21, 16, 0
21, 8, 0
21, 15, 0
21, 10, 0
19, 0, 0
19, 14, 0
19, 2, 0
19, 18, 0
19, 17, 0
19, 5, 0
19, 11, 0
18, 19, 0
18, 14, 0
18, 5, 0
18, 2, 0
9, 20, 0
9, 0, 0
9, 13, 0
9, 14, 0
9, 3, 0
9, 17, 0
9, 2, 0
9, 10, 0
