0, 8, 0
0, 1, 0
3, 7, 1
3, 6, 1
3, 8, 0
3, 5, 1
3, 4, 1
4, 3, 1
4, 2, 0
2, 7, 0
2, 4, 0
2, 10, 0
2, 9, 0
6, 7, 1
6, 3, 1
6, 8, 0
6, 5, 1
1, 0, 0
1, 8, 0
8, 0, 0
8, 3, 0
8, 7, 0
8, 6, 0
8, 5, 0
8, 1, 0
5, 7, 1
5, 3, 1
5, 8, 0
5, 6, 1
7, 2, 0
7, 3, 1
7, 8, 0
7, 5, 1
7, 6, 1
10, 2, 0
10, 9, 0
9, 2, 0
9, 10, 0
