0, 7, 0
0, 6, 0
13, 3, 0
13, 2, 0
13, 10, 0
3, 2, 1
3, 13, 0
3, 10, 0
3, 1, 0
6, 0, 0
6, 11, 0
6, 9, 0
8, 7, 0
8, 12, 0
8, 14, 0
5, 4, 1
5, 9, 0
11, 6, 0
11, 9, 0
10, 3, 0
10, 13, 0
10, 4, 0
7, 0, 0
7, 12, 0
7, 8, 0
12, 7, 0
12, 8, 0
4, 9, 0
4, 5, 1
4, 10, 0
14, 8, 0
2, 3, 1
2, 13, 0
2, 1, 0
1, 3, 0
1, 2, 0
9, 6, 0
9, 4, 0
9, 5, 0
9, 11, 0
