0, 6, 0
0, 2, 0
8, 7, 1
8, 12, 0
8, 9, 1
8, 10, 0
3, 6, 0
3, 4, 1
3, 11, 0
3, 1, 0
6, 0, 0
6, 3, 0
6, 4, 0
6, 1, 0
5, 12, 0
5, 10, 0
5, 1, 0
11, 2, 0
11, 3, 0
11, 4, 0
11, 1, 0
10, 7, 0
10, 12, 0
10, 1, 0
10, 8, 0
10, 5, 0
10, 9, 0
7, 8, 1
7, 9, 1
7, 10, 0
12, 10, 0
12, 8, 0
12, 9, 0
12, 5, 0
12, 1, 0
4, 6, 0
4, 2, 0
4, 3, 1
4, 11, 0
4, 1, 0
2, 0, 0
2, 4, 0
2, 11, 0
2, 1, 0
1, 12, 0
1, 4, 0
1, 3, 0
1, 2, 0
1, 6, 0
1, 5, 0
1, 11, 0
1, 10, 0
9, 7, 1
9, 12, 0
9, 8, 1
9, 10, 0
