0, 8, 0
0, 10, 0
3, 9, 0
3, 2, 0
4, 5, 0
4, 2, 0
2, 3, 0
2, 4, 0
2, 5, 0
2, 9, 0
6, 7, 0
6, 10, 0
1, 5, 0
8, 0, 0
8, 10, 0
8, 9, 0
5, 2, 0
5, 4, 0
5, 1, 0
7, 6, 0
7, 10, 0
10, 0, 0
10, 7, 0
10, 8, 0
10, 6, 0
9, 3, 0
9, 8, 0
9, 2, 0
