0, 7, 0
0, 3, 0
0, 6, 0
0, 8, 0
0, 1, 0
3, 0, 0
3, 7, 0
3, 4, 0
3, 6, 0
3, 1, 0
3, 9, 0
4, 7, 0
4, 3, 0
4, 2, 0
4, 6, 0
4, 1, 0
4, 8, 0
4, 5, 0
4, 9, 0
2, 7, 0
2, 8, 0
2, 5, 0
2, 4, 0
6, 0, 0
6, 3, 0
6, 4, 0
6, 9, 0
6, 8, 0
6, 1, 0
1, 0, 0
1, 3, 0
1, 4, 0
1, 6, 0
1, 8, 0
1, 7, 0
8, 0, 0
8, 7, 0
8, 4, 0
8, 2, 0
8, 6, 0
8, 1, 0
5, 7, 0
5, 2, 0
5, 4, 0
5, 9, 0
7, 0, 0
7, 3, 0
7, 4, 0
7, 2, 0
7, 1, 0
7, 8, 0
7, 5, 0
7, 9, 0
9, 7, 0
9, 3, 0
9, 4, 0
9, 5, 0
9, 6, 0
