0, 12, 0
0, 3, 0
0, 2, 0
0, 6, 0
0, 5, 0
0, 1, 1
8, 7, 0
8, 3, 0
8, 9, 1
8, 11, 0
8, 10, 0
3, 0, 0
3, 6, 0
3, 1, 0
3, 5, 0
3, 11, 0
3, 10, 0
3, 7, 0
3, 12, 0
3, 4, 0
3, 2, 0
3, 8, 0
3, 9, 0
6, 0, 0
6, 12, 0
6, 3, 0
6, 2, 0
6, 10, 0
6, 9, 0
6, 5, 1
6, 11, 0
6, 1, 0
5, 0, 0
5, 12, 0
5, 3, 0
5, 2, 0
5, 6, 1
5, 1, 0
11, 7, 0
11, 12, 0
11, 4, 0
11, 9, 0
11, 3, 0
11, 6, 0
11, 8, 0
11, 10, 1
10, 7, 0
10, 3, 0
10, 6, 0
10, 8, 0
10, 11, 1
10, 9, 0
7, 3, 0
7, 4, 0
7, 8, 0
7, 10, 0
7, 11, 0
7, 9, 0
12, 0, 0
12, 3, 0
12, 2, 0
12, 6, 0
12, 5, 0
12, 11, 0
12, 9, 0
4, 7, 0
4, 3, 0
4, 11, 0
2, 0, 0
2, 12, 0
2, 3, 0
2, 6, 0
2, 9, 0
2, 5, 0
2, 1, 0
1, 0, 1
1, 6, 0
1, 3, 0
1, 5, 0
1, 2, 0
9, 7, 0
9, 12, 0
9, 3, 0
9, 2, 0
9, 6, 0
9, 8, 1
9, 11, 0
9, 10, 0
