0, 3, 0
0, 13, 0
0, 1, 1
7, 20, 0
7, 12, 0
7, 2, 0
7, 16, 0
7, 6, 1
7, 8, 0
7, 15, 0
7, 1, 0
13, 0, 0
13, 3, 0
13, 14, 0
13, 1, 0
17, 18, 0
17, 16, 0
17, 19, 0
3, 0, 0
3, 13, 0
3, 9, 0
3, 1, 0
3, 8, 0
3, 11, 0
3, 10, 0
16, 20, 0
16, 12, 0
16, 7, 0
16, 17, 0
16, 2, 0
16, 6, 0
16, 19, 0
16, 15, 0
6, 20, 0
6, 12, 0
6, 7, 1
6, 2, 0
6, 16, 0
6, 15, 0
8, 7, 0
8, 3, 0
8, 2, 0
8, 9, 0
8, 15, 0
8, 11, 0
8, 10, 0
5, 15, 0
5, 4, 0
5, 14, 0
5, 1, 0
11, 3, 0
11, 8, 0
11, 9, 1
11, 10, 1
10, 3, 0
10, 8, 0
10, 11, 1
10, 1, 0
20, 7, 0
20, 12, 0
20, 2, 0
20, 16, 0
20, 6, 0
20, 15, 0
12, 20, 0
12, 16, 0
12, 7, 0
12, 15, 0
12, 6, 0
4, 15, 0
4, 14, 0
4, 5, 0
14, 13, 0
14, 5, 0
14, 4, 0
14, 1, 0
2, 20, 0
2, 7, 0
2, 16, 0
2, 6, 0
2, 8, 0
2, 15, 0
19, 16, 0
19, 18, 1
19, 17, 0
1, 0, 1
1, 3, 0
1, 13, 0
1, 14, 0
1, 5, 0
1, 7, 0
1, 10, 0
15, 20, 0
15, 12, 0
15, 7, 0
15, 4, 0
15, 2, 0
15, 16, 0
15, 6, 0
15, 8, 0
15, 5, 0
18, 19, 1
18, 17, 0
9, 3, 0
9, 8, 0
9, 11, 1
