13, 17, 0
13, 5, 0
13, 11, 0
13, 10, 0
13, 20, 0
13, 3, 0
13, 4, 0
13, 2, 0
13, 21, 0
13, 19, 0
13, 15, 0
13, 22, 0
17, 4, 0
17, 13, 0
17, 5, 0
17, 22, 0
5, 0, 0
5, 20, 0
5, 13, 0
5, 17, 0
5, 6, 0
5, 11, 0
5, 10, 0
5, 7, 0
5, 4, 1
5, 14, 0
5, 2, 0
5, 21, 0
5, 1, 0
5, 15, 0
5, 22, 0
11, 7, 0
11, 13, 0
11, 16, 0
11, 6, 0
11, 5, 0
11, 1, 0
11, 20, 0
11, 4, 0
11, 14, 0
11, 2, 0
11, 21, 0
11, 10, 0
11, 15, 0
1, 0, 1
1, 12, 0
1, 7, 0
1, 14, 0
1, 2, 1
1, 21, 0
1, 15, 0
1, 18, 0
1, 11, 0
1, 5, 0
20, 13, 0
20, 21, 1
20, 19, 1
20, 5, 0
20, 11, 0
20, 10, 0
4, 7, 0
4, 3, 1
4, 13, 0
4, 17, 0
4, 22, 0
4, 2, 0
4, 21, 0
4, 15, 0
4, 5, 1
4, 11, 0
14, 0, 0
14, 2, 0
14, 21, 0
14, 9, 0
14, 15, 0
14, 5, 0
14, 11, 0
14, 1, 0
8, 15, 0
8, 9, 0
15, 13, 0
15, 6, 0
15, 1, 0
15, 5, 0
15, 11, 0
15, 10, 0
15, 7, 0
15, 4, 0
15, 14, 0
15, 2, 0
15, 21, 0
15, 8, 0
15, 9, 0
22, 3, 0
22, 13, 0
22, 17, 0
22, 5, 0
22, 4, 0
0, 18, 0
0, 7, 0
0, 14, 0
0, 5, 0
0, 1, 1
3, 7, 0
3, 4, 1
3, 13, 0
3, 22, 0
16, 6, 0
16, 11, 0
6, 21, 0
6, 2, 0
6, 16, 0
6, 15, 0
6, 5, 0
6, 11, 0
6, 10, 0
10, 20, 0
10, 13, 0
10, 2, 0
10, 21, 0
10, 6, 0
10, 19, 0
10, 15, 0
10, 5, 0
10, 11, 0
7, 0, 0
7, 3, 0
7, 4, 0
7, 12, 0
7, 21, 0
7, 5, 0
7, 2, 0
7, 15, 0
7, 18, 0
7, 11, 0
7, 1, 0
12, 7, 0
12, 18, 0
12, 2, 0
12, 1, 0
2, 13, 0
2, 18, 0
2, 6, 0
2, 5, 0
2, 11, 0
2, 10, 0
2, 7, 0
2, 12, 0
2, 4, 0
2, 14, 0
2, 1, 1
2, 15, 0
21, 20, 1
21, 7, 0
21, 13, 0
21, 14, 0
21, 4, 0
21, 6, 0
21, 10, 0
21, 15, 0
21, 5, 0
21, 11, 0
21, 1, 0
19, 20, 1
19, 13, 0
19, 10, 0
18, 0, 0
18, 7, 0
18, 2, 0
18, 12, 0
18, 1, 0
9, 15, 0
9, 8, 0
9, 14, 0
