0, 7, 0
0, 10, 0
0, 5, 0
0, 1, 1
3, 7, 0
3, 8, 0
3, 10, 0
3, 2, 1
4, 6, 0
4, 1, 0
4, 9, 0
4, 5, 0
4, 10, 0
2, 7, 0
2, 3, 1
2, 8, 0
6, 4, 0
6, 5, 0
6, 9, 0
1, 0, 1
1, 7, 0
1, 4, 0
1, 9, 0
1, 5, 0
1, 10, 0
8, 7, 0
8, 3, 0
8, 2, 0
5, 0, 0
5, 7, 0
5, 4, 0
5, 6, 0
5, 10, 0
5, 1, 0
7, 0, 0
7, 3, 0
7, 2, 0
7, 10, 0
7, 8, 0
7, 5, 0
7, 1, 0
10, 0, 0
10, 3, 0
10, 7, 0
10, 4, 0
10, 1, 0
10, 5, 0
10, 9, 0
9, 6, 0
9, 1, 0
9, 4, 0
9, 10, 0
