13, 16, 0
13, 11, 0
13, 26, 0
13, 23, 0
13, 2, 0
17, 21, 0
17, 7, 0
17, 1, 0
31, 20, 0
31, 0, 0
31, 4, 0
31, 9, 0
31, 29, 0
31, 2, 0
31, 8, 0
31, 24, 0
31, 10, 0
23, 0, 0
23, 33, 0
23, 13, 0
23, 25, 0
23, 26, 0
23, 24, 0
23, 16, 0
23, 6, 0
23, 14, 0
23, 19, 0
23, 22, 0
10, 20, 0
10, 7, 0
10, 28, 0
10, 31, 0
10, 29, 0
10, 9, 1
2, 13, 0
2, 31, 0
2, 24, 0
2, 16, 0
2, 6, 0
2, 29, 0
5, 21, 0
5, 7, 0
5, 15, 0
5, 18, 0
5, 30, 0
11, 16, 0
11, 13, 0
11, 26, 0
1, 21, 0
1, 17, 0
1, 32, 0
20, 0, 0
20, 7, 0
20, 4, 0
20, 28, 0
20, 31, 0
20, 29, 0
20, 8, 0
20, 10, 0
20, 9, 0
4, 20, 0
4, 33, 0
4, 0, 0
4, 31, 0
4, 24, 0
14, 19, 0
14, 25, 0
14, 23, 0
14, 24, 0
24, 33, 0
24, 4, 0
24, 14, 0
24, 31, 0
24, 23, 0
24, 29, 0
24, 19, 0
24, 2, 0
28, 20, 0
28, 7, 0
28, 29, 0
28, 18, 0
28, 27, 0
28, 10, 0
28, 15, 0
28, 9, 0
30, 18, 0
30, 12, 0
30, 15, 0
30, 5, 0
8, 20, 0
8, 0, 0
8, 7, 0
8, 31, 0
8, 9, 0
15, 7, 0
15, 12, 0
15, 28, 0
15, 21, 0
15, 18, 0
15, 27, 0
15, 5, 0
15, 30, 0
22, 19, 0
22, 25, 0
22, 23, 0
0, 20, 0
0, 33, 0
0, 4, 0
0, 23, 0
0, 31, 0
0, 6, 0
0, 19, 0
0, 8, 0
0, 9, 0
12, 18, 0
12, 7, 0
12, 15, 0
12, 30, 0
16, 13, 0
16, 23, 0
16, 26, 0
16, 2, 0
16, 6, 0
16, 11, 0
6, 0, 0
6, 3, 0
6, 25, 0
6, 23, 0
6, 29, 0
6, 16, 0
6, 19, 0
6, 2, 0
27, 18, 0
27, 15, 0
27, 28, 0
7, 20, 0
7, 12, 0
7, 28, 0
7, 21, 0
7, 17, 0
7, 8, 0
7, 15, 0
7, 5, 0
7, 10, 0
7, 9, 0
3, 6, 0
3, 19, 0
25, 6, 0
25, 19, 0
25, 14, 0
25, 22, 0
25, 23, 0
32, 21, 0
32, 1, 0
29, 20, 0
29, 28, 0
29, 9, 0
29, 31, 0
29, 24, 0
29, 21, 0
29, 6, 0
29, 2, 0
29, 10, 0
21, 7, 0
21, 17, 0
21, 32, 0
21, 29, 0
21, 18, 0
21, 15, 0
21, 5, 0
21, 1, 0
33, 0, 0
33, 4, 0
33, 23, 0
33, 24, 0
19, 0, 0
19, 3, 0
19, 25, 0
19, 23, 0
19, 24, 0
19, 6, 0
19, 14, 0
19, 22, 0
26, 16, 0
26, 13, 0
26, 11, 0
26, 23, 0
18, 12, 0
18, 28, 0
18, 21, 0
18, 27, 0
18, 15, 0
18, 5, 0
18, 30, 0
9, 20, 0
9, 7, 0
9, 28, 0
9, 31, 0
9, 29, 0
9, 0, 0
9, 8, 0
9, 10, 1
