12, 16, 0
12, 6, 0
12, 5, 0
12, 11, 0
12, 10, 0
12, 20, 0
12, 4, 0
12, 14, 0
12, 26, 0
12, 21, 0
12, 1, 0
12, 15, 0
13, 18, 0
13, 8, 0
13, 9, 0
17, 37, 0
17, 35, 0
17, 25, 0
17, 23, 0
17, 24, 0
17, 18, 0
17, 8, 0
31, 28, 0
31, 35, 0
31, 19, 0
31, 8, 0
31, 30, 0
31, 36, 0
23, 37, 0
23, 18, 0
23, 8, 0
23, 17, 0
23, 24, 0
24, 37, 0
24, 25, 0
24, 8, 0
24, 17, 0
24, 23, 0
5, 0, 0
5, 16, 0
5, 1, 0
5, 20, 0
5, 12, 0
5, 4, 1
5, 14, 0
5, 26, 0
5, 21, 0
5, 30, 0
5, 10, 0
5, 15, 0
11, 0, 0
11, 12, 0
11, 7, 0
11, 6, 0
11, 21, 0
11, 27, 0
11, 34, 0
11, 15, 0
11, 22, 0
11, 1, 0
1, 0, 0
1, 16, 0
1, 6, 0
1, 5, 0
1, 11, 0
1, 10, 0
1, 20, 0
1, 12, 0
1, 4, 0
1, 26, 0
1, 27, 0
1, 15, 0
1, 22, 0
20, 0, 0
20, 3, 0
20, 4, 0
20, 14, 0
20, 26, 0
20, 12, 0
20, 16, 0
20, 1, 0
20, 21, 0
20, 5, 0
20, 10, 0
21, 20, 0
21, 34, 0
21, 4, 0
21, 14, 0
21, 12, 0
21, 16, 0
21, 15, 0
21, 5, 0
21, 11, 0
4, 0, 0
4, 16, 0
4, 5, 1
4, 30, 0
4, 20, 0
4, 12, 0
4, 14, 0
4, 26, 0
4, 21, 0
4, 1, 0
4, 15, 0
4, 10, 0
14, 20, 0
14, 34, 0
14, 4, 0
14, 21, 0
14, 3, 0
14, 12, 0
14, 16, 0
14, 27, 0
14, 15, 0
14, 5, 0
14, 30, 0
35, 25, 0
35, 31, 0
35, 28, 0
35, 19, 0
35, 8, 0
35, 17, 0
28, 33, 0
28, 35, 0
28, 31, 0
28, 32, 0
28, 2, 0
28, 30, 0
28, 8, 0
28, 36, 0
30, 28, 0
30, 26, 0
30, 33, 0
30, 16, 0
30, 5, 0
30, 10, 0
30, 3, 0
30, 4, 0
30, 14, 0
30, 31, 0
30, 8, 0
30, 36, 0
8, 2, 0
8, 13, 0
8, 17, 0
8, 31, 0
8, 23, 0
8, 18, 0
8, 28, 0
8, 35, 0
8, 30, 0
8, 33, 0
8, 25, 0
8, 32, 0
8, 24, 0
8, 37, 0
8, 29, 0
8, 19, 0
8, 36, 0
8, 9, 0
15, 34, 0
15, 4, 0
15, 14, 0
15, 26, 0
15, 12, 0
15, 21, 0
15, 5, 0
15, 11, 0
15, 1, 0
22, 7, 0
22, 0, 0
22, 27, 0
22, 16, 0
22, 6, 0
22, 34, 0
22, 11, 0
22, 1, 0
36, 33, 0
36, 8, 0
36, 28, 0
36, 31, 0
36, 30, 0
0, 7, 0
0, 16, 0
0, 6, 0
0, 5, 0
0, 11, 0
0, 10, 0
0, 20, 0
0, 3, 0
0, 4, 0
0, 26, 0
0, 27, 0
0, 1, 0
0, 22, 0
6, 0, 0
6, 7, 1
6, 11, 0
6, 12, 0
6, 27, 0
6, 22, 0
6, 1, 0
3, 20, 0
3, 0, 0
3, 14, 0
3, 26, 0
3, 16, 0
3, 10, 0
3, 30, 0
16, 0, 0
16, 12, 0
16, 34, 0
16, 5, 0
16, 1, 0
16, 20, 0
16, 3, 0
16, 4, 0
16, 14, 0
16, 26, 0
16, 21, 0
16, 30, 0
16, 10, 0
16, 22, 0
27, 0, 0
27, 34, 0
27, 14, 0
27, 11, 0
27, 6, 0
27, 22, 0
27, 1, 0
10, 20, 0
10, 0, 0
10, 4, 0
10, 26, 0
10, 3, 0
10, 16, 0
10, 30, 0
10, 1, 0
10, 5, 0
10, 12, 0
7, 0, 0
7, 6, 1
7, 22, 0
7, 11, 0
34, 16, 0
34, 14, 0
34, 22, 0
34, 26, 0
34, 21, 0
34, 27, 0
34, 15, 0
34, 11, 0
25, 24, 0
25, 18, 0
25, 17, 0
25, 35, 0
25, 37, 0
25, 8, 0
33, 2, 0
33, 28, 0
33, 29, 0
33, 30, 0
33, 8, 0
33, 36, 0
32, 8, 0
32, 28, 0
32, 9, 0
32, 2, 0
2, 33, 0
2, 28, 0
2, 32, 0
2, 29, 0
2, 8, 0
2, 9, 0
37, 25, 0
37, 23, 0
37, 24, 0
37, 18, 0
37, 17, 0
37, 8, 0
29, 33, 0
29, 8, 0
29, 2, 0
19, 8, 0
19, 31, 0
19, 35, 0
26, 0, 0
26, 3, 0
26, 16, 0
26, 1, 0
26, 5, 0
26, 12, 0
26, 20, 0
26, 34, 0
26, 4, 0
26, 30, 0
26, 10, 0
26, 15, 0
18, 13, 0
18, 17, 0
18, 23, 0
18, 37, 0
18, 25, 0
18, 8, 0
9, 8, 0
9, 13, 0
9, 32, 0
9, 2, 0
