0, 12, 0
0, 4, 0
0, 13, 0
0, 5, 0
0, 2, 0
13, 0, 0
13, 12, 0
13, 5, 0
3, 6, 0
3, 8, 0
3, 9, 0
3, 11, 0
3, 10, 0
6, 7, 0
6, 3, 0
6, 4, 0
6, 1, 0
6, 8, 0
6, 10, 0
6, 11, 0
6, 9, 0
8, 3, 0
8, 4, 0
8, 6, 0
8, 10, 0
8, 11, 0
8, 9, 0
5, 0, 0
5, 12, 0
5, 13, 0
5, 4, 0
5, 2, 0
5, 7, 0
11, 3, 0
11, 6, 0
11, 8, 0
11, 10, 1
11, 9, 0
10, 3, 0
10, 6, 0
10, 8, 0
10, 11, 1
10, 9, 0
7, 2, 0
7, 6, 0
7, 4, 0
7, 5, 0
7, 1, 0
12, 0, 0
12, 13, 0
12, 5, 0
12, 4, 0
4, 0, 0
4, 12, 0
4, 7, 0
4, 2, 0
4, 6, 0
4, 8, 0
4, 5, 0
2, 0, 0
2, 7, 0
2, 4, 0
2, 5, 0
1, 7, 0
1, 6, 0
9, 6, 0
9, 8, 0
9, 3, 0
9, 11, 0
9, 10, 0
