0, 7, 0
0, 3, 0
0, 4, 0
0, 2, 0
0, 6, 0
0, 1, 0
3, 0, 0
3, 5, 0
3, 2, 0
4, 7, 0
4, 0, 0
4, 6, 0
4, 1, 0
7, 0, 0
7, 6, 0
7, 4, 0
2, 0, 0
2, 3, 0
2, 5, 0
2, 6, 0
6, 7, 0
6, 0, 0
6, 2, 0
6, 4, 0
6, 1, 0
5, 3, 0
5, 2, 0
1, 0, 0
1, 6, 0
1, 4, 0
