0, 3, 0
0, 2, 0
0, 6, 0
3, 0, 0
3, 1, 0
3, 5, 0
3, 2, 0
4, 6, 0
4, 9, 0
2, 0, 0
2, 3, 0
2, 7, 0
2, 6, 0
2, 1, 0
2, 8, 0
2, 9, 0
6, 0, 0
6, 2, 0
6, 4, 0
6, 9, 0
1, 7, 0
1, 3, 0
1, 8, 0
1, 5, 0
1, 2, 0
8, 7, 1
8, 1, 0
8, 2, 0
5, 7, 0
5, 3, 0
5, 1, 0
7, 1, 0
7, 8, 1
7, 5, 0
7, 2, 0
9, 6, 0
9, 4, 0
9, 2, 0
