13, 20, 0
13, 34, 0
13, 19, 0
13, 50, 0
13, 48, 0
17, 6, 0
17, 22, 0
17, 11, 0
17, 36, 0
23, 12, 0
23, 30, 0
23, 41, 0
23, 22, 0
23, 31, 0
42, 27, 0
42, 25, 0
42, 26, 0
42, 32, 0
42, 5, 0
46, 45, 1
46, 1, 0
46, 28, 0
46, 36, 0
20, 34, 0
20, 19, 0
20, 13, 0
20, 48, 0
20, 50, 0
34, 20, 0
34, 19, 0
34, 13, 0
34, 48, 0
14, 0, 0
14, 21, 0
24, 18, 0
24, 27, 0
24, 44, 0
28, 12, 0
28, 45, 0
28, 31, 0
28, 3, 0
28, 36, 0
28, 46, 0
28, 1, 0
39, 25, 0
39, 5, 0
39, 26, 0
39, 32, 0
41, 49, 0
41, 23, 0
41, 30, 0
0, 7, 0
0, 14, 0
0, 31, 0
0, 2, 0
0, 21, 0
0, 8, 0
0, 40, 0
8, 0, 0
8, 7, 1
8, 40, 0
8, 2, 0
33, 37, 0
33, 38, 0
33, 35, 0
33, 15, 0
33, 10, 0
15, 37, 0
15, 33, 0
15, 38, 0
15, 35, 0
47, 43, 0
47, 22, 0
47, 31, 0
10, 37, 0
10, 33, 0
10, 35, 0
10, 9, 0
7, 0, 0
7, 8, 1
7, 40, 0
7, 2, 0
3, 12, 0
3, 28, 0
32, 25, 0
32, 26, 0
32, 27, 0
32, 42, 0
32, 39, 0
32, 5, 0
2, 0, 0
2, 7, 0
2, 43, 0
2, 31, 0
2, 29, 0
2, 8, 0
2, 40, 0
21, 0, 0
21, 4, 0
21, 14, 0
19, 20, 0
19, 34, 0
19, 13, 0
19, 50, 0
49, 18, 0
49, 41, 0
49, 44, 0
18, 49, 0
18, 44, 0
18, 24, 0
31, 0, 0
31, 12, 0
31, 43, 0
31, 47, 0
31, 23, 0
31, 2, 0
31, 28, 0
31, 22, 0
31, 36, 0
29, 43, 0
29, 2, 0
40, 0, 0
40, 7, 0
40, 8, 0
40, 2, 0
11, 6, 0
11, 17, 0
11, 22, 0
5, 16, 0
5, 42, 0
5, 39, 0
5, 32, 0
37, 33, 0
37, 38, 0
37, 15, 0
37, 10, 0
4, 21, 0
35, 33, 0
35, 15, 0
35, 10, 0
30, 12, 0
30, 41, 0
30, 23, 0
38, 37, 0
38, 33, 0
38, 15, 0
38, 50, 0
22, 17, 0
22, 31, 0
22, 23, 0
22, 47, 0
22, 6, 0
22, 11, 0
36, 45, 0
36, 28, 0
36, 31, 0
36, 6, 0
36, 17, 0
36, 46, 0
36, 1, 0
45, 1, 0
45, 28, 0
45, 46, 1
45, 36, 0
16, 5, 0
16, 48, 0
27, 42, 0
27, 26, 0
27, 32, 0
27, 24, 0
1, 45, 0
1, 28, 0
1, 46, 0
1, 36, 0
44, 18, 0
44, 49, 0
44, 24, 0
48, 20, 0
48, 16, 0
48, 13, 0
48, 34, 0
12, 3, 0
12, 28, 0
12, 31, 0
12, 23, 0
12, 30, 0
25, 42, 0
25, 39, 0
25, 32, 0
25, 26, 0
50, 20, 0
50, 19, 0
50, 13, 0
50, 38, 0
26, 27, 0
26, 39, 0
26, 25, 0
26, 32, 0
26, 42, 0
6, 17, 0
6, 22, 0
6, 11, 0
6, 36, 0
43, 2, 0
43, 31, 0
43, 47, 0
43, 29, 0
9, 10, 0
