12, 25, 0
12, 27, 0
12, 15, 0
12, 17, 0
12, 33, 0
13, 29, 0
13, 17, 0
13, 1, 0
17, 12, 0
17, 13, 0
17, 28, 0
17, 29, 0
17, 27, 0
17, 15, 0
17, 1, 0
31, 21, 0
31, 20, 0
31, 8, 0
31, 26, 0
31, 23, 0
23, 20, 0
23, 21, 0
23, 31, 0
23, 26, 0
23, 16, 0
23, 19, 0
23, 8, 0
23, 18, 0
24, 16, 0
24, 4, 0
24, 14, 0
24, 22, 0
5, 6, 0
5, 8, 0
5, 32, 0
5, 9, 0
11, 1, 0
11, 36, 0
11, 35, 0
1, 0, 0
1, 35, 0
1, 13, 0
1, 17, 0
1, 29, 0
1, 2, 0
1, 11, 0
20, 16, 0
20, 23, 0
20, 26, 0
20, 31, 0
20, 21, 1
20, 19, 0
20, 8, 0
4, 16, 0
4, 10, 0
4, 14, 0
4, 22, 0
4, 24, 0
14, 16, 0
14, 4, 0
14, 10, 0
14, 24, 0
35, 0, 0
35, 2, 0
35, 1, 0
35, 36, 0
35, 11, 0
35, 30, 0
28, 27, 1
28, 15, 0
28, 17, 0
30, 7, 0
30, 35, 0
30, 2, 0
8, 20, 0
8, 3, 0
8, 32, 0
8, 23, 0
8, 31, 0
8, 21, 0
8, 6, 0
8, 26, 0
8, 5, 0
15, 12, 0
15, 28, 0
15, 17, 0
15, 27, 0
22, 16, 0
22, 4, 0
22, 10, 0
22, 24, 0
36, 0, 0
36, 2, 0
36, 11, 0
36, 35, 0
0, 7, 0
0, 35, 0
0, 1, 0
0, 36, 0
0, 2, 0
6, 3, 0
6, 25, 0
6, 32, 0
6, 8, 0
6, 5, 0
6, 9, 0
3, 6, 0
3, 8, 0
3, 32, 0
3, 9, 0
16, 20, 0
16, 4, 0
16, 14, 0
16, 26, 0
16, 23, 0
16, 24, 0
16, 18, 0
16, 19, 0
16, 22, 0
16, 10, 0
27, 28, 1
27, 15, 0
27, 17, 0
27, 12, 0
10, 16, 0
10, 34, 0
10, 4, 0
10, 14, 0
10, 22, 0
7, 0, 0
7, 30, 0
7, 2, 0
34, 10, 0
25, 6, 0
25, 12, 0
25, 33, 0
33, 12, 0
33, 25, 0
32, 3, 0
32, 6, 0
32, 8, 0
32, 5, 0
32, 9, 0
2, 7, 0
2, 0, 0
2, 35, 0
2, 30, 0
2, 1, 0
2, 36, 0
21, 20, 1
21, 26, 0
21, 8, 0
21, 31, 0
21, 23, 0
29, 13, 0
29, 17, 0
29, 1, 0
19, 16, 0
19, 18, 1
19, 20, 0
19, 23, 0
19, 26, 0
26, 20, 0
26, 21, 0
26, 23, 0
26, 31, 0
26, 16, 0
26, 19, 0
26, 8, 0
26, 18, 0
18, 16, 0
18, 19, 1
18, 26, 0
18, 23, 0
9, 3, 0
9, 5, 0
9, 32, 0
9, 6, 0
