13, 16, 0
13, 7, 0
13, 20, 0
13, 8, 0
13, 9, 0
17, 7, 0
17, 3, 0
17, 14, 0
17, 12, 0
17, 15, 0
17, 11, 0
17, 1, 0
5, 0, 0
5, 18, 0
5, 21, 0
5, 6, 1
5, 10, 0
5, 1, 0
11, 7, 0
11, 12, 1
11, 14, 0
11, 2, 0
11, 17, 0
11, 19, 0
11, 15, 0
11, 1, 0
1, 0, 0
1, 17, 0
1, 18, 0
1, 6, 0
1, 5, 0
1, 11, 0
1, 20, 0
1, 12, 0
1, 14, 0
1, 2, 0
1, 21, 0
1, 19, 0
1, 15, 0
20, 7, 0
20, 13, 0
20, 14, 0
20, 2, 0
20, 16, 0
20, 19, 0
20, 9, 0
20, 1, 0
4, 21, 0
4, 0, 0
4, 10, 0
14, 7, 0
14, 3, 0
14, 17, 0
14, 12, 0
14, 2, 0
14, 19, 0
14, 20, 0
14, 15, 0
14, 11, 0
14, 1, 0
8, 16, 0
8, 7, 0
8, 13, 0
8, 9, 1
15, 3, 0
15, 14, 0
15, 12, 0
15, 21, 0
15, 17, 0
15, 19, 0
15, 10, 0
15, 11, 0
15, 1, 0
0, 18, 0
0, 4, 0
0, 2, 0
0, 21, 0
0, 6, 0
0, 19, 0
0, 1, 0
0, 5, 0
0, 10, 0
3, 14, 0
3, 15, 0
3, 17, 0
16, 20, 0
16, 7, 0
16, 8, 0
16, 13, 0
16, 9, 0
6, 0, 0
6, 18, 0
6, 2, 0
6, 21, 0
6, 19, 0
6, 10, 0
6, 5, 1
6, 1, 0
10, 0, 0
10, 4, 0
10, 21, 0
10, 6, 0
10, 15, 0
10, 5, 0
7, 20, 0
7, 12, 0
7, 13, 0
7, 14, 0
7, 2, 0
7, 16, 0
7, 17, 0
7, 19, 0
7, 8, 0
7, 11, 0
12, 7, 0
12, 14, 0
12, 2, 0
12, 17, 0
12, 19, 0
12, 15, 0
12, 11, 1
12, 1, 0
2, 20, 0
2, 0, 0
2, 7, 0
2, 14, 0
2, 12, 0
2, 18, 0
2, 6, 0
2, 19, 0
2, 11, 0
2, 1, 0
21, 0, 0
21, 4, 0
21, 6, 0
21, 10, 0
21, 15, 0
21, 5, 0
21, 1, 0
19, 20, 0
19, 0, 0
19, 7, 0
19, 14, 0
19, 12, 0
19, 18, 0
19, 6, 0
19, 2, 0
19, 15, 0
19, 11, 0
19, 1, 0
18, 0, 0
18, 2, 0
18, 6, 0
18, 19, 0
18, 5, 0
18, 1, 0
9, 16, 0
9, 20, 0
9, 8, 1
9, 13, 0
