0, 7, 0
0, 12, 0
0, 14, 0
0, 2, 0
0, 18, 0
0, 15, 0
0, 11, 0
0, 1, 1
7, 0, 0
7, 18, 0
7, 8, 0
7, 15, 0
7, 11, 0
7, 1, 0
13, 8, 0
13, 15, 0
13, 11, 0
17, 20, 0
17, 6, 0
17, 4, 0
17, 5, 0
17, 3, 0
3, 20, 0
3, 4, 0
3, 17, 0
3, 16, 0
3, 19, 0
3, 10, 0
3, 9, 0
16, 3, 0
16, 19, 0
16, 10, 0
16, 9, 0
6, 14, 0
6, 4, 0
6, 17, 0
6, 5, 0
8, 7, 0
8, 13, 0
8, 15, 0
8, 11, 0
5, 20, 0
5, 12, 0
5, 4, 0
5, 14, 0
5, 2, 0
5, 6, 0
5, 17, 0
11, 0, 0
11, 7, 0
11, 13, 0
11, 8, 0
11, 15, 0
11, 1, 0
10, 20, 0
10, 16, 0
10, 19, 0
10, 3, 0
20, 3, 0
20, 4, 0
20, 17, 0
20, 5, 0
20, 10, 0
12, 0, 0
12, 18, 0
12, 14, 0
12, 5, 0
12, 2, 0
4, 20, 0
4, 6, 0
4, 17, 0
4, 5, 0
4, 3, 0
14, 0, 0
14, 12, 0
14, 6, 0
14, 5, 0
14, 2, 0
2, 18, 0
2, 12, 0
2, 14, 0
2, 5, 0
2, 0, 0
19, 16, 0
19, 3, 0
19, 10, 0
19, 9, 0
1, 0, 1
1, 7, 0
1, 15, 0
1, 11, 0
15, 0, 0
15, 7, 0
15, 13, 0
15, 8, 0
15, 11, 0
15, 1, 0
18, 0, 0
18, 12, 0
18, 7, 0
18, 2, 0
9, 16, 0
9, 3, 0
9, 19, 0
