0, 6, 0
0, 8, 0
0, 15, 0
13, 12, 0
13, 3, 0
13, 1, 0
13, 5, 0
13, 2, 0
3, 7, 0
3, 12, 0
3, 13, 0
3, 14, 0
3, 2, 0
16, 5, 0
16, 11, 0
16, 1, 0
6, 0, 0
6, 8, 0
6, 4, 0
8, 0, 0
8, 6, 0
5, 16, 0
5, 13, 0
5, 1, 0
11, 16, 0
11, 10, 0
11, 9, 0
10, 11, 0
10, 9, 0
7, 3, 0
7, 14, 0
12, 3, 0
12, 13, 0
12, 2, 0
4, 6, 0
14, 7, 0
14, 3, 0
14, 15, 0
2, 12, 0
2, 13, 0
2, 3, 0
1, 16, 0
1, 13, 0
1, 5, 0
15, 0, 0
15, 14, 0
9, 11, 0
9, 10, 0
