0, 6, 0
0, 5, 0
0, 1, 1
13, 7, 0
13, 3, 0
13, 11, 0
3, 13, 0
3, 5, 0
3, 4, 0
6, 0, 0
6, 1, 0
6, 5, 0
6, 2, 0
8, 12, 0
5, 0, 0
5, 6, 0
5, 4, 0
5, 3, 0
5, 1, 0
11, 7, 0
11, 13, 0
10, 7, 0
10, 9, 0
7, 13, 0
7, 10, 0
7, 11, 0
7, 9, 0
12, 8, 0
12, 14, 0
4, 3, 0
4, 5, 0
14, 12, 0
14, 2, 0
2, 6, 0
2, 14, 0
1, 0, 1
1, 6, 0
1, 5, 0
9, 7, 0
9, 10, 0
