13, 20, 0
13, 3, 0
13, 21, 0
13, 18, 0
13, 2, 0
17, 21, 0
17, 4, 0
17, 14, 0
17, 22, 0
17, 16, 0
17, 6, 0
17, 19, 0
17, 1, 0
17, 11, 0
17, 10, 0
5, 16, 0
5, 22, 0
5, 11, 0
5, 10, 0
11, 12, 0
11, 17, 0
11, 9, 0
11, 16, 0
11, 8, 0
11, 5, 0
11, 22, 0
11, 10, 0
1, 0, 1
1, 4, 0
1, 14, 0
1, 21, 0
1, 6, 0
1, 15, 0
1, 17, 0
20, 18, 0
20, 3, 0
20, 13, 0
20, 21, 0
20, 2, 0
4, 0, 0
4, 14, 0
4, 21, 0
4, 6, 0
4, 19, 0
4, 15, 0
4, 17, 0
4, 1, 0
14, 0, 0
14, 4, 0
14, 17, 0
14, 21, 0
14, 6, 0
14, 15, 1
14, 1, 0
8, 12, 0
8, 11, 0
8, 9, 1
15, 0, 0
15, 4, 0
15, 14, 1
15, 21, 0
15, 6, 0
15, 1, 0
22, 16, 0
22, 17, 0
22, 5, 0
22, 11, 0
22, 10, 0
0, 4, 0
0, 14, 0
0, 21, 0
0, 6, 0
0, 15, 0
0, 1, 1
3, 20, 0
3, 7, 0
3, 13, 0
3, 2, 0
3, 21, 0
3, 18, 0
16, 22, 0
16, 17, 0
16, 5, 0
16, 11, 0
16, 10, 0
6, 0, 0
6, 4, 0
6, 14, 0
6, 21, 0
6, 17, 0
6, 15, 0
6, 1, 0
10, 16, 0
10, 22, 0
10, 17, 0
10, 5, 0
10, 11, 0
7, 18, 0
7, 3, 0
7, 2, 0
7, 21, 0
12, 8, 0
12, 11, 0
12, 9, 0
2, 20, 0
2, 3, 0
2, 13, 0
2, 21, 0
2, 18, 0
2, 7, 0
21, 0, 0
21, 7, 0
21, 13, 0
21, 17, 0
21, 18, 0
21, 6, 0
21, 1, 0
21, 20, 0
21, 3, 0
21, 4, 0
21, 14, 0
21, 2, 0
21, 15, 0
19, 4, 0
19, 17, 0
18, 20, 0
18, 3, 0
18, 7, 0
18, 13, 0
18, 2, 0
18, 21, 0
9, 12, 0
9, 8, 1
9, 11, 0
