0, 10, 0
0, 9, 0
8, 7, 0
8, 3, 0
3, 8, 0
3, 9, 0
6, 12, 0
6, 4, 0
6, 1, 0
6, 5, 0
6, 11, 0
6, 10, 0
5, 12, 0
5, 4, 0
5, 2, 0
5, 6, 0
5, 11, 0
5, 1, 0
11, 12, 1
11, 4, 0
11, 2, 0
11, 6, 0
11, 5, 0
11, 1, 0
10, 0, 0
10, 12, 0
10, 4, 0
10, 2, 0
10, 6, 0
10, 9, 0
10, 1, 0
7, 8, 0
12, 4, 0
12, 2, 0
12, 6, 0
12, 10, 0
12, 5, 0
12, 11, 1
12, 1, 0
4, 12, 0
4, 2, 0
4, 6, 0
4, 10, 0
4, 5, 0
4, 11, 0
4, 1, 0
2, 12, 0
2, 4, 0
2, 1, 0
2, 5, 0
2, 11, 0
2, 10, 0
1, 12, 0
1, 4, 0
1, 2, 0
1, 6, 0
1, 5, 0
1, 11, 0
1, 10, 0
9, 0, 0
9, 3, 0
9, 10, 0
