0, 7, 0
0, 3, 0
0, 4, 0
0, 6, 0
0, 1, 0
0, 9, 0
6, 0, 0
6, 7, 1
6, 1, 0
1, 0, 0
1, 7, 0
1, 4, 0
1, 3, 0
1, 2, 0
1, 6, 0
1, 8, 0
5, 9, 0
5, 11, 0
5, 10, 0
11, 4, 0
11, 9, 0
11, 5, 0
11, 10, 1
10, 5, 0
10, 11, 1
10, 9, 0
7, 0, 0
7, 6, 1
7, 1, 0
3, 0, 0
3, 2, 1
3, 8, 0
3, 4, 0
3, 1, 0
4, 0, 0
4, 3, 0
4, 2, 0
4, 1, 0
4, 8, 0
4, 11, 0
4, 9, 0
2, 3, 1
2, 8, 0
2, 4, 0
2, 1, 0
8, 2, 0
8, 3, 0
8, 4, 0
8, 1, 0
9, 0, 0
9, 4, 0
9, 5, 0
9, 11, 0
9, 10, 0
