0, 7, 0
0, 6, 0
0, 15, 0
0, 14, 0
0, 5, 0
13, 16, 0
13, 18, 0
13, 9, 0
17, 12, 0
17, 3, 0
17, 2, 0
3, 7, 0
3, 12, 0
3, 2, 0
3, 17, 0
3, 10, 0
16, 18, 0
16, 7, 0
16, 13, 0
16, 9, 0
6, 0, 0
6, 14, 0
6, 15, 0
6, 5, 0
6, 2, 0
8, 7, 0
8, 18, 0
8, 14, 0
8, 5, 0
8, 1, 0
5, 0, 0
5, 7, 0
5, 14, 0
5, 6, 0
5, 8, 0
5, 15, 0
11, 7, 0
11, 4, 0
10, 3, 0
10, 15, 0
7, 0, 0
7, 16, 0
7, 14, 0
7, 3, 0
7, 18, 0
7, 12, 0
7, 8, 0
7, 5, 0
7, 11, 0
7, 1, 0
12, 7, 0
12, 3, 0
12, 4, 0
12, 17, 0
12, 2, 0
4, 12, 0
4, 11, 0
14, 0, 0
14, 7, 0
14, 6, 0
14, 8, 0
14, 15, 0
14, 5, 0
2, 12, 0
2, 6, 0
2, 15, 0
2, 17, 0
2, 3, 0
1, 18, 0
1, 7, 0
1, 8, 0
15, 0, 0
15, 14, 0
15, 2, 0
15, 6, 0
15, 5, 0
15, 10, 0
18, 7, 0
18, 13, 0
18, 9, 0
18, 16, 0
18, 8, 0
18, 1, 0
9, 16, 0
9, 18, 0
9, 13, 0
