12, 20, 0
12, 8, 0
12, 25, 0
13, 16, 0
13, 28, 0
13, 29, 0
13, 21, 0
13, 24, 0
13, 30, 0
17, 27, 0
17, 19, 0
17, 4, 0
17, 5, 0
17, 31, 0
26, 0, 0
26, 3, 0
26, 7, 0
26, 18, 0
26, 6, 0
26, 9, 0
26, 15, 0
26, 1, 0
23, 20, 0
23, 30, 0
23, 14, 0
23, 22, 1
23, 2, 0
2, 20, 0
2, 14, 0
2, 22, 0
2, 23, 0
2, 30, 0
5, 27, 0
5, 19, 0
5, 4, 1
5, 17, 0
5, 31, 0
11, 8, 0
11, 25, 0
11, 31, 0
11, 10, 1
1, 0, 1
1, 18, 0
1, 16, 0
1, 26, 0
1, 3, 0
20, 12, 0
20, 25, 0
20, 23, 0
20, 2, 0
20, 14, 0
20, 8, 0
20, 22, 0
4, 27, 0
4, 19, 0
4, 17, 0
4, 5, 1
4, 31, 0
14, 20, 0
14, 2, 0
14, 22, 0
14, 23, 0
14, 30, 0
24, 16, 0
24, 13, 0
24, 28, 0
24, 29, 0
24, 21, 0
24, 30, 0
28, 16, 0
28, 30, 0
28, 13, 0
28, 24, 0
28, 29, 1
30, 2, 0
30, 13, 0
30, 14, 0
30, 23, 0
30, 24, 0
30, 28, 0
30, 29, 0
30, 22, 0
8, 20, 0
8, 12, 0
8, 25, 0
8, 31, 0
8, 11, 0
8, 10, 0
15, 7, 0
15, 6, 0
15, 26, 0
15, 9, 0
22, 20, 0
22, 30, 0
22, 14, 0
22, 23, 1
22, 2, 0
0, 18, 0
0, 3, 0
0, 16, 0
0, 26, 0
0, 1, 1
3, 0, 0
3, 18, 0
3, 16, 0
3, 26, 0
3, 1, 0
16, 0, 0
16, 3, 0
16, 13, 0
16, 28, 0
16, 24, 0
16, 18, 0
16, 21, 0
16, 1, 0
6, 7, 1
6, 15, 0
6, 26, 0
6, 9, 0
27, 19, 0
27, 4, 0
27, 17, 0
27, 5, 0
7, 6, 1
7, 15, 0
7, 26, 0
7, 9, 0
18, 0, 0
18, 3, 0
18, 16, 0
18, 26, 0
18, 1, 0
25, 20, 0
25, 12, 0
25, 31, 0
25, 8, 0
25, 11, 0
25, 10, 0
31, 4, 0
31, 25, 0
31, 17, 0
31, 19, 0
31, 8, 0
31, 5, 0
31, 11, 0
31, 10, 0
29, 24, 0
29, 13, 0
29, 28, 1
29, 30, 0
21, 16, 0
21, 13, 0
21, 24, 0
19, 27, 0
19, 4, 0
19, 17, 0
19, 5, 0
19, 31, 0
10, 8, 0
10, 25, 0
10, 11, 1
10, 31, 0
9, 7, 0
9, 6, 0
9, 15, 0
9, 26, 0
