0, 7, 0
0, 4, 0
0, 2, 0
0, 6, 0
0, 5, 0
0, 1, 0
3, 1, 0
4, 0, 0
4, 6, 1
4, 5, 1
4, 1, 0
7, 0, 0
7, 1, 0
7, 2, 0
2, 0, 0
2, 7, 0
6, 0, 0
6, 4, 1
6, 5, 1
6, 1, 0
5, 0, 0
5, 6, 1
5, 4, 1
5, 1, 0
1, 0, 0
1, 3, 0
1, 4, 0
1, 6, 0
1, 7, 0
1, 5, 0
