13, 7, 0
13, 0, 0
13, 16, 0
13, 4, 0
13, 18, 0
17, 20, 0
17, 12, 0
17, 14, 0
17, 25, 0
17, 19, 0
17, 9, 0
17, 11, 0
17, 10, 0
23, 25, 0
23, 26, 0
23, 2, 0
23, 14, 0
23, 8, 0
23, 9, 0
5, 21, 0
5, 18, 0
5, 26, 0
5, 22, 0
11, 12, 1
11, 19, 0
11, 14, 0
11, 17, 0
11, 10, 0
1, 2, 1
1, 14, 0
1, 26, 0
1, 24, 0
1, 6, 0
1, 8, 0
1, 9, 0
20, 25, 0
20, 14, 0
20, 24, 0
20, 6, 0
20, 17, 0
20, 9, 0
4, 0, 0
4, 3, 0
4, 13, 0
4, 21, 0
4, 16, 0
4, 18, 0
14, 17, 0
14, 23, 0
14, 18, 0
14, 6, 0
14, 1, 0
14, 11, 0
14, 10, 0
14, 20, 0
14, 26, 0
14, 24, 0
14, 19, 0
14, 8, 0
14, 15, 1
24, 20, 0
24, 14, 0
24, 9, 0
24, 26, 0
24, 2, 0
24, 25, 1
24, 8, 0
24, 1, 0
8, 14, 0
8, 23, 0
8, 24, 0
8, 25, 0
8, 1, 0
8, 2, 0
8, 9, 1
15, 6, 0
15, 19, 0
15, 25, 0
15, 14, 1
22, 5, 0
22, 26, 0
0, 7, 0
0, 16, 0
0, 13, 0
0, 4, 0
0, 21, 0
0, 18, 0
3, 4, 0
16, 0, 0
16, 21, 0
16, 13, 0
16, 18, 0
16, 4, 0
6, 20, 0
6, 15, 0
6, 14, 0
6, 1, 0
10, 12, 0
10, 14, 0
10, 26, 0
10, 18, 0
10, 17, 0
10, 19, 0
10, 11, 0
7, 0, 0
7, 18, 0
7, 13, 0
12, 19, 0
12, 17, 0
12, 11, 1
12, 10, 0
25, 20, 0
25, 17, 0
25, 26, 0
25, 23, 0
25, 2, 0
25, 19, 0
25, 8, 0
25, 15, 0
25, 24, 1
25, 9, 0
26, 14, 0
26, 9, 0
26, 23, 0
26, 24, 0
26, 25, 0
26, 10, 0
26, 5, 0
26, 22, 0
26, 1, 0
2, 25, 0
2, 23, 0
2, 24, 0
2, 1, 1
2, 8, 0
2, 9, 0
21, 0, 0
21, 16, 0
21, 4, 0
21, 5, 0
21, 18, 0
19, 12, 0
19, 25, 0
19, 14, 0
19, 15, 0
19, 17, 0
19, 11, 0
19, 10, 0
18, 0, 0
18, 7, 0
18, 13, 0
18, 14, 0
18, 4, 0
18, 21, 0
18, 16, 0
18, 5, 0
18, 10, 0
9, 20, 0
9, 17, 0
9, 26, 0
9, 23, 0
9, 2, 0
9, 25, 0
9, 8, 1
9, 24, 0
9, 1, 0
