0, 1, 0
0, 9, 0
0, 5, 0
0, 10, 0
13, 12, 0
13, 6, 0
13, 10, 0
13, 5, 0
13, 11, 0
13, 1, 0
3, 6, 0
3, 8, 0
3, 15, 0
3, 4, 1
16, 12, 0
16, 14, 0
16, 11, 0
16, 9, 0
6, 7, 1
6, 3, 0
6, 13, 0
6, 2, 0
6, 8, 0
6, 15, 0
6, 5, 0
8, 7, 0
8, 6, 0
8, 4, 0
8, 15, 0
8, 3, 0
5, 0, 0
5, 13, 0
5, 2, 0
5, 6, 0
5, 1, 0
5, 10, 0
11, 12, 0
11, 13, 0
11, 14, 0
11, 16, 0
11, 9, 0
11, 1, 0
10, 0, 0
10, 13, 0
10, 5, 0
10, 1, 0
7, 6, 1
7, 8, 0
7, 2, 0
12, 16, 0
12, 13, 0
12, 11, 0
12, 1, 0
4, 3, 1
4, 8, 0
4, 15, 0
14, 16, 0
14, 1, 0
14, 11, 0
14, 9, 0
2, 7, 0
2, 6, 0
2, 5, 0
1, 0, 0
1, 12, 0
1, 13, 0
1, 14, 0
1, 9, 0
1, 5, 0
1, 11, 0
1, 10, 0
15, 6, 0
15, 8, 0
15, 4, 0
15, 3, 0
9, 0, 0
9, 16, 0
9, 14, 0
9, 11, 0
9, 1, 0
