13, 0, 0
13, 8, 0
13, 10, 0
13, 1, 0
17, 18, 0
17, 7, 0
17, 19, 0
17, 2, 0
5, 21, 0
5, 20, 0
5, 4, 0
5, 14, 0
11, 7, 0
11, 16, 0
11, 3, 0
1, 0, 1
1, 8, 0
1, 13, 0
1, 10, 0
20, 21, 0
20, 4, 0
20, 15, 0
20, 5, 0
4, 20, 0
4, 21, 0
4, 5, 0
14, 19, 0
14, 5, 0
8, 0, 0
8, 13, 0
8, 10, 0
8, 1, 0
15, 20, 0
15, 6, 0
0, 8, 0
0, 13, 0
0, 10, 0
0, 1, 1
3, 16, 0
3, 7, 0
3, 11, 0
3, 9, 0
16, 7, 0
16, 3, 0
16, 11, 0
6, 21, 0
6, 15, 0
6, 10, 0
10, 0, 0
10, 13, 0
10, 21, 0
10, 6, 0
10, 8, 0
10, 1, 0
7, 16, 0
7, 3, 0
7, 17, 0
7, 11, 0
7, 12, 0
12, 7, 0
12, 18, 0
12, 9, 0
2, 18, 0
2, 19, 0
2, 17, 0
21, 20, 0
21, 6, 0
21, 4, 0
21, 5, 0
21, 10, 0
19, 14, 0
19, 17, 0
19, 2, 0
18, 12, 0
18, 17, 0
18, 2, 0
9, 3, 0
9, 12, 0
