0, 5, 0
0, 10, 0
3, 7, 0
3, 9, 0
3, 2, 0
4, 2, 0
4, 9, 0
4, 1, 0
2, 7, 0
2, 3, 0
2, 4, 0
2, 9, 0
2, 8, 0
2, 1, 0
6, 8, 0
6, 5, 0
6, 1, 0
1, 6, 0
1, 8, 0
1, 5, 0
1, 4, 0
1, 2, 0
8, 6, 0
8, 1, 0
8, 5, 0
8, 2, 0
5, 0, 0
5, 6, 0
5, 1, 0
5, 8, 0
5, 10, 0
7, 3, 0
7, 9, 0
7, 2, 0
10, 0, 0
10, 5, 0
9, 7, 0
9, 3, 0
9, 4, 0
9, 2, 0
