13, 7, 0
13, 12, 0
13, 15, 0
13, 23, 0
17, 20, 0
23, 7, 0
23, 12, 0
23, 13, 0
23, 14, 0
23, 19, 0
23, 15, 0
5, 6, 0
5, 9, 0
5, 10, 0
11, 21, 0
11, 20, 0
1, 18, 0
1, 6, 0
1, 2, 0
20, 21, 0
20, 17, 0
20, 11, 0
4, 21, 0
4, 3, 1
4, 16, 0
14, 7, 0
14, 19, 0
14, 15, 0
14, 23, 0
24, 0, 0
24, 19, 0
24, 8, 0
24, 22, 0
24, 2, 0
8, 0, 0
8, 7, 0
8, 2, 0
8, 19, 0
8, 24, 0
8, 22, 0
15, 7, 0
15, 13, 0
15, 14, 0
15, 23, 0
22, 0, 0
22, 2, 0
22, 19, 0
22, 8, 0
22, 24, 0
0, 2, 0
0, 19, 0
0, 8, 0
0, 22, 0
0, 24, 0
3, 16, 0
3, 21, 0
3, 6, 0
3, 4, 1
3, 9, 0
16, 21, 0
16, 3, 0
16, 4, 0
16, 9, 0
16, 10, 0
6, 18, 0
6, 3, 0
6, 9, 0
6, 5, 0
6, 1, 0
10, 16, 0
10, 5, 0
10, 9, 1
7, 12, 0
7, 13, 0
7, 14, 0
7, 23, 0
7, 8, 0
7, 15, 0
12, 7, 0
12, 13, 0
12, 23, 0
2, 0, 0
2, 24, 0
2, 18, 0
2, 8, 0
2, 22, 0
2, 1, 0
21, 20, 0
21, 3, 0
21, 4, 0
21, 16, 0
21, 11, 0
21, 9, 0
19, 0, 0
19, 14, 0
19, 23, 0
19, 24, 0
19, 8, 0
19, 22, 0
18, 6, 0
18, 2, 0
18, 1, 0
9, 3, 0
9, 21, 0
9, 16, 0
9, 6, 0
9, 5, 0
9, 10, 1
