0, 6, 0
0, 4, 0
0, 3, 0
3, 0, 0
3, 4, 1
3, 2, 0
3, 6, 0
3, 8, 0
3, 5, 0
4, 0, 0
4, 3, 1
4, 2, 0
7, 6, 0
7, 5, 0
2, 3, 0
2, 8, 0
2, 4, 0
6, 0, 0
6, 3, 0
6, 7, 0
6, 5, 0
8, 3, 0
8, 1, 0
8, 2, 0
5, 7, 0
5, 3, 0
5, 6, 0
1, 8, 0
