13, 18, 0
13, 24, 0
17, 18, 0
17, 3, 0
23, 12, 0
5, 16, 0
5, 1, 0
11, 12, 0
11, 2, 0
1, 0, 0
1, 5, 0
20, 7, 0
20, 21, 0
20, 19, 0
20, 24, 0
4, 16, 0
4, 14, 0
14, 4, 0
14, 15, 0
24, 20, 0
24, 13, 0
8, 0, 0
8, 7, 0
8, 19, 0
8, 9, 0
15, 14, 0
15, 10, 0
22, 21, 0
22, 7, 0
22, 19, 0
22, 9, 0
0, 8, 0
0, 1, 0
3, 17, 0
16, 4, 0
16, 5, 0
6, 12, 0
6, 10, 0
6, 2, 0
10, 6, 0
10, 15, 0
10, 12, 0
7, 20, 0
7, 21, 0
7, 19, 0
7, 8, 0
7, 22, 0
12, 6, 0
12, 10, 0
12, 11, 0
12, 23, 0
12, 2, 0
2, 6, 0
2, 11, 0
2, 12, 0
21, 7, 0
21, 20, 0
21, 19, 0
21, 22, 0
21, 9, 0
19, 7, 0
19, 20, 0
19, 21, 0
19, 8, 0
19, 22, 0
19, 9, 0
18, 13, 0
18, 17, 0
9, 21, 0
9, 19, 0
9, 8, 0
9, 22, 0
