0, 4, 0
0, 1, 0
8, 2, 0
3, 6, 0
3, 1, 0
3, 9, 0
6, 7, 0
6, 12, 0
6, 9, 0
6, 3, 0
6, 10, 0
5, 4, 0
5, 11, 0
11, 4, 0
11, 5, 0
10, 7, 0
10, 12, 0
10, 6, 0
10, 2, 0
7, 2, 0
7, 12, 0
7, 10, 0
7, 6, 0
12, 7, 0
12, 6, 0
12, 2, 0
12, 10, 0
4, 0, 0
4, 5, 0
4, 11, 0
4, 1, 0
2, 7, 0
2, 12, 0
2, 8, 0
2, 10, 0
1, 0, 0
1, 3, 0
1, 4, 0
1, 9, 0
9, 6, 0
9, 3, 0
9, 1, 0
