13, 15, 0
13, 30, 0
17, 15, 0
17, 8, 0
17, 25, 0
17, 26, 0
17, 29, 0
31, 7, 0
31, 3, 0
31, 28, 0
31, 32, 0
31, 0, 0
31, 10, 0
31, 9, 0
23, 4, 0
23, 5, 0
10, 7, 0
10, 3, 0
10, 31, 0
10, 32, 0
10, 9, 1
2, 21, 0
2, 12, 0
2, 4, 0
2, 32, 0
2, 1, 1
5, 4, 0
5, 11, 0
5, 23, 0
5, 32, 0
11, 16, 0
11, 6, 0
11, 14, 0
11, 5, 0
11, 32, 0
1, 21, 0
1, 12, 0
1, 4, 0
1, 2, 1
20, 6, 0
20, 26, 0
4, 12, 0
4, 32, 0
4, 23, 0
4, 2, 0
4, 21, 0
4, 5, 0
4, 1, 0
14, 16, 0
14, 6, 0
14, 11, 0
14, 32, 0
24, 18, 0
24, 0, 0
24, 19, 0
24, 22, 0
28, 0, 0
28, 31, 0
30, 13, 0
30, 15, 0
30, 32, 0
8, 25, 0
8, 15, 0
8, 17, 0
8, 29, 0
15, 13, 0
15, 17, 0
15, 32, 0
15, 29, 0
15, 25, 0
15, 8, 0
15, 30, 0
22, 18, 0
22, 0, 0
22, 19, 0
22, 24, 0
0, 7, 0
0, 28, 0
0, 31, 0
0, 24, 0
0, 18, 0
0, 22, 0
12, 7, 0
12, 4, 0
12, 32, 0
12, 2, 0
12, 21, 0
12, 1, 0
16, 14, 0
16, 11, 0
16, 32, 0
6, 20, 0
6, 14, 0
6, 26, 0
6, 11, 0
6, 32, 0
27, 7, 0
27, 3, 0
27, 9, 0
27, 32, 0
27, 21, 0
7, 0, 0
7, 12, 0
7, 31, 0
7, 32, 0
7, 3, 0
7, 21, 0
7, 27, 0
7, 19, 0
7, 9, 0
7, 10, 0
3, 7, 0
3, 31, 0
3, 32, 0
3, 21, 0
3, 27, 0
3, 9, 0
3, 10, 0
25, 15, 0
25, 8, 0
25, 17, 0
25, 32, 0
25, 29, 0
32, 6, 0
32, 26, 0
32, 3, 0
32, 16, 0
32, 27, 0
32, 29, 0
32, 5, 0
32, 11, 0
32, 10, 0
32, 7, 0
32, 12, 0
32, 4, 0
32, 14, 0
32, 31, 0
32, 2, 0
32, 21, 0
32, 25, 0
32, 30, 0
32, 15, 0
29, 25, 0
29, 26, 0
29, 32, 0
29, 17, 0
29, 8, 0
29, 15, 0
21, 7, 0
21, 12, 0
21, 4, 0
21, 32, 0
21, 3, 0
21, 27, 0
21, 2, 0
21, 1, 0
26, 20, 0
26, 6, 0
26, 17, 0
26, 32, 0
26, 29, 0
19, 7, 0
19, 18, 1
19, 22, 0
19, 24, 0
18, 0, 0
18, 19, 1
18, 22, 0
18, 24, 0
9, 7, 0
9, 27, 0
9, 3, 0
9, 31, 0
9, 10, 1
