12, 25, 0
12, 28, 0
12, 23, 0
13, 34, 0
13, 16, 0
13, 40, 0
13, 11, 0
13, 20, 0
13, 3, 0
13, 32, 0
13, 24, 0
13, 33, 0
13, 19, 0
13, 41, 0
13, 9, 0
17, 28, 0
17, 10, 0
31, 0, 0
31, 21, 0
31, 38, 0
31, 2, 0
31, 1, 0
31, 34, 0
31, 14, 0
31, 26, 0
31, 24, 0
31, 37, 0
31, 33, 0
31, 15, 0
31, 41, 0
31, 36, 0
23, 12, 0
23, 25, 0
23, 22, 1
23, 28, 0
24, 13, 0
24, 34, 0
24, 16, 0
24, 6, 0
24, 40, 0
24, 5, 0
24, 11, 0
24, 41, 0
24, 20, 0
24, 33, 0
24, 4, 0
24, 31, 0
24, 42, 0
24, 19, 0
24, 18, 0
24, 9, 0
40, 13, 0
40, 33, 0
40, 6, 0
40, 5, 0
40, 11, 0
40, 20, 0
40, 34, 0
40, 4, 0
40, 14, 0
40, 24, 0
40, 42, 0
40, 15, 0
40, 41, 0
40, 9, 0
5, 34, 0
5, 4, 1
5, 42, 0
5, 33, 0
5, 24, 0
5, 18, 0
5, 6, 1
5, 19, 0
5, 40, 0
5, 41, 0
11, 20, 0
11, 33, 0
11, 13, 0
11, 24, 0
11, 16, 0
11, 42, 0
11, 34, 0
11, 40, 0
11, 9, 0
30, 7, 0
30, 8, 0
30, 39, 0
20, 13, 0
20, 24, 0
20, 16, 0
20, 42, 0
20, 40, 0
20, 11, 0
20, 9, 0
21, 0, 0
21, 34, 0
21, 26, 0
21, 31, 0
21, 33, 0
21, 38, 0
4, 41, 0
4, 34, 0
4, 33, 0
4, 16, 0
4, 42, 0
4, 19, 0
4, 24, 0
4, 40, 0
4, 18, 0
4, 5, 1
14, 34, 0
14, 38, 0
14, 31, 0
14, 26, 0
14, 18, 0
14, 42, 0
14, 19, 0
14, 15, 0
14, 40, 0
14, 41, 0
35, 27, 0
35, 39, 0
42, 38, 0
42, 18, 0
42, 6, 0
42, 40, 0
42, 5, 0
42, 11, 0
42, 20, 0
42, 16, 0
42, 4, 0
42, 14, 0
42, 26, 0
42, 24, 0
42, 19, 0
42, 15, 0
42, 41, 0
42, 9, 0
1, 37, 0
1, 27, 0
1, 36, 0
1, 31, 0
1, 2, 1
15, 0, 0
15, 34, 0
15, 38, 0
15, 14, 0
15, 31, 0
15, 26, 0
15, 33, 0
15, 18, 0
15, 42, 0
15, 40, 0
15, 41, 0
41, 13, 0
41, 33, 0
41, 18, 0
41, 6, 0
41, 40, 0
41, 5, 0
41, 34, 0
41, 4, 0
41, 14, 0
41, 31, 0
41, 24, 0
41, 42, 0
41, 19, 0
41, 15, 0
22, 25, 0
22, 28, 0
22, 23, 1
36, 31, 0
36, 2, 0
36, 37, 1
36, 27, 0
36, 29, 0
36, 1, 0
0, 21, 0
0, 38, 0
0, 15, 0
0, 26, 0
0, 31, 0
7, 10, 0
7, 30, 0
6, 33, 0
6, 24, 0
6, 18, 0
6, 42, 0
6, 19, 0
6, 40, 0
6, 41, 0
6, 5, 1
8, 39, 0
8, 30, 0
38, 0, 0
38, 18, 0
38, 14, 0
38, 31, 0
38, 26, 0
38, 21, 0
38, 42, 0
38, 19, 0
38, 15, 0
3, 13, 0
3, 32, 0
16, 20, 0
16, 4, 0
16, 13, 0
16, 24, 0
16, 18, 0
16, 42, 0
16, 19, 0
16, 11, 0
16, 9, 0
39, 30, 0
39, 8, 0
39, 35, 0
18, 38, 0
18, 33, 0
18, 16, 0
18, 6, 0
18, 5, 0
18, 34, 0
18, 4, 0
18, 14, 0
18, 24, 0
18, 42, 0
18, 19, 0
18, 15, 0
18, 41, 0
18, 9, 0
27, 29, 0
27, 1, 0
27, 36, 0
27, 35, 0
28, 12, 0
28, 17, 0
28, 25, 0
28, 22, 0
28, 23, 0
34, 13, 0
34, 18, 0
34, 40, 0
34, 5, 0
34, 11, 0
34, 33, 1
34, 4, 0
34, 14, 0
34, 31, 0
34, 24, 0
34, 21, 0
34, 15, 0
34, 41, 0
34, 9, 0
25, 12, 0
25, 28, 0
25, 22, 0
25, 23, 0
33, 13, 0
33, 18, 0
33, 6, 0
33, 40, 0
33, 5, 0
33, 11, 0
33, 34, 1
33, 4, 0
33, 31, 0
33, 24, 0
33, 21, 0
33, 19, 0
33, 15, 0
33, 41, 0
33, 9, 0
32, 3, 0
32, 13, 0
2, 37, 0
2, 36, 0
2, 31, 0
2, 1, 1
37, 29, 0
37, 36, 1
37, 1, 0
37, 31, 0
37, 2, 0
29, 37, 0
29, 27, 0
29, 36, 0
19, 16, 0
19, 13, 0
19, 18, 0
19, 6, 0
19, 5, 0
19, 33, 0
19, 4, 0
19, 14, 0
19, 26, 0
19, 24, 0
19, 42, 0
19, 38, 0
19, 41, 0
19, 9, 0
26, 0, 0
26, 38, 0
26, 14, 0
26, 31, 0
26, 21, 0
26, 42, 0
26, 19, 0
26, 15, 0
10, 7, 0
10, 17, 0
9, 20, 0
9, 34, 0
9, 13, 0
9, 42, 0
9, 24, 0
9, 16, 0
9, 33, 0
9, 19, 0
9, 40, 0
9, 18, 0
9, 11, 0
