0, 7, 0
0, 10, 0
0, 1, 1
8, 9, 0
8, 2, 0
3, 7, 0
3, 4, 0
3, 5, 0
6, 5, 0
6, 11, 0
5, 6, 0
5, 3, 0
11, 12, 0
11, 6, 0
10, 0, 0
10, 7, 0
10, 1, 0
7, 0, 0
7, 3, 0
7, 4, 0
7, 10, 0
7, 1, 0
12, 11, 0
12, 2, 0
4, 7, 0
4, 3, 0
2, 12, 0
2, 8, 0
2, 9, 0
1, 0, 1
1, 7, 0
1, 10, 0
9, 8, 0
9, 2, 0
