0, 6, 0
0, 8, 0
0, 5, 0
0, 4, 0
3, 2, 0
3, 4, 0
3, 1, 0
4, 0, 0
4, 3, 0
4, 7, 0
4, 1, 0
7, 8, 0
7, 4, 0
2, 3, 0
6, 0, 0
6, 8, 0
6, 5, 0
8, 0, 0
8, 7, 0
8, 5, 0
8, 6, 0
5, 0, 0
5, 6, 0
5, 8, 0
1, 3, 0
1, 4, 0
