0, 7, 0
0, 1, 1
0, 4, 0
0, 5, 0
0, 2, 1
3, 8, 0
3, 4, 0
4, 0, 0
4, 3, 0
4, 8, 0
4, 5, 0
4, 7, 0
7, 0, 0
7, 4, 0
2, 0, 1
2, 5, 0
2, 1, 1
6, 8, 0
6, 5, 1
8, 3, 0
8, 4, 0
8, 5, 0
8, 6, 0
5, 0, 0
5, 4, 0
5, 2, 0
5, 6, 1
5, 8, 0
5, 1, 0
1, 0, 1
1, 5, 0
1, 2, 1
