0, 8, 0
0, 10, 0
0, 2, 0
8, 0, 0
8, 9, 0
8, 11, 0
8, 10, 0
3, 7, 0
3, 12, 0
3, 4, 0
3, 9, 0
3, 10, 0
6, 7, 0
6, 9, 0
6, 10, 0
6, 1, 0
5, 9, 0
5, 10, 0
5, 2, 0
11, 8, 0
11, 10, 1
11, 1, 0
10, 0, 0
10, 12, 0
10, 7, 0
10, 3, 0
10, 2, 0
10, 6, 0
10, 8, 0
10, 5, 0
10, 11, 1
10, 1, 0
7, 6, 0
7, 9, 0
7, 3, 0
7, 10, 0
12, 3, 0
12, 4, 0
12, 10, 0
12, 9, 0
4, 12, 0
4, 9, 0
4, 3, 0
2, 0, 0
2, 9, 0
2, 5, 0
2, 10, 0
1, 6, 0
1, 9, 0
1, 11, 0
1, 10, 0
9, 7, 0
9, 12, 0
9, 4, 0
9, 3, 0
9, 2, 0
9, 6, 0
9, 8, 0
9, 5, 0
9, 1, 0
