0, 7, 0
0, 3, 0
0, 4, 0
0, 2, 0
0, 6, 0
0, 5, 0
0, 1, 0
3, 0, 0
3, 2, 0
3, 4, 1
3, 1, 0
4, 0, 0
4, 3, 1
4, 2, 0
4, 1, 0
7, 0, 0
7, 5, 1
2, 0, 0
2, 3, 0
2, 4, 0
2, 1, 0
6, 0, 0
6, 5, 1
5, 0, 0
5, 7, 1
5, 6, 1
1, 0, 0
1, 3, 0
1, 4, 0
1, 2, 0
