0, 7, 0
0, 3, 0
0, 4, 0
0, 1, 0
0, 8, 0
0, 9, 0
3, 0, 0
3, 2, 0
3, 6, 0
3, 9, 0
3, 5, 0
3, 1, 0
4, 0, 0
4, 7, 0
4, 8, 0
4, 1, 0
2, 3, 0
2, 9, 0
2, 1, 1
6, 3, 0
6, 5, 1
6, 9, 0
1, 0, 0
1, 3, 0
1, 2, 1
1, 4, 0
1, 9, 0
8, 0, 0
8, 7, 1
8, 4, 0
5, 3, 0
5, 6, 1
7, 0, 0
7, 8, 1
7, 4, 0
9, 0, 0
9, 3, 0
9, 6, 0
9, 2, 0
9, 1, 0
