12, 25, 0
12, 23, 0
12, 11, 1
12, 24, 0
13, 20, 0
13, 6, 0
13, 17, 0
17, 20, 0
17, 13, 0
17, 2, 0
26, 0, 0
26, 15, 0
26, 28, 0
26, 31, 0
26, 27, 0
23, 12, 0
23, 24, 0
23, 21, 0
23, 5, 0
23, 22, 0
23, 9, 0
2, 14, 0
2, 17, 0
5, 1, 0
5, 10, 0
5, 23, 0
5, 9, 0
11, 12, 1
11, 24, 0
11, 25, 0
11, 22, 0
11, 3, 0
1, 16, 0
1, 30, 0
1, 5, 0
1, 10, 0
20, 7, 0
20, 17, 0
20, 13, 0
20, 14, 0
4, 18, 0
4, 16, 0
4, 8, 0
14, 20, 0
14, 7, 0
14, 2, 0
24, 0, 0
24, 12, 0
24, 25, 1
24, 11, 0
24, 23, 0
24, 22, 0
28, 27, 1
28, 15, 0
28, 26, 0
28, 31, 0
28, 29, 1
30, 16, 0
30, 19, 0
30, 1, 0
8, 18, 0
8, 6, 0
8, 4, 0
15, 27, 0
15, 28, 0
15, 26, 0
15, 31, 0
22, 25, 0
22, 11, 0
22, 23, 0
22, 24, 0
0, 3, 0
0, 25, 0
0, 31, 0
0, 26, 0
0, 24, 0
0, 21, 0
3, 0, 0
3, 11, 0
16, 18, 0
16, 19, 0
16, 4, 0
16, 1, 0
16, 30, 0
6, 8, 0
6, 13, 0
27, 15, 0
27, 28, 1
27, 26, 0
27, 31, 0
27, 29, 1
7, 20, 0
7, 14, 0
18, 16, 0
18, 19, 0
18, 8, 0
18, 4, 0
25, 0, 0
25, 12, 0
25, 11, 0
25, 24, 1
25, 21, 0
25, 22, 0
31, 0, 0
31, 28, 0
31, 26, 0
31, 29, 0
31, 27, 0
31, 15, 0
29, 27, 1
29, 28, 1
29, 31, 0
21, 0, 0
21, 10, 0
21, 25, 0
21, 23, 0
21, 9, 0
19, 16, 0
19, 18, 0
19, 30, 0
10, 21, 0
10, 9, 0
10, 5, 0
10, 1, 0
9, 21, 0
9, 5, 0
9, 23, 0
9, 10, 0
