13, 7, 0
13, 0, 0
13, 19, 0
13, 11, 0
13, 1, 0
17, 16, 0
17, 10, 0
17, 5, 0
17, 9, 0
5, 6, 0
5, 8, 0
5, 17, 0
11, 18, 0
11, 7, 0
11, 13, 0
1, 7, 0
1, 0, 0
1, 19, 0
1, 13, 0
20, 12, 0
20, 8, 0
20, 14, 0
4, 18, 0
4, 3, 1
4, 2, 0
4, 10, 0
4, 9, 0
14, 20, 0
14, 12, 0
8, 20, 0
8, 6, 0
8, 5, 0
8, 12, 0
15, 21, 0
15, 0, 0
15, 7, 0
0, 7, 0
0, 21, 0
0, 13, 0
0, 15, 0
0, 1, 0
3, 18, 0
3, 2, 0
3, 4, 1
3, 10, 0
16, 10, 0
16, 17, 0
16, 9, 0
6, 8, 0
6, 5, 0
10, 3, 0
10, 4, 0
10, 17, 0
10, 2, 0
10, 16, 0
10, 18, 0
10, 9, 0
7, 0, 0
7, 13, 0
7, 19, 0
7, 15, 0
7, 11, 0
7, 1, 0
12, 20, 0
12, 8, 0
12, 14, 0
2, 18, 0
2, 3, 0
2, 4, 0
2, 9, 0
2, 10, 0
21, 0, 0
21, 15, 0
19, 7, 0
19, 13, 0
19, 1, 0
18, 2, 0
18, 3, 0
18, 4, 0
18, 11, 0
18, 10, 0
9, 16, 0
9, 2, 0
9, 4, 0
9, 17, 0
9, 10, 0
