0, 7, 0
0, 12, 0
0, 6, 0
0, 1, 1
0, 8, 0
0, 10, 0
0, 11, 0
0, 9, 0
8, 0, 0
8, 7, 0
8, 4, 0
8, 9, 0
8, 6, 0
8, 10, 0
8, 5, 0
8, 11, 0
8, 1, 0
3, 12, 0
3, 2, 1
3, 5, 0
3, 6, 0
6, 0, 0
6, 12, 0
6, 7, 0
6, 3, 0
6, 2, 0
6, 8, 0
6, 11, 0
5, 7, 0
5, 12, 0
5, 4, 1
5, 3, 0
5, 8, 0
5, 10, 0
11, 0, 0
11, 7, 0
11, 12, 0
11, 6, 0
11, 1, 0
11, 8, 0
11, 10, 0
11, 9, 0
10, 0, 0
10, 1, 0
10, 8, 0
10, 5, 0
10, 11, 0
10, 9, 1
7, 0, 0
7, 12, 0
7, 4, 0
7, 6, 0
7, 8, 0
7, 5, 0
7, 11, 0
12, 0, 0
12, 7, 0
12, 3, 0
12, 2, 0
12, 6, 0
12, 5, 0
12, 11, 0
4, 7, 0
4, 8, 0
4, 5, 1
2, 12, 0
2, 3, 1
2, 6, 0
1, 0, 1
1, 8, 0
1, 10, 0
1, 11, 0
1, 9, 0
9, 0, 0
9, 8, 0
9, 10, 1
9, 11, 0
9, 1, 0
