13, 18, 0
13, 4, 0
13, 15, 0
17, 20, 0
17, 14, 0
17, 23, 0
17, 19, 0
17, 8, 0
17, 22, 0
17, 10, 0
23, 7, 0
23, 12, 0
23, 8, 0
23, 17, 0
23, 10, 0
5, 0, 0
5, 18, 0
5, 4, 0
5, 21, 0
5, 9, 0
11, 16, 0
11, 3, 0
11, 6, 0
11, 7, 0
11, 2, 0
1, 0, 0
1, 21, 0
1, 22, 0
1, 9, 0
20, 21, 0
20, 14, 0
20, 19, 0
20, 17, 0
20, 22, 0
4, 0, 0
4, 13, 0
4, 18, 0
4, 15, 0
4, 5, 0
4, 9, 0
14, 20, 0
14, 19, 0
14, 8, 0
14, 17, 0
8, 7, 0
8, 12, 0
8, 14, 0
8, 23, 0
8, 17, 0
8, 10, 0
15, 18, 0
15, 13, 0
15, 4, 0
22, 20, 0
22, 21, 0
22, 19, 0
22, 17, 0
22, 1, 0
0, 21, 0
0, 4, 0
0, 9, 0
0, 5, 0
0, 1, 0
3, 16, 0
3, 6, 0
3, 7, 0
3, 11, 0
3, 2, 0
16, 7, 0
16, 3, 0
16, 6, 0
16, 11, 0
16, 12, 0
6, 16, 0
6, 3, 0
6, 11, 0
6, 2, 0
10, 7, 0
10, 12, 0
10, 8, 0
10, 17, 0
10, 23, 0
7, 3, 0
7, 23, 0
7, 12, 0
7, 16, 0
7, 8, 0
7, 11, 0
7, 10, 0
12, 16, 0
12, 7, 0
12, 8, 0
12, 23, 0
12, 10, 0
2, 3, 0
2, 11, 0
2, 6, 0
21, 20, 0
21, 0, 0
21, 19, 0
21, 9, 0
21, 5, 0
21, 22, 0
21, 1, 0
19, 20, 0
19, 14, 0
19, 17, 0
19, 22, 0
19, 21, 0
18, 13, 0
18, 15, 0
18, 5, 0
18, 4, 0
9, 0, 0
9, 21, 0
9, 4, 0
9, 5, 0
9, 1, 0
