0, 12, 0
0, 6, 0
0, 13, 0
0, 3, 0
0, 2, 0
13, 0, 0
13, 12, 1
13, 2, 0
13, 3, 0
3, 0, 0
3, 12, 0
3, 2, 0
3, 13, 0
3, 6, 0
6, 0, 0
6, 12, 0
6, 8, 0
6, 10, 0
6, 3, 0
8, 6, 0
8, 9, 0
5, 7, 0
5, 10, 0
5, 15, 0
5, 11, 0
5, 1, 0
11, 10, 0
11, 15, 0
11, 5, 0
11, 9, 0
10, 4, 0
10, 14, 0
10, 6, 0
10, 5, 0
10, 11, 0
10, 1, 0
7, 15, 0
7, 5, 0
12, 0, 0
12, 3, 0
12, 6, 0
12, 13, 1
12, 2, 0
4, 14, 0
4, 10, 0
14, 4, 0
14, 10, 0
14, 1, 0
2, 0, 0
2, 12, 0
2, 13, 0
2, 3, 0
1, 14, 0
1, 5, 0
1, 10, 0
15, 7, 0
15, 5, 0
15, 11, 0
9, 8, 0
9, 11, 0
