0, 2, 0
0, 4, 0
0, 1, 1
13, 7, 0
13, 12, 0
13, 14, 1
13, 2, 0
13, 16, 0
13, 17, 0
13, 15, 0
13, 5, 0
17, 7, 0
17, 3, 0
17, 13, 0
17, 9, 0
17, 8, 0
17, 15, 0
17, 5, 0
17, 11, 0
17, 10, 0
3, 12, 0
3, 17, 0
3, 9, 0
3, 6, 0
3, 8, 0
3, 15, 0
3, 5, 0
3, 11, 0
3, 10, 0
16, 12, 0
16, 13, 0
16, 14, 0
16, 2, 0
6, 3, 0
6, 5, 1
8, 7, 1
8, 3, 0
8, 17, 0
8, 10, 1
8, 5, 1
8, 11, 1
8, 9, 1
5, 7, 1
5, 3, 0
5, 13, 0
5, 17, 0
5, 6, 1
5, 8, 1
5, 15, 0
5, 10, 1
5, 11, 1
5, 9, 1
11, 7, 1
11, 3, 0
11, 17, 0
11, 10, 1
11, 8, 1
11, 15, 0
11, 5, 1
11, 9, 1
10, 3, 0
10, 17, 0
10, 8, 1
10, 5, 1
10, 11, 1
10, 9, 1
7, 13, 0
7, 8, 1
7, 17, 0
7, 5, 1
7, 11, 1
12, 3, 0
12, 13, 0
12, 4, 0
12, 2, 0
12, 16, 0
12, 15, 0
12, 1, 0
4, 0, 0
4, 12, 0
4, 2, 0
4, 1, 0
14, 16, 0
14, 13, 1
2, 0, 0
2, 12, 0
2, 4, 0
2, 13, 0
2, 16, 0
2, 1, 0
1, 0, 1
1, 12, 0
1, 4, 0
1, 2, 0
15, 12, 0
15, 13, 0
15, 17, 0
15, 3, 0
15, 5, 0
15, 11, 0
9, 3, 0
9, 17, 0
9, 8, 1
9, 5, 1
9, 11, 1
9, 10, 1
