0, 11, 0
0, 2, 0
6, 7, 0
6, 3, 0
6, 4, 0
6, 8, 0
6, 5, 0
6, 1, 0
1, 7, 0
1, 3, 0
1, 8, 0
1, 4, 0
1, 6, 0
5, 2, 0
5, 6, 0
5, 8, 0
5, 10, 0
5, 11, 0
5, 9, 0
11, 0, 0
11, 10, 0
11, 9, 0
11, 5, 0
11, 2, 0
10, 2, 0
10, 5, 0
10, 11, 0
10, 9, 1
7, 6, 0
7, 8, 0
7, 3, 0
7, 4, 0
7, 1, 0
3, 7, 0
3, 6, 0
3, 8, 0
3, 4, 1
3, 1, 0
4, 7, 0
4, 6, 0
4, 8, 0
4, 3, 1
4, 1, 0
2, 0, 0
2, 10, 0
2, 8, 0
2, 5, 0
2, 11, 0
2, 9, 0
8, 7, 0
8, 3, 0
8, 4, 0
8, 2, 0
8, 6, 0
8, 5, 0
8, 1, 0
9, 2, 0
9, 5, 0
9, 11, 0
9, 10, 1
