0, 19, 0
0, 8, 0
0, 15, 0
0, 4, 0
0, 1, 1
13, 18, 0
13, 7, 0
13, 14, 1
13, 17, 0
13, 6, 0
17, 7, 0
17, 18, 0
17, 13, 0
17, 14, 0
3, 7, 0
3, 2, 1
3, 10, 0
16, 8, 0
16, 15, 1
16, 4, 0
6, 18, 0
6, 7, 0
6, 13, 0
6, 14, 0
6, 9, 0
8, 0, 0
8, 16, 0
8, 4, 0
8, 15, 0
8, 5, 0
5, 12, 0
5, 8, 0
5, 11, 0
5, 10, 0
11, 12, 1
11, 5, 0
11, 10, 0
10, 7, 0
10, 12, 0
10, 3, 0
10, 2, 0
10, 5, 0
10, 11, 0
7, 3, 0
7, 13, 0
7, 14, 0
7, 2, 0
7, 18, 0
7, 6, 0
7, 17, 0
7, 10, 0
12, 5, 0
12, 11, 1
12, 10, 0
4, 0, 0
4, 16, 0
4, 19, 0
4, 8, 0
4, 15, 0
4, 1, 0
14, 7, 0
14, 18, 0
14, 13, 1
14, 17, 0
14, 6, 0
2, 7, 0
2, 3, 1
2, 10, 0
19, 0, 0
19, 4, 0
19, 15, 0
19, 1, 0
1, 0, 1
1, 19, 0
1, 4, 0
15, 0, 0
15, 16, 1
15, 19, 0
15, 8, 0
15, 4, 0
18, 7, 0
18, 6, 0
18, 13, 0
18, 14, 0
18, 17, 0
9, 6, 0
