0, 3, 0
0, 13, 0
0, 4, 0
0, 2, 0
0, 16, 0
0, 10, 0
13, 7, 0
13, 3, 0
13, 4, 0
13, 2, 0
13, 16, 0
13, 0, 0
13, 10, 0
13, 15, 0
13, 11, 0
13, 1, 0
3, 7, 0
3, 0, 0
3, 13, 0
3, 4, 1
3, 16, 0
3, 1, 0
3, 15, 0
3, 10, 0
16, 0, 0
16, 12, 0
16, 13, 0
16, 4, 0
16, 3, 0
16, 6, 0
16, 2, 0
16, 5, 0
16, 10, 0
6, 16, 0
6, 12, 0
6, 5, 1
8, 9, 0
5, 16, 0
5, 12, 0
5, 6, 1
11, 7, 0
11, 13, 0
11, 15, 0
10, 0, 0
10, 3, 0
10, 13, 0
10, 4, 0
10, 2, 0
10, 16, 0
10, 15, 0
10, 1, 0
7, 3, 0
7, 13, 0
7, 4, 0
7, 2, 0
7, 11, 0
7, 1, 0
12, 16, 0
12, 6, 0
12, 5, 0
4, 7, 0
4, 3, 1
4, 13, 0
4, 2, 1
4, 16, 0
4, 0, 0
4, 10, 0
4, 15, 0
4, 1, 0
14, 15, 0
14, 9, 0
2, 7, 0
2, 0, 0
2, 13, 0
2, 4, 1
2, 16, 0
2, 1, 0
2, 10, 0
1, 7, 0
1, 3, 0
1, 13, 0
1, 4, 0
1, 2, 0
1, 10, 0
15, 3, 0
15, 13, 0
15, 14, 0
15, 4, 0
15, 11, 0
15, 10, 0
9, 8, 0
9, 14, 0
