13, 11, 1
17, 18, 1
17, 3, 0
17, 31, 0
17, 29, 0
23, 0, 0
23, 7, 0
23, 8, 0
23, 11, 0
23, 12, 0
42, 40, 0
42, 32, 0
5, 20, 0
5, 19, 0
5, 24, 0
5, 38, 0
5, 9, 0
20, 19, 1
20, 38, 0
20, 5, 0
14, 34, 0
14, 40, 0
24, 25, 1
24, 6, 0
24, 38, 0
24, 19, 0
24, 15, 0
24, 5, 0
24, 9, 0
28, 6, 0
28, 41, 0
28, 31, 0
39, 33, 0
39, 27, 0
39, 2, 0
39, 26, 0
39, 6, 0
41, 28, 0
41, 9, 0
0, 7, 0
0, 23, 0
8, 12, 0
8, 11, 0
8, 23, 0
12, 8, 0
12, 23, 0
12, 11, 1
12, 2, 0
15, 16, 1
15, 34, 0
15, 25, 0
15, 24, 0
10, 21, 0
10, 29, 0
10, 31, 0
10, 22, 0
10, 1, 0
7, 0, 0
7, 23, 0
7, 35, 0
7, 37, 0
7, 2, 0
7, 36, 0
3, 18, 0
3, 17, 0
3, 31, 0
3, 26, 0
3, 29, 0
32, 42, 0
32, 40, 0
32, 22, 0
32, 31, 0
2, 26, 0
2, 33, 0
2, 6, 0
2, 44, 0
2, 27, 0
2, 7, 0
2, 12, 0
2, 4, 0
2, 43, 0
2, 31, 0
2, 35, 0
2, 37, 0
2, 39, 0
21, 1, 0
21, 29, 0
21, 10, 0
21, 30, 0
33, 43, 0
33, 26, 0
33, 2, 0
33, 18, 0
33, 6, 0
33, 39, 0
33, 44, 0
33, 27, 0
19, 20, 1
19, 24, 0
19, 38, 0
19, 5, 0
19, 9, 0
18, 3, 0
18, 17, 1
18, 31, 0
18, 26, 0
18, 29, 0
18, 43, 0
18, 33, 0
18, 44, 0
31, 17, 0
31, 32, 0
31, 34, 0
31, 18, 0
31, 2, 0
31, 40, 0
31, 44, 0
31, 10, 0
31, 3, 0
31, 4, 0
31, 43, 0
31, 26, 0
31, 29, 0
31, 28, 0
31, 38, 0
31, 22, 0
31, 9, 0
29, 3, 0
29, 17, 0
29, 26, 0
29, 31, 0
29, 21, 0
29, 6, 0
29, 1, 0
29, 10, 0
29, 18, 0
29, 30, 1
40, 6, 0
40, 14, 0
40, 32, 0
40, 31, 0
40, 42, 0
11, 12, 1
11, 8, 0
11, 13, 1
11, 23, 0
1, 29, 0
1, 21, 0
1, 6, 0
1, 30, 0
1, 22, 0
1, 10, 0
37, 7, 0
37, 2, 0
37, 36, 1
37, 35, 1
4, 31, 0
4, 43, 0
4, 44, 0
4, 26, 0
4, 2, 0
35, 7, 0
35, 37, 1
35, 36, 1
35, 2, 0
30, 21, 0
30, 1, 0
30, 22, 0
30, 29, 1
38, 20, 0
38, 34, 0
38, 31, 0
38, 24, 0
38, 19, 0
38, 5, 0
22, 31, 0
22, 32, 0
22, 6, 0
22, 1, 0
22, 10, 0
22, 30, 0
36, 7, 0
36, 37, 1
36, 35, 1
16, 34, 0
16, 15, 1
27, 33, 0
27, 43, 0
27, 26, 0
27, 2, 0
27, 6, 0
27, 39, 0
27, 44, 0
44, 33, 0
44, 4, 0
44, 43, 1
44, 26, 0
44, 31, 0
44, 2, 0
44, 18, 0
44, 6, 0
44, 27, 0
34, 14, 0
34, 31, 0
34, 16, 0
34, 6, 0
34, 15, 0
34, 38, 0
25, 15, 0
25, 24, 1
26, 33, 0
26, 18, 0
26, 6, 0
26, 2, 0
26, 44, 0
26, 27, 0
26, 3, 0
26, 4, 0
26, 43, 0
26, 31, 0
26, 29, 0
26, 39, 0
6, 28, 0
6, 34, 0
6, 27, 0
6, 2, 0
6, 40, 0
6, 44, 0
6, 1, 0
6, 24, 0
6, 33, 0
6, 26, 0
6, 29, 0
6, 39, 0
6, 22, 0
6, 9, 0
43, 33, 0
43, 4, 0
43, 26, 0
43, 31, 0
43, 2, 0
43, 18, 0
43, 27, 0
43, 44, 1
9, 31, 0
9, 24, 0
9, 6, 0
9, 19, 0
9, 41, 0
9, 5, 0
