13, 18, 0
13, 19, 0
13, 44, 0
13, 29, 0
17, 21, 0
17, 27, 0
17, 36, 0
17, 26, 0
17, 10, 0
23, 40, 0
23, 41, 0
42, 7, 0
42, 32, 0
42, 24, 0
42, 15, 0
42, 35, 0
42, 39, 0
42, 44, 0
42, 11, 0
5, 40, 0
5, 38, 0
5, 41, 0
20, 34, 0
20, 28, 0
20, 1, 0
14, 3, 0
14, 38, 0
14, 30, 0
24, 7, 0
24, 32, 0
24, 35, 0
24, 42, 0
24, 39, 0
24, 11, 0
28, 20, 0
28, 4, 0
28, 1, 0
39, 7, 0
39, 32, 0
39, 24, 0
39, 18, 0
39, 42, 0
39, 35, 0
39, 15, 0
39, 44, 0
41, 25, 0
41, 5, 0
41, 23, 0
0, 37, 0
0, 12, 0
0, 33, 0
0, 31, 0
0, 2, 0
8, 43, 0
8, 35, 0
12, 0, 0
12, 33, 0
12, 31, 0
12, 3, 0
12, 37, 0
12, 2, 0
15, 42, 0
15, 39, 0
15, 44, 0
10, 21, 0
10, 27, 0
10, 17, 0
10, 26, 0
10, 36, 0
7, 32, 0
7, 24, 0
7, 42, 0
7, 35, 0
7, 39, 0
7, 11, 0
3, 12, 0
3, 6, 0
3, 14, 0
3, 31, 0
3, 2, 0
3, 37, 0
3, 33, 0
3, 30, 0
32, 7, 0
32, 24, 0
32, 42, 0
32, 35, 0
32, 39, 0
32, 11, 0
2, 0, 0
2, 12, 0
2, 31, 0
2, 3, 0
2, 37, 0
2, 33, 0
21, 27, 0
21, 36, 0
21, 17, 0
21, 26, 0
21, 10, 0
33, 0, 0
33, 12, 0
33, 31, 0
33, 3, 0
33, 37, 0
33, 6, 0
33, 2, 0
33, 30, 0
19, 13, 0
19, 9, 0
19, 29, 0
18, 13, 0
18, 39, 0
18, 44, 0
31, 0, 0
31, 3, 0
31, 12, 0
31, 33, 0
31, 37, 0
31, 2, 0
31, 1, 0
29, 19, 0
29, 13, 0
29, 22, 0
29, 36, 0
40, 38, 0
40, 5, 0
40, 23, 0
11, 7, 0
11, 42, 0
11, 35, 0
11, 32, 0
11, 24, 0
1, 20, 0
1, 37, 0
1, 28, 0
1, 31, 0
37, 0, 0
37, 3, 0
37, 12, 0
37, 31, 0
37, 33, 0
37, 2, 0
37, 1, 0
4, 34, 0
4, 28, 0
35, 7, 0
35, 32, 0
35, 24, 0
35, 42, 0
35, 8, 0
35, 39, 0
35, 11, 0
30, 6, 0
30, 38, 0
30, 14, 0
30, 33, 0
30, 3, 0
38, 40, 0
38, 14, 0
38, 5, 0
38, 30, 0
22, 36, 0
22, 9, 0
22, 29, 0
36, 17, 0
36, 26, 0
36, 29, 0
36, 21, 0
36, 27, 0
36, 22, 0
36, 10, 0
16, 25, 0
16, 43, 0
27, 21, 0
27, 36, 0
27, 17, 0
27, 26, 1
27, 10, 0
44, 18, 0
44, 39, 0
44, 13, 0
44, 15, 0
44, 42, 0
34, 20, 0
34, 4, 0
25, 16, 0
25, 41, 0
26, 21, 0
26, 27, 1
26, 36, 0
26, 17, 0
26, 10, 0
6, 3, 0
6, 33, 0
6, 30, 0
43, 16, 0
43, 8, 0
9, 19, 0
9, 22, 0
