0, 8, 0
0, 1, 0
6, 4, 0
6, 11, 0
6, 1, 0
1, 0, 0
1, 6, 0
1, 8, 0
1, 4, 0
5, 3, 0
5, 2, 0
11, 6, 0
11, 4, 0
11, 9, 0
10, 9, 0
10, 2, 0
7, 3, 0
3, 7, 0
3, 5, 0
4, 6, 0
4, 11, 0
4, 1, 0
2, 9, 0
2, 5, 0
2, 10, 0
8, 0, 0
8, 1, 0
9, 2, 0
9, 11, 0
9, 10, 0
