13, 21, 0
13, 14, 1
13, 11, 0
13, 22, 0
13, 24, 0
17, 21, 0
17, 18, 0
17, 19, 0
17, 22, 0
17, 6, 0
23, 20, 0
23, 21, 0
23, 26, 0
5, 3, 0
5, 4, 0
5, 25, 0
5, 21, 0
5, 1, 0
5, 8, 0
5, 15, 0
5, 9, 0
11, 7, 0
11, 21, 0
11, 13, 0
11, 24, 0
11, 16, 0
11, 22, 0
1, 21, 0
1, 3, 0
1, 15, 0
1, 5, 0
1, 6, 0
20, 2, 0
20, 23, 0
20, 26, 0
20, 10, 0
4, 8, 0
4, 25, 0
4, 5, 0
4, 9, 0
14, 21, 0
14, 13, 1
14, 22, 0
14, 24, 0
24, 21, 0
24, 13, 0
24, 14, 0
24, 22, 0
24, 11, 0
8, 4, 0
8, 25, 0
8, 5, 0
8, 9, 1
15, 6, 0
15, 3, 0
15, 5, 0
15, 1, 0
22, 13, 0
22, 14, 0
22, 24, 0
22, 21, 0
22, 17, 0
22, 11, 0
0, 16, 0
0, 12, 0
0, 21, 0
0, 2, 0
3, 15, 0
3, 5, 0
3, 1, 0
16, 0, 0
16, 7, 0
16, 2, 0
16, 21, 0
16, 11, 0
16, 12, 0
6, 21, 0
6, 17, 0
6, 18, 0
6, 19, 0
6, 15, 0
6, 1, 0
10, 20, 0
10, 26, 0
10, 2, 0
7, 16, 0
7, 11, 0
12, 0, 0
12, 16, 0
12, 2, 0
25, 8, 0
25, 5, 0
25, 4, 0
25, 9, 0
26, 20, 0
26, 2, 0
26, 23, 0
26, 10, 0
2, 20, 0
2, 0, 0
2, 21, 0
2, 26, 0
2, 12, 0
2, 16, 0
2, 10, 0
21, 0, 0
21, 13, 0
21, 17, 0
21, 23, 0
21, 16, 0
21, 6, 0
21, 2, 0
21, 5, 0
21, 11, 0
21, 1, 0
21, 14, 0
21, 24, 0
21, 19, 0
21, 22, 0
21, 9, 0
19, 21, 0
19, 6, 0
19, 17, 0
19, 18, 1
18, 6, 0
18, 19, 1
18, 17, 0
9, 21, 0
9, 8, 1
9, 25, 0
9, 5, 0
9, 4, 0
