13, 3, 0
13, 19, 0
13, 14, 1
17, 0, 0
17, 12, 0
17, 25, 0
17, 26, 0
17, 23, 0
17, 3, 0
17, 21, 0
17, 15, 0
23, 15, 0
23, 17, 0
23, 26, 0
23, 12, 0
5, 16, 0
5, 9, 0
5, 22, 0
5, 2, 0
11, 18, 0
11, 19, 0
11, 4, 0
11, 1, 0
11, 24, 0
1, 3, 0
1, 19, 0
1, 14, 0
1, 11, 0
1, 24, 0
20, 4, 0
20, 24, 0
20, 18, 0
20, 19, 0
20, 8, 0
20, 10, 0
4, 18, 0
4, 20, 0
4, 11, 0
4, 24, 0
14, 3, 0
14, 19, 0
14, 13, 1
14, 1, 0
24, 20, 0
24, 4, 0
24, 18, 0
24, 19, 0
24, 8, 0
24, 10, 0
24, 11, 0
24, 1, 0
8, 20, 0
8, 10, 0
8, 24, 0
15, 21, 0
15, 12, 0
15, 17, 0
15, 26, 0
15, 23, 0
22, 9, 0
22, 5, 0
22, 2, 0
0, 7, 0
0, 12, 0
0, 25, 0
0, 26, 0
0, 16, 0
0, 6, 0
0, 17, 0
3, 13, 0
3, 14, 0
3, 26, 0
3, 21, 0
3, 17, 0
3, 19, 0
3, 1, 0
16, 0, 0
16, 7, 0
16, 25, 0
16, 2, 0
16, 6, 0
16, 5, 0
16, 9, 0
6, 0, 0
6, 16, 0
6, 7, 1
10, 20, 0
10, 18, 0
10, 8, 0
10, 24, 0
7, 0, 0
7, 16, 0
7, 25, 0
7, 6, 1
12, 0, 0
12, 25, 0
12, 15, 0
12, 17, 0
12, 23, 0
25, 0, 0
25, 16, 0
25, 7, 0
25, 17, 0
25, 12, 0
26, 0, 0
26, 3, 0
26, 17, 0
26, 23, 0
26, 21, 0
26, 15, 0
2, 16, 0
2, 5, 0
2, 22, 0
2, 9, 0
21, 15, 0
21, 17, 0
21, 26, 0
21, 3, 0
19, 20, 0
19, 3, 0
19, 13, 0
19, 14, 0
19, 24, 0
19, 11, 0
19, 1, 0
18, 20, 0
18, 4, 0
18, 10, 0
18, 11, 0
18, 24, 0
9, 16, 0
9, 5, 0
9, 22, 0
9, 2, 0
