0, 7, 0
0, 6, 0
13, 7, 0
13, 1, 0
3, 12, 0
3, 4, 0
3, 2, 0
3, 10, 0
3, 8, 0
3, 5, 0
3, 9, 0
6, 0, 0
6, 7, 0
6, 2, 0
6, 8, 0
6, 9, 0
8, 7, 0
8, 3, 0
8, 4, 0
8, 12, 0
8, 2, 0
8, 6, 0
8, 10, 0
8, 11, 0
8, 9, 0
5, 2, 0
5, 12, 0
5, 4, 1
5, 10, 0
5, 3, 0
11, 7, 0
11, 8, 0
11, 1, 0
10, 12, 0
10, 4, 0
10, 3, 0
10, 2, 0
10, 8, 0
10, 5, 0
7, 0, 0
7, 13, 0
7, 6, 0
7, 8, 0
7, 11, 0
7, 1, 0
12, 3, 0
12, 4, 0
12, 2, 0
12, 8, 0
12, 5, 0
12, 10, 0
4, 12, 0
4, 3, 0
4, 2, 0
4, 8, 0
4, 5, 1
4, 10, 0
2, 12, 0
2, 4, 0
2, 9, 0
2, 3, 0
2, 6, 0
2, 8, 0
2, 5, 0
2, 10, 0
1, 7, 0
1, 13, 0
1, 11, 0
9, 2, 0
9, 6, 0
9, 8, 0
9, 3, 0
