0, 7, 0
0, 4, 0
0, 2, 0
0, 1, 0
0, 8, 0
0, 9, 0
6, 4, 0
6, 5, 1
1, 0, 0
1, 8, 0
1, 11, 0
1, 2, 0
5, 6, 1
5, 4, 0
11, 2, 0
11, 10, 1
11, 1, 0
10, 3, 0
10, 4, 0
10, 11, 1
10, 2, 0
7, 0, 0
7, 2, 0
7, 9, 0
3, 2, 1
3, 4, 0
3, 10, 0
4, 0, 0
4, 3, 0
4, 2, 0
4, 6, 0
4, 8, 0
4, 5, 0
4, 10, 0
2, 0, 0
2, 3, 1
2, 4, 0
2, 1, 0
2, 8, 0
2, 7, 0
2, 11, 0
2, 10, 0
8, 0, 0
8, 2, 0
8, 9, 0
8, 4, 0
8, 1, 0
9, 0, 0
9, 7, 0
9, 8, 0
