13, 21, 0
13, 12, 0
13, 3, 0
13, 5, 0
13, 10, 0
17, 18, 1
17, 27, 0
17, 0, 0
17, 26, 0
17, 2, 0
23, 20, 0
23, 22, 0
23, 9, 0
2, 0, 0
2, 4, 0
2, 17, 0
2, 26, 0
2, 24, 0
2, 18, 0
5, 12, 0
5, 13, 0
5, 21, 0
5, 27, 0
5, 19, 0
5, 10, 0
11, 16, 0
11, 6, 0
11, 14, 0
1, 0, 0
1, 16, 0
1, 8, 0
1, 25, 0
1, 7, 0
20, 22, 0
20, 23, 0
20, 9, 0
4, 0, 0
4, 2, 0
4, 24, 0
14, 16, 0
14, 6, 0
14, 15, 1
14, 11, 0
14, 9, 0
24, 0, 0
24, 4, 0
24, 2, 0
8, 7, 0
8, 16, 0
8, 1, 0
15, 14, 1
15, 9, 0
22, 20, 0
22, 23, 0
22, 9, 0
0, 17, 0
0, 12, 0
0, 18, 0
0, 2, 0
0, 10, 0
0, 3, 0
0, 4, 0
0, 25, 0
0, 26, 0
0, 24, 0
0, 21, 0
0, 1, 0
3, 21, 0
3, 0, 0
3, 19, 0
3, 13, 0
3, 10, 0
16, 7, 0
16, 14, 0
16, 6, 0
16, 8, 0
16, 11, 0
16, 1, 0
6, 16, 0
6, 14, 0
6, 11, 0
10, 0, 0
10, 3, 0
10, 13, 0
10, 12, 0
10, 21, 0
10, 27, 0
10, 19, 0
10, 5, 0
7, 16, 0
7, 8, 0
7, 1, 0
12, 0, 0
12, 13, 0
12, 21, 0
12, 27, 0
12, 5, 0
12, 10, 0
25, 0, 0
25, 1, 0
26, 18, 0
26, 27, 0
26, 0, 0
26, 17, 0
26, 2, 0
27, 12, 0
27, 17, 0
27, 26, 0
27, 21, 0
27, 5, 0
27, 10, 0
21, 0, 0
21, 3, 0
21, 13, 0
21, 12, 0
21, 27, 0
21, 19, 0
21, 5, 0
21, 10, 0
19, 21, 0
19, 3, 0
19, 5, 0
19, 10, 0
18, 0, 0
18, 17, 1
18, 26, 0
18, 2, 0
9, 20, 0
9, 15, 0
9, 14, 0
9, 22, 0
9, 23, 0
