0, 8, 0
0, 10, 0
3, 9, 0
3, 2, 0
3, 6, 0
3, 8, 0
3, 5, 0
3, 10, 0
4, 7, 0
4, 6, 0
4, 5, 0
4, 1, 0
2, 3, 0
2, 6, 0
2, 8, 0
2, 5, 0
2, 9, 0
6, 3, 0
6, 4, 0
6, 5, 0
6, 2, 0
1, 7, 0
1, 4, 0
8, 0, 0
8, 3, 0
8, 2, 0
8, 9, 0
8, 10, 0
5, 3, 0
5, 6, 0
5, 4, 0
5, 10, 0
5, 2, 0
7, 4, 0
7, 1, 0
10, 0, 0
10, 3, 0
10, 8, 0
10, 5, 0
10, 9, 1
9, 2, 0
9, 3, 0
9, 8, 0
9, 10, 1
