0, 4, 0
0, 11, 0
0, 1, 1
8, 10, 0
8, 4, 0
8, 9, 1
8, 2, 0
3, 7, 0
3, 6, 0
3, 5, 0
3, 12, 0
6, 12, 0
6, 5, 1
6, 3, 0
5, 7, 0
5, 12, 0
5, 3, 0
5, 6, 1
11, 0, 0
11, 4, 0
11, 1, 0
10, 7, 0
10, 8, 0
10, 4, 0
10, 2, 0
7, 3, 0
7, 5, 0
7, 10, 0
12, 6, 0
12, 5, 0
12, 3, 0
4, 0, 0
4, 9, 0
4, 2, 0
4, 1, 0
4, 8, 0
4, 11, 0
4, 10, 0
2, 8, 0
2, 9, 0
2, 4, 0
2, 10, 0
1, 0, 1
1, 4, 0
1, 11, 0
9, 8, 1
9, 4, 0
9, 2, 0
