0, 12, 0
0, 1, 1
0, 10, 0
0, 2, 1
13, 7, 0
13, 6, 0
13, 15, 0
13, 11, 0
17, 18, 1
17, 7, 0
17, 4, 0
17, 9, 0
3, 8, 0
3, 14, 0
16, 8, 0
16, 14, 0
6, 13, 0
6, 15, 0
6, 5, 0
6, 11, 0
8, 16, 0
8, 3, 0
8, 10, 0
8, 14, 0
8, 1, 0
5, 6, 0
11, 6, 0
11, 13, 0
11, 15, 0
10, 0, 0
10, 2, 0
10, 8, 0
10, 1, 0
7, 18, 0
7, 13, 0
7, 17, 0
12, 0, 0
12, 9, 0
4, 18, 0
4, 17, 0
4, 9, 0
14, 16, 0
14, 3, 0
14, 8, 0
2, 0, 1
2, 10, 0
2, 1, 1
1, 0, 1
1, 8, 0
1, 10, 0
1, 2, 1
15, 6, 0
15, 13, 0
15, 11, 0
18, 7, 0
18, 4, 0
18, 17, 1
18, 9, 0
9, 18, 0
9, 12, 0
9, 4, 0
9, 17, 0
