0, 3, 0
0, 8, 0
0, 10, 0
13, 7, 0
13, 14, 0
13, 15, 0
13, 11, 0
13, 6, 0
3, 0, 0
3, 6, 0
3, 8, 0
3, 10, 0
16, 5, 0
6, 3, 0
6, 15, 0
6, 13, 0
6, 14, 0
8, 0, 0
8, 3, 0
8, 4, 0
8, 10, 0
5, 16, 0
5, 7, 0
5, 1, 0
11, 7, 0
11, 13, 0
11, 1, 0
10, 0, 0
10, 3, 0
10, 8, 0
7, 13, 0
7, 5, 0
7, 11, 0
7, 1, 0
12, 9, 0
12, 2, 0
4, 8, 0
4, 9, 0
14, 6, 0
14, 13, 0
14, 15, 1
2, 12, 0
1, 7, 0
1, 5, 0
1, 11, 0
15, 6, 0
15, 13, 0
15, 14, 1
9, 12, 0
9, 4, 0
