0, 3, 0
0, 5, 0
0, 11, 0
0, 6, 0
6, 0, 0
6, 5, 0
6, 9, 0
1, 7, 0
1, 3, 0
1, 4, 0
5, 0, 0
5, 6, 0
5, 8, 0
5, 9, 0
5, 10, 0
11, 0, 0
11, 3, 0
10, 8, 0
10, 5, 0
10, 9, 0
7, 3, 0
7, 4, 0
7, 1, 0
3, 0, 0
3, 7, 0
3, 4, 0
3, 2, 0
3, 11, 0
3, 1, 0
4, 7, 0
4, 3, 0
4, 1, 0
4, 2, 0
2, 3, 0
2, 4, 0
8, 5, 0
8, 10, 0
9, 6, 0
9, 5, 0
9, 10, 0
