0, 3, 0
0, 6, 0
3, 0, 0
3, 7, 0
4, 10, 0
4, 5, 1
4, 2, 0
2, 4, 0
2, 5, 0
2, 10, 0
6, 0, 0
6, 9, 0
6, 1, 0
1, 6, 0
1, 9, 0
8, 7, 0
8, 10, 0
5, 4, 1
5, 10, 0
5, 2, 0
7, 3, 0
7, 8, 0
7, 10, 0
10, 7, 0
10, 8, 0
10, 5, 0
10, 4, 0
10, 2, 0
9, 6, 0
9, 1, 0
