0, 6, 0
0, 12, 0
8, 9, 1
8, 10, 0
8, 1, 0
3, 6, 0
3, 1, 0
6, 0, 0
6, 12, 0
6, 3, 0
6, 1, 0
5, 2, 0
11, 7, 0
10, 8, 0
10, 4, 0
10, 9, 0
7, 12, 0
7, 11, 0
12, 0, 0
12, 7, 0
12, 6, 0
4, 2, 0
4, 10, 0
2, 4, 0
2, 5, 0
1, 6, 0
1, 8, 0
1, 3, 0
1, 9, 0
9, 8, 1
9, 10, 0
9, 1, 0
