0, 7, 0
0, 3, 0
0, 4, 0
0, 2, 0
0, 6, 0
0, 1, 0
0, 8, 0
0, 5, 0
0, 10, 0
0, 9, 0
3, 0, 0
3, 4, 0
3, 9, 0
3, 5, 0
3, 2, 1
4, 0, 0
4, 3, 0
4, 5, 1
4, 2, 0
2, 0, 0
2, 3, 1
2, 4, 0
2, 5, 0
6, 0, 0
6, 7, 1
6, 1, 0
6, 9, 0
6, 10, 0
1, 0, 0
1, 7, 0
1, 9, 0
1, 6, 0
1, 8, 0
1, 10, 0
8, 0, 0
8, 7, 1
8, 1, 0
8, 9, 0
8, 10, 0
5, 0, 0
5, 3, 0
5, 4, 1
5, 9, 0
5, 2, 0
7, 0, 0
7, 9, 0
7, 6, 1
7, 1, 0
7, 8, 1
7, 10, 0
10, 0, 0
10, 7, 0
10, 6, 0
10, 1, 0
10, 8, 0
10, 9, 0
9, 0, 0
9, 3, 0
9, 7, 0
9, 6, 0
9, 1, 0
9, 8, 0
9, 5, 0
9, 10, 0
