0, 3, 0
0, 5, 0
0, 1, 0
3, 0, 0
3, 1, 0
4, 2, 0
4, 6, 0
4, 8, 0
4, 10, 0
2, 6, 0
2, 4, 0
2, 10, 0
6, 4, 0
6, 10, 0
6, 2, 0
1, 0, 0
1, 3, 0
1, 9, 0
8, 4, 0
8, 9, 0
5, 0, 0
5, 7, 0
7, 5, 0
10, 6, 0
10, 4, 0
10, 2, 0
9, 8, 0
9, 1, 0
