0, 9, 0
0, 18, 0
0, 1, 1
0, 8, 0
0, 11, 0
0, 10, 0
7, 20, 0
7, 12, 0
7, 14, 0
7, 3, 0
7, 2, 0
7, 6, 0
7, 19, 0
13, 20, 0
13, 4, 0
13, 17, 0
13, 16, 0
13, 6, 0
13, 19, 0
13, 15, 0
13, 5, 0
13, 10, 0
17, 13, 0
17, 4, 0
17, 16, 1
17, 6, 0
17, 19, 0
17, 15, 0
17, 5, 0
17, 10, 0
3, 20, 0
3, 12, 0
3, 7, 0
3, 14, 0
3, 2, 1
3, 19, 0
16, 20, 0
16, 13, 0
16, 17, 1
16, 4, 0
16, 14, 0
16, 19, 0
16, 15, 0
16, 5, 0
16, 10, 0
6, 7, 0
6, 13, 0
6, 17, 0
6, 5, 0
6, 11, 0
6, 1, 0
6, 20, 0
6, 12, 0
6, 4, 0
6, 8, 0
6, 15, 0
6, 10, 0
6, 9, 0
8, 0, 0
8, 18, 0
8, 6, 0
8, 1, 0
8, 10, 0
8, 11, 0
8, 9, 1
5, 13, 0
5, 17, 0
5, 4, 1
5, 16, 0
5, 6, 0
5, 15, 0
11, 0, 0
11, 4, 0
11, 18, 0
11, 6, 0
11, 1, 0
11, 8, 0
11, 15, 0
11, 10, 0
11, 9, 0
10, 0, 0
10, 13, 0
10, 17, 0
10, 18, 0
10, 6, 0
10, 11, 0
10, 1, 0
10, 16, 0
10, 4, 0
10, 19, 0
10, 8, 0
10, 9, 0
20, 7, 0
20, 3, 0
20, 13, 0
20, 14, 0
20, 4, 0
20, 2, 0
20, 16, 0
20, 6, 0
20, 19, 0
20, 15, 0
12, 7, 0
12, 3, 0
12, 14, 0
12, 2, 0
12, 6, 0
12, 19, 0
12, 15, 0
4, 13, 0
4, 17, 0
4, 16, 0
4, 6, 0
4, 5, 1
4, 11, 0
4, 10, 0
4, 20, 0
4, 18, 0
4, 14, 0
4, 19, 0
4, 15, 0
14, 20, 0
14, 12, 0
14, 7, 0
14, 4, 0
14, 3, 0
14, 16, 0
14, 19, 0
14, 2, 0
14, 15, 0
2, 7, 0
2, 12, 0
2, 14, 0
2, 3, 1
2, 19, 0
2, 20, 0
19, 20, 0
19, 13, 0
19, 17, 0
19, 3, 0
19, 16, 0
19, 10, 0
19, 7, 0
19, 12, 0
19, 4, 0
19, 14, 0
19, 2, 0
19, 15, 0
1, 0, 1
1, 18, 0
1, 6, 0
1, 8, 0
1, 10, 0
1, 11, 0
1, 9, 0
15, 13, 0
15, 17, 0
15, 16, 0
15, 6, 0
15, 5, 0
15, 11, 0
15, 20, 0
15, 12, 0
15, 4, 0
15, 14, 0
15, 19, 0
15, 18, 0
18, 0, 0
18, 4, 0
18, 1, 0
18, 8, 0
18, 15, 0
18, 10, 0
18, 11, 0
18, 9, 0
9, 0, 0
9, 18, 0
9, 6, 0
9, 8, 1
9, 10, 0
9, 11, 0
9, 1, 0
