12, 6, 0
12, 10, 0
12, 25, 0
12, 1, 0
13, 21, 0
13, 20, 0
13, 24, 0
13, 36, 0
17, 0, 0
17, 19, 0
17, 15, 0
31, 7, 0
31, 34, 0
31, 29, 0
31, 21, 0
31, 27, 0
31, 30, 0
23, 20, 0
23, 21, 0
23, 24, 0
23, 36, 0
24, 20, 0
24, 21, 0
24, 13, 0
24, 23, 0
24, 36, 0
5, 20, 0
5, 4, 0
11, 18, 0
11, 10, 0
11, 25, 0
11, 1, 0
1, 12, 0
1, 11, 0
1, 10, 0
20, 2, 0
20, 13, 0
20, 23, 0
20, 39, 0
20, 24, 0
20, 5, 0
20, 33, 0
20, 35, 0
20, 21, 0
20, 8, 0
20, 38, 0
20, 36, 0
21, 0, 0
21, 7, 0
21, 13, 0
21, 23, 0
21, 34, 0
21, 27, 0
21, 35, 0
21, 30, 0
21, 20, 0
21, 33, 0
21, 31, 0
21, 24, 0
21, 29, 0
21, 38, 0
21, 36, 0
4, 14, 0
4, 5, 0
14, 16, 0
14, 8, 0
14, 4, 0
39, 37, 0
39, 20, 0
39, 8, 0
35, 20, 0
35, 21, 0
35, 36, 0
35, 38, 0
35, 2, 0
28, 32, 0
28, 9, 0
30, 7, 0
30, 34, 0
30, 31, 0
30, 29, 1
30, 21, 0
30, 27, 0
30, 0, 0
8, 16, 0
8, 37, 0
8, 20, 0
8, 14, 0
8, 39, 0
15, 27, 0
15, 19, 0
15, 17, 0
22, 7, 0
22, 3, 0
22, 19, 0
22, 26, 0
22, 0, 0
36, 20, 0
36, 33, 0
36, 13, 0
36, 23, 0
36, 35, 0
36, 21, 0
36, 38, 0
36, 2, 0
36, 24, 0
0, 7, 0
0, 34, 0
0, 17, 0
0, 29, 0
0, 21, 0
0, 19, 0
0, 22, 0
0, 30, 0
6, 12, 0
6, 9, 0
6, 25, 0
6, 10, 0
3, 19, 0
3, 26, 0
3, 22, 0
16, 8, 0
16, 14, 0
38, 20, 0
38, 33, 0
38, 35, 0
38, 21, 0
38, 2, 0
38, 36, 0
27, 7, 0
27, 34, 0
27, 26, 0
27, 31, 0
27, 29, 0
27, 21, 0
27, 19, 0
27, 15, 0
27, 30, 0
10, 12, 0
10, 25, 0
10, 6, 0
10, 1, 0
10, 11, 0
10, 9, 0
7, 0, 0
7, 34, 0
7, 26, 0
7, 31, 0
7, 29, 0
7, 21, 0
7, 27, 0
7, 22, 0
7, 30, 0
34, 0, 0
34, 7, 0
34, 31, 0
34, 29, 0
34, 21, 0
34, 27, 0
34, 30, 0
25, 12, 0
25, 18, 0
25, 6, 0
25, 10, 0
25, 11, 0
25, 9, 0
33, 20, 0
33, 21, 0
33, 36, 0
33, 38, 0
33, 2, 0
32, 37, 0
32, 28, 0
2, 20, 0
2, 33, 0
2, 36, 0
2, 38, 0
2, 35, 0
37, 8, 0
37, 39, 0
37, 32, 0
29, 0, 0
29, 34, 0
29, 7, 0
29, 31, 0
29, 21, 0
29, 27, 0
29, 30, 1
19, 0, 0
19, 3, 0
19, 17, 0
19, 26, 0
19, 27, 0
19, 15, 0
19, 22, 0
26, 7, 0
26, 3, 0
26, 19, 0
26, 22, 0
26, 27, 0
18, 25, 0
18, 11, 0
9, 25, 0
9, 6, 0
9, 28, 0
9, 10, 0
