0, 7, 0
0, 3, 0
0, 10, 0
6, 3, 0
6, 11, 0
6, 10, 0
1, 4, 0
1, 9, 0
1, 5, 0
1, 2, 1
5, 2, 0
5, 9, 0
5, 4, 0
5, 1, 0
11, 6, 0
11, 9, 0
10, 0, 0
10, 6, 0
10, 3, 0
7, 0, 0
7, 3, 0
7, 8, 0
3, 0, 0
3, 6, 0
3, 7, 0
3, 10, 0
4, 2, 0
4, 5, 0
4, 1, 0
2, 4, 0
2, 9, 0
2, 5, 0
2, 1, 1
8, 7, 0
9, 2, 0
9, 5, 0
9, 11, 0
9, 1, 0
