13, 6, 0
13, 14, 1
13, 11, 0
13, 9, 0
17, 18, 1
17, 12, 0
17, 15, 0
5, 20, 0
5, 8, 0
11, 6, 0
11, 19, 0
11, 13, 0
11, 14, 0
11, 9, 0
1, 0, 0
1, 3, 0
1, 4, 0
1, 21, 0
1, 16, 0
1, 22, 0
20, 7, 0
20, 8, 0
20, 5, 0
20, 10, 0
4, 16, 0
4, 3, 1
4, 1, 0
4, 0, 0
14, 6, 0
14, 13, 1
14, 11, 0
14, 9, 0
8, 20, 0
8, 5, 0
8, 2, 0
15, 18, 0
15, 12, 0
15, 19, 0
15, 17, 0
22, 21, 0
22, 1, 0
0, 16, 0
0, 3, 0
0, 4, 0
0, 1, 0
3, 0, 0
3, 16, 0
3, 4, 1
3, 1, 0
16, 0, 0
16, 3, 0
16, 4, 0
16, 7, 0
16, 1, 0
6, 21, 0
6, 13, 0
6, 14, 0
6, 11, 0
6, 9, 0
10, 20, 0
10, 7, 0
7, 20, 0
7, 16, 0
7, 10, 0
12, 18, 0
12, 15, 0
12, 17, 0
2, 8, 0
21, 6, 0
21, 22, 0
21, 1, 0
19, 15, 0
19, 11, 0
18, 15, 0
18, 17, 1
18, 12, 0
9, 6, 0
9, 13, 0
9, 14, 0
9, 11, 0
