0, 6, 0
0, 8, 0
0, 9, 0
3, 2, 0
3, 4, 0
3, 1, 0
4, 3, 0
4, 1, 0
4, 2, 0
2, 7, 0
2, 3, 0
2, 4, 0
6, 0, 0
6, 8, 0
1, 3, 0
1, 8, 0
1, 5, 0
1, 4, 0
8, 0, 0
8, 6, 0
8, 1, 0
8, 5, 0
8, 9, 1
5, 1, 0
5, 8, 0
5, 9, 0
7, 2, 0
9, 0, 0
9, 8, 1
9, 5, 0
