13, 21, 0
13, 45, 0
13, 49, 0
17, 18, 1
17, 39, 0
17, 15, 0
17, 6, 0
23, 0, 0
23, 14, 0
23, 32, 0
23, 24, 1
42, 43, 1
42, 50, 0
42, 35, 0
42, 37, 0
42, 41, 1
42, 22, 0
42, 36, 0
46, 45, 1
46, 28, 0
46, 29, 0
46, 21, 0
46, 1, 0
46, 9, 0
46, 5, 0
46, 47, 1
46, 30, 0
20, 8, 0
20, 26, 0
20, 1, 0
34, 0, 0
34, 4, 0
34, 25, 0
34, 32, 0
34, 24, 0
14, 0, 0
14, 24, 0
14, 32, 0
14, 23, 0
14, 10, 0
24, 0, 0
24, 34, 0
24, 14, 0
24, 23, 1
24, 32, 0
24, 25, 1
28, 45, 0
28, 29, 1
28, 30, 1
28, 9, 0
28, 5, 0
28, 46, 0
28, 47, 0
28, 1, 0
39, 17, 0
39, 2, 0
39, 18, 0
39, 6, 0
39, 19, 0
39, 15, 0
41, 37, 0
41, 42, 1
41, 36, 0
41, 22, 0
41, 35, 0
0, 25, 0
0, 34, 0
0, 14, 0
0, 23, 0
0, 24, 0
8, 20, 0
8, 26, 0
8, 44, 0
8, 11, 0
8, 1, 0
33, 11, 0
33, 31, 0
15, 17, 0
15, 2, 0
15, 18, 0
15, 6, 0
15, 19, 0
15, 39, 0
15, 22, 0
47, 37, 0
47, 28, 0
47, 9, 0
47, 29, 0
47, 16, 0
47, 1, 0
47, 49, 0
47, 5, 0
47, 46, 1
47, 30, 0
10, 25, 0
10, 3, 0
10, 38, 0
10, 14, 0
7, 40, 0
7, 31, 0
3, 25, 0
3, 38, 0
3, 10, 0
32, 34, 0
32, 4, 0
32, 25, 0
32, 23, 0
32, 24, 0
32, 14, 0
2, 18, 0
2, 15, 0
2, 19, 0
2, 39, 0
2, 22, 0
21, 45, 0
21, 13, 0
21, 9, 0
21, 16, 0
21, 27, 0
21, 49, 0
21, 5, 0
21, 46, 0
19, 18, 1
19, 25, 0
19, 2, 0
19, 37, 0
19, 39, 0
19, 15, 0
49, 21, 0
49, 27, 0
49, 13, 0
49, 47, 0
49, 45, 0
18, 17, 1
18, 2, 0
18, 15, 0
18, 6, 0
18, 19, 1
18, 39, 0
31, 7, 0
31, 33, 0
31, 40, 0
31, 11, 0
29, 45, 0
29, 28, 1
29, 1, 0
29, 46, 0
29, 47, 0
29, 9, 0
40, 7, 0
40, 31, 0
11, 33, 0
11, 8, 0
11, 44, 0
11, 31, 0
5, 45, 0
5, 28, 0
5, 21, 0
5, 27, 0
5, 1, 0
5, 30, 0
5, 46, 0
5, 47, 0
5, 9, 0
37, 12, 0
37, 43, 0
37, 50, 0
37, 16, 0
37, 42, 0
37, 19, 0
37, 36, 1
37, 22, 0
37, 41, 0
37, 47, 0
37, 48, 0
4, 6, 0
4, 25, 0
4, 32, 0
4, 34, 0
35, 43, 0
35, 50, 0
35, 42, 0
35, 41, 0
35, 22, 0
35, 36, 1
30, 45, 0
30, 28, 1
30, 1, 0
30, 5, 0
30, 46, 0
30, 47, 0
30, 9, 0
38, 3, 0
38, 10, 0
22, 43, 0
22, 50, 0
22, 35, 0
22, 37, 0
22, 42, 0
22, 2, 0
22, 15, 0
22, 41, 0
22, 48, 0
22, 36, 0
36, 43, 0
36, 50, 0
36, 35, 1
36, 37, 1
36, 42, 0
36, 41, 0
36, 22, 0
36, 48, 0
45, 13, 0
45, 28, 0
45, 9, 0
45, 29, 0
45, 21, 0
45, 27, 0
45, 1, 0
45, 49, 0
45, 5, 0
45, 46, 1
45, 30, 0
16, 12, 0
16, 50, 0
16, 21, 0
16, 37, 0
16, 48, 0
16, 47, 0
27, 21, 0
27, 45, 0
27, 49, 0
27, 5, 0
1, 20, 0
1, 45, 0
1, 28, 0
1, 9, 0
1, 26, 0
1, 29, 0
1, 8, 0
1, 5, 0
1, 46, 0
1, 47, 0
1, 30, 0
44, 8, 0
44, 11, 0
48, 12, 0
48, 16, 0
48, 50, 0
48, 37, 0
48, 22, 0
48, 36, 0
12, 16, 0
12, 37, 0
12, 48, 0
12, 50, 0
25, 0, 0
25, 34, 0
25, 4, 0
25, 32, 0
25, 3, 0
25, 19, 0
25, 24, 1
25, 10, 0
50, 12, 0
50, 16, 0
50, 43, 0
50, 35, 0
50, 37, 0
50, 42, 0
50, 48, 0
50, 22, 0
50, 36, 0
26, 20, 0
26, 8, 0
26, 9, 0
26, 1, 0
6, 18, 0
6, 39, 0
6, 4, 0
6, 15, 0
6, 17, 0
43, 50, 0
43, 35, 0
43, 37, 0
43, 42, 1
43, 22, 0
43, 36, 0
9, 45, 0
9, 28, 0
9, 26, 0
9, 29, 0
9, 21, 0
9, 1, 0
9, 5, 0
9, 46, 0
9, 47, 0
9, 30, 0
