0, 3, 1
0, 4, 1
0, 17, 0
0, 2, 1
0, 18, 0
0, 15, 0
0, 1, 1
13, 16, 0
13, 6, 0
13, 14, 0
13, 11, 0
17, 0, 0
17, 18, 0
17, 15, 0
17, 5, 0
3, 0, 1
3, 1, 1
3, 4, 1
3, 15, 0
3, 2, 1
16, 13, 0
16, 11, 0
6, 7, 0
6, 14, 0
6, 8, 0
6, 13, 0
6, 9, 0
8, 7, 1
8, 6, 0
8, 9, 1
5, 18, 0
5, 12, 0
5, 17, 0
11, 16, 0
11, 13, 0
11, 15, 0
10, 7, 1
7, 6, 0
7, 8, 1
7, 14, 0
7, 9, 1
7, 10, 1
12, 18, 0
12, 5, 0
4, 0, 1
4, 3, 1
4, 15, 0
14, 7, 0
14, 6, 0
14, 13, 0
2, 0, 1
2, 3, 1
2, 15, 0
2, 1, 1
1, 0, 1
1, 3, 1
1, 15, 0
1, 2, 1
15, 0, 0
15, 3, 0
15, 4, 0
15, 17, 0
15, 2, 0
15, 11, 0
15, 1, 0
18, 0, 0
18, 12, 0
18, 17, 0
18, 5, 0
9, 7, 1
9, 6, 0
9, 8, 1
