0, 12, 0
0, 4, 0
0, 3, 0
0, 11, 0
0, 2, 0
13, 7, 0
13, 6, 0
3, 0, 0
3, 4, 0
3, 9, 0
3, 2, 0
6, 7, 0
6, 13, 0
6, 5, 0
8, 9, 0
8, 10, 0
8, 11, 0
8, 1, 0
5, 6, 0
11, 0, 0
11, 12, 0
11, 8, 0
11, 10, 0
11, 9, 0
10, 8, 0
10, 11, 0
10, 9, 1
7, 6, 0
7, 13, 0
7, 9, 0
7, 1, 0
12, 0, 0
12, 11, 0
4, 0, 0
4, 3, 0
4, 2, 0
2, 0, 0
2, 3, 0
2, 4, 0
1, 7, 0
1, 8, 0
9, 7, 0
9, 3, 0
9, 8, 0
9, 11, 0
9, 10, 1
