0, 7, 0
0, 8, 0
0, 1, 1
6, 7, 0
6, 3, 0
6, 8, 0
6, 4, 0
6, 2, 0
1, 0, 1
1, 7, 0
1, 8, 0
5, 4, 0
5, 9, 0
5, 11, 0
5, 10, 0
11, 9, 0
11, 5, 0
11, 10, 1
10, 4, 0
10, 5, 0
10, 11, 1
10, 9, 0
7, 0, 0
7, 6, 0
7, 8, 0
7, 1, 0
3, 6, 0
3, 4, 0
3, 2, 1
4, 2, 0
4, 6, 0
4, 3, 0
4, 5, 0
4, 10, 0
2, 6, 0
2, 4, 0
2, 3, 1
8, 0, 0
8, 7, 0
8, 6, 0
8, 1, 0
9, 5, 0
9, 11, 0
9, 10, 0
