13, 7, 0
13, 3, 0
17, 6, 0
17, 8, 0
17, 2, 0
23, 12, 0
23, 4, 0
23, 14, 0
23, 22, 1
23, 6, 0
23, 5, 0
23, 11, 0
23, 10, 0
5, 20, 0
5, 4, 0
5, 14, 0
5, 11, 0
5, 23, 0
5, 6, 0
5, 22, 0
5, 10, 0
11, 12, 1
11, 4, 0
11, 14, 0
11, 23, 0
11, 6, 0
11, 5, 0
11, 22, 0
11, 10, 0
1, 0, 1
1, 20, 0
1, 14, 0
1, 9, 0
20, 0, 0
20, 4, 0
20, 14, 0
20, 6, 0
20, 1, 0
20, 9, 0
20, 5, 0
20, 22, 0
20, 10, 0
4, 20, 0
4, 12, 0
4, 14, 0
4, 22, 0
4, 23, 0
4, 6, 0
4, 5, 0
4, 11, 0
4, 10, 0
14, 20, 0
14, 12, 0
14, 4, 0
14, 22, 0
14, 23, 0
14, 6, 0
14, 10, 0
14, 5, 0
14, 11, 0
14, 1, 0
8, 6, 0
8, 17, 0
8, 2, 0
15, 16, 1
15, 21, 0
15, 2, 0
22, 20, 0
22, 12, 0
22, 4, 0
22, 14, 0
22, 23, 1
22, 18, 0
22, 6, 0
22, 9, 0
22, 5, 0
22, 11, 0
22, 10, 0
0, 20, 0
0, 9, 0
0, 1, 1
3, 13, 0
16, 21, 0
16, 15, 1
16, 2, 0
6, 17, 0
6, 23, 0
6, 18, 0
6, 5, 0
6, 11, 0
6, 10, 0
6, 20, 0
6, 4, 0
6, 14, 0
6, 8, 0
6, 22, 0
6, 9, 0
10, 20, 0
10, 4, 0
10, 14, 0
10, 22, 0
10, 23, 0
10, 18, 0
10, 6, 0
10, 19, 0
10, 5, 0
10, 11, 0
10, 9, 0
7, 21, 0
7, 13, 0
12, 4, 0
12, 14, 0
12, 11, 1
12, 23, 0
12, 22, 0
2, 16, 0
2, 15, 0
2, 8, 0
2, 17, 0
2, 21, 0
21, 16, 0
21, 7, 0
21, 15, 0
21, 2, 0
19, 18, 1
19, 9, 0
19, 10, 0
18, 6, 0
18, 19, 1
18, 9, 0
18, 22, 0
18, 10, 0
9, 20, 0
9, 0, 0
9, 18, 0
9, 6, 0
9, 19, 0
9, 10, 0
9, 22, 0
9, 1, 0
