0, 7, 0
0, 3, 0
0, 4, 0
0, 2, 0
0, 6, 0
0, 8, 0
0, 5, 0
0, 1, 0
3, 0, 0
3, 5, 0
3, 1, 0
4, 0, 0
4, 7, 0
4, 6, 0
4, 2, 0
7, 0, 0
7, 6, 1
7, 4, 0
7, 2, 0
2, 0, 0
2, 7, 0
2, 4, 0
2, 6, 0
6, 0, 0
6, 7, 1
6, 4, 0
6, 2, 0
8, 0, 0
8, 5, 0
8, 1, 0
5, 0, 0
5, 3, 0
5, 8, 0
5, 1, 0
1, 0, 0
1, 3, 0
1, 8, 0
1, 5, 0
