0, 7, 0
0, 8, 0
0, 1, 1
3, 6, 0
3, 4, 1
3, 5, 0
4, 3, 1
4, 5, 0
4, 6, 0
7, 0, 0
7, 1, 0
7, 5, 0
7, 2, 0
2, 7, 0
2, 5, 0
6, 3, 0
6, 4, 0
6, 5, 0
8, 0, 0
8, 1, 0
5, 7, 0
5, 3, 0
5, 6, 0
5, 4, 0
5, 2, 0
1, 0, 1
1, 7, 0
1, 8, 0
