13, 18, 0
13, 0, 0
13, 19, 0
13, 3, 0
17, 18, 0
17, 4, 0
5, 21, 0
5, 1, 0
5, 8, 0
5, 9, 0
11, 7, 0
11, 6, 0
11, 4, 0
11, 12, 0
11, 10, 1
1, 20, 0
1, 8, 0
1, 5, 0
1, 9, 0
20, 15, 0
20, 1, 0
4, 7, 0
4, 12, 0
4, 17, 0
4, 6, 0
4, 11, 0
4, 10, 0
14, 21, 0
14, 2, 0
8, 21, 0
8, 9, 0
8, 5, 0
8, 1, 0
15, 20, 0
0, 18, 0
0, 3, 0
0, 19, 0
0, 13, 0
3, 0, 0
3, 18, 0
3, 19, 0
3, 13, 0
16, 19, 0
16, 2, 0
6, 7, 1
6, 12, 0
6, 4, 0
6, 11, 0
6, 10, 0
10, 7, 0
10, 6, 0
10, 4, 0
10, 11, 1
10, 12, 0
7, 6, 1
7, 4, 0
7, 12, 0
7, 11, 0
7, 10, 0
12, 7, 0
12, 6, 0
12, 4, 0
12, 11, 0
12, 10, 0
2, 16, 0
2, 14, 0
21, 8, 0
21, 14, 0
21, 5, 0
21, 9, 0
19, 0, 0
19, 3, 0
19, 16, 0
19, 13, 0
18, 0, 0
18, 3, 0
18, 13, 0
18, 17, 0
9, 21, 0
9, 8, 0
9, 5, 0
9, 1, 0
