0, 12, 0
0, 9, 0
0, 2, 0
0, 8, 0
0, 11, 0
0, 10, 0
13, 7, 0
13, 15, 0
17, 6, 0
17, 5, 0
17, 1, 0
3, 16, 0
3, 7, 0
3, 14, 0
3, 2, 0
16, 7, 0
16, 3, 0
16, 14, 0
16, 2, 0
6, 17, 0
6, 5, 1
6, 1, 0
8, 0, 0
8, 12, 1
8, 4, 0
8, 2, 0
8, 9, 1
8, 11, 1
8, 10, 1
5, 6, 1
5, 4, 0
5, 17, 0
5, 1, 0
11, 0, 0
11, 12, 1
11, 8, 1
11, 9, 1
11, 10, 1
10, 0, 0
10, 8, 1
10, 9, 1
10, 11, 1
10, 2, 0
7, 16, 0
7, 3, 0
7, 13, 0
7, 14, 0
12, 0, 0
12, 8, 1
12, 11, 1
4, 8, 0
4, 5, 0
4, 1, 0
14, 16, 0
14, 7, 0
14, 3, 0
2, 0, 0
2, 3, 0
2, 9, 0
2, 16, 0
2, 8, 0
2, 10, 0
1, 6, 0
1, 4, 0
1, 17, 0
1, 5, 0
15, 13, 0
9, 0, 0
9, 2, 0
9, 8, 1
9, 11, 1
9, 10, 1
