13, 3, 0
13, 4, 0
13, 14, 0
13, 30, 0
17, 16, 0
17, 25, 0
17, 31, 0
17, 24, 0
17, 21, 0
17, 1, 0
31, 28, 0
31, 16, 0
31, 6, 0
31, 24, 0
31, 1, 0
31, 3, 0
31, 25, 0
31, 27, 0
31, 29, 0
31, 17, 0
31, 19, 0
31, 30, 0
31, 9, 0
23, 20, 0
23, 0, 0
23, 26, 0
23, 2, 0
23, 18, 0
23, 29, 0
23, 9, 0
10, 4, 0
10, 5, 0
10, 30, 0
2, 0, 0
2, 23, 0
2, 16, 0
2, 30, 0
2, 7, 0
2, 3, 0
2, 4, 0
2, 32, 0
2, 29, 0
2, 19, 0
2, 8, 0
2, 9, 0
5, 4, 1
5, 10, 0
11, 6, 0
11, 30, 0
11, 28, 0
11, 27, 0
1, 25, 0
1, 17, 0
1, 31, 0
20, 0, 0
20, 23, 0
4, 3, 0
4, 13, 0
4, 2, 0
4, 16, 0
4, 10, 0
4, 5, 1
4, 30, 0
14, 3, 0
14, 19, 0
14, 8, 0
14, 13, 0
24, 21, 0
24, 28, 0
24, 17, 0
24, 31, 0
28, 21, 0
28, 31, 0
28, 24, 0
28, 16, 0
28, 6, 0
28, 11, 0
30, 4, 0
30, 13, 0
30, 31, 0
30, 6, 0
30, 16, 0
30, 27, 0
30, 2, 0
30, 11, 0
30, 10, 0
8, 14, 0
8, 32, 0
8, 2, 0
8, 16, 0
8, 19, 0
8, 15, 0
15, 18, 0
15, 12, 0
15, 8, 0
15, 32, 0
15, 9, 0
22, 7, 0
22, 0, 0
22, 26, 0
0, 20, 0
0, 7, 0
0, 23, 0
0, 26, 0
0, 2, 0
0, 22, 0
12, 18, 0
12, 15, 0
12, 32, 0
12, 9, 0
16, 28, 0
16, 31, 0
16, 6, 0
16, 30, 0
16, 3, 0
16, 4, 0
16, 25, 0
16, 32, 0
16, 2, 0
16, 17, 0
16, 19, 0
16, 8, 0
16, 9, 0
6, 28, 0
6, 31, 0
6, 16, 0
6, 27, 0
6, 11, 0
6, 30, 0
27, 6, 0
27, 31, 0
27, 11, 0
27, 30, 0
7, 0, 0
7, 26, 0
7, 22, 0
7, 2, 0
3, 4, 0
3, 13, 0
3, 31, 0
3, 2, 0
3, 16, 0
3, 14, 0
3, 19, 0
25, 16, 0
25, 17, 0
25, 31, 0
25, 1, 0
32, 12, 0
32, 2, 0
32, 16, 0
32, 8, 0
32, 15, 0
32, 9, 0
29, 18, 0
29, 2, 0
29, 31, 0
29, 23, 0
29, 9, 0
21, 28, 0
21, 17, 0
21, 24, 0
26, 0, 0
26, 7, 0
26, 22, 0
26, 23, 0
19, 3, 0
19, 14, 0
19, 31, 0
19, 2, 0
19, 16, 0
19, 8, 0
18, 12, 0
18, 9, 0
18, 15, 0
18, 23, 0
18, 29, 0
9, 12, 0
9, 23, 0
9, 31, 0
9, 29, 0
9, 16, 0
9, 2, 0
9, 15, 0
9, 18, 0
9, 32, 0
