13, 7, 0
13, 14, 0
17, 16, 0
17, 14, 0
5, 16, 0
5, 22, 0
11, 18, 0
11, 19, 0
11, 8, 0
11, 15, 0
11, 9, 0
1, 0, 0
1, 12, 0
1, 20, 0
20, 0, 0
20, 4, 0
20, 10, 0
20, 1, 0
4, 20, 0
4, 10, 0
14, 16, 0
14, 13, 0
14, 17, 0
8, 19, 0
8, 15, 0
8, 11, 0
15, 6, 0
15, 19, 0
15, 8, 0
15, 11, 0
22, 21, 0
22, 16, 0
22, 5, 0
0, 20, 0
0, 1, 0
3, 7, 0
3, 2, 0
16, 14, 0
16, 17, 0
16, 5, 0
16, 22, 0
6, 19, 0
6, 15, 0
10, 20, 0
10, 21, 0
10, 4, 0
7, 3, 0
7, 13, 0
12, 1, 0
2, 18, 0
2, 3, 0
2, 9, 0
21, 22, 0
21, 10, 0
19, 6, 0
19, 8, 0
19, 15, 0
19, 11, 0
18, 9, 0
18, 11, 0
18, 2, 0
9, 18, 0
9, 11, 0
9, 2, 0
