12, 20, 0
12, 16, 0
12, 17, 0
12, 24, 0
12, 21, 0
12, 6, 0
12, 19, 0
12, 39, 0
12, 18, 0
12, 22, 0
13, 8, 0
13, 14, 1
13, 26, 0
13, 1, 0
17, 40, 0
17, 12, 0
17, 4, 0
17, 25, 0
17, 2, 0
17, 16, 0
17, 28, 0
17, 5, 0
17, 39, 0
17, 18, 0
17, 9, 0
31, 7, 0
31, 34, 0
31, 32, 1
31, 33, 0
31, 37, 0
31, 1, 0
23, 7, 0
23, 40, 0
23, 38, 0
24, 28, 0
24, 12, 0
24, 18, 0
24, 35, 0
24, 11, 0
24, 20, 0
24, 3, 0
24, 4, 0
24, 25, 0
24, 2, 0
24, 21, 0
24, 19, 0
24, 39, 0
24, 22, 0
24, 9, 0
40, 17, 0
40, 23, 0
40, 16, 0
40, 38, 0
40, 5, 0
40, 30, 0
40, 7, 0
40, 29, 0
40, 21, 0
40, 19, 0
40, 39, 0
40, 22, 0
5, 21, 0
5, 17, 0
5, 39, 0
5, 16, 0
5, 40, 0
5, 19, 0
5, 15, 0
5, 22, 0
11, 0, 0
11, 3, 0
11, 4, 0
11, 28, 0
11, 35, 0
11, 21, 0
11, 24, 0
11, 22, 0
11, 10, 1
1, 7, 0
1, 34, 0
1, 13, 0
1, 14, 0
1, 26, 0
1, 31, 0
1, 33, 0
1, 37, 0
1, 8, 0
20, 12, 0
20, 25, 0
20, 24, 0
20, 21, 0
20, 19, 1
20, 22, 0
21, 39, 0
21, 12, 0
21, 18, 0
21, 6, 0
21, 35, 0
21, 40, 0
21, 5, 0
21, 11, 0
21, 20, 0
21, 3, 0
21, 24, 0
21, 19, 0
21, 15, 0
21, 22, 1
21, 9, 0
4, 3, 0
4, 25, 0
4, 24, 0
4, 18, 0
4, 28, 0
4, 2, 0
4, 17, 0
4, 11, 0
4, 9, 0
14, 13, 1
14, 26, 0
14, 27, 0
14, 8, 0
14, 41, 0
14, 1, 0
39, 12, 0
39, 21, 0
39, 17, 0
39, 24, 0
39, 16, 0
39, 6, 0
39, 19, 0
39, 15, 0
39, 40, 0
39, 5, 0
39, 22, 0
35, 0, 0
35, 3, 0
35, 28, 0
35, 24, 0
35, 21, 0
35, 11, 0
35, 10, 0
28, 0, 0
28, 4, 0
28, 17, 0
28, 35, 0
28, 16, 0
28, 24, 0
28, 11, 0
30, 7, 0
30, 38, 0
30, 40, 0
30, 29, 1
8, 13, 0
8, 14, 0
8, 26, 0
8, 1, 0
15, 21, 0
15, 16, 0
15, 19, 0
15, 39, 0
15, 5, 0
15, 22, 0
41, 27, 0
41, 14, 0
41, 26, 0
41, 36, 0
22, 7, 0
22, 3, 0
22, 18, 0
22, 6, 0
22, 15, 0
22, 40, 0
22, 5, 0
22, 11, 0
22, 20, 0
22, 12, 0
22, 24, 0
22, 21, 1
22, 19, 0
22, 39, 0
36, 41, 0
0, 10, 0
0, 28, 0
0, 11, 0
0, 35, 0
6, 21, 0
6, 12, 0
6, 39, 0
6, 22, 0
38, 7, 0
38, 29, 0
38, 40, 0
38, 23, 0
38, 30, 0
3, 24, 0
3, 21, 0
3, 4, 0
3, 25, 0
3, 22, 0
3, 2, 1
3, 18, 0
3, 19, 0
3, 35, 0
3, 11, 0
3, 9, 0
16, 12, 0
16, 17, 0
16, 39, 0
16, 18, 0
16, 28, 0
16, 15, 0
16, 40, 0
16, 5, 0
27, 14, 0
27, 41, 0
27, 26, 1
10, 0, 0
10, 11, 1
10, 35, 0
7, 32, 0
7, 23, 0
7, 33, 0
7, 40, 0
7, 30, 0
7, 34, 0
7, 31, 0
7, 29, 0
7, 37, 0
7, 1, 0
7, 38, 0
7, 22, 0
34, 37, 0
34, 33, 1
34, 7, 0
34, 31, 0
34, 1, 0
25, 20, 0
25, 3, 0
25, 4, 0
25, 17, 0
25, 24, 0
25, 18, 0
25, 19, 0
25, 9, 0
33, 37, 0
33, 34, 1
33, 7, 0
33, 31, 0
33, 1, 0
32, 37, 0
32, 7, 0
32, 31, 1
2, 24, 0
2, 3, 1
2, 4, 0
2, 17, 0
2, 9, 0
37, 7, 0
37, 33, 0
37, 32, 0
37, 31, 0
37, 34, 0
37, 1, 0
29, 7, 0
29, 38, 0
29, 40, 0
29, 30, 1
19, 12, 0
19, 18, 0
19, 15, 0
19, 40, 0
19, 5, 0
19, 20, 1
19, 3, 0
19, 25, 0
19, 24, 0
19, 21, 0
19, 39, 0
19, 22, 0
19, 9, 0
26, 13, 0
26, 14, 0
26, 27, 1
26, 8, 0
26, 41, 0
26, 1, 0
18, 21, 0
18, 3, 0
18, 4, 0
18, 17, 0
18, 24, 0
18, 16, 0
18, 25, 0
18, 19, 0
18, 22, 0
18, 12, 0
9, 3, 0
9, 4, 0
9, 17, 0
9, 24, 0
9, 21, 0
9, 25, 0
9, 19, 0
9, 2, 0
