2, 3, 0
2, 26, 0
2, 5, 0
2, 23, 0
2, 9, 0
13, 7, 0
13, 20, 0
13, 4, 0
13, 14, 1
13, 25, 0
17, 0, 0
17, 12, 0
17, 11, 0
23, 3, 0
23, 9, 0
23, 5, 0
23, 26, 0
23, 2, 0
29, 7, 0
29, 27, 0
29, 8, 0
29, 15, 0
29, 10, 0
5, 2, 0
5, 23, 0
5, 9, 0
11, 0, 0
11, 16, 0
11, 17, 0
1, 18, 0
1, 21, 0
1, 30, 0
20, 7, 0
20, 14, 0
20, 13, 0
20, 28, 0
20, 4, 0
4, 20, 0
4, 25, 0
4, 13, 0
4, 28, 0
4, 14, 0
4, 7, 0
14, 20, 0
14, 7, 0
14, 13, 1
14, 25, 0
14, 4, 0
24, 12, 0
24, 6, 0
28, 20, 0
28, 18, 0
28, 4, 0
28, 25, 0
30, 21, 0
30, 6, 0
30, 18, 0
30, 1, 0
8, 27, 0
8, 19, 0
8, 10, 0
8, 22, 0
8, 29, 0
15, 7, 0
15, 10, 0
15, 29, 0
22, 19, 0
22, 8, 0
0, 12, 0
0, 17, 0
0, 11, 0
12, 0, 0
12, 6, 0
12, 17, 0
12, 24, 0
16, 3, 0
16, 11, 0
6, 21, 0
6, 12, 0
6, 30, 0
6, 24, 0
10, 7, 0
10, 27, 0
10, 8, 0
10, 15, 0
10, 29, 0
7, 20, 0
7, 13, 0
7, 14, 0
7, 4, 0
7, 29, 0
7, 25, 0
7, 15, 0
7, 10, 0
3, 16, 0
3, 26, 0
3, 23, 0
3, 2, 0
25, 7, 0
25, 13, 0
25, 28, 0
25, 4, 0
25, 18, 0
25, 14, 0
26, 3, 0
26, 23, 0
26, 2, 0
27, 8, 0
27, 10, 0
27, 29, 0
21, 18, 0
21, 6, 0
21, 30, 0
21, 1, 0
19, 8, 0
19, 22, 0
18, 21, 0
18, 25, 0
18, 30, 0
18, 28, 0
18, 1, 0
9, 5, 0
9, 23, 0
9, 2, 0
