0, 13, 0
0, 14, 0
13, 0, 0
17, 7, 0
17, 3, 0
17, 4, 0
17, 18, 1
17, 6, 0
17, 8, 0
17, 9, 0
3, 18, 0
3, 4, 0
3, 17, 0
3, 2, 0
3, 16, 0
3, 6, 0
3, 11, 0
16, 3, 0
16, 10, 0
6, 3, 0
6, 4, 0
6, 17, 0
6, 11, 0
8, 7, 1
8, 18, 0
8, 4, 0
8, 17, 0
8, 9, 0
5, 10, 0
5, 1, 0
11, 18, 0
11, 6, 0
11, 2, 0
11, 4, 0
11, 3, 0
10, 16, 0
10, 2, 0
10, 15, 0
10, 5, 0
10, 1, 0
7, 18, 0
7, 8, 1
7, 17, 0
7, 9, 0
12, 15, 0
12, 1, 0
12, 14, 0
12, 2, 0
4, 3, 0
4, 17, 0
4, 18, 0
4, 6, 0
4, 8, 0
4, 11, 0
14, 0, 0
14, 12, 0
14, 2, 0
14, 15, 0
14, 1, 0
2, 12, 0
2, 14, 0
2, 3, 0
2, 15, 0
2, 11, 0
2, 10, 0
1, 12, 0
1, 14, 0
1, 15, 0
1, 5, 0
1, 10, 0
15, 2, 0
15, 12, 0
15, 10, 0
15, 14, 0
15, 1, 0
18, 7, 0
18, 3, 0
18, 4, 0
18, 17, 1
18, 8, 0
18, 11, 0
18, 9, 0
9, 7, 0
9, 18, 0
9, 8, 0
9, 17, 0
