13, 9, 0
13, 25, 0
13, 24, 0
17, 0, 0
17, 3, 0
17, 4, 0
17, 14, 0
17, 26, 0
17, 16, 0
17, 20, 0
17, 18, 1
17, 22, 0
17, 5, 0
23, 20, 0
23, 4, 0
23, 14, 0
23, 18, 0
23, 5, 0
23, 22, 1
5, 20, 0
5, 16, 0
5, 4, 0
5, 17, 0
5, 23, 0
5, 21, 0
5, 14, 0
5, 19, 0
5, 8, 0
5, 18, 0
5, 22, 0
11, 0, 0
11, 12, 1
11, 4, 0
11, 14, 0
11, 6, 0
11, 8, 0
11, 9, 0
1, 21, 0
1, 20, 0
1, 16, 0
1, 15, 0
1, 2, 0
20, 17, 0
20, 23, 0
20, 16, 0
20, 5, 0
20, 1, 0
20, 12, 0
20, 4, 0
20, 14, 0
20, 2, 0
20, 21, 0
20, 18, 0
20, 22, 0
20, 9, 0
4, 0, 0
4, 7, 0
4, 17, 0
4, 23, 0
4, 12, 0
4, 16, 0
4, 6, 0
4, 5, 0
4, 11, 0
4, 10, 0
4, 20, 0
4, 3, 0
4, 14, 0
4, 26, 0
4, 8, 0
4, 18, 0
4, 22, 0
4, 9, 0
14, 0, 0
14, 17, 0
14, 23, 0
14, 18, 0
14, 6, 0
14, 5, 0
14, 11, 0
14, 20, 0
14, 12, 0
14, 4, 0
14, 22, 0
14, 9, 0
24, 13, 0
24, 9, 0
8, 7, 0
8, 18, 0
8, 4, 0
8, 26, 0
8, 16, 0
8, 9, 0
8, 5, 0
8, 11, 0
8, 10, 0
15, 21, 0
15, 16, 0
15, 2, 0
15, 1, 0
22, 20, 0
22, 21, 0
22, 4, 0
22, 14, 0
22, 23, 1
22, 2, 0
22, 18, 0
22, 6, 0
22, 5, 0
22, 17, 0
0, 12, 0
0, 4, 0
0, 14, 0
0, 3, 0
0, 18, 0
0, 6, 0
0, 17, 0
0, 11, 0
0, 9, 0
3, 0, 0
3, 12, 0
3, 4, 0
3, 17, 0
3, 26, 0
3, 16, 0
3, 18, 0
3, 9, 0
16, 7, 0
16, 17, 0
16, 18, 0
16, 6, 0
16, 5, 0
16, 1, 0
16, 20, 0
16, 3, 0
16, 4, 0
16, 26, 0
16, 21, 0
16, 8, 0
16, 15, 0
16, 9, 0
6, 0, 0
6, 4, 0
6, 14, 0
6, 11, 0
6, 16, 0
6, 22, 0
6, 9, 0
10, 7, 0
10, 4, 0
10, 25, 0
10, 26, 0
10, 8, 0
10, 9, 0
7, 16, 0
7, 8, 0
7, 9, 0
7, 4, 0
7, 10, 0
12, 20, 0
12, 0, 0
12, 4, 0
12, 14, 0
12, 26, 0
12, 3, 0
12, 11, 1
25, 13, 0
25, 9, 0
25, 10, 0
26, 3, 0
26, 4, 0
26, 17, 0
26, 12, 0
26, 16, 0
26, 10, 0
26, 8, 0
26, 18, 0
26, 9, 0
2, 20, 0
2, 21, 0
2, 15, 0
2, 22, 0
2, 1, 0
21, 20, 0
21, 2, 0
21, 16, 0
21, 19, 0
21, 15, 0
21, 5, 0
21, 22, 0
21, 1, 0
19, 21, 0
19, 5, 0
18, 0, 0
18, 17, 1
18, 23, 0
18, 16, 0
18, 5, 0
18, 20, 0
18, 3, 0
18, 4, 0
18, 14, 0
18, 26, 0
18, 8, 0
18, 22, 0
9, 0, 0
9, 20, 0
9, 13, 0
9, 16, 0
9, 6, 0
9, 11, 0
9, 10, 0
9, 7, 0
9, 3, 0
9, 4, 0
9, 14, 0
9, 26, 0
9, 24, 0
9, 25, 0
9, 8, 0
