0, 7, 0
0, 8, 0
0, 11, 0
0, 1, 0
6, 9, 0
6, 5, 0
6, 11, 0
6, 10, 0
1, 0, 0
1, 7, 0
5, 6, 0
5, 9, 0
5, 10, 0
5, 4, 0
5, 2, 0
11, 0, 0
11, 6, 0
11, 8, 0
10, 6, 0
10, 5, 0
10, 9, 1
7, 0, 0
7, 1, 0
3, 4, 0
4, 3, 0
4, 5, 0
4, 2, 0
2, 4, 0
2, 5, 0
8, 0, 0
8, 11, 0
9, 6, 0
9, 5, 0
9, 10, 1
