0, 3, 0
0, 5, 0
0, 2, 0
3, 0, 0
3, 5, 0
3, 2, 0
4, 6, 0
4, 2, 0
4, 1, 0
7, 8, 0
7, 2, 0
2, 0, 0
2, 3, 0
2, 4, 0
2, 8, 0
2, 7, 0
2, 5, 0
6, 8, 0
6, 4, 0
6, 1, 0
8, 7, 0
8, 6, 0
8, 2, 0
5, 0, 0
5, 3, 0
5, 2, 0
1, 6, 0
1, 4, 0
