0, 7, 0
0, 6, 0
0, 4, 0
0, 2, 0
3, 7, 0
3, 6, 0
3, 4, 1
3, 1, 0
4, 7, 0
4, 3, 1
4, 6, 0
4, 0, 0
4, 1, 0
7, 0, 0
7, 3, 0
7, 4, 0
7, 6, 1
2, 0, 0
2, 8, 0
6, 0, 0
6, 3, 0
6, 7, 1
6, 4, 0
6, 1, 0
8, 5, 0
8, 2, 0
5, 8, 0
1, 3, 0
1, 4, 0
1, 6, 0
