13, 6, 0
13, 14, 1
13, 1, 0
17, 12, 0
17, 19, 0
17, 3, 0
17, 2, 0
5, 0, 0
5, 18, 0
5, 21, 0
11, 20, 0
11, 7, 0
11, 8, 0
11, 9, 0
11, 10, 0
1, 12, 0
1, 13, 0
1, 14, 0
1, 6, 0
20, 11, 0
20, 2, 0
4, 3, 1
4, 19, 0
4, 12, 0
14, 6, 0
14, 13, 1
14, 1, 0
8, 7, 0
8, 21, 0
8, 16, 0
8, 9, 1
8, 15, 0
8, 18, 0
8, 11, 0
8, 10, 0
15, 7, 0
15, 21, 0
15, 16, 1
15, 10, 0
15, 8, 0
15, 18, 0
15, 9, 0
0, 5, 0
3, 12, 0
3, 19, 0
3, 4, 1
3, 17, 0
16, 7, 0
16, 18, 0
16, 21, 0
16, 8, 0
16, 15, 1
16, 10, 0
16, 9, 0
6, 13, 0
6, 14, 0
6, 1, 0
10, 7, 0
10, 21, 0
10, 16, 0
10, 8, 0
10, 15, 0
10, 18, 0
10, 11, 0
10, 9, 0
7, 21, 0
7, 16, 0
7, 8, 0
7, 15, 0
7, 10, 0
7, 11, 0
7, 9, 0
12, 3, 0
12, 19, 0
12, 4, 0
12, 17, 0
12, 1, 0
2, 20, 0
2, 17, 0
21, 7, 0
21, 18, 0
21, 9, 0
21, 16, 0
21, 8, 0
21, 15, 0
21, 5, 0
21, 10, 0
19, 3, 0
19, 4, 0
19, 17, 0
19, 12, 0
18, 21, 0
18, 9, 0
18, 16, 0
18, 8, 0
18, 15, 0
18, 5, 0
18, 10, 0
9, 7, 0
9, 21, 0
9, 16, 0
9, 8, 1
9, 15, 0
9, 18, 0
9, 11, 0
9, 10, 0
