0, 7, 0
0, 12, 0
0, 4, 0
0, 2, 0
0, 8, 0
0, 10, 0
13, 10, 0
13, 11, 0
13, 9, 0
3, 12, 0
3, 4, 0
3, 1, 0
6, 5, 0
6, 9, 0
8, 0, 0
8, 7, 0
8, 10, 0
5, 6, 0
11, 13, 0
11, 9, 0
11, 10, 0
10, 0, 0
10, 7, 0
10, 13, 0
10, 8, 0
10, 11, 0
10, 9, 0
7, 0, 0
7, 8, 0
7, 10, 0
12, 0, 0
12, 3, 0
12, 4, 0
12, 2, 0
4, 0, 0
4, 12, 0
4, 2, 0
4, 3, 0
2, 0, 0
2, 12, 0
2, 4, 0
1, 3, 0
9, 6, 0
9, 13, 0
9, 11, 0
9, 10, 0
