0, 7, 0
0, 4, 0
0, 13, 0
0, 9, 0
0, 6, 0
0, 8, 0
0, 5, 0
0, 11, 0
0, 10, 0
13, 7, 0
13, 12, 0
13, 4, 0
13, 0, 0
13, 10, 0
13, 5, 0
13, 9, 0
3, 12, 0
3, 2, 1
3, 1, 0
6, 0, 0
6, 7, 0
6, 4, 0
6, 12, 0
6, 10, 0
6, 5, 0
6, 9, 0
8, 0, 0
8, 7, 0
8, 4, 0
8, 12, 0
8, 9, 0
8, 5, 0
8, 10, 0
5, 0, 0
5, 12, 0
5, 13, 0
5, 10, 0
5, 6, 0
5, 8, 0
5, 7, 0
5, 11, 0
5, 9, 0
11, 7, 0
11, 12, 0
11, 4, 0
11, 0, 0
11, 10, 0
11, 5, 0
11, 9, 0
10, 0, 0
10, 12, 0
10, 13, 0
10, 4, 0
10, 6, 0
10, 8, 0
10, 5, 0
10, 11, 0
10, 9, 0
7, 0, 0
7, 12, 0
7, 13, 0
7, 4, 0
7, 6, 0
7, 8, 0
7, 5, 0
7, 11, 0
7, 9, 0
12, 13, 0
12, 6, 0
12, 1, 0
12, 5, 0
12, 11, 0
12, 10, 0
12, 7, 0
12, 3, 0
12, 4, 0
12, 2, 0
12, 8, 0
12, 9, 0
4, 0, 0
4, 12, 0
4, 13, 0
4, 9, 0
4, 6, 0
4, 8, 0
4, 7, 0
4, 11, 0
4, 10, 0
2, 12, 0
2, 3, 1
2, 1, 0
1, 12, 0
1, 3, 0
1, 2, 0
9, 7, 0
9, 12, 0
9, 13, 0
9, 4, 0
9, 6, 0
9, 8, 0
9, 0, 0
9, 5, 0
9, 11, 0
9, 10, 0
