12, 3, 0
12, 13, 0
12, 32, 0
12, 10, 0
13, 12, 0
13, 32, 0
13, 3, 0
17, 0, 0
17, 31, 0
17, 2, 0
17, 21, 0
17, 10, 0
17, 30, 0
31, 0, 0
31, 17, 0
31, 30, 1
23, 21, 0
23, 28, 0
23, 5, 0
23, 22, 1
24, 21, 0
24, 26, 0
24, 18, 0
24, 36, 0
24, 9, 0
24, 15, 0
24, 10, 0
5, 3, 0
5, 4, 0
5, 28, 0
5, 32, 0
5, 23, 0
5, 21, 0
5, 22, 0
11, 33, 0
11, 32, 0
11, 35, 0
11, 21, 0
11, 6, 0
11, 19, 0
11, 1, 0
11, 10, 0
1, 34, 0
1, 32, 0
1, 35, 0
1, 21, 0
1, 6, 0
1, 19, 0
1, 11, 0
1, 10, 0
20, 15, 0
20, 10, 0
4, 3, 1
4, 5, 0
4, 29, 0
14, 7, 0
14, 0, 0
14, 25, 0
14, 9, 0
14, 21, 0
14, 27, 0
14, 8, 0
14, 10, 0
35, 34, 0
35, 33, 0
35, 21, 0
35, 6, 0
35, 1, 0
35, 11, 0
35, 10, 0
28, 3, 0
28, 22, 0
28, 5, 0
28, 23, 0
28, 29, 0
30, 0, 0
30, 17, 0
30, 31, 1
8, 7, 1
8, 27, 0
8, 14, 0
15, 20, 0
15, 18, 0
15, 10, 0
15, 24, 0
22, 3, 0
22, 28, 0
22, 5, 0
22, 23, 1
22, 29, 0
36, 16, 0
36, 21, 0
36, 9, 0
36, 26, 0
36, 24, 0
0, 7, 0
0, 14, 0
0, 31, 0
0, 21, 0
0, 27, 0
0, 10, 0
0, 17, 0
0, 30, 0
6, 34, 0
6, 35, 0
6, 21, 0
6, 33, 0
6, 19, 0
6, 1, 0
6, 11, 0
6, 10, 0
3, 12, 0
3, 4, 1
3, 13, 0
3, 32, 0
3, 29, 0
3, 28, 0
3, 5, 0
3, 22, 0
3, 10, 0
16, 9, 0
16, 36, 0
27, 0, 0
27, 7, 0
27, 8, 0
27, 14, 0
10, 0, 0
10, 17, 0
10, 3, 0
10, 18, 0
10, 6, 0
10, 24, 0
10, 11, 0
10, 1, 0
10, 20, 0
10, 12, 0
10, 29, 0
10, 25, 0
10, 33, 0
10, 32, 0
10, 35, 0
10, 21, 0
10, 14, 0
10, 19, 0
10, 34, 0
10, 15, 0
10, 9, 0
7, 0, 0
7, 27, 0
7, 8, 1
7, 14, 0
34, 33, 0
34, 35, 0
34, 21, 0
34, 6, 0
34, 19, 0
34, 1, 0
34, 10, 0
25, 9, 0
25, 14, 0
25, 10, 0
33, 34, 0
33, 35, 0
33, 21, 0
33, 6, 0
33, 19, 0
33, 11, 0
33, 10, 0
32, 12, 0
32, 13, 0
32, 3, 0
32, 21, 0
32, 19, 0
32, 10, 0
32, 5, 0
32, 11, 0
32, 1, 0
2, 17, 0
2, 29, 0
21, 0, 0
21, 17, 0
21, 23, 0
21, 33, 0
21, 6, 0
21, 24, 0
21, 5, 0
21, 11, 0
21, 10, 0
21, 34, 0
21, 14, 0
21, 32, 0
21, 35, 0
21, 29, 0
21, 19, 0
21, 1, 0
21, 36, 0
29, 3, 0
29, 4, 0
29, 28, 0
29, 2, 0
29, 21, 0
29, 22, 0
29, 10, 0
19, 33, 0
19, 32, 0
19, 34, 0
19, 21, 0
19, 6, 0
19, 1, 0
19, 11, 0
19, 10, 0
26, 36, 0
26, 24, 0
18, 10, 0
18, 15, 0
18, 24, 0
9, 25, 0
9, 24, 0
9, 16, 0
9, 14, 0
9, 10, 0
9, 36, 0
