0, 6, 0
0, 5, 0
8, 7, 1
8, 1, 0
8, 2, 0
3, 12, 0
3, 4, 0
3, 11, 0
3, 6, 0
6, 0, 0
6, 3, 0
6, 4, 0
6, 5, 0
6, 11, 0
5, 0, 0
5, 6, 0
5, 4, 0
5, 11, 0
11, 6, 0
11, 4, 0
11, 5, 0
11, 3, 0
10, 12, 0
10, 9, 0
10, 1, 0
7, 2, 0
7, 8, 1
7, 9, 0
12, 3, 0
12, 4, 0
12, 2, 0
12, 1, 0
12, 10, 0
12, 9, 0
4, 12, 0
4, 3, 0
4, 6, 0
4, 5, 0
4, 11, 0
4, 1, 0
2, 7, 0
2, 12, 0
2, 8, 0
2, 9, 0
1, 12, 0
1, 8, 0
1, 4, 0
1, 10, 0
9, 7, 0
9, 12, 0
9, 2, 0
9, 10, 0
