0, 7, 0
0, 3, 0
0, 4, 0
0, 13, 0
0, 12, 0
0, 1, 1
0, 8, 0
0, 10, 0
13, 0, 0
13, 7, 0
13, 3, 0
13, 12, 0
13, 6, 0
13, 2, 0
13, 5, 0
13, 11, 0
13, 1, 0
3, 0, 0
3, 12, 0
3, 7, 0
3, 13, 0
3, 4, 0
3, 2, 0
3, 8, 0
3, 1, 0
6, 13, 0
6, 5, 1
6, 11, 0
8, 0, 0
8, 12, 0
8, 9, 0
8, 3, 0
8, 1, 0
5, 6, 1
5, 13, 0
5, 11, 0
11, 6, 0
11, 13, 0
11, 5, 0
10, 0, 0
10, 12, 0
10, 4, 0
10, 2, 0
10, 1, 0
10, 9, 0
7, 0, 0
7, 12, 0
7, 13, 0
7, 3, 0
7, 2, 0
7, 1, 0
12, 0, 0
12, 3, 0
12, 4, 0
12, 13, 0
12, 9, 0
12, 2, 0
12, 1, 0
12, 8, 0
12, 7, 0
12, 10, 0
4, 0, 0
4, 12, 0
4, 3, 0
4, 2, 0
4, 1, 0
4, 10, 0
2, 7, 0
2, 12, 0
2, 4, 0
2, 13, 0
2, 3, 0
2, 1, 1
2, 10, 0
1, 0, 1
1, 12, 0
1, 4, 0
1, 13, 0
1, 3, 0
1, 2, 1
1, 8, 0
1, 7, 0
1, 10, 0
9, 12, 0
9, 8, 0
9, 10, 0
