0, 7, 0
0, 3, 0
0, 14, 0
0, 1, 0
13, 12, 0
13, 5, 0
13, 11, 0
3, 0, 0
3, 9, 0
3, 1, 0
6, 4, 0
8, 4, 0
8, 5, 0
8, 2, 0
5, 8, 0
5, 13, 0
5, 11, 0
5, 2, 0
11, 12, 0
11, 13, 0
11, 5, 0
10, 9, 0
7, 0, 0
7, 12, 0
7, 14, 0
7, 1, 0
12, 7, 0
12, 13, 0
12, 14, 0
12, 11, 0
4, 6, 0
4, 8, 0
4, 2, 0
14, 0, 0
14, 12, 0
14, 7, 0
14, 1, 0
2, 8, 0
2, 5, 0
2, 4, 0
1, 0, 0
1, 3, 0
1, 7, 0
1, 14, 0
9, 3, 0
9, 10, 0
