0, 13, 0
0, 14, 0
0, 2, 0
0, 6, 0
0, 8, 0
0, 9, 0
13, 0, 0
13, 7, 0
13, 11, 0
13, 2, 0
3, 4, 0
3, 5, 0
6, 0, 0
6, 12, 0
6, 14, 0
6, 10, 0
8, 0, 0
8, 12, 0
8, 1, 0
5, 3, 0
5, 4, 0
11, 7, 0
11, 13, 0
10, 6, 0
10, 14, 0
7, 13, 0
7, 11, 0
12, 6, 0
12, 8, 0
4, 3, 0
4, 5, 0
4, 1, 0
14, 0, 0
14, 6, 0
14, 9, 0
14, 10, 0
2, 0, 0
2, 13, 0
1, 8, 0
1, 4, 0
9, 0, 0
9, 14, 0
