0, 4, 0
0, 8, 0
0, 15, 0
0, 5, 0
0, 11, 0
13, 5, 0
13, 2, 0
3, 7, 0
3, 15, 0
6, 7, 0
6, 15, 0
6, 14, 0
8, 0, 0
8, 2, 0
8, 14, 0
8, 11, 0
8, 10, 0
5, 0, 0
5, 13, 0
5, 15, 0
5, 4, 0
5, 2, 0
11, 0, 0
11, 12, 0
11, 9, 0
11, 8, 0
11, 15, 0
11, 10, 0
10, 12, 0
10, 14, 0
10, 8, 0
10, 15, 0
10, 11, 0
10, 9, 1
7, 6, 0
7, 15, 0
7, 3, 0
12, 15, 0
12, 10, 0
12, 14, 0
12, 11, 0
12, 9, 0
4, 0, 0
4, 5, 0
14, 12, 0
14, 8, 0
14, 15, 0
14, 10, 0
14, 6, 0
2, 13, 0
2, 8, 0
2, 15, 0
2, 5, 0
2, 1, 0
1, 15, 0
1, 2, 0
15, 0, 0
15, 3, 0
15, 6, 0
15, 5, 0
15, 11, 0
15, 10, 0
15, 7, 0
15, 12, 0
15, 14, 0
15, 2, 0
15, 1, 0
15, 9, 0
9, 12, 0
9, 15, 0
9, 11, 0
9, 10, 1
