0, 16, 0
0, 2, 0
13, 12, 1
13, 8, 0
13, 14, 1
17, 3, 0
17, 8, 0
17, 4, 0
17, 1, 0
3, 4, 1
3, 17, 0
3, 1, 0
16, 0, 0
16, 6, 0
16, 9, 0
16, 5, 0
16, 10, 0
6, 16, 0
6, 10, 0
6, 15, 0
6, 5, 0
6, 9, 0
8, 7, 0
8, 12, 0
8, 13, 0
8, 14, 0
8, 17, 0
8, 1, 0
5, 16, 0
5, 6, 0
5, 15, 0
5, 11, 0
11, 15, 0
11, 5, 0
10, 16, 0
10, 6, 0
10, 9, 0
7, 12, 0
7, 8, 0
7, 14, 0
7, 2, 0
12, 7, 0
12, 8, 0
12, 14, 1
12, 13, 1
4, 3, 1
4, 17, 0
4, 1, 0
14, 7, 0
14, 12, 1
14, 8, 0
14, 13, 1
2, 0, 0
2, 7, 0
1, 3, 0
1, 8, 0
1, 17, 0
1, 4, 0
15, 6, 0
15, 5, 0
15, 11, 0
15, 9, 0
9, 16, 0
9, 6, 0
9, 15, 0
9, 10, 0
