13, 3, 0
13, 4, 0
13, 17, 0
13, 31, 0
13, 2, 0
13, 16, 0
13, 39, 0
13, 5, 0
17, 13, 0
17, 22, 0
17, 23, 0
17, 24, 0
17, 16, 1
17, 2, 0
17, 5, 0
17, 11, 0
23, 17, 0
23, 5, 0
23, 11, 0
23, 24, 1
42, 12, 0
42, 29, 0
42, 10, 0
42, 9, 0
5, 13, 0
5, 17, 0
5, 23, 0
5, 2, 0
5, 16, 0
5, 24, 0
5, 11, 0
20, 34, 0
20, 1, 0
20, 31, 0
20, 27, 0
14, 25, 0
14, 33, 0
14, 15, 1
14, 35, 0
24, 11, 0
24, 17, 0
24, 5, 0
24, 23, 1
28, 12, 0
28, 9, 0
28, 38, 0
28, 6, 0
39, 18, 0
39, 3, 0
39, 13, 0
39, 31, 0
39, 4, 0
41, 25, 0
41, 8, 0
41, 40, 0
41, 35, 0
0, 25, 0
0, 11, 0
0, 22, 0
0, 30, 0
8, 40, 0
8, 41, 0
8, 35, 0
12, 42, 0
12, 29, 0
12, 28, 0
12, 9, 0
15, 25, 0
15, 33, 0
15, 30, 0
15, 14, 1
15, 35, 0
10, 42, 0
10, 29, 0
10, 9, 1
7, 37, 0
7, 6, 0
7, 9, 0
7, 38, 0
7, 1, 0
3, 39, 0
3, 4, 1
3, 13, 0
3, 31, 0
32, 27, 0
32, 31, 1
32, 1, 0
2, 16, 0
2, 13, 0
2, 17, 0
2, 5, 0
2, 31, 0
21, 43, 0
21, 44, 0
21, 36, 0
33, 25, 0
33, 14, 0
33, 19, 0
33, 15, 0
33, 35, 0
19, 33, 0
19, 30, 0
18, 34, 0
18, 39, 0
31, 20, 0
31, 3, 0
31, 4, 0
31, 13, 0
31, 32, 1
31, 34, 0
31, 27, 0
31, 2, 0
31, 39, 0
31, 1, 0
29, 12, 0
29, 43, 0
29, 42, 0
29, 36, 0
29, 10, 0
29, 44, 0
29, 9, 0
40, 8, 0
40, 41, 0
40, 35, 0
11, 0, 0
11, 17, 0
11, 23, 0
11, 24, 0
11, 25, 0
11, 5, 0
11, 22, 0
1, 20, 0
1, 7, 0
1, 31, 0
1, 32, 0
1, 37, 0
1, 27, 0
1, 38, 0
1, 9, 0
37, 7, 0
37, 9, 0
37, 38, 1
37, 1, 0
4, 3, 1
4, 13, 0
4, 39, 0
4, 31, 0
4, 34, 0
35, 40, 0
35, 33, 0
35, 25, 0
35, 14, 0
35, 8, 0
35, 15, 0
35, 41, 0
30, 0, 0
30, 25, 0
30, 19, 0
30, 15, 0
38, 7, 0
38, 37, 1
38, 9, 0
38, 28, 0
38, 1, 0
22, 0, 0
22, 25, 0
22, 17, 0
22, 26, 0
22, 11, 0
36, 21, 0
36, 43, 0
36, 44, 0
36, 29, 0
16, 13, 0
16, 17, 1
16, 5, 0
16, 2, 0
27, 20, 0
27, 9, 0
27, 32, 0
27, 31, 0
27, 1, 0
44, 21, 0
44, 36, 0
44, 43, 1
44, 29, 0
34, 20, 0
34, 18, 0
34, 4, 0
34, 31, 0
25, 0, 0
25, 33, 0
25, 14, 0
25, 11, 0
25, 26, 1
25, 35, 0
25, 15, 0
25, 41, 0
25, 22, 0
25, 30, 0
26, 25, 1
26, 22, 0
6, 7, 0
6, 28, 0
43, 21, 0
43, 36, 0
43, 44, 1
43, 29, 0
9, 7, 0
9, 12, 0
9, 28, 0
9, 29, 0
9, 37, 0
9, 27, 0
9, 42, 0
9, 1, 0
9, 38, 0
9, 10, 1
