0, 13, 0
0, 17, 0
0, 2, 0
13, 0, 0
13, 2, 0
17, 0, 0
17, 14, 0
3, 16, 0
3, 7, 0
3, 4, 0
3, 15, 0
16, 7, 0
16, 3, 0
16, 4, 0
16, 15, 1
16, 10, 0
6, 12, 0
6, 14, 0
6, 11, 0
6, 1, 0
8, 5, 0
8, 11, 0
8, 1, 0
5, 8, 0
5, 9, 0
11, 12, 1
11, 1, 0
11, 8, 0
11, 6, 0
10, 16, 0
10, 7, 0
10, 4, 0
10, 15, 0
10, 9, 0
7, 16, 0
7, 3, 0
7, 4, 0
7, 15, 0
7, 10, 0
12, 6, 0
12, 11, 1
12, 1, 0
4, 16, 0
4, 7, 0
4, 15, 0
4, 3, 0
4, 10, 0
14, 6, 0
14, 17, 0
2, 0, 0
2, 13, 0
1, 12, 0
1, 8, 0
1, 11, 0
1, 6, 0
15, 16, 1
15, 7, 0
15, 4, 0
15, 10, 0
15, 3, 0
9, 5, 0
9, 10, 0
