0, 3, 0
0, 8, 0
0, 10, 0
0, 2, 0
8, 0, 0
8, 12, 0
8, 6, 0
8, 5, 0
8, 11, 0
8, 1, 0
8, 7, 0
8, 3, 0
8, 4, 0
8, 2, 0
8, 10, 0
8, 9, 1
3, 0, 0
3, 8, 0
3, 5, 0
3, 10, 0
6, 7, 0
6, 12, 0
6, 8, 0
6, 10, 0
5, 3, 0
5, 8, 0
5, 10, 0
5, 9, 0
11, 7, 0
11, 8, 0
11, 10, 1
11, 2, 0
10, 7, 0
10, 0, 0
10, 4, 0
10, 9, 0
10, 3, 0
10, 2, 0
10, 6, 0
10, 8, 0
10, 5, 0
10, 11, 1
10, 12, 0
7, 6, 0
7, 8, 0
7, 11, 0
7, 10, 0
12, 6, 0
12, 8, 0
12, 10, 0
4, 10, 0
4, 8, 0
4, 9, 0
4, 1, 0
2, 0, 0
2, 8, 0
2, 11, 0
2, 10, 0
1, 8, 0
1, 4, 0
1, 9, 0
9, 10, 0
9, 8, 1
9, 5, 0
9, 4, 0
9, 1, 0
