0, 7, 0
0, 6, 0
0, 8, 0
0, 5, 0
0, 2, 0
3, 2, 0
3, 6, 0
3, 8, 0
3, 4, 1
3, 1, 0
4, 3, 1
4, 8, 0
4, 5, 1
4, 2, 0
7, 0, 0
7, 2, 0
2, 0, 0
2, 3, 0
2, 4, 0
2, 7, 0
2, 6, 0
2, 8, 0
2, 5, 0
2, 1, 0
6, 0, 0
6, 3, 0
6, 1, 0
6, 2, 0
8, 0, 0
8, 3, 0
8, 4, 0
8, 2, 0
8, 5, 0
8, 1, 0
5, 0, 0
5, 8, 0
5, 4, 1
5, 2, 0
1, 3, 0
1, 6, 0
1, 8, 0
1, 2, 0
