13, 12, 1
13, 39, 0
13, 10, 0
17, 20, 0
17, 37, 0
17, 4, 0
17, 32, 0
17, 21, 0
17, 38, 0
17, 44, 0
17, 10, 0
23, 7, 0
23, 3, 0
23, 4, 0
23, 14, 0
23, 31, 0
23, 24, 1
23, 16, 0
23, 28, 0
23, 35, 0
42, 33, 0
42, 28, 0
42, 22, 0
5, 45, 0
5, 29, 0
5, 6, 0
5, 19, 0
5, 11, 0
5, 27, 0
20, 37, 0
20, 4, 0
20, 17, 0
20, 32, 0
20, 21, 1
20, 38, 0
20, 10, 0
14, 3, 0
14, 31, 0
14, 23, 0
24, 16, 0
24, 3, 0
24, 23, 1
28, 0, 0
28, 23, 0
28, 2, 0
28, 42, 0
28, 15, 0
28, 22, 0
39, 12, 0
39, 13, 0
39, 22, 0
39, 26, 0
39, 10, 0
41, 9, 0
41, 1, 0
0, 7, 0
0, 15, 0
0, 28, 0
0, 36, 0
8, 34, 0
8, 44, 0
8, 29, 0
12, 13, 1
12, 39, 0
12, 10, 0
15, 0, 0
15, 25, 0
15, 28, 0
15, 2, 0
10, 20, 0
10, 12, 0
10, 13, 0
10, 17, 0
10, 32, 0
10, 21, 0
10, 4, 0
10, 37, 0
10, 38, 0
10, 39, 0
7, 0, 0
7, 25, 0
7, 23, 0
7, 35, 0
7, 30, 0
7, 40, 0
7, 36, 0
3, 16, 0
3, 14, 0
3, 23, 0
3, 24, 0
32, 20, 0
32, 4, 0
32, 43, 0
32, 37, 0
32, 17, 0
32, 9, 0
32, 38, 0
32, 44, 0
32, 10, 0
2, 25, 0
2, 15, 0
2, 28, 0
21, 20, 1
21, 37, 0
21, 38, 0
21, 17, 0
21, 10, 0
33, 42, 0
33, 22, 0
33, 26, 0
19, 18, 1
19, 27, 0
19, 45, 0
19, 5, 0
19, 6, 0
18, 27, 0
18, 19, 1
18, 6, 0
31, 14, 0
31, 23, 0
31, 35, 0
29, 34, 0
29, 4, 0
29, 6, 0
29, 8, 0
29, 5, 0
29, 11, 0
29, 1, 0
40, 7, 0
40, 35, 0
40, 25, 0
40, 30, 0
11, 6, 0
11, 45, 0
11, 5, 0
11, 29, 0
1, 34, 0
1, 4, 0
1, 9, 0
1, 41, 0
1, 29, 0
37, 20, 0
37, 4, 0
37, 17, 0
37, 32, 0
37, 21, 0
37, 38, 1
37, 10, 0
4, 20, 0
4, 17, 0
4, 32, 0
4, 23, 0
4, 29, 0
4, 37, 0
4, 6, 0
4, 1, 0
4, 10, 0
4, 38, 0
4, 9, 0
35, 7, 0
35, 25, 0
35, 23, 0
35, 31, 0
35, 40, 0
35, 30, 0
30, 7, 0
30, 25, 0
30, 40, 0
30, 35, 0
38, 20, 0
38, 21, 0
38, 4, 0
38, 17, 0
38, 32, 0
38, 37, 1
38, 10, 0
22, 42, 0
22, 28, 0
22, 39, 0
22, 33, 0
36, 0, 0
36, 7, 0
45, 27, 0
45, 19, 0
45, 5, 0
45, 11, 0
45, 6, 0
16, 3, 0
16, 23, 0
16, 24, 0
27, 18, 0
27, 45, 0
27, 19, 0
27, 5, 0
27, 6, 0
44, 34, 0
44, 43, 1
44, 32, 0
44, 17, 0
44, 8, 0
44, 9, 0
34, 1, 0
34, 8, 0
34, 44, 0
34, 29, 0
25, 7, 0
25, 35, 0
25, 40, 0
25, 2, 0
25, 15, 0
25, 30, 0
26, 33, 0
26, 39, 0
6, 45, 0
6, 4, 0
6, 29, 0
6, 18, 0
6, 27, 0
6, 19, 0
6, 5, 0
6, 11, 0
43, 44, 1
43, 32, 0
43, 9, 0
9, 4, 0
9, 43, 0
9, 32, 0
9, 1, 0
9, 41, 0
9, 44, 0
