13, 25, 0
13, 33, 0
13, 19, 0
13, 15, 0
13, 32, 0
17, 20, 0
17, 27, 0
17, 16, 0
17, 28, 0
17, 31, 0
31, 20, 0
31, 16, 0
31, 17, 0
23, 9, 0
23, 8, 0
23, 25, 0
23, 22, 0
23, 29, 0
23, 18, 0
23, 1, 0
23, 5, 0
23, 11, 0
23, 10, 0
10, 25, 0
10, 9, 0
10, 23, 0
10, 29, 0
10, 8, 0
10, 5, 0
10, 11, 0
10, 1, 0
2, 3, 1
2, 9, 0
2, 11, 0
2, 34, 0
2, 18, 0
2, 29, 0
2, 5, 0
2, 22, 0
2, 1, 0
5, 8, 0
5, 23, 0
5, 3, 0
5, 18, 0
5, 2, 0
5, 11, 0
5, 30, 0
5, 34, 0
5, 4, 0
5, 14, 0
5, 26, 0
5, 24, 0
5, 29, 0
5, 1, 0
5, 10, 0
5, 22, 0
11, 23, 0
11, 34, 0
11, 18, 0
11, 29, 0
11, 5, 0
11, 1, 0
11, 7, 0
11, 3, 0
11, 4, 0
11, 25, 0
11, 2, 0
11, 8, 0
11, 10, 0
11, 22, 0
11, 9, 0
1, 23, 0
1, 34, 0
1, 2, 0
1, 5, 0
1, 11, 0
1, 10, 0
1, 3, 0
1, 4, 0
1, 25, 0
1, 26, 0
1, 24, 0
1, 8, 0
1, 9, 0
20, 6, 0
20, 28, 0
20, 31, 0
20, 17, 0
20, 27, 0
4, 3, 1
4, 22, 0
4, 34, 0
4, 18, 0
4, 9, 0
4, 5, 0
4, 11, 0
4, 1, 0
14, 7, 0
14, 12, 0
14, 26, 0
14, 24, 0
14, 21, 0
14, 30, 0
14, 18, 0
14, 22, 0
14, 5, 0
24, 7, 0
24, 34, 0
24, 14, 0
24, 26, 0
24, 18, 0
24, 30, 0
24, 9, 0
24, 5, 0
24, 22, 0
24, 1, 0
28, 20, 0
28, 27, 1
28, 17, 0
30, 7, 0
30, 12, 0
30, 14, 0
30, 26, 0
30, 24, 0
30, 21, 0
30, 5, 0
30, 22, 0
8, 25, 0
8, 23, 0
8, 29, 0
8, 10, 0
8, 5, 0
8, 11, 0
8, 1, 0
15, 33, 0
15, 13, 0
15, 25, 0
15, 32, 0
22, 23, 0
22, 34, 0
22, 18, 0
22, 2, 0
22, 5, 0
22, 11, 0
22, 30, 0
22, 24, 0
22, 3, 0
22, 4, 0
22, 14, 0
22, 29, 0
22, 25, 0
22, 9, 0
0, 6, 0
0, 32, 0
3, 34, 0
3, 4, 1
3, 11, 0
3, 2, 1
3, 18, 0
3, 9, 0
3, 5, 0
3, 22, 0
3, 1, 0
34, 18, 0
34, 2, 0
34, 5, 0
34, 11, 0
34, 1, 0
34, 7, 0
34, 3, 0
34, 4, 0
34, 25, 0
34, 26, 0
34, 24, 0
34, 22, 0
34, 9, 0
16, 17, 0
16, 31, 0
6, 20, 0
6, 0, 0
27, 20, 0
27, 28, 1
27, 17, 0
7, 34, 0
7, 14, 0
7, 26, 0
7, 24, 0
7, 21, 0
7, 12, 0
7, 9, 0
7, 11, 0
7, 30, 0
12, 7, 0
12, 21, 0
12, 9, 0
12, 14, 0
12, 30, 0
25, 13, 0
25, 23, 0
25, 33, 0
25, 1, 0
25, 11, 0
25, 10, 0
25, 34, 0
25, 32, 0
25, 29, 0
25, 19, 0
25, 8, 0
25, 15, 0
25, 22, 0
25, 9, 0
32, 0, 0
32, 33, 0
32, 13, 0
32, 25, 0
32, 19, 0
32, 15, 0
29, 25, 0
29, 22, 0
29, 23, 0
29, 2, 0
29, 18, 0
29, 8, 0
29, 5, 0
29, 11, 0
29, 10, 0
21, 7, 0
21, 12, 0
21, 14, 0
21, 26, 0
21, 30, 0
33, 25, 0
33, 19, 0
33, 13, 0
33, 15, 0
33, 32, 0
19, 33, 0
19, 13, 0
19, 25, 0
19, 32, 0
26, 7, 0
26, 34, 0
26, 14, 0
26, 9, 0
26, 24, 0
26, 21, 0
26, 1, 0
26, 5, 0
26, 18, 0
26, 30, 0
18, 23, 0
18, 34, 0
18, 29, 0
18, 5, 0
18, 11, 0
18, 24, 0
18, 3, 0
18, 4, 0
18, 14, 0
18, 26, 0
18, 2, 0
18, 22, 0
18, 9, 0
9, 23, 0
9, 12, 0
9, 18, 0
9, 2, 0
9, 11, 0
9, 10, 0
9, 7, 0
9, 3, 0
9, 34, 0
9, 4, 0
9, 25, 0
9, 26, 0
9, 24, 0
9, 1, 0
9, 22, 0
