0, 7, 0
0, 3, 0
0, 4, 0
0, 10, 0
0, 6, 0
0, 8, 0
0, 5, 0
0, 11, 0
0, 9, 0
13, 12, 1
13, 2, 0
13, 1, 0
3, 0, 0
3, 6, 0
3, 4, 0
6, 0, 0
6, 3, 0
6, 4, 0
8, 0, 0
8, 7, 0
8, 9, 0
8, 5, 0
8, 10, 0
5, 0, 0
5, 7, 0
5, 4, 0
5, 9, 0
5, 8, 0
5, 10, 0
11, 0, 0
11, 7, 0
11, 4, 0
11, 9, 1
10, 0, 0
10, 7, 0
10, 4, 0
10, 8, 0
10, 5, 0
10, 9, 1
7, 0, 0
7, 4, 0
7, 9, 0
7, 1, 0
7, 8, 0
7, 5, 0
7, 11, 0
7, 10, 0
12, 2, 0
12, 13, 1
12, 1, 0
4, 0, 0
4, 7, 0
4, 3, 0
4, 6, 0
4, 9, 0
4, 5, 0
4, 11, 0
4, 10, 0
2, 12, 0
2, 13, 0
2, 1, 0
1, 7, 0
1, 12, 0
1, 13, 0
1, 2, 0
9, 0, 0
9, 7, 0
9, 4, 0
9, 8, 0
9, 5, 0
9, 11, 1
9, 10, 1
