13, 16, 0
13, 12, 0
13, 11, 0
13, 21, 0
17, 18, 0
17, 6, 0
17, 8, 0
17, 3, 0
5, 0, 0
5, 7, 0
5, 1, 0
11, 16, 0
11, 12, 0
11, 13, 0
11, 1, 0
1, 5, 0
1, 11, 0
20, 3, 0
20, 14, 0
20, 8, 0
20, 15, 0
20, 4, 0
4, 20, 0
4, 14, 0
4, 15, 0
4, 22, 0
14, 20, 0
14, 4, 0
14, 15, 1
8, 20, 0
8, 6, 0
8, 17, 0
8, 3, 0
15, 20, 0
15, 4, 0
15, 14, 1
22, 19, 0
22, 4, 0
0, 7, 0
0, 5, 0
3, 20, 0
3, 6, 0
3, 8, 0
3, 17, 0
16, 21, 0
16, 12, 0
16, 13, 0
16, 11, 0
6, 3, 0
6, 8, 0
6, 17, 0
10, 21, 0
10, 2, 0
10, 9, 1
7, 0, 0
7, 19, 0
7, 5, 0
12, 16, 0
12, 13, 0
12, 11, 0
2, 21, 0
2, 9, 0
2, 10, 0
21, 16, 0
21, 2, 0
21, 13, 0
21, 9, 0
21, 10, 0
19, 7, 0
19, 22, 0
18, 17, 0
9, 21, 0
9, 2, 0
9, 10, 1
