0, 7, 0
0, 14, 0
0, 2, 1
0, 1, 1
0, 8, 0
0, 10, 0
13, 7, 0
13, 12, 0
13, 14, 0
13, 3, 0
13, 10, 0
13, 1, 0
3, 7, 0
3, 12, 0
3, 13, 0
3, 14, 0
3, 9, 0
3, 4, 0
3, 8, 0
3, 11, 0
3, 1, 0
6, 7, 1
6, 4, 0
6, 5, 0
6, 1, 0
8, 7, 1
8, 3, 0
8, 4, 0
8, 14, 0
8, 0, 0
8, 1, 0
8, 9, 1
5, 7, 0
5, 6, 0
5, 4, 1
11, 7, 0
11, 12, 1
11, 3, 0
11, 1, 0
10, 0, 0
10, 12, 1
10, 13, 0
10, 14, 0
10, 7, 0
10, 1, 0
7, 0, 0
7, 13, 0
7, 3, 0
7, 6, 1
7, 1, 0
7, 5, 0
7, 11, 0
7, 10, 0
7, 12, 0
7, 4, 0
7, 14, 0
7, 8, 1
7, 9, 1
12, 7, 0
12, 3, 0
12, 13, 0
12, 14, 0
12, 1, 0
12, 11, 1
12, 10, 1
4, 7, 0
4, 3, 0
4, 6, 0
4, 8, 0
4, 5, 1
4, 9, 0
14, 0, 0
14, 12, 0
14, 13, 0
14, 3, 0
14, 2, 0
14, 1, 0
14, 8, 0
14, 7, 0
14, 10, 0
2, 0, 1
2, 14, 0
1, 0, 1
1, 12, 0
1, 13, 0
1, 14, 0
1, 9, 0
1, 3, 0
1, 6, 0
1, 8, 0
1, 7, 0
1, 11, 0
1, 10, 0
9, 7, 1
9, 3, 0
9, 8, 1
9, 4, 0
9, 1, 0
