0, 7, 0
0, 6, 0
0, 4, 0
0, 5, 0
0, 2, 0
3, 8, 0
3, 9, 0
3, 10, 0
3, 1, 0
4, 0, 0
4, 6, 0
4, 7, 0
4, 5, 1
4, 2, 0
2, 0, 0
2, 7, 0
2, 4, 0
2, 6, 0
2, 5, 0
2, 1, 0
6, 0, 0
6, 7, 1
6, 4, 0
6, 5, 0
6, 2, 0
1, 3, 0
1, 10, 0
1, 2, 0
8, 3, 0
8, 10, 0
8, 9, 0
5, 0, 0
5, 7, 0
5, 6, 0
5, 4, 1
5, 2, 0
7, 0, 0
7, 6, 1
7, 4, 0
7, 5, 0
7, 2, 0
10, 3, 0
10, 1, 0
10, 8, 0
10, 9, 1
9, 3, 0
9, 8, 0
9, 10, 1
