0, 12, 0
0, 1, 1
0, 11, 0
0, 10, 0
13, 7, 0
13, 14, 0
13, 2, 0
3, 16, 0
3, 4, 1
3, 11, 0
16, 3, 0
16, 8, 0
16, 11, 0
16, 4, 0
16, 6, 0
6, 16, 0
6, 8, 0
6, 5, 0
8, 16, 0
8, 6, 0
5, 6, 0
11, 0, 0
11, 12, 0
11, 4, 0
11, 3, 0
11, 16, 0
11, 10, 0
11, 1, 0
10, 0, 0
10, 12, 0
10, 14, 0
10, 15, 0
10, 11, 0
10, 1, 0
7, 13, 0
7, 14, 0
7, 9, 0
12, 0, 0
12, 10, 0
12, 11, 0
12, 1, 0
4, 16, 0
4, 3, 1
4, 11, 0
14, 7, 0
14, 2, 0
14, 13, 0
14, 15, 0
14, 10, 0
2, 13, 0
2, 14, 0
1, 0, 1
1, 12, 0
1, 11, 0
1, 10, 0
15, 14, 0
15, 10, 0
9, 7, 0
