0, 6, 0
0, 9, 0
0, 1, 1
6, 0, 0
6, 7, 0
6, 9, 0
6, 3, 0
6, 10, 0
6, 1, 0
1, 0, 1
1, 6, 0
1, 9, 0
5, 3, 0
5, 11, 0
11, 7, 0
11, 3, 0
11, 4, 0
11, 2, 0
11, 8, 0
11, 5, 0
10, 7, 0
10, 6, 0
10, 3, 0
7, 6, 0
7, 3, 0
7, 11, 0
7, 10, 0
3, 7, 0
3, 6, 0
3, 5, 0
3, 11, 0
3, 10, 0
4, 8, 0
4, 11, 0
4, 2, 0
2, 4, 0
2, 8, 0
2, 11, 0
8, 4, 0
8, 11, 0
8, 2, 0
9, 0, 0
9, 6, 0
9, 1, 0
