0, 20, 0
0, 18, 0
0, 17, 0
0, 16, 0
0, 19, 0
0, 11, 0
7, 12, 0
7, 6, 0
7, 9, 0
7, 10, 0
13, 6, 0
13, 1, 0
13, 15, 0
13, 2, 0
17, 18, 0
17, 0, 0
17, 4, 0
17, 11, 0
3, 10, 0
16, 0, 0
16, 20, 0
16, 19, 0
16, 14, 0
6, 7, 0
6, 12, 0
6, 13, 0
6, 9, 0
6, 1, 0
8, 15, 0
8, 14, 0
5, 4, 0
11, 0, 0
11, 18, 0
11, 4, 0
11, 17, 0
10, 7, 0
10, 12, 0
10, 9, 0
10, 3, 0
20, 0, 0
20, 16, 0
20, 19, 1
12, 7, 0
12, 6, 0
12, 9, 0
12, 10, 0
4, 18, 0
4, 17, 0
4, 5, 0
4, 11, 0
14, 16, 0
14, 8, 0
2, 13, 0
2, 1, 0
19, 0, 0
19, 20, 1
19, 16, 0
1, 6, 0
1, 13, 0
1, 2, 0
15, 8, 0
15, 13, 0
18, 0, 0
18, 4, 0
18, 17, 0
18, 11, 0
9, 7, 0
9, 12, 0
9, 10, 0
9, 6, 0
