0, 7, 0
0, 8, 0
0, 5, 0
0, 4, 0
0, 1, 0
3, 8, 0
4, 0, 0
4, 7, 0
4, 2, 0
4, 1, 0
7, 0, 0
7, 8, 0
7, 5, 0
7, 4, 0
7, 1, 0
2, 6, 0
2, 4, 0
2, 1, 0
6, 2, 0
8, 0, 0
8, 3, 0
8, 7, 0
8, 5, 0
5, 0, 0
5, 7, 0
5, 8, 0
1, 7, 0
1, 0, 0
1, 4, 0
1, 2, 0
