0, 3, 0
0, 6, 0
0, 4, 0
0, 5, 0
0, 2, 0
3, 0, 0
3, 7, 0
3, 2, 0
3, 1, 0
4, 0, 0
4, 6, 1
4, 5, 1
4, 2, 0
7, 3, 0
7, 1, 0
2, 0, 0
2, 6, 0
2, 4, 0
2, 5, 0
2, 3, 0
6, 0, 0
6, 4, 1
6, 5, 1
6, 2, 0
5, 0, 0
5, 6, 1
5, 4, 1
5, 2, 0
1, 7, 0
1, 3, 0
