0, 3, 0
0, 8, 0
0, 12, 0
0, 2, 0
8, 0, 0
8, 7, 0
8, 4, 0
8, 9, 0
8, 3, 0
8, 6, 0
8, 2, 0
8, 11, 0
8, 10, 0
3, 0, 0
3, 7, 0
3, 12, 0
3, 2, 0
3, 8, 0
3, 5, 0
3, 9, 0
6, 7, 1
6, 4, 0
6, 9, 0
6, 8, 0
6, 11, 0
6, 10, 0
5, 12, 0
5, 3, 0
5, 1, 0
11, 6, 0
11, 8, 0
11, 10, 0
11, 4, 0
11, 9, 0
10, 7, 0
10, 4, 0
10, 6, 0
10, 8, 0
10, 11, 0
10, 9, 0
7, 3, 0
7, 4, 0
7, 6, 1
7, 8, 0
7, 10, 0
7, 9, 0
12, 0, 0
12, 3, 0
12, 1, 0
12, 5, 0
12, 2, 0
4, 7, 0
4, 6, 0
4, 8, 0
4, 10, 0
4, 11, 0
4, 9, 0
2, 0, 0
2, 12, 0
2, 8, 0
2, 3, 0
1, 12, 0
1, 5, 0
9, 7, 0
9, 3, 0
9, 4, 0
9, 6, 0
9, 8, 0
9, 11, 0
9, 10, 0
