0, 2, 0
0, 1, 0
0, 9, 0
0, 5, 0
0, 10, 0
3, 7, 0
3, 4, 0
3, 1, 0
4, 7, 0
4, 3, 0
4, 8, 0
4, 1, 0
2, 0, 0
2, 6, 0
2, 5, 0
6, 2, 0
1, 0, 0
1, 3, 0
1, 4, 0
1, 10, 0
1, 8, 0
1, 7, 0
1, 9, 0
8, 7, 0
8, 4, 0
8, 1, 0
5, 0, 0
5, 2, 0
7, 3, 0
7, 8, 0
7, 4, 0
7, 1, 0
10, 0, 0
10, 1, 0
10, 9, 1
9, 0, 0
9, 1, 0
9, 10, 1
