13, 7, 0
13, 21, 0
13, 17, 0
13, 10, 0
17, 16, 0
17, 13, 0
5, 0, 0
5, 11, 0
11, 15, 0
11, 5, 0
1, 18, 0
1, 12, 0
1, 2, 1
20, 18, 0
20, 3, 0
20, 6, 0
4, 0, 0
4, 6, 0
14, 12, 0
14, 19, 0
14, 8, 0
14, 10, 0
8, 19, 0
8, 14, 0
8, 10, 0
15, 11, 0
0, 4, 0
0, 5, 0
3, 20, 0
3, 18, 0
16, 17, 0
16, 9, 0
6, 20, 0
6, 4, 0
10, 7, 0
10, 13, 0
10, 14, 0
10, 21, 0
10, 19, 0
10, 8, 0
7, 21, 0
7, 13, 0
7, 10, 0
12, 18, 0
12, 2, 0
12, 14, 0
12, 1, 0
2, 18, 0
2, 12, 0
2, 1, 1
21, 7, 0
21, 13, 0
21, 10, 0
19, 8, 0
19, 14, 0
19, 10, 0
18, 20, 0
18, 3, 0
18, 2, 0
18, 12, 0
18, 1, 0
9, 16, 0
