0, 6, 0
0, 4, 0
0, 5, 0
0, 2, 0
3, 8, 0
3, 5, 0
3, 2, 0
4, 0, 0
4, 6, 0
4, 5, 0
2, 0, 0
2, 3, 0
2, 6, 0
2, 8, 0
2, 5, 0
2, 1, 0
6, 0, 0
6, 7, 0
6, 2, 0
6, 4, 0
6, 9, 0
1, 7, 0
1, 2, 0
1, 9, 0
8, 7, 0
8, 3, 0
8, 2, 0
5, 0, 0
5, 3, 0
5, 4, 0
5, 7, 0
5, 2, 0
7, 6, 0
7, 1, 0
7, 8, 0
7, 5, 0
7, 9, 0
9, 7, 0
9, 6, 0
9, 1, 0
