58, 45, 0
58, 17, 0
58, 16, 0
58, 53, 0
58, 47, 0
58, 7, 0
58, 21, 0
58, 52, 0
58, 26, 0
58, 29, 0
58, 37, 0
58, 20, 0
58, 19, 0
13, 45, 0
13, 14, 0
13, 31, 0
13, 2, 0
13, 18, 0
13, 49, 0
17, 58, 0
17, 0, 0
17, 37, 0
17, 68, 0
17, 16, 1
17, 55, 0
17, 47, 0
17, 1, 0
17, 20, 0
17, 3, 0
17, 26, 0
17, 2, 0
17, 21, 0
23, 40, 0
23, 69, 0
23, 28, 0
23, 56, 0
23, 66, 0
23, 61, 0
23, 6, 0
23, 15, 0
23, 41, 0
23, 30, 0
63, 27, 0
63, 38, 0
63, 46, 0
63, 22, 0
24, 57, 0
24, 25, 0
24, 32, 0
24, 51, 0
24, 10, 0
46, 53, 0
46, 28, 0
46, 56, 0
46, 63, 0
46, 27, 0
46, 66, 0
46, 59, 0
46, 47, 0
46, 52, 0
46, 2, 0
46, 37, 0
46, 19, 0
65, 4, 0
65, 56, 0
65, 66, 0
65, 61, 0
65, 69, 0
65, 30, 0
65, 39, 0
65, 48, 0
65, 36, 0
20, 58, 0
20, 37, 0
20, 17, 0
20, 21, 1
20, 52, 0
20, 19, 1
20, 47, 0
34, 62, 0
34, 60, 0
34, 59, 0
34, 44, 0
34, 11, 0
34, 10, 0
34, 3, 0
34, 54, 0
34, 50, 0
34, 31, 0
34, 35, 0
34, 14, 0
34, 19, 0
34, 8, 0
34, 64, 0
34, 26, 0
34, 9, 0
14, 13, 0
14, 34, 0
14, 2, 0
14, 44, 0
14, 11, 0
14, 3, 0
14, 43, 0
14, 54, 0
14, 49, 0
14, 31, 0
14, 35, 0
14, 42, 0
14, 8, 0
14, 64, 0
53, 58, 0
53, 31, 0
53, 56, 0
53, 16, 0
53, 55, 0
53, 59, 0
53, 46, 0
53, 47, 0
53, 52, 1
53, 26, 0
53, 2, 0
53, 37, 0
53, 19, 0
66, 28, 0
66, 23, 0
66, 56, 0
66, 33, 0
66, 6, 0
66, 40, 0
66, 46, 0
66, 65, 0
66, 67, 1
66, 69, 0
66, 22, 0
66, 27, 0
66, 61, 0
66, 15, 0
66, 41, 0
66, 48, 0
42, 3, 0
42, 2, 0
42, 43, 1
42, 35, 0
42, 60, 0
42, 54, 0
42, 14, 0
42, 8, 0
42, 64, 0
42, 44, 0
42, 11, 0
15, 33, 0
15, 69, 0
15, 28, 0
15, 56, 0
15, 23, 0
15, 66, 0
15, 6, 0
15, 40, 0
15, 41, 0
41, 67, 0
41, 69, 0
41, 28, 0
41, 23, 0
41, 66, 0
41, 15, 0
41, 40, 1
0, 7, 0
0, 68, 0
0, 21, 0
0, 17, 0
0, 56, 0
0, 29, 0
0, 37, 0
0, 59, 0
0, 47, 0
68, 0, 0
68, 67, 1
68, 69, 0
68, 17, 0
68, 56, 0
68, 29, 0
68, 21, 0
68, 28, 0
68, 37, 0
68, 59, 0
62, 34, 0
62, 54, 0
62, 50, 0
62, 31, 0
62, 3, 0
62, 9, 0
62, 8, 0
62, 64, 0
62, 11, 0
62, 10, 0
51, 57, 0
51, 10, 0
51, 25, 0
51, 32, 0
51, 24, 0
33, 67, 0
33, 69, 0
33, 28, 0
33, 66, 0
33, 6, 0
33, 15, 0
33, 5, 0
33, 22, 0
6, 33, 0
6, 69, 0
6, 28, 0
6, 56, 0
6, 23, 0
6, 66, 0
6, 15, 0
6, 5, 0
6, 22, 0
64, 34, 0
64, 43, 0
64, 50, 0
64, 12, 0
64, 60, 0
64, 42, 0
64, 14, 0
64, 10, 0
64, 44, 0
64, 62, 0
47, 0, 0
47, 58, 0
47, 17, 0
47, 53, 0
47, 59, 0
47, 46, 0
47, 7, 0
47, 37, 0
47, 52, 0
47, 29, 0
47, 21, 0
47, 20, 0
47, 19, 0
10, 62, 0
10, 51, 0
10, 12, 0
10, 35, 0
10, 44, 0
10, 57, 0
10, 34, 0
10, 25, 0
10, 50, 0
10, 32, 0
10, 24, 0
10, 43, 0
10, 64, 0
10, 9, 0
7, 58, 0
7, 45, 0
7, 16, 0
7, 26, 0
7, 29, 0
7, 37, 0
7, 19, 0
7, 59, 0
7, 18, 0
7, 47, 0
7, 0, 0
3, 17, 0
3, 62, 0
3, 12, 0
3, 55, 0
3, 44, 0
3, 34, 0
3, 43, 0
3, 50, 0
3, 42, 0
3, 54, 0
3, 14, 0
3, 8, 0
69, 68, 0
69, 28, 0
69, 48, 0
69, 23, 0
69, 67, 0
69, 6, 0
69, 40, 0
69, 65, 0
69, 33, 0
69, 21, 0
69, 66, 0
69, 61, 0
69, 15, 0
69, 41, 0
69, 22, 0
32, 10, 0
32, 51, 0
32, 24, 0
2, 45, 0
2, 13, 0
2, 17, 0
2, 55, 0
2, 46, 0
2, 44, 0
2, 53, 0
2, 43, 0
2, 31, 0
2, 42, 0
2, 37, 0
2, 54, 0
2, 14, 0
37, 58, 0
37, 55, 0
37, 17, 0
37, 26, 0
37, 45, 0
37, 2, 0
37, 59, 0
37, 46, 0
37, 1, 0
37, 20, 0
37, 28, 0
37, 0, 0
37, 68, 0
37, 56, 0
37, 16, 0
37, 53, 0
37, 47, 0
37, 7, 0
37, 52, 0
37, 31, 0
37, 29, 0
37, 21, 0
37, 19, 0
52, 58, 0
52, 31, 0
52, 56, 0
52, 16, 0
52, 53, 1
52, 59, 0
52, 46, 0
52, 47, 0
52, 20, 0
52, 26, 0
52, 37, 0
52, 19, 0
19, 58, 0
19, 45, 0
19, 16, 0
19, 53, 0
19, 59, 0
19, 46, 0
19, 47, 0
19, 7, 0
19, 34, 0
19, 52, 0
19, 26, 0
19, 29, 0
19, 37, 0
19, 20, 1
49, 13, 0
49, 14, 0
48, 69, 0
48, 56, 0
48, 4, 0
48, 66, 0
48, 65, 0
48, 36, 0
31, 45, 0
31, 13, 0
31, 62, 0
31, 55, 0
31, 44, 0
31, 1, 0
31, 37, 0
31, 34, 0
31, 53, 0
31, 54, 0
31, 50, 0
31, 26, 0
31, 29, 0
31, 2, 0
31, 52, 0
31, 14, 0
28, 68, 0
28, 56, 0
28, 23, 0
28, 45, 0
28, 6, 0
28, 29, 0
28, 59, 0
28, 46, 0
28, 27, 0
28, 40, 0
28, 67, 0
28, 69, 0
28, 21, 0
28, 66, 0
28, 37, 0
28, 33, 0
28, 15, 0
28, 41, 0
28, 22, 0
45, 58, 0
45, 13, 0
45, 28, 0
45, 26, 0
45, 18, 0
45, 29, 0
45, 59, 0
45, 1, 0
45, 7, 0
45, 31, 0
45, 2, 0
45, 37, 0
45, 19, 0
60, 12, 0
60, 43, 0
60, 50, 0
60, 35, 0
60, 42, 0
60, 34, 0
60, 64, 0
60, 44, 0
40, 67, 0
40, 69, 0
40, 28, 0
40, 23, 0
40, 66, 0
40, 15, 0
40, 41, 1
29, 58, 0
29, 68, 0
29, 28, 0
29, 31, 0
29, 45, 0
29, 16, 0
29, 59, 0
29, 47, 0
29, 1, 0
29, 7, 0
29, 18, 0
29, 26, 0
29, 37, 0
29, 19, 0
29, 0, 0
59, 0, 0
59, 68, 0
59, 28, 0
59, 56, 0
59, 45, 0
59, 53, 0
59, 46, 0
59, 47, 0
59, 7, 0
59, 34, 0
59, 52, 0
59, 29, 0
59, 37, 0
59, 19, 0
11, 12, 1
11, 14, 0
11, 62, 0
11, 35, 0
11, 34, 0
11, 43, 0
11, 8, 0
11, 42, 0
11, 44, 0
11, 50, 0
5, 33, 0
5, 22, 0
5, 6, 0
61, 69, 0
61, 56, 0
61, 23, 0
61, 66, 0
61, 65, 0
61, 39, 0
61, 30, 0
4, 36, 0
4, 48, 0
4, 65, 0
39, 61, 0
39, 30, 0
39, 65, 0
35, 12, 0
35, 14, 0
35, 50, 0
35, 34, 0
35, 60, 0
35, 43, 0
35, 8, 0
35, 42, 0
35, 44, 0
35, 11, 0
35, 10, 0
30, 61, 0
30, 39, 0
30, 23, 0
30, 65, 0
8, 3, 0
8, 14, 0
8, 50, 0
8, 12, 0
8, 34, 0
8, 43, 0
8, 35, 0
8, 42, 0
8, 44, 0
8, 11, 0
8, 62, 0
38, 63, 0
38, 27, 0
38, 22, 0
22, 33, 0
22, 69, 0
22, 28, 0
22, 56, 0
22, 66, 0
22, 63, 0
22, 6, 0
22, 38, 0
22, 5, 0
22, 27, 0
36, 4, 0
36, 48, 0
36, 65, 0
25, 57, 0
25, 24, 0
25, 51, 0
25, 10, 0
57, 10, 0
57, 25, 0
57, 51, 0
57, 24, 0
56, 0, 0
56, 68, 0
56, 28, 0
56, 23, 0
56, 21, 0
56, 6, 0
56, 53, 0
56, 59, 0
56, 46, 0
56, 65, 0
56, 66, 0
56, 37, 0
56, 52, 0
56, 27, 0
56, 61, 0
56, 15, 0
56, 48, 0
56, 22, 0
16, 58, 0
16, 7, 0
16, 17, 1
16, 26, 0
16, 29, 0
16, 37, 0
16, 52, 0
16, 19, 0
16, 53, 0
27, 28, 0
27, 56, 0
27, 66, 0
27, 63, 0
27, 38, 0
27, 46, 0
27, 22, 0
1, 45, 0
1, 17, 0
1, 26, 0
1, 31, 0
1, 29, 0
1, 37, 0
1, 55, 0
55, 3, 0
55, 21, 0
55, 54, 1
55, 26, 0
55, 31, 0
55, 2, 0
55, 37, 0
55, 17, 0
55, 53, 0
55, 44, 0
55, 1, 0
44, 2, 0
44, 8, 0
44, 12, 0
44, 60, 0
44, 55, 0
44, 54, 0
44, 11, 0
44, 10, 0
44, 3, 0
44, 43, 0
44, 50, 0
44, 31, 0
44, 35, 0
44, 42, 0
44, 14, 0
44, 34, 0
44, 64, 0
44, 18, 0
12, 3, 0
12, 35, 0
12, 60, 0
12, 8, 0
12, 64, 0
12, 44, 0
12, 11, 1
12, 10, 0
18, 7, 0
18, 45, 0
18, 13, 0
18, 44, 0
18, 29, 0
21, 58, 0
21, 20, 1
21, 69, 0
21, 17, 0
21, 56, 0
21, 68, 0
21, 37, 0
21, 28, 0
21, 55, 0
21, 47, 0
21, 0, 0
54, 3, 0
54, 14, 0
54, 62, 0
54, 31, 0
54, 2, 0
54, 34, 0
54, 43, 0
54, 55, 1
54, 42, 0
54, 44, 0
54, 50, 0
50, 62, 0
50, 3, 0
50, 60, 0
50, 44, 0
50, 11, 0
50, 10, 0
50, 34, 0
50, 54, 0
50, 31, 0
50, 35, 0
50, 8, 0
50, 64, 0
50, 9, 0
26, 58, 0
26, 45, 0
26, 55, 0
26, 17, 0
26, 16, 0
26, 53, 0
26, 1, 0
26, 7, 0
26, 34, 0
26, 52, 0
26, 31, 0
26, 29, 0
26, 37, 0
26, 19, 0
43, 60, 0
43, 2, 0
43, 44, 0
43, 11, 0
43, 10, 0
43, 3, 0
43, 54, 0
43, 35, 0
43, 42, 1
43, 14, 0
43, 8, 0
43, 64, 0
67, 68, 1
67, 69, 0
67, 28, 0
67, 33, 0
67, 66, 1
67, 40, 0
67, 41, 0
9, 62, 0
9, 34, 0
9, 50, 0
9, 10, 0
