2, 7, 0
2, 3, 0
2, 27, 0
2, 6, 0
2, 8, 0
2, 0, 0
2, 9, 0
13, 18, 0
13, 12, 1
13, 14, 1
13, 26, 0
13, 11, 1
17, 0, 0
17, 28, 0
23, 20, 0
23, 18, 0
23, 29, 0
23, 24, 0
23, 1, 0
29, 18, 0
29, 20, 0
29, 16, 0
29, 23, 0
29, 24, 0
5, 4, 0
5, 15, 0
11, 18, 0
11, 12, 1
11, 13, 1
11, 26, 0
1, 16, 0
1, 20, 0
1, 4, 0
1, 23, 0
1, 21, 0
20, 16, 0
20, 23, 0
20, 29, 0
20, 21, 1
20, 24, 0
20, 18, 0
20, 1, 0
4, 16, 0
4, 15, 0
4, 5, 0
4, 1, 0
14, 18, 0
14, 13, 1
14, 26, 0
24, 20, 0
24, 18, 0
24, 23, 0
24, 29, 0
28, 0, 0
28, 17, 0
28, 30, 0
30, 25, 0
30, 28, 0
30, 10, 0
8, 7, 0
8, 0, 0
8, 6, 0
8, 2, 0
8, 27, 0
8, 9, 1
15, 4, 0
15, 5, 0
22, 3, 0
22, 26, 0
0, 2, 0
0, 28, 0
0, 6, 0
0, 27, 0
0, 19, 0
0, 8, 0
0, 17, 0
12, 18, 0
12, 13, 1
12, 26, 0
12, 11, 1
16, 20, 0
16, 21, 0
16, 1, 0
16, 4, 0
16, 29, 0
6, 7, 1
6, 0, 0
6, 3, 0
6, 2, 0
6, 27, 0
6, 19, 0
6, 8, 0
6, 9, 0
10, 25, 0
10, 30, 0
7, 3, 0
7, 6, 1
7, 2, 0
7, 27, 0
7, 8, 0
7, 9, 0
3, 7, 0
3, 27, 0
3, 2, 0
3, 6, 0
3, 22, 0
3, 9, 0
25, 10, 0
25, 30, 0
26, 12, 0
26, 13, 0
26, 14, 0
26, 11, 0
26, 18, 0
26, 22, 0
27, 7, 0
27, 3, 0
27, 2, 0
27, 6, 0
27, 19, 0
27, 8, 0
27, 0, 0
27, 9, 0
21, 20, 1
21, 16, 0
21, 1, 0
19, 0, 0
19, 27, 0
19, 6, 0
18, 20, 0
18, 12, 0
18, 13, 0
18, 14, 0
18, 26, 0
18, 23, 0
18, 29, 0
18, 24, 0
18, 11, 0
9, 7, 0
9, 3, 0
9, 6, 0
9, 2, 0
9, 27, 0
9, 8, 1
