0, 6, 0
0, 4, 0
0, 5, 0
0, 1, 0
3, 1, 0
3, 8, 0
3, 2, 0
4, 0, 0
4, 6, 0
4, 5, 1
4, 1, 0
2, 3, 0
2, 8, 0
2, 1, 0
6, 0, 0
6, 4, 0
6, 5, 0
6, 1, 0
1, 0, 0
1, 3, 0
1, 4, 0
1, 2, 0
1, 6, 0
1, 8, 0
1, 5, 0
8, 7, 0
8, 3, 0
8, 1, 0
8, 9, 0
8, 2, 0
5, 0, 0
5, 6, 0
5, 4, 1
5, 1, 0
7, 8, 0
7, 9, 0
9, 7, 0
9, 8, 0
