0, 3, 0
0, 5, 0
3, 0, 0
3, 7, 0
3, 4, 0
3, 5, 0
3, 6, 0
4, 7, 0
4, 3, 0
4, 6, 0
4, 8, 0
4, 2, 0
7, 3, 0
7, 4, 0
7, 6, 1
2, 8, 0
2, 4, 0
6, 7, 1
6, 3, 0
6, 4, 0
8, 1, 0
8, 4, 0
8, 2, 0
5, 0, 0
5, 3, 0
1, 8, 0
