2, 7, 0
2, 3, 1
2, 8, 0
2, 14, 0
2, 4, 0
13, 17, 0
13, 30, 0
17, 0, 0
17, 20, 0
17, 13, 0
17, 26, 0
17, 35, 0
17, 21, 0
17, 15, 0
17, 11, 0
31, 7, 0
31, 12, 0
31, 25, 0
31, 32, 0
31, 24, 0
31, 6, 0
31, 19, 0
31, 22, 0
23, 7, 0
23, 3, 0
23, 4, 0
23, 14, 0
23, 18, 0
23, 8, 0
24, 7, 0
24, 12, 0
24, 25, 1
24, 31, 0
24, 6, 0
24, 19, 0
24, 5, 0
24, 22, 0
5, 7, 0
5, 12, 0
5, 28, 0
5, 24, 0
5, 6, 1
5, 19, 0
5, 22, 0
11, 17, 0
11, 34, 0
11, 18, 0
11, 30, 0
11, 7, 0
11, 3, 0
11, 4, 0
11, 14, 0
11, 26, 0
11, 35, 0
11, 8, 0
11, 9, 0
1, 33, 0
20, 21, 1
20, 0, 0
20, 17, 0
20, 26, 0
20, 35, 0
34, 18, 0
34, 16, 0
34, 30, 0
34, 15, 0
34, 11, 0
34, 9, 0
4, 7, 0
4, 3, 0
4, 14, 0
4, 23, 0
4, 2, 0
4, 18, 0
4, 8, 0
4, 11, 0
14, 7, 0
14, 3, 0
14, 4, 0
14, 23, 0
14, 2, 0
14, 8, 0
14, 11, 0
35, 20, 0
35, 0, 0
35, 17, 0
35, 26, 0
35, 21, 0
35, 11, 0
28, 7, 0
28, 29, 1
28, 6, 0
28, 5, 0
28, 22, 0
28, 27, 0
30, 34, 0
30, 13, 0
30, 11, 0
8, 7, 0
8, 3, 0
8, 4, 0
8, 14, 0
8, 23, 0
8, 2, 0
8, 18, 0
8, 11, 0
15, 7, 0
15, 16, 1
15, 17, 0
15, 34, 0
15, 18, 0
15, 9, 0
22, 7, 0
22, 6, 0
22, 25, 0
22, 31, 0
22, 29, 0
22, 28, 0
22, 27, 0
22, 24, 0
22, 5, 0
0, 20, 0
0, 21, 0
0, 17, 0
0, 26, 0
0, 35, 0
3, 4, 0
3, 14, 0
3, 23, 0
3, 2, 1
3, 8, 0
3, 11, 0
16, 18, 0
16, 34, 0
16, 15, 1
16, 9, 0
27, 7, 0
27, 6, 0
27, 28, 0
27, 22, 0
27, 29, 0
10, 19, 0
10, 32, 0
7, 28, 0
7, 23, 0
7, 6, 0
7, 24, 0
7, 5, 0
7, 11, 0
7, 27, 0
7, 4, 0
7, 14, 0
7, 31, 0
7, 2, 0
7, 29, 0
7, 19, 0
7, 8, 0
7, 15, 0
7, 22, 0
12, 6, 0
12, 19, 0
12, 5, 0
12, 31, 0
12, 24, 0
25, 6, 0
25, 31, 0
25, 22, 0
25, 24, 1
33, 32, 0
33, 1, 0
32, 33, 0
32, 19, 0
32, 31, 0
32, 10, 0
6, 7, 0
6, 12, 0
6, 28, 0
6, 31, 0
6, 24, 0
6, 25, 0
6, 19, 0
6, 29, 0
6, 5, 1
6, 22, 0
6, 27, 0
21, 20, 1
21, 0, 0
21, 17, 0
21, 26, 0
21, 35, 0
29, 7, 0
29, 6, 0
29, 28, 1
29, 22, 0
29, 27, 0
19, 7, 0
19, 12, 0
19, 31, 0
19, 32, 0
19, 24, 0
19, 6, 0
19, 5, 0
19, 10, 0
26, 20, 0
26, 0, 0
26, 17, 0
26, 35, 0
26, 21, 0
26, 11, 0
18, 34, 0
18, 4, 0
18, 23, 0
18, 16, 0
18, 8, 0
18, 15, 0
18, 11, 0
18, 9, 0
9, 16, 0
9, 34, 0
9, 15, 0
9, 18, 0
9, 11, 0
