0, 3, 0
0, 8, 0
0, 2, 0
3, 0, 0
3, 7, 0
3, 6, 0
3, 8, 0
3, 2, 0
4, 7, 0
4, 6, 0
4, 1, 0
4, 5, 0
4, 2, 0
7, 3, 0
7, 4, 0
7, 2, 0
7, 6, 0
7, 8, 1
7, 5, 0
2, 7, 0
2, 3, 0
2, 4, 0
2, 6, 0
2, 8, 0
2, 5, 0
2, 0, 0
6, 7, 0
6, 3, 0
6, 4, 0
6, 2, 0
6, 8, 0
6, 5, 1
8, 7, 1
8, 3, 0
8, 2, 0
8, 6, 0
8, 5, 0
8, 0, 0
5, 7, 0
5, 6, 1
5, 8, 0
5, 4, 0
5, 2, 0
1, 4, 0
