12, 0, 0
12, 25, 0
12, 26, 0
12, 11, 0
13, 0, 0
13, 19, 0
13, 25, 0
13, 26, 0
17, 18, 0
17, 14, 0
17, 28, 0
17, 27, 0
31, 21, 0
31, 34, 0
31, 15, 0
31, 33, 0
31, 6, 0
23, 1, 0
23, 26, 0
23, 24, 1
24, 26, 0
24, 23, 1
24, 1, 0
5, 38, 0
5, 32, 0
11, 0, 0
11, 12, 0
11, 25, 0
11, 26, 0
1, 36, 0
1, 8, 0
1, 26, 0
1, 23, 0
1, 24, 0
20, 4, 0
20, 38, 0
21, 6, 0
21, 31, 0
4, 20, 0
4, 0, 0
4, 10, 0
14, 18, 0
14, 28, 0
14, 17, 0
14, 0, 0
35, 15, 0
35, 30, 0
28, 18, 0
28, 14, 0
28, 17, 0
28, 0, 0
30, 29, 0
30, 22, 0
30, 35, 0
8, 37, 0
8, 3, 0
8, 1, 0
8, 26, 0
8, 36, 0
15, 33, 0
15, 22, 0
15, 31, 0
15, 35, 0
19, 0, 0
19, 13, 0
19, 25, 0
19, 26, 0
22, 9, 0
22, 15, 0
22, 32, 0
22, 30, 0
36, 37, 0
36, 3, 0
36, 8, 0
36, 1, 0
0, 12, 0
0, 4, 0
0, 28, 0
0, 26, 0
0, 18, 0
0, 25, 0
0, 14, 0
0, 19, 0
0, 11, 0
0, 13, 0
38, 20, 0
38, 5, 0
38, 32, 0
3, 37, 0
3, 8, 0
3, 36, 0
16, 27, 0
16, 10, 0
6, 21, 0
6, 31, 0
10, 16, 0
10, 4, 0
7, 37, 0
7, 2, 0
34, 33, 1
34, 31, 0
25, 0, 0
25, 12, 0
25, 13, 0
25, 26, 0
25, 19, 0
25, 11, 0
33, 34, 1
33, 15, 0
33, 31, 0
32, 9, 0
32, 38, 0
32, 5, 0
32, 22, 0
32, 29, 0
27, 16, 0
27, 17, 0
37, 7, 0
37, 3, 0
37, 36, 0
37, 8, 0
37, 2, 0
29, 9, 0
29, 32, 0
29, 30, 0
2, 37, 0
2, 7, 0
26, 0, 0
26, 12, 0
26, 13, 0
26, 25, 0
26, 23, 0
26, 24, 0
26, 19, 0
26, 8, 0
26, 11, 0
26, 1, 0
18, 0, 0
18, 14, 0
18, 17, 0
18, 28, 0
9, 32, 0
9, 22, 0
9, 29, 0
