0, 18, 0
0, 4, 0
7, 5, 0
7, 10, 0
13, 8, 0
13, 9, 0
17, 4, 0
17, 11, 0
3, 2, 0
3, 1, 0
16, 6, 0
16, 14, 0
16, 15, 0
6, 16, 0
6, 14, 0
8, 12, 0
8, 13, 0
5, 7, 0
5, 12, 0
11, 20, 0
11, 14, 0
11, 19, 0
11, 17, 0
10, 7, 0
20, 19, 1
20, 14, 0
20, 11, 0
12, 8, 0
12, 5, 0
4, 0, 0
4, 18, 0
4, 17, 0
14, 20, 0
14, 16, 0
14, 19, 0
14, 11, 0
14, 6, 0
2, 3, 0
2, 1, 0
19, 20, 1
19, 14, 0
19, 11, 0
1, 3, 0
1, 15, 0
1, 2, 0
15, 16, 0
15, 1, 0
18, 0, 0
18, 4, 0
18, 9, 0
9, 18, 0
9, 13, 0
