0, 3, 0
0, 5, 0
0, 1, 1
3, 0, 0
3, 8, 0
3, 4, 0
4, 3, 0
4, 8, 0
2, 7, 0
2, 8, 0
2, 9, 0
6, 5, 0
1, 0, 1
1, 5, 0
8, 7, 0
8, 3, 0
8, 2, 0
8, 4, 0
8, 9, 0
5, 0, 0
5, 6, 0
5, 1, 0
7, 2, 0
7, 8, 0
7, 9, 0
9, 7, 0
9, 8, 0
9, 2, 0
