0, 17, 0
0, 14, 0
0, 11, 0
0, 6, 0
13, 1, 0
13, 9, 0
13, 10, 0
13, 11, 0
13, 2, 0
17, 0, 0
17, 16, 0
17, 11, 0
17, 6, 0
3, 7, 0
3, 6, 0
3, 8, 0
3, 11, 0
16, 6, 0
16, 17, 0
16, 5, 0
16, 11, 0
6, 7, 1
6, 3, 0
6, 17, 0
6, 16, 0
6, 14, 0
6, 8, 0
6, 15, 0
6, 11, 0
6, 0, 0
8, 6, 0
8, 11, 0
8, 3, 0
5, 16, 0
5, 12, 0
5, 11, 0
11, 0, 0
11, 13, 0
11, 17, 0
11, 3, 0
11, 16, 0
11, 6, 0
11, 5, 0
11, 12, 1
11, 4, 0
11, 14, 0
11, 2, 0
11, 8, 0
11, 15, 0
10, 13, 0
10, 9, 1
10, 1, 0
7, 6, 1
7, 15, 0
7, 3, 0
12, 15, 0
12, 5, 0
12, 11, 1
4, 14, 0
4, 11, 0
4, 2, 0
14, 0, 0
14, 6, 0
14, 4, 0
14, 11, 0
2, 4, 0
2, 13, 0
2, 11, 0
1, 13, 0
1, 10, 0
1, 9, 0
15, 7, 0
15, 12, 0
15, 11, 0
15, 6, 0
9, 13, 0
9, 10, 1
9, 1, 0
