0, 7, 0
0, 6, 0
0, 1, 0
0, 8, 0
0, 9, 0
3, 8, 0
3, 2, 1
4, 8, 0
4, 5, 0
4, 2, 1
2, 3, 1
2, 8, 0
2, 5, 0
2, 4, 1
6, 0, 0
6, 7, 1
6, 1, 0
6, 9, 0
1, 0, 0
1, 7, 0
1, 6, 0
1, 8, 0
1, 9, 0
8, 0, 0
8, 3, 0
8, 4, 0
8, 2, 0
8, 7, 0
8, 1, 0
5, 4, 0
5, 2, 0
7, 0, 0
7, 6, 1
7, 1, 0
7, 8, 0
7, 9, 0
9, 0, 0
9, 6, 0
9, 7, 0
9, 1, 0
