2, 17, 0
2, 9, 0
13, 8, 0
13, 11, 0
13, 30, 0
17, 21, 0
17, 3, 0
17, 2, 0
23, 10, 0
29, 0, 0
29, 24, 0
29, 1, 0
5, 27, 0
5, 19, 0
5, 10, 0
11, 13, 0
1, 24, 0
1, 29, 0
20, 0, 0
20, 19, 0
20, 26, 0
4, 21, 0
4, 16, 0
4, 15, 0
14, 7, 0
14, 8, 0
14, 9, 0
24, 6, 0
24, 1, 0
24, 29, 0
28, 16, 0
28, 15, 0
30, 8, 0
30, 13, 0
8, 13, 0
8, 14, 0
8, 30, 0
15, 21, 0
15, 4, 0
15, 28, 0
22, 16, 0
22, 12, 0
0, 20, 0
0, 29, 0
12, 18, 0
12, 6, 0
12, 22, 0
16, 4, 0
16, 28, 0
16, 22, 0
6, 18, 0
6, 12, 0
6, 24, 0
10, 25, 0
10, 5, 0
10, 23, 0
7, 14, 0
7, 9, 0
3, 21, 0
3, 17, 0
25, 27, 0
25, 10, 0
26, 20, 0
26, 19, 0
27, 19, 0
27, 25, 0
27, 5, 0
21, 15, 0
21, 4, 0
21, 17, 0
21, 3, 0
19, 20, 0
19, 27, 0
19, 5, 0
19, 26, 0
18, 6, 0
18, 12, 0
9, 7, 0
9, 14, 0
9, 2, 0
