0, 1, 0
0, 8, 0
0, 5, 0
0, 2, 0
3, 7, 0
3, 6, 0
3, 4, 1
4, 7, 0
4, 3, 1
4, 5, 0
4, 6, 0
7, 3, 0
7, 8, 0
7, 5, 0
7, 4, 0
7, 6, 0
2, 0, 0
2, 5, 0
2, 1, 0
6, 7, 0
6, 3, 0
6, 4, 0
8, 0, 0
8, 7, 0
8, 5, 0
5, 0, 0
5, 7, 0
5, 8, 0
5, 4, 0
5, 2, 0
1, 0, 0
1, 2, 0
