0, 2, 0
0, 10, 0
13, 7, 0
13, 12, 1
13, 9, 0
3, 6, 0
3, 10, 0
6, 3, 0
6, 14, 0
6, 10, 0
8, 4, 0
8, 5, 0
8, 11, 0
5, 8, 0
5, 11, 0
5, 9, 0
11, 8, 0
11, 5, 0
11, 4, 0
11, 9, 0
10, 0, 0
10, 6, 0
10, 14, 0
10, 3, 0
7, 12, 0
7, 13, 0
7, 9, 0
7, 2, 0
12, 7, 0
12, 13, 1
12, 9, 0
4, 8, 0
4, 11, 0
4, 1, 0
14, 6, 0
14, 10, 0
2, 0, 0
2, 7, 0
1, 4, 0
9, 7, 0
9, 12, 0
9, 13, 0
9, 5, 0
9, 11, 0
