0, 8, 0
0, 9, 0
0, 11, 0
0, 2, 0
6, 7, 1
6, 1, 0
6, 8, 0
6, 11, 0
6, 10, 0
1, 3, 0
1, 4, 0
1, 6, 0
1, 8, 0
1, 5, 0
1, 11, 0
1, 10, 0
5, 3, 0
5, 4, 1
5, 10, 0
5, 1, 0
11, 0, 0
11, 2, 0
11, 6, 0
11, 1, 0
11, 8, 0
11, 10, 0
10, 7, 0
10, 3, 0
10, 6, 0
10, 5, 0
10, 11, 0
10, 1, 0
7, 2, 0
7, 6, 1
7, 8, 0
7, 10, 0
3, 10, 0
3, 4, 0
3, 5, 0
3, 1, 0
4, 3, 0
4, 5, 1
4, 1, 0
2, 0, 0
2, 7, 0
2, 8, 0
2, 11, 0
2, 9, 0
8, 7, 0
8, 0, 0
8, 2, 0
8, 6, 0
8, 11, 0
8, 1, 0
9, 0, 0
9, 2, 0
