0, 12, 0
0, 4, 0
0, 3, 0
0, 2, 0
0, 8, 0
0, 1, 0
8, 0, 0
8, 12, 0
8, 7, 0
8, 11, 0
8, 6, 0
3, 0, 0
3, 2, 0
3, 10, 0
3, 4, 0
3, 1, 0
6, 7, 0
6, 8, 0
6, 11, 0
5, 10, 0
5, 9, 0
11, 12, 0
11, 8, 0
11, 6, 0
10, 3, 0
10, 4, 0
10, 5, 0
10, 9, 0
7, 6, 0
7, 8, 0
12, 0, 0
12, 8, 0
12, 11, 0
4, 0, 0
4, 3, 0
4, 2, 0
4, 10, 0
4, 9, 0
2, 0, 0
2, 3, 0
2, 4, 0
2, 1, 1
1, 0, 0
1, 3, 0
1, 2, 1
9, 4, 0
9, 5, 0
9, 10, 0
