0, 18, 0
0, 15, 0
0, 1, 1
13, 3, 0
13, 8, 0
13, 14, 1
13, 2, 0
17, 16, 1
17, 7, 0
17, 12, 0
17, 11, 0
17, 6, 0
3, 13, 0
3, 8, 0
3, 14, 0
3, 2, 0
16, 7, 0
16, 12, 0
16, 4, 0
16, 17, 1
16, 11, 0
6, 7, 1
6, 17, 0
6, 10, 0
8, 3, 0
8, 13, 0
8, 14, 0
8, 2, 0
8, 18, 0
8, 9, 1
8, 1, 0
5, 12, 0
5, 4, 1
5, 15, 0
11, 16, 0
11, 12, 0
11, 7, 0
11, 17, 0
10, 18, 0
10, 12, 0
10, 4, 0
10, 6, 0
7, 12, 0
7, 4, 0
7, 17, 0
7, 16, 0
7, 6, 1
7, 11, 0
12, 7, 0
12, 4, 0
12, 17, 0
12, 16, 0
12, 15, 0
12, 5, 0
12, 11, 0
12, 10, 0
4, 7, 0
4, 12, 0
4, 16, 0
4, 15, 0
4, 5, 1
4, 18, 0
4, 10, 0
14, 3, 0
14, 8, 0
14, 13, 1
14, 2, 0
2, 13, 0
2, 3, 0
2, 8, 0
2, 14, 0
1, 0, 1
1, 18, 0
1, 8, 0
1, 15, 0
1, 9, 0
15, 0, 0
15, 12, 0
15, 4, 0
15, 18, 0
15, 5, 0
15, 1, 0
18, 0, 0
18, 4, 0
18, 9, 0
18, 8, 0
18, 15, 0
18, 10, 0
18, 1, 0
9, 18, 0
9, 8, 1
9, 1, 0
