0, 6, 0
0, 3, 0
0, 4, 0
0, 5, 0
0, 10, 0
3, 0, 0
3, 6, 0
3, 8, 0
3, 5, 0
3, 4, 0
4, 0, 0
4, 3, 0
4, 5, 1
4, 6, 0
2, 7, 0
2, 1, 0
6, 0, 0
6, 3, 0
6, 4, 0
6, 9, 0
6, 5, 0
6, 10, 0
1, 7, 0
1, 2, 0
8, 3, 0
8, 9, 0
5, 0, 0
5, 3, 0
5, 4, 1
5, 6, 0
5, 9, 0
5, 10, 0
7, 1, 0
7, 9, 0
7, 2, 0
10, 0, 0
10, 6, 0
10, 5, 0
9, 7, 0
9, 6, 0
9, 8, 0
9, 5, 0
