13, 18, 0
13, 12, 0
13, 14, 1
17, 5, 0
17, 9, 0
23, 21, 0
23, 19, 0
23, 11, 0
23, 22, 0
5, 18, 0
5, 17, 0
11, 20, 0
11, 7, 0
11, 23, 0
11, 6, 0
11, 19, 0
11, 22, 0
1, 3, 0
1, 8, 0
20, 15, 0
20, 11, 0
4, 12, 0
4, 8, 0
14, 18, 0
14, 12, 0
14, 13, 1
8, 3, 0
8, 4, 0
8, 1, 0
15, 20, 0
15, 16, 0
15, 7, 0
22, 11, 0
22, 23, 0
0, 10, 0
3, 8, 0
3, 10, 0
3, 1, 0
16, 7, 0
16, 15, 0
16, 2, 0
6, 11, 0
6, 2, 0
10, 0, 0
10, 3, 0
7, 16, 0
7, 15, 0
7, 11, 0
7, 2, 0
12, 18, 0
12, 13, 0
12, 14, 0
12, 4, 0
2, 7, 0
2, 6, 0
2, 16, 0
21, 19, 0
21, 23, 0
21, 9, 0
19, 21, 0
19, 11, 0
19, 23, 0
19, 9, 0
18, 12, 0
18, 13, 0
18, 14, 0
18, 5, 0
9, 21, 0
9, 19, 0
9, 17, 0
