0, 3, 0
0, 12, 0
0, 8, 0
0, 15, 0
0, 10, 0
0, 11, 0
0, 9, 0
13, 16, 0
13, 15, 0
13, 17, 0
13, 5, 0
13, 1, 0
17, 16, 0
17, 15, 0
17, 13, 0
17, 14, 0
17, 5, 0
3, 0, 0
3, 2, 1
3, 6, 0
3, 15, 0
3, 11, 0
3, 10, 0
16, 14, 0
16, 13, 0
16, 17, 0
6, 7, 1
6, 12, 0
6, 4, 0
6, 3, 0
6, 8, 0
6, 15, 0
6, 10, 0
6, 11, 0
6, 9, 0
8, 0, 0
8, 7, 0
8, 4, 0
8, 12, 0
8, 6, 0
8, 10, 0
8, 9, 0
5, 14, 0
5, 13, 0
5, 15, 0
5, 17, 0
5, 2, 0
11, 0, 0
11, 12, 1
11, 7, 0
11, 3, 0
11, 2, 0
11, 6, 0
11, 10, 0
11, 15, 0
11, 9, 0
10, 0, 0
10, 12, 0
10, 3, 0
10, 2, 0
10, 6, 0
10, 8, 0
10, 11, 0
7, 4, 0
7, 2, 0
7, 6, 1
7, 8, 0
7, 11, 0
7, 9, 0
12, 0, 0
12, 9, 0
12, 2, 0
12, 6, 0
12, 8, 0
12, 11, 1
12, 10, 0
4, 7, 0
4, 6, 0
4, 8, 0
14, 16, 0
14, 15, 0
14, 17, 0
14, 5, 0
2, 7, 0
2, 12, 0
2, 3, 1
2, 9, 0
2, 15, 0
2, 5, 0
2, 11, 0
2, 10, 0
1, 13, 0
15, 0, 0
15, 3, 0
15, 13, 0
15, 17, 0
15, 2, 0
15, 6, 0
15, 14, 0
15, 5, 0
15, 11, 0
9, 0, 0
9, 12, 0
9, 7, 0
9, 2, 0
9, 6, 0
9, 8, 0
9, 11, 0
