12, 19, 0
12, 13, 0
13, 0, 0
13, 12, 0
13, 19, 0
17, 20, 0
17, 14, 0
31, 3, 0
31, 6, 0
23, 34, 0
23, 28, 0
23, 26, 0
23, 30, 0
24, 25, 0
24, 14, 0
5, 21, 0
5, 4, 1
5, 9, 0
11, 6, 0
11, 25, 0
1, 7, 0
1, 18, 0
1, 8, 0
1, 35, 0
20, 33, 0
20, 14, 0
20, 34, 0
20, 17, 0
20, 2, 0
20, 30, 0
21, 4, 0
21, 9, 0
21, 5, 0
21, 35, 0
4, 21, 0
4, 5, 1
4, 9, 0
14, 20, 0
14, 17, 0
14, 24, 0
35, 21, 0
35, 7, 0
35, 8, 0
35, 1, 0
28, 23, 0
28, 30, 0
30, 20, 0
30, 33, 0
30, 28, 0
30, 23, 0
30, 2, 0
8, 7, 0
8, 18, 0
8, 35, 0
8, 1, 0
15, 16, 1
15, 18, 0
15, 19, 0
15, 29, 0
22, 37, 0
22, 10, 0
36, 27, 0
36, 26, 0
0, 13, 0
0, 32, 0
6, 31, 0
6, 11, 0
3, 31, 0
16, 19, 0
16, 15, 1
16, 29, 0
27, 10, 0
27, 36, 0
10, 27, 0
10, 22, 0
7, 18, 0
7, 35, 0
7, 8, 0
7, 1, 0
34, 20, 0
34, 33, 1
34, 23, 0
34, 2, 0
25, 11, 0
25, 24, 0
33, 20, 0
33, 34, 1
33, 30, 0
33, 2, 0
32, 0, 0
32, 37, 0
2, 20, 0
2, 34, 0
2, 33, 0
2, 30, 0
37, 22, 0
37, 32, 0
29, 16, 0
29, 18, 0
29, 19, 0
29, 15, 0
19, 12, 0
19, 13, 0
19, 29, 0
19, 16, 0
19, 15, 0
19, 18, 0
26, 23, 0
26, 36, 0
18, 7, 0
18, 29, 0
18, 19, 0
18, 8, 0
18, 15, 0
18, 1, 0
9, 21, 0
9, 4, 0
9, 5, 0
