0, 6, 0
0, 3, 0
0, 2, 0
6, 0, 0
6, 3, 0
1, 7, 0
1, 4, 0
1, 11, 0
1, 10, 0
5, 7, 0
5, 2, 0
5, 8, 0
5, 9, 0
11, 7, 0
11, 4, 0
11, 10, 1
11, 1, 0
10, 7, 0
10, 4, 0
10, 11, 1
10, 1, 0
7, 4, 0
7, 9, 0
7, 1, 0
7, 8, 0
7, 5, 0
7, 11, 0
7, 10, 0
3, 0, 0
3, 6, 0
4, 7, 0
4, 10, 0
4, 11, 0
4, 1, 0
2, 0, 0
2, 8, 0
2, 5, 0
2, 9, 0
8, 7, 0
8, 2, 0
8, 5, 0
8, 9, 0
9, 7, 0
9, 8, 0
9, 5, 0
9, 2, 0
