0, 6, 0
0, 5, 0
0, 10, 0
3, 7, 0
3, 1, 0
3, 2, 1
4, 8, 0
4, 5, 0
4, 9, 0
2, 7, 0
2, 3, 1
2, 1, 0
6, 0, 0
6, 1, 0
6, 5, 0
6, 10, 0
1, 7, 0
1, 3, 0
1, 6, 0
1, 10, 0
1, 2, 0
8, 4, 0
8, 5, 0
8, 9, 0
5, 0, 0
5, 4, 0
5, 6, 0
5, 8, 0
5, 10, 0
5, 9, 0
7, 3, 0
7, 1, 0
7, 2, 0
10, 0, 0
10, 6, 0
10, 5, 0
10, 1, 0
9, 8, 0
9, 5, 0
9, 4, 0
