0, 7, 0
0, 12, 0
0, 4, 0
0, 6, 0
0, 8, 0
0, 11, 0
0, 10, 0
13, 12, 0
13, 4, 0
13, 11, 0
3, 7, 0
3, 6, 0
3, 1, 0
3, 8, 0
3, 11, 0
3, 9, 0
6, 0, 0
6, 7, 1
6, 4, 0
6, 3, 0
6, 9, 0
6, 11, 0
6, 10, 0
8, 0, 0
8, 7, 1
8, 4, 0
8, 3, 0
8, 11, 0
8, 9, 0
5, 1, 0
11, 0, 0
11, 7, 0
11, 13, 0
11, 4, 0
11, 3, 0
11, 6, 0
11, 8, 0
11, 9, 0
10, 0, 0
10, 12, 0
10, 4, 0
10, 7, 0
10, 6, 0
7, 0, 0
7, 3, 0
7, 4, 0
7, 9, 0
7, 6, 1
7, 8, 1
7, 11, 0
7, 10, 0
12, 0, 0
12, 13, 0
12, 14, 0
12, 4, 0
12, 2, 0
12, 10, 0
4, 0, 0
4, 12, 0
4, 13, 0
4, 6, 0
4, 8, 0
4, 7, 0
4, 11, 0
4, 10, 0
14, 12, 0
14, 2, 0
2, 12, 0
2, 14, 0
1, 3, 0
1, 5, 0
9, 7, 0
9, 6, 0
9, 8, 0
9, 11, 0
9, 3, 0
