0, 7, 0
0, 3, 0
0, 11, 0
0, 2, 0
8, 6, 0
8, 4, 0
8, 9, 1
8, 1, 0
3, 0, 0
3, 7, 0
3, 2, 1
6, 12, 0
6, 8, 0
6, 9, 0
6, 4, 0
6, 1, 0
5, 4, 0
5, 10, 0
11, 0, 0
11, 4, 0
11, 10, 0
10, 4, 0
10, 5, 0
10, 11, 0
7, 0, 0
7, 3, 0
7, 2, 0
12, 6, 0
4, 9, 0
4, 6, 0
4, 1, 0
4, 8, 0
4, 5, 0
4, 11, 0
4, 10, 0
2, 7, 0
2, 3, 1
2, 0, 0
1, 6, 0
1, 8, 0
1, 4, 0
1, 9, 0
9, 6, 0
9, 8, 1
9, 4, 0
9, 1, 0
