0, 7, 0
0, 12, 0
0, 4, 0
0, 6, 0
0, 8, 0
0, 5, 0
13, 3, 0
13, 14, 0
13, 9, 0
13, 2, 0
13, 8, 0
13, 1, 0
3, 2, 1
3, 13, 0
3, 14, 0
3, 9, 0
3, 1, 0
6, 0, 0
6, 12, 0
6, 4, 1
6, 5, 1
8, 0, 0
8, 12, 0
8, 13, 0
8, 14, 0
8, 2, 0
8, 7, 0
8, 11, 0
5, 0, 0
5, 12, 0
5, 6, 1
11, 7, 0
11, 2, 0
11, 8, 0
11, 10, 1
10, 7, 0
10, 9, 0
10, 11, 1
10, 2, 0
7, 0, 0
7, 9, 0
7, 2, 0
7, 1, 0
7, 8, 0
7, 11, 0
7, 10, 0
12, 0, 0
12, 6, 0
12, 8, 0
12, 5, 0
12, 4, 0
4, 0, 0
4, 12, 0
4, 6, 1
14, 3, 0
14, 8, 0
14, 13, 0
14, 9, 0
14, 1, 0
2, 7, 0
2, 3, 1
2, 13, 0
2, 9, 0
2, 8, 0
2, 11, 0
2, 10, 0
1, 7, 0
1, 3, 0
1, 13, 0
1, 14, 0
1, 9, 0
9, 7, 0
9, 3, 0
9, 13, 0
9, 14, 0
9, 2, 0
9, 1, 0
9, 10, 0
