0, 3, 0
0, 5, 0
0, 11, 0
0, 9, 0
8, 7, 0
8, 12, 0
8, 10, 0
3, 0, 0
3, 5, 0
3, 11, 0
3, 10, 0
6, 2, 0
5, 0, 0
5, 3, 0
5, 11, 0
5, 10, 0
11, 0, 0
11, 3, 0
11, 5, 0
10, 3, 0
10, 8, 0
10, 5, 0
7, 12, 0
7, 8, 0
7, 4, 0
7, 2, 0
12, 7, 0
12, 8, 0
4, 7, 0
4, 2, 0
4, 1, 0
2, 7, 0
2, 6, 0
2, 4, 0
2, 1, 0
1, 4, 0
1, 2, 0
9, 0, 0
