0, 6, 0
0, 5, 0
0, 11, 0
0, 1, 0
13, 18, 0
13, 16, 0
13, 14, 0
13, 10, 0
17, 12, 0
17, 19, 0
17, 15, 0
17, 1, 0
3, 18, 0
3, 9, 0
16, 13, 0
16, 14, 0
16, 2, 0
16, 18, 0
16, 11, 0
16, 10, 0
6, 0, 0
6, 5, 1
6, 1, 0
8, 7, 1
8, 4, 0
8, 9, 0
5, 0, 0
5, 6, 1
5, 11, 0
5, 1, 0
11, 0, 0
11, 16, 0
11, 2, 0
11, 5, 0
11, 1, 0
10, 16, 0
10, 18, 0
10, 13, 0
10, 14, 0
7, 8, 1
7, 4, 0
7, 9, 0
12, 17, 0
12, 1, 0
4, 7, 0
4, 8, 0
4, 9, 0
14, 16, 0
14, 18, 0
14, 13, 0
14, 10, 0
2, 16, 0
2, 11, 0
19, 15, 0
19, 17, 0
1, 0, 0
1, 12, 0
1, 17, 0
1, 6, 0
1, 5, 0
1, 11, 0
15, 19, 0
15, 17, 0
18, 3, 0
18, 13, 0
18, 14, 0
18, 16, 0
18, 10, 0
18, 9, 0
9, 7, 0
9, 3, 0
9, 8, 0
9, 18, 0
9, 4, 0
