0, 5, 0
0, 1, 0
13, 7, 0
13, 6, 0
13, 8, 0
13, 17, 0
13, 11, 0
17, 7, 0
17, 16, 1
17, 8, 0
17, 13, 0
17, 11, 0
3, 9, 0
3, 14, 0
3, 5, 0
3, 10, 0
16, 12, 0
16, 8, 0
16, 17, 1
16, 11, 0
6, 13, 0
6, 2, 0
8, 7, 0
8, 16, 0
8, 13, 0
8, 17, 0
8, 11, 0
5, 0, 0
5, 3, 0
5, 4, 0
5, 14, 0
5, 1, 0
5, 10, 0
11, 16, 0
11, 7, 0
11, 8, 0
11, 17, 0
11, 13, 0
10, 3, 0
10, 14, 0
10, 5, 0
7, 13, 0
7, 8, 0
7, 17, 0
7, 11, 0
12, 16, 0
4, 15, 0
4, 5, 0
4, 1, 0
14, 3, 0
14, 9, 0
14, 5, 0
14, 10, 0
2, 6, 0
2, 9, 0
1, 0, 0
1, 4, 0
1, 5, 0
15, 4, 0
9, 3, 0
9, 14, 0
9, 2, 0
