0, 2, 0
0, 8, 0
0, 9, 0
0, 1, 0
3, 7, 0
3, 4, 1
3, 2, 0
4, 7, 0
4, 3, 1
4, 2, 0
2, 0, 0
2, 3, 0
2, 4, 0
2, 1, 0
2, 7, 0
2, 9, 0
6, 8, 0
6, 5, 1
6, 10, 0
1, 0, 0
1, 2, 0
1, 8, 0
1, 9, 0
8, 0, 0
8, 9, 0
8, 6, 0
8, 1, 0
8, 5, 0
8, 10, 0
5, 6, 1
5, 8, 0
5, 10, 0
7, 3, 0
7, 4, 0
7, 2, 0
10, 6, 0
10, 8, 0
10, 5, 0
9, 0, 0
9, 2, 0
9, 8, 0
9, 1, 0
