13, 12, 1
13, 25, 0
13, 32, 0
13, 26, 0
13, 21, 0
13, 44, 0
13, 1, 0
17, 16, 1
17, 0, 0
17, 43, 0
17, 27, 0
23, 18, 0
23, 28, 0
23, 39, 0
23, 46, 0
42, 45, 0
42, 33, 0
42, 46, 0
42, 24, 0
46, 45, 0
46, 23, 0
46, 33, 0
46, 18, 0
46, 42, 0
46, 24, 0
46, 39, 0
20, 0, 0
20, 37, 0
20, 21, 0
20, 25, 0
20, 45, 0
20, 16, 0
20, 27, 0
20, 19, 0
20, 24, 0
20, 41, 0
20, 5, 0
14, 25, 0
24, 20, 0
24, 33, 0
24, 45, 0
24, 42, 0
24, 39, 0
24, 46, 0
24, 10, 0
28, 8, 0
28, 39, 0
28, 23, 0
39, 45, 0
39, 28, 0
39, 23, 0
39, 24, 0
39, 8, 0
39, 46, 0
39, 10, 0
41, 20, 0
41, 37, 0
41, 2, 0
41, 5, 0
41, 27, 0
0, 16, 0
0, 20, 0
0, 43, 0
0, 17, 0
0, 27, 0
8, 28, 0
8, 38, 0
8, 15, 0
8, 39, 0
8, 10, 0
12, 13, 1
12, 25, 0
12, 32, 0
12, 26, 0
12, 21, 0
12, 44, 0
12, 11, 1
12, 1, 0
15, 8, 0
15, 38, 0
15, 10, 0
10, 7, 0
10, 45, 0
10, 38, 0
10, 24, 0
10, 39, 0
10, 8, 0
10, 15, 0
10, 9, 1
7, 31, 0
7, 29, 0
7, 9, 0
7, 38, 0
7, 10, 0
7, 22, 0
7, 30, 0
3, 43, 0
3, 31, 0
3, 29, 0
3, 6, 0
3, 30, 0
3, 22, 0
3, 9, 0
32, 12, 0
32, 13, 0
32, 25, 0
32, 21, 0
32, 44, 0
32, 11, 0
32, 1, 0
2, 41, 0
2, 5, 0
2, 35, 0
21, 13, 0
21, 32, 0
21, 40, 0
21, 44, 0
21, 11, 0
21, 1, 0
21, 20, 0
21, 12, 0
21, 4, 0
21, 25, 0
21, 26, 0
21, 37, 0
21, 19, 0
21, 36, 0
33, 18, 0
33, 42, 0
33, 45, 0
33, 46, 0
33, 24, 0
19, 20, 0
19, 34, 0
19, 4, 0
19, 21, 0
19, 35, 0
19, 37, 0
19, 5, 0
18, 33, 0
18, 46, 0
18, 23, 0
31, 7, 0
31, 3, 0
31, 43, 0
31, 30, 1
31, 22, 0
31, 9, 0
29, 7, 0
29, 3, 0
29, 9, 0
29, 22, 0
29, 30, 1
40, 21, 0
40, 4, 0
40, 26, 0
40, 36, 0
11, 12, 1
11, 25, 0
11, 32, 0
11, 26, 0
11, 21, 0
11, 44, 0
11, 1, 0
5, 20, 0
5, 2, 0
5, 37, 0
5, 27, 0
5, 19, 0
5, 35, 0
5, 41, 0
37, 20, 0
37, 25, 0
37, 21, 0
37, 27, 0
37, 19, 0
37, 1, 0
37, 5, 0
37, 41, 0
4, 21, 0
4, 34, 0
4, 19, 0
4, 40, 0
4, 36, 0
35, 34, 0
35, 19, 0
35, 5, 0
35, 2, 0
30, 7, 0
30, 3, 0
30, 43, 0
30, 31, 1
30, 29, 1
30, 22, 0
30, 9, 0
38, 7, 0
38, 8, 0
38, 15, 0
38, 10, 0
22, 7, 0
22, 3, 0
22, 31, 0
22, 29, 0
22, 9, 0
22, 30, 0
36, 21, 0
36, 4, 0
36, 40, 0
45, 20, 0
45, 33, 0
45, 24, 0
45, 42, 0
45, 39, 0
45, 46, 0
45, 10, 0
16, 0, 0
16, 27, 0
16, 20, 0
16, 17, 1
27, 20, 0
27, 0, 0
27, 37, 0
27, 17, 0
27, 16, 0
27, 43, 0
27, 41, 0
27, 5, 0
1, 12, 0
1, 13, 0
1, 25, 0
1, 32, 0
1, 21, 0
1, 37, 0
1, 11, 0
44, 12, 0
44, 13, 0
44, 26, 0
44, 32, 0
44, 21, 0
44, 11, 0
34, 19, 0
34, 4, 0
34, 35, 0
25, 20, 0
25, 12, 0
25, 13, 0
25, 14, 0
25, 32, 0
25, 21, 0
25, 37, 0
25, 11, 0
25, 1, 0
26, 12, 0
26, 13, 0
26, 21, 0
26, 40, 0
26, 44, 0
26, 11, 0
6, 3, 0
6, 43, 0
6, 9, 0
43, 0, 0
43, 3, 0
43, 17, 0
43, 31, 0
43, 6, 0
43, 27, 0
43, 9, 0
43, 30, 0
9, 7, 0
9, 3, 0
9, 43, 0
9, 31, 0
9, 29, 0
9, 6, 0
9, 30, 0
9, 22, 0
9, 10, 1
