12, 20, 0
12, 11, 1
12, 1, 0
13, 21, 0
13, 4, 0
13, 14, 0
13, 22, 0
13, 30, 0
17, 19, 0
17, 23, 0
17, 2, 0
26, 27, 1
26, 8, 0
26, 28, 0
26, 24, 0
23, 19, 0
23, 17, 0
23, 2, 0
2, 17, 0
2, 23, 0
2, 29, 0
5, 0, 0
5, 8, 0
11, 20, 0
11, 12, 1
11, 1, 0
11, 10, 1
1, 20, 0
1, 12, 0
1, 7, 0
1, 25, 0
1, 11, 0
1, 10, 0
20, 12, 0
20, 6, 0
20, 10, 0
20, 11, 0
20, 1, 0
4, 13, 0
4, 22, 0
14, 16, 0
14, 13, 0
14, 15, 0
14, 22, 0
14, 30, 0
24, 27, 0
24, 8, 0
24, 28, 0
24, 26, 0
28, 27, 0
28, 8, 0
28, 26, 0
28, 24, 0
30, 18, 0
30, 13, 0
30, 14, 0
30, 16, 0
30, 15, 0
30, 22, 0
8, 0, 0
8, 28, 0
8, 26, 0
8, 24, 0
8, 27, 0
8, 5, 0
15, 7, 0
15, 14, 0
15, 16, 0
15, 6, 0
15, 30, 0
15, 9, 0
22, 16, 0
22, 13, 0
22, 14, 0
22, 4, 0
22, 30, 0
0, 8, 0
0, 5, 0
0, 31, 0
0, 29, 0
3, 7, 0
3, 19, 0
16, 15, 0
16, 14, 0
16, 22, 0
16, 30, 0
6, 20, 0
6, 15, 0
6, 9, 0
27, 8, 0
27, 28, 0
27, 26, 1
27, 24, 0
7, 3, 0
7, 15, 0
7, 10, 0
7, 25, 0
7, 1, 0
18, 21, 0
18, 30, 0
25, 7, 0
25, 1, 0
25, 10, 0
31, 0, 0
31, 29, 0
29, 0, 0
29, 31, 0
29, 2, 0
21, 18, 0
21, 13, 0
19, 3, 0
19, 17, 0
19, 23, 0
10, 20, 0
10, 7, 0
10, 25, 0
10, 11, 1
10, 1, 0
9, 6, 0
9, 15, 0
