0, 4, 0
0, 5, 0
13, 6, 0
13, 14, 1
13, 11, 0
3, 7, 0
3, 12, 0
3, 9, 0
3, 2, 0
3, 6, 0
3, 8, 0
3, 5, 0
3, 10, 0
6, 7, 0
6, 3, 0
6, 13, 0
6, 14, 0
6, 2, 0
6, 8, 0
6, 10, 0
6, 11, 0
6, 9, 0
8, 6, 0
8, 9, 1
8, 3, 0
8, 10, 1
5, 0, 0
5, 3, 0
5, 4, 0
5, 2, 0
11, 6, 0
11, 13, 0
11, 14, 0
10, 7, 0
10, 6, 0
10, 8, 1
10, 3, 0
10, 9, 1
7, 12, 0
7, 6, 0
7, 10, 0
7, 3, 0
7, 9, 0
12, 7, 0
12, 3, 0
12, 2, 0
4, 0, 0
4, 5, 0
4, 1, 0
14, 6, 0
14, 13, 1
14, 11, 0
2, 12, 0
2, 6, 0
2, 5, 0
2, 3, 0
1, 4, 0
9, 7, 0
9, 6, 0
9, 8, 1
9, 3, 0
9, 10, 1
