13, 0, 0
13, 17, 0
13, 23, 0
13, 16, 0
13, 6, 0
13, 10, 0
13, 7, 0
13, 12, 0
13, 14, 0
13, 18, 0
13, 22, 0
13, 9, 0
17, 20, 0
17, 16, 1
17, 13, 0
17, 23, 0
17, 21, 0
17, 18, 1
17, 9, 0
23, 20, 0
23, 13, 0
23, 17, 0
23, 21, 0
23, 6, 0
23, 9, 0
2, 0, 1
2, 3, 1
2, 5, 1
2, 22, 0
2, 1, 1
5, 0, 1
5, 3, 1
5, 4, 1
5, 2, 1
5, 22, 0
5, 1, 1
11, 15, 0
11, 14, 0
1, 0, 1
1, 3, 1
1, 5, 1
1, 22, 0
1, 2, 1
20, 0, 0
20, 12, 0
20, 16, 0
20, 17, 0
20, 23, 0
20, 21, 1
20, 19, 0
4, 0, 1
4, 3, 1
4, 5, 1
4, 22, 0
14, 13, 0
14, 8, 0
14, 15, 0
14, 10, 0
14, 11, 0
14, 9, 0
24, 25, 1
24, 26, 1
24, 28, 1
24, 27, 1
24, 8, 0
24, 10, 0
28, 25, 1
28, 26, 1
28, 24, 1
28, 27, 1
28, 8, 0
28, 22, 0
28, 10, 0
8, 14, 0
8, 28, 0
8, 24, 0
8, 27, 0
8, 9, 0
8, 10, 0
15, 14, 0
15, 22, 0
15, 11, 0
15, 9, 0
22, 0, 0
22, 13, 0
22, 28, 0
22, 12, 0
22, 5, 0
22, 10, 0
22, 3, 0
22, 4, 0
22, 2, 0
22, 21, 0
22, 1, 0
22, 15, 0
22, 9, 0
0, 20, 0
0, 12, 0
0, 13, 0
0, 4, 1
0, 3, 1
0, 16, 0
0, 19, 0
0, 2, 1
0, 5, 1
0, 22, 0
0, 1, 1
12, 20, 0
12, 0, 0
12, 13, 0
12, 21, 0
12, 16, 0
12, 19, 0
12, 22, 0
16, 20, 0
16, 0, 0
16, 13, 0
16, 17, 1
16, 12, 0
16, 18, 1
16, 19, 1
16, 21, 0
16, 9, 0
6, 7, 0
6, 13, 0
6, 23, 0
10, 13, 0
10, 25, 0
10, 26, 0
10, 24, 0
10, 28, 0
10, 14, 0
10, 8, 0
10, 22, 0
10, 9, 1
7, 6, 0
7, 13, 0
7, 9, 0
3, 0, 1
3, 4, 1
3, 2, 1
3, 5, 1
3, 22, 0
3, 1, 1
25, 9, 0
25, 28, 1
25, 10, 0
25, 26, 1
25, 24, 1
26, 25, 1
26, 10, 0
26, 28, 1
26, 24, 1
27, 8, 0
27, 28, 1
27, 24, 1
21, 20, 1
21, 12, 0
21, 17, 0
21, 23, 0
21, 16, 0
21, 19, 0
21, 22, 0
19, 20, 0
19, 0, 0
19, 16, 1
19, 12, 0
19, 21, 0
18, 16, 1
18, 13, 0
18, 17, 1
9, 7, 0
9, 13, 0
9, 25, 0
9, 23, 0
9, 16, 0
9, 14, 0
9, 8, 0
9, 15, 0
9, 17, 0
9, 22, 0
9, 10, 1
