0, 5, 0
0, 10, 0
8, 3, 0
8, 5, 0
3, 11, 0
3, 8, 0
3, 5, 0
3, 4, 0
3, 9, 0
6, 12, 0
6, 1, 0
5, 0, 0
5, 3, 0
5, 8, 0
11, 3, 0
11, 4, 0
11, 9, 0
11, 2, 0
10, 0, 0
10, 7, 0
10, 1, 0
7, 10, 0
7, 1, 0
12, 6, 0
12, 1, 0
4, 3, 0
4, 2, 0
4, 11, 0
4, 9, 0
2, 4, 0
2, 11, 0
2, 9, 0
1, 7, 0
1, 12, 0
1, 10, 0
1, 6, 0
9, 3, 0
9, 4, 0
9, 11, 0
9, 2, 0
