12, 13, 0
12, 17, 0
13, 18, 0
13, 12, 0
17, 12, 0
17, 28, 0
17, 27, 0
17, 29, 0
31, 32, 0
31, 2, 0
23, 20, 0
23, 34, 0
23, 25, 0
24, 21, 0
24, 5, 0
24, 26, 0
5, 21, 0
5, 3, 0
5, 19, 0
5, 26, 0
5, 24, 0
11, 0, 0
11, 10, 1
11, 2, 0
1, 8, 0
1, 14, 0
20, 34, 0
20, 23, 0
21, 3, 0
21, 27, 0
21, 5, 0
21, 26, 0
21, 24, 0
4, 3, 0
4, 6, 0
14, 16, 0
14, 1, 0
35, 7, 0
35, 15, 0
35, 32, 0
35, 30, 0
28, 27, 0
28, 17, 0
28, 29, 1
30, 7, 0
30, 15, 0
30, 35, 0
8, 7, 0
8, 1, 0
15, 7, 0
15, 2, 0
15, 30, 0
15, 35, 0
22, 18, 0
22, 25, 0
22, 9, 0
36, 34, 0
36, 25, 0
36, 9, 0
0, 33, 0
0, 10, 0
0, 11, 0
0, 2, 0
6, 33, 0
6, 4, 0
3, 21, 0
3, 4, 0
3, 5, 0
3, 26, 0
16, 14, 0
27, 21, 0
27, 28, 0
27, 29, 0
27, 37, 0
27, 17, 0
27, 19, 0
10, 0, 0
10, 11, 1
10, 2, 0
7, 30, 0
7, 8, 0
7, 15, 0
7, 35, 0
34, 20, 0
34, 23, 0
34, 36, 0
25, 9, 0
25, 23, 0
25, 22, 0
25, 36, 0
33, 0, 0
33, 6, 0
32, 2, 0
32, 31, 0
32, 35, 0
2, 0, 0
2, 31, 0
2, 32, 0
2, 15, 0
2, 11, 0
2, 10, 0
37, 27, 0
37, 19, 0
29, 28, 1
29, 17, 0
29, 27, 0
19, 37, 0
19, 27, 0
19, 5, 0
26, 21, 0
26, 3, 0
26, 5, 0
26, 24, 0
18, 13, 0
18, 22, 0
9, 25, 0
9, 22, 0
9, 36, 0
