13, 21, 0
13, 4, 0
13, 17, 0
17, 21, 0
17, 4, 0
17, 13, 0
17, 10, 0
5, 0, 0
5, 15, 0
11, 7, 0
11, 9, 0
1, 16, 0
1, 8, 0
1, 10, 0
1, 2, 0
20, 7, 0
4, 21, 0
4, 13, 0
4, 17, 0
4, 10, 0
14, 12, 0
14, 15, 0
14, 9, 0
8, 16, 0
8, 1, 0
15, 12, 0
15, 14, 0
15, 5, 0
0, 5, 0
0, 2, 0
3, 18, 0
3, 6, 0
3, 19, 0
3, 21, 0
16, 8, 0
16, 10, 0
16, 1, 0
6, 21, 0
6, 3, 0
10, 16, 0
10, 4, 0
10, 17, 0
10, 1, 0
7, 20, 0
7, 11, 0
12, 15, 0
12, 14, 0
2, 0, 0
2, 1, 0
21, 3, 0
21, 13, 0
21, 17, 0
21, 4, 0
21, 6, 0
19, 18, 1
19, 3, 0
18, 3, 0
18, 19, 1
9, 14, 0
9, 11, 0
