0, 6, 0
0, 8, 0
0, 13, 0
0, 9, 0
0, 10, 0
13, 0, 0
13, 10, 0
13, 6, 0
13, 8, 0
13, 5, 0
13, 11, 0
13, 9, 0
3, 7, 0
3, 12, 0
3, 2, 1
3, 1, 0
6, 0, 0
6, 13, 0
6, 8, 0
6, 5, 0
6, 11, 0
6, 10, 0
8, 0, 0
8, 6, 0
8, 13, 0
8, 9, 0
8, 10, 0
5, 7, 0
5, 6, 0
5, 13, 0
5, 11, 0
5, 12, 0
11, 7, 0
11, 12, 0
11, 13, 0
11, 5, 0
11, 6, 0
10, 0, 0
10, 6, 0
10, 8, 0
10, 13, 0
10, 9, 1
7, 12, 0
7, 4, 0
7, 3, 0
7, 2, 0
7, 5, 0
7, 11, 0
7, 1, 0
12, 7, 0
12, 3, 0
12, 4, 0
12, 2, 0
12, 5, 0
12, 11, 0
12, 1, 0
4, 7, 0
4, 12, 0
4, 2, 1
4, 1, 0
2, 7, 0
2, 12, 0
2, 4, 1
2, 3, 1
2, 1, 0
1, 7, 0
1, 12, 0
1, 2, 0
1, 4, 0
1, 3, 0
9, 0, 0
9, 8, 0
9, 13, 0
9, 10, 1
