0, 6, 0
0, 8, 0
0, 5, 0
0, 4, 0
3, 7, 0
3, 2, 0
3, 10, 0
3, 1, 0
4, 0, 0
4, 9, 0
4, 2, 0
4, 8, 0
4, 5, 1
4, 10, 0
2, 7, 0
2, 3, 0
2, 4, 0
2, 10, 0
2, 1, 0
6, 0, 0
1, 7, 0
1, 3, 0
1, 10, 0
1, 2, 0
8, 0, 0
8, 10, 0
8, 4, 0
8, 5, 0
8, 9, 0
5, 0, 0
5, 8, 0
5, 4, 1
7, 3, 0
7, 1, 0
7, 10, 0
7, 2, 0
10, 7, 0
10, 3, 0
10, 4, 0
10, 2, 0
10, 1, 0
10, 8, 0
10, 9, 0
9, 8, 0
9, 4, 0
9, 10, 0
