0, 3, 0
0, 13, 0
0, 14, 0
0, 2, 0
0, 6, 0
0, 15, 0
0, 11, 0
0, 1, 0
13, 0, 0
13, 3, 0
13, 14, 1
17, 16, 0
17, 4, 0
17, 5, 0
3, 0, 0
3, 14, 0
3, 13, 0
3, 15, 0
3, 9, 0
16, 4, 0
16, 17, 0
16, 5, 0
6, 0, 0
6, 1, 0
6, 10, 0
6, 11, 0
6, 2, 0
8, 18, 0
8, 11, 0
8, 10, 0
5, 7, 0
5, 12, 0
5, 16, 0
5, 4, 0
5, 17, 0
11, 0, 0
11, 6, 0
11, 8, 0
11, 10, 0
10, 6, 0
10, 8, 0
10, 11, 0
10, 2, 0
7, 12, 0
7, 5, 0
7, 9, 0
12, 7, 0
12, 5, 0
12, 9, 0
4, 16, 0
4, 17, 0
4, 5, 0
14, 0, 0
14, 3, 0
14, 13, 1
14, 15, 1
2, 0, 0
2, 6, 0
2, 10, 0
2, 1, 0
1, 0, 0
1, 6, 0
1, 2, 0
15, 0, 0
15, 3, 0
15, 14, 1
15, 9, 0
18, 8, 0
9, 7, 0
9, 12, 0
9, 15, 0
9, 3, 0
