0, 6, 0
0, 1, 0
0, 8, 0
0, 4, 0
0, 9, 0
13, 7, 0
13, 12, 1
13, 3, 0
13, 10, 0
3, 7, 0
3, 12, 0
3, 13, 0
3, 4, 0
3, 6, 0
3, 11, 0
3, 10, 0
6, 0, 0
6, 3, 0
6, 4, 0
6, 1, 0
6, 8, 0
6, 7, 0
6, 9, 0
8, 0, 0
8, 6, 0
8, 1, 0
8, 9, 1
5, 2, 0
5, 1, 0
11, 7, 0
11, 12, 1
11, 10, 0
11, 3, 0
10, 7, 0
10, 12, 0
10, 13, 0
10, 11, 0
10, 3, 0
7, 12, 0
7, 13, 0
7, 4, 0
7, 3, 0
7, 6, 0
7, 11, 0
7, 10, 0
12, 7, 0
12, 3, 0
12, 13, 1
12, 11, 1
12, 10, 0
4, 0, 0
4, 7, 0
4, 3, 0
4, 6, 0
4, 9, 0
4, 1, 0
2, 5, 0
2, 1, 0
1, 0, 0
1, 4, 0
1, 2, 0
1, 6, 0
1, 8, 0
1, 5, 0
1, 9, 0
9, 0, 0
9, 6, 0
9, 8, 1
9, 4, 0
9, 1, 0
