2, 18, 0
2, 4, 0
2, 23, 0
2, 22, 0
2, 29, 0
13, 16, 0
13, 8, 0
17, 16, 0
17, 14, 0
17, 26, 0
17, 10, 0
23, 18, 0
23, 2, 0
23, 29, 0
23, 1, 0
29, 14, 0
29, 23, 0
29, 26, 0
29, 2, 0
29, 6, 0
29, 9, 0
29, 1, 0
5, 20, 0
5, 3, 0
5, 19, 0
5, 4, 0
11, 27, 0
11, 8, 0
1, 23, 0
1, 29, 0
20, 3, 0
20, 19, 1
20, 5, 0
4, 3, 0
4, 2, 0
4, 18, 0
4, 19, 0
4, 5, 0
4, 22, 0
14, 7, 0
14, 17, 0
14, 29, 0
14, 16, 0
14, 25, 0
14, 10, 0
14, 9, 0
24, 15, 0
28, 21, 0
28, 27, 0
28, 26, 0
8, 13, 0
8, 26, 0
8, 11, 0
8, 9, 0
15, 12, 0
15, 3, 0
15, 24, 0
22, 18, 0
22, 4, 0
22, 2, 0
0, 7, 0
0, 25, 0
0, 26, 0
0, 10, 0
12, 3, 0
12, 15, 0
16, 14, 0
16, 13, 0
16, 17, 0
16, 26, 0
16, 9, 0
6, 7, 0
6, 9, 0
6, 26, 0
6, 29, 0
10, 0, 0
10, 25, 0
10, 26, 0
10, 14, 0
10, 17, 0
10, 9, 0
7, 0, 0
7, 25, 0
7, 14, 0
7, 26, 0
7, 6, 0
7, 9, 0
3, 20, 0
3, 12, 0
3, 4, 0
3, 19, 0
3, 15, 0
3, 5, 0
25, 0, 0
25, 7, 0
25, 14, 0
25, 10, 0
26, 0, 0
26, 7, 0
26, 17, 0
26, 28, 0
26, 29, 0
26, 16, 0
26, 6, 0
26, 27, 0
26, 8, 0
26, 10, 0
26, 9, 0
27, 21, 0
27, 28, 0
27, 26, 0
27, 11, 0
27, 9, 0
21, 27, 0
21, 28, 0
21, 9, 0
19, 20, 1
19, 3, 0
19, 4, 0
19, 5, 0
18, 4, 0
18, 22, 0
18, 23, 0
18, 2, 0
9, 7, 0
9, 21, 0
9, 14, 0
9, 26, 0
9, 29, 0
9, 16, 0
9, 6, 0
9, 27, 0
9, 8, 0
9, 10, 0
