0, 7, 0
0, 3, 0
0, 4, 0
0, 9, 0
0, 2, 0
0, 6, 0
0, 10, 0
0, 1, 0
6, 0, 0
6, 7, 0
6, 4, 0
6, 3, 0
6, 10, 0
6, 5, 0
6, 9, 0
1, 0, 0
1, 10, 0
5, 7, 0
5, 6, 0
5, 11, 0
5, 9, 0
11, 8, 0
11, 5, 0
11, 9, 0
10, 0, 0
10, 7, 0
10, 4, 0
10, 3, 0
10, 2, 0
10, 6, 0
10, 9, 0
10, 1, 0
7, 0, 0
7, 3, 0
7, 4, 0
7, 2, 0
7, 6, 0
7, 5, 0
7, 10, 0
3, 0, 0
3, 7, 0
3, 4, 1
3, 6, 0
3, 10, 0
3, 9, 0
4, 0, 0
4, 7, 0
4, 3, 1
4, 2, 1
4, 6, 0
4, 9, 0
4, 10, 0
2, 0, 0
2, 7, 0
2, 4, 1
2, 9, 0
2, 10, 0
8, 11, 0
8, 9, 0
9, 0, 0
9, 3, 0
9, 4, 0
9, 2, 0
9, 6, 0
9, 8, 0
9, 5, 0
9, 11, 0
9, 10, 0
