0, 7, 0
0, 6, 0
0, 4, 0
13, 7, 0
13, 16, 0
3, 12, 0
3, 11, 0
16, 7, 0
16, 13, 0
16, 5, 0
6, 0, 0
6, 4, 0
8, 12, 0
8, 14, 0
8, 2, 0
8, 1, 0
8, 9, 0
8, 15, 0
8, 10, 0
5, 16, 0
5, 11, 0
11, 3, 0
11, 5, 0
10, 8, 0
10, 9, 0
10, 2, 0
7, 0, 0
7, 16, 0
7, 13, 0
12, 3, 0
12, 14, 0
12, 2, 0
12, 8, 0
12, 15, 0
12, 1, 0
4, 0, 0
4, 6, 0
14, 12, 0
14, 8, 0
14, 15, 1
14, 1, 0
2, 12, 0
2, 8, 0
2, 10, 0
1, 12, 0
1, 15, 0
1, 8, 0
1, 14, 0
1, 9, 0
15, 12, 0
15, 8, 0
15, 14, 1
15, 1, 0
9, 8, 0
9, 10, 0
9, 1, 0
