0, 3, 0
0, 8, 0
0, 14, 0
0, 4, 0
13, 7, 0
13, 4, 0
13, 15, 0
3, 0, 0
3, 8, 0
3, 14, 0
6, 7, 0
6, 15, 0
6, 5, 0
6, 2, 0
8, 0, 0
8, 12, 0
8, 4, 0
8, 14, 0
8, 3, 0
8, 11, 0
8, 1, 0
5, 6, 0
5, 15, 0
11, 12, 1
11, 8, 0
11, 14, 0
11, 1, 0
10, 7, 0
10, 9, 0
10, 2, 0
7, 13, 0
7, 4, 0
7, 2, 0
7, 6, 0
7, 10, 0
7, 15, 0
7, 9, 0
12, 8, 0
12, 14, 0
12, 11, 1
12, 1, 0
4, 0, 0
4, 7, 0
4, 8, 0
4, 13, 0
14, 0, 0
14, 12, 0
14, 3, 0
14, 8, 0
14, 11, 0
14, 1, 0
2, 7, 0
2, 6, 0
2, 10, 0
1, 12, 0
1, 8, 0
1, 14, 0
1, 11, 0
15, 7, 0
15, 6, 0
15, 13, 0
15, 5, 0
9, 7, 0
9, 10, 0
