58, 45, 0
58, 16, 0
58, 59, 1
58, 15, 0
58, 44, 0
58, 11, 0
58, 10, 0
13, 68, 0
13, 17, 0
13, 63, 0
13, 76, 0
13, 66, 0
13, 5, 0
13, 47, 0
13, 7, 0
13, 18, 0
13, 4, 0
13, 31, 0
13, 24, 0
13, 37, 0
13, 69, 0
13, 49, 0
13, 48, 0
17, 13, 0
17, 63, 0
17, 6, 0
17, 73, 0
17, 74, 0
17, 5, 0
17, 47, 0
17, 30, 0
17, 69, 0
17, 24, 0
17, 72, 0
17, 49, 0
17, 48, 0
23, 21, 0
23, 69, 0
23, 50, 0
23, 24, 0
23, 63, 0
23, 6, 0
23, 74, 0
23, 68, 0
23, 47, 0
63, 13, 0
63, 17, 0
63, 23, 0
63, 6, 0
63, 55, 0
63, 74, 0
63, 47, 0
63, 30, 0
63, 7, 0
63, 21, 0
63, 50, 0
63, 24, 0
63, 72, 0
24, 68, 0
24, 13, 0
24, 17, 0
24, 23, 0
24, 63, 0
24, 6, 0
24, 5, 0
24, 47, 0
24, 73, 0
24, 7, 0
24, 21, 0
24, 69, 0
24, 50, 0
24, 72, 0
24, 30, 0
24, 49, 0
24, 48, 0
46, 57, 0
46, 45, 1
46, 62, 0
46, 65, 0
46, 29, 0
46, 18, 0
46, 35, 0
46, 38, 0
46, 11, 0
46, 10, 0
65, 7, 0
65, 28, 0
65, 18, 0
65, 76, 0
65, 46, 0
65, 11, 0
65, 57, 0
65, 3, 0
65, 4, 0
65, 52, 0
65, 26, 0
65, 20, 0
65, 60, 0
65, 19, 0
65, 22, 0
20, 18, 0
20, 7, 0
20, 19, 1
20, 76, 0
20, 65, 0
34, 37, 0
34, 35, 1
34, 60, 0
34, 66, 0
34, 38, 0
34, 18, 0
34, 22, 0
34, 36, 0
14, 18, 0
14, 76, 0
14, 25, 0
14, 52, 0
53, 75, 0
53, 27, 0
53, 67, 0
66, 13, 0
66, 60, 0
66, 71, 0
66, 44, 0
66, 11, 0
66, 57, 0
66, 34, 0
66, 37, 0
66, 29, 0
66, 61, 0
66, 64, 0
66, 18, 0
66, 22, 0
66, 36, 0
42, 67, 0
42, 40, 0
42, 44, 0
42, 56, 0
42, 10, 0
15, 58, 0
15, 57, 0
15, 44, 0
15, 75, 0
15, 45, 0
15, 16, 0
15, 27, 0
15, 39, 0
15, 59, 0
15, 10, 0
41, 21, 0
41, 43, 0
41, 32, 0
41, 51, 0
0, 18, 0
0, 3, 0
0, 26, 0
0, 1, 1
68, 69, 1
68, 13, 0
68, 50, 0
68, 23, 0
68, 24, 0
68, 72, 0
68, 5, 0
68, 47, 0
68, 30, 0
62, 57, 0
62, 29, 0
62, 61, 1
62, 10, 0
62, 35, 0
62, 38, 0
62, 44, 0
62, 11, 0
62, 46, 0
51, 21, 0
51, 41, 0
51, 32, 0
33, 4, 0
33, 28, 0
33, 31, 0
6, 17, 0
6, 23, 0
6, 63, 0
6, 76, 0
6, 55, 0
6, 74, 0
6, 5, 0
6, 47, 0
6, 7, 0
6, 72, 0
6, 52, 0
6, 26, 0
6, 24, 0
6, 21, 0
6, 22, 0
74, 7, 0
74, 21, 0
74, 17, 0
74, 23, 0
74, 63, 0
74, 6, 0
74, 55, 0
74, 47, 0
47, 68, 0
47, 13, 0
47, 17, 0
47, 23, 0
47, 63, 0
47, 6, 0
47, 74, 0
47, 5, 0
47, 7, 0
47, 18, 0
47, 69, 0
47, 31, 0
47, 24, 0
47, 72, 0
47, 4, 0
47, 48, 1
10, 58, 0
10, 45, 0
10, 62, 0
10, 39, 0
10, 16, 0
10, 27, 0
10, 59, 0
10, 44, 0
10, 11, 0
10, 46, 0
10, 67, 0
10, 2, 0
10, 42, 0
10, 15, 0
10, 9, 0
7, 6, 0
7, 13, 0
7, 28, 0
7, 63, 0
7, 76, 0
7, 73, 0
7, 74, 0
7, 5, 0
7, 47, 0
7, 65, 0
7, 20, 0
7, 18, 0
7, 4, 0
7, 31, 0
7, 24, 0
7, 37, 0
7, 19, 0
7, 49, 0
7, 36, 0
3, 0, 0
3, 37, 0
3, 52, 0
3, 26, 0
3, 35, 0
3, 18, 0
3, 25, 0
3, 36, 0
3, 65, 0
3, 1, 0
69, 68, 1
69, 13, 0
69, 17, 0
69, 23, 0
69, 5, 0
69, 47, 0
69, 30, 0
69, 72, 0
69, 50, 0
69, 24, 0
69, 21, 0
69, 48, 0
32, 21, 0
32, 43, 0
32, 41, 0
32, 51, 0
2, 45, 0
2, 70, 0
2, 16, 0
2, 10, 0
2, 39, 0
2, 44, 0
2, 11, 0
2, 9, 0
37, 7, 0
37, 13, 0
37, 3, 0
37, 60, 0
37, 76, 0
37, 29, 0
37, 57, 0
37, 34, 0
37, 52, 0
37, 26, 0
37, 66, 0
37, 61, 0
37, 49, 0
37, 38, 0
37, 18, 0
37, 22, 0
37, 36, 1
52, 25, 0
52, 3, 0
52, 4, 0
52, 14, 0
52, 76, 0
52, 6, 0
52, 37, 0
52, 28, 0
52, 36, 0
52, 18, 0
52, 65, 0
19, 20, 1
19, 7, 0
19, 4, 0
19, 18, 0
19, 76, 0
19, 65, 0
49, 7, 0
49, 37, 0
49, 13, 0
49, 17, 0
49, 24, 0
49, 18, 0
49, 76, 0
49, 48, 1
49, 73, 0
60, 28, 0
60, 34, 0
60, 18, 0
60, 29, 0
60, 65, 0
60, 57, 0
60, 37, 0
60, 66, 0
60, 61, 1
60, 38, 0
60, 22, 0
60, 36, 0
48, 13, 0
48, 17, 0
48, 24, 0
48, 69, 0
48, 49, 1
48, 5, 0
48, 47, 1
48, 73, 0
16, 58, 0
16, 57, 0
16, 39, 0
16, 2, 0
16, 59, 0
16, 15, 0
16, 44, 0
16, 11, 0
16, 10, 0
70, 9, 0
70, 39, 0
70, 11, 0
70, 2, 0
31, 7, 0
31, 33, 0
31, 13, 0
31, 54, 0
31, 4, 0
31, 28, 0
31, 5, 0
31, 47, 0
28, 31, 0
28, 60, 0
28, 76, 0
28, 65, 0
28, 7, 0
28, 33, 0
28, 4, 0
28, 52, 0
28, 26, 0
28, 38, 0
28, 18, 0
28, 22, 0
45, 58, 0
45, 2, 0
45, 46, 1
45, 15, 0
45, 59, 0
45, 44, 1
45, 11, 0
45, 10, 0
75, 27, 0
75, 53, 0
75, 15, 0
75, 67, 0
40, 42, 0
40, 56, 0
40, 67, 0
71, 57, 0
71, 12, 0
71, 66, 0
71, 64, 0
71, 44, 0
71, 11, 0
71, 9, 0
59, 58, 1
59, 45, 0
59, 16, 0
59, 15, 0
59, 44, 0
59, 11, 0
59, 10, 0
11, 58, 0
11, 45, 0
11, 35, 0
11, 70, 0
11, 62, 0
11, 16, 0
11, 71, 0
11, 59, 0
11, 46, 0
11, 10, 0
11, 57, 0
11, 18, 0
11, 4, 0
11, 66, 0
11, 2, 0
11, 44, 0
11, 65, 0
11, 39, 0
11, 9, 0
5, 68, 0
5, 13, 0
5, 17, 0
5, 6, 0
5, 47, 0
5, 30, 0
5, 7, 0
5, 69, 0
5, 54, 0
5, 50, 0
5, 31, 0
5, 24, 0
5, 72, 0
5, 48, 0
61, 60, 1
61, 35, 0
61, 62, 1
61, 29, 0
61, 37, 0
61, 66, 0
61, 38, 0
61, 36, 0
29, 57, 0
29, 37, 0
29, 62, 0
29, 60, 0
29, 66, 0
29, 61, 0
29, 35, 0
29, 38, 0
29, 46, 0
29, 18, 0
29, 36, 0
4, 13, 0
4, 28, 0
4, 18, 0
4, 76, 0
4, 11, 0
4, 65, 0
4, 7, 0
4, 33, 0
4, 52, 0
4, 47, 0
4, 31, 0
4, 19, 0
39, 57, 0
39, 70, 0
39, 2, 0
39, 16, 0
39, 10, 0
39, 15, 0
39, 44, 0
39, 11, 0
39, 9, 0
35, 62, 0
35, 3, 0
35, 18, 0
35, 46, 0
35, 11, 0
35, 1, 0
35, 57, 0
35, 34, 1
35, 26, 0
35, 29, 0
35, 61, 0
35, 8, 0
35, 38, 0
35, 22, 0
30, 68, 0
30, 69, 0
30, 17, 0
30, 50, 0
30, 24, 0
30, 63, 0
30, 72, 0
30, 5, 0
30, 73, 0
8, 18, 0
8, 22, 0
8, 26, 0
8, 35, 0
38, 34, 0
38, 37, 0
38, 28, 0
38, 62, 0
38, 35, 0
38, 61, 0
38, 29, 0
38, 60, 0
38, 18, 0
38, 22, 0
38, 46, 0
22, 28, 0
22, 60, 0
22, 18, 0
22, 6, 0
22, 66, 0
22, 65, 0
22, 34, 0
22, 26, 0
22, 35, 0
22, 37, 0
22, 8, 0
22, 38, 0
22, 36, 0
36, 7, 0
36, 61, 0
36, 34, 0
36, 18, 0
36, 76, 0
36, 66, 0
36, 57, 0
36, 3, 0
36, 52, 0
36, 26, 0
36, 29, 0
36, 37, 1
36, 60, 0
36, 22, 0
25, 52, 0
25, 14, 0
25, 3, 0
25, 76, 0
57, 35, 0
57, 62, 0
57, 67, 0
57, 18, 0
57, 27, 0
57, 15, 0
57, 71, 0
57, 46, 0
57, 11, 0
57, 44, 0
57, 66, 0
57, 16, 0
57, 60, 0
57, 29, 0
57, 37, 0
57, 9, 0
57, 39, 0
57, 65, 0
57, 36, 0
56, 42, 0
56, 40, 0
56, 67, 0
64, 12, 0
64, 71, 0
64, 9, 0
64, 66, 0
18, 13, 0
18, 28, 0
18, 65, 0
18, 60, 0
18, 35, 0
18, 46, 0
18, 11, 0
18, 1, 0
18, 20, 0
18, 4, 0
18, 14, 0
18, 66, 0
18, 8, 0
18, 38, 0
18, 22, 0
18, 36, 0
18, 0, 0
18, 57, 0
18, 3, 0
18, 76, 0
18, 44, 0
18, 47, 0
18, 7, 0
18, 34, 0
18, 52, 0
18, 26, 0
18, 29, 0
18, 37, 0
18, 19, 0
18, 49, 0
27, 57, 0
27, 67, 0
27, 75, 0
27, 53, 0
27, 15, 0
27, 44, 0
27, 10, 0
1, 18, 0
1, 0, 1
1, 35, 0
1, 26, 0
1, 3, 0
55, 63, 0
55, 6, 0
55, 74, 0
55, 21, 0
44, 58, 0
44, 45, 1
44, 62, 0
44, 16, 0
44, 27, 0
44, 15, 0
44, 71, 0
44, 59, 0
44, 11, 0
44, 10, 0
44, 57, 0
44, 67, 0
44, 66, 0
44, 2, 0
44, 42, 0
44, 39, 0
44, 18, 0
44, 9, 0
73, 7, 0
73, 21, 0
73, 17, 0
73, 24, 0
73, 72, 1
73, 76, 0
73, 49, 0
73, 48, 0
73, 30, 0
12, 71, 0
12, 64, 0
12, 9, 0
21, 51, 0
21, 23, 0
21, 63, 0
21, 6, 0
21, 55, 0
21, 74, 0
21, 73, 0
21, 69, 0
21, 43, 0
21, 32, 0
21, 24, 0
21, 41, 0
54, 5, 0
54, 31, 0
50, 68, 0
50, 69, 0
50, 23, 0
50, 24, 0
50, 63, 0
50, 5, 0
50, 30, 0
26, 0, 0
26, 28, 0
26, 18, 0
26, 6, 0
26, 1, 0
26, 65, 0
26, 3, 0
26, 35, 0
26, 37, 0
26, 8, 0
26, 22, 0
26, 36, 0
76, 7, 0
76, 13, 0
76, 28, 0
76, 18, 0
76, 6, 0
76, 73, 0
76, 65, 0
76, 20, 0
76, 4, 0
76, 25, 0
76, 37, 0
76, 52, 0
76, 14, 0
76, 49, 0
76, 19, 0
76, 36, 0
72, 68, 0
72, 69, 0
72, 17, 0
72, 24, 0
72, 63, 0
72, 6, 0
72, 73, 1
72, 5, 0
72, 47, 0
72, 30, 0
43, 21, 0
43, 41, 0
43, 32, 0
67, 57, 0
67, 56, 0
67, 27, 0
67, 75, 0
67, 42, 0
67, 53, 0
67, 40, 0
67, 44, 0
67, 10, 0
9, 57, 0
9, 12, 0
9, 70, 0
9, 2, 0
9, 64, 0
9, 71, 0
9, 39, 0
9, 44, 0
9, 11, 0
9, 10, 0
