0, 7, 0
0, 3, 0
0, 1, 0
0, 2, 0
6, 11, 0
6, 1, 0
1, 0, 0
1, 6, 0
1, 11, 0
1, 2, 0
5, 3, 0
5, 10, 0
11, 6, 0
11, 1, 0
10, 8, 0
10, 5, 0
10, 4, 0
10, 9, 0
7, 0, 0
7, 3, 0
3, 0, 0
3, 7, 0
3, 5, 0
4, 8, 0
4, 9, 0
4, 10, 0
2, 0, 0
2, 1, 0
8, 4, 0
8, 9, 1
8, 10, 0
9, 8, 1
9, 4, 0
9, 10, 0
