0, 16, 0
0, 6, 0
0, 8, 0
0, 15, 0
0, 5, 0
0, 10, 0
13, 12, 1
3, 2, 0
3, 4, 0
3, 9, 0
3, 11, 0
3, 1, 0
16, 7, 0
16, 0, 0
16, 8, 0
16, 5, 0
16, 10, 0
6, 0, 0
6, 15, 0
6, 14, 0
6, 11, 0
6, 10, 0
8, 16, 0
8, 0, 0
8, 7, 0
8, 5, 0
8, 10, 0
5, 0, 0
5, 16, 0
5, 8, 0
5, 10, 0
11, 3, 0
11, 4, 0
11, 14, 0
11, 2, 0
11, 6, 0
11, 10, 0
11, 15, 0
11, 1, 0
10, 0, 0
10, 7, 0
10, 4, 0
10, 14, 0
10, 16, 0
10, 6, 0
10, 8, 0
10, 5, 0
10, 11, 0
10, 9, 0
7, 16, 0
7, 8, 0
7, 10, 0
12, 13, 1
12, 9, 0
4, 3, 0
4, 2, 0
4, 1, 0
4, 10, 0
4, 11, 0
4, 9, 0
14, 6, 0
14, 15, 1
14, 11, 0
14, 10, 0
2, 3, 0
2, 4, 0
2, 9, 0
2, 11, 0
2, 1, 0
1, 3, 0
1, 4, 0
1, 9, 0
1, 11, 0
1, 2, 0
15, 0, 0
15, 6, 0
15, 14, 1
15, 11, 0
9, 12, 0
9, 4, 0
9, 3, 0
9, 2, 0
9, 1, 0
9, 10, 0
