0, 7, 0
0, 4, 0
0, 2, 0
0, 6, 0
0, 8, 0
0, 1, 0
3, 7, 0
3, 6, 0
3, 4, 0
3, 2, 0
4, 0, 0
4, 3, 0
4, 2, 0
4, 5, 1
4, 6, 0
7, 0, 0
7, 3, 0
7, 8, 0
7, 6, 0
2, 0, 0
2, 3, 0
2, 4, 0
6, 0, 0
6, 3, 0
6, 4, 0
6, 1, 0
6, 7, 0
6, 5, 0
8, 0, 0
8, 7, 0
8, 1, 0
5, 6, 0
5, 4, 1
1, 0, 0
1, 6, 0
1, 8, 0
