0, 8, 0
0, 9, 0
3, 7, 0
3, 6, 0
3, 5, 0
3, 2, 0
4, 9, 0
4, 2, 0
2, 3, 0
2, 4, 0
6, 7, 1
6, 3, 0
6, 5, 0
1, 8, 0
1, 9, 0
8, 0, 0
8, 9, 0
8, 1, 0
5, 7, 0
5, 3, 0
5, 6, 0
7, 3, 0
7, 5, 0
7, 6, 1
9, 0, 0
9, 8, 0
9, 4, 0
9, 1, 0
