0, 7, 0
0, 3, 0
0, 2, 0
0, 8, 0
0, 1, 0
3, 0, 0
3, 8, 0
3, 9, 0
4, 7, 0
4, 5, 0
4, 10, 0
2, 0, 0
2, 7, 0
2, 1, 1
6, 7, 0
6, 5, 0
6, 10, 0
1, 0, 0
1, 7, 0
1, 2, 1
8, 0, 0
8, 3, 0
5, 7, 0
5, 6, 0
5, 4, 0
5, 10, 0
7, 0, 0
7, 4, 0
7, 2, 0
7, 6, 0
7, 10, 0
7, 5, 0
7, 1, 0
10, 7, 0
10, 6, 0
10, 4, 0
10, 5, 0
9, 3, 0
