0, 3, 0
0, 9, 0
6, 7, 1
6, 8, 0
6, 11, 0
6, 1, 0
1, 7, 0
1, 2, 0
1, 6, 0
1, 8, 0
1, 11, 0
1, 10, 0
5, 7, 0
5, 4, 0
5, 11, 0
11, 6, 0
11, 8, 0
11, 5, 0
11, 4, 0
11, 1, 0
10, 1, 0
10, 9, 0
10, 2, 0
7, 6, 1
7, 8, 0
7, 5, 0
7, 1, 0
3, 0, 0
4, 5, 0
4, 11, 0
2, 10, 0
2, 1, 0
8, 7, 0
8, 6, 0
8, 11, 0
8, 1, 0
9, 0, 0
9, 10, 0
