13, 21, 0
13, 12, 1
13, 11, 0
13, 10, 0
17, 0, 0
17, 16, 0
23, 21, 0
23, 10, 0
23, 14, 0
23, 22, 1
23, 24, 1
5, 3, 1
5, 4, 1
5, 9, 1
5, 8, 1
5, 15, 0
5, 1, 0
11, 0, 0
11, 12, 0
11, 13, 0
11, 22, 0
11, 10, 0
1, 4, 0
1, 18, 0
1, 19, 0
1, 8, 0
1, 15, 0
1, 5, 0
1, 9, 0
20, 7, 0
20, 18, 0
20, 3, 0
20, 16, 0
20, 6, 0
20, 19, 0
20, 8, 0
20, 9, 0
4, 3, 1
4, 1, 0
4, 15, 0
4, 5, 1
4, 9, 1
14, 21, 0
14, 24, 0
14, 22, 0
14, 23, 0
14, 2, 0
24, 21, 0
24, 2, 0
24, 14, 0
24, 23, 1
24, 10, 0
8, 20, 0
8, 16, 0
8, 6, 1
8, 5, 1
8, 1, 0
8, 7, 1
8, 3, 1
8, 21, 0
8, 19, 0
8, 15, 0
8, 18, 0
8, 9, 1
15, 3, 0
15, 4, 0
15, 1, 0
15, 19, 0
15, 8, 0
15, 5, 0
15, 9, 0
22, 21, 0
22, 14, 0
22, 11, 0
22, 23, 1
22, 10, 0
0, 17, 0
0, 11, 0
3, 20, 0
3, 7, 1
3, 4, 1
3, 18, 0
3, 6, 1
3, 19, 0
3, 8, 1
3, 15, 0
3, 5, 1
3, 9, 1
16, 20, 0
16, 8, 0
16, 17, 0
6, 20, 0
6, 3, 1
6, 7, 1
6, 18, 0
6, 19, 0
6, 8, 1
10, 12, 0
10, 13, 0
10, 11, 0
10, 23, 0
10, 24, 0
10, 21, 0
10, 22, 0
7, 20, 0
7, 3, 1
7, 18, 0
7, 6, 1
7, 19, 0
7, 8, 1
12, 13, 1
12, 11, 0
12, 10, 0
2, 21, 0
2, 14, 0
2, 24, 0
21, 2, 0
21, 13, 0
21, 14, 0
21, 23, 0
21, 24, 0
21, 8, 0
21, 22, 0
21, 10, 0
19, 20, 0
19, 3, 0
19, 7, 0
19, 18, 1
19, 6, 0
19, 1, 0
19, 8, 0
19, 15, 0
19, 9, 0
18, 20, 0
18, 3, 0
18, 7, 0
18, 6, 0
18, 19, 1
18, 8, 0
18, 1, 0
9, 20, 0
9, 3, 1
9, 4, 1
9, 19, 0
9, 8, 1
9, 15, 0
9, 5, 1
9, 1, 0
