0, 7, 0
0, 12, 0
0, 13, 0
0, 14, 0
0, 9, 0
0, 4, 0
0, 17, 0
0, 10, 0
0, 15, 0
0, 1, 1
13, 0, 0
13, 12, 0
13, 7, 0
13, 14, 1
13, 9, 0
13, 4, 0
13, 10, 0
13, 15, 0
13, 1, 0
17, 0, 0
17, 3, 0
17, 5, 0
17, 11, 0
17, 10, 0
17, 7, 0
17, 12, 0
17, 4, 0
17, 2, 0
17, 8, 0
17, 15, 0
17, 9, 0
3, 16, 0
3, 17, 0
3, 2, 1
3, 18, 0
3, 6, 0
3, 19, 0
3, 8, 0
3, 5, 0
16, 12, 0
16, 19, 0
16, 8, 0
16, 11, 0
16, 3, 0
6, 18, 0
6, 3, 0
6, 19, 0
6, 5, 0
6, 2, 0
8, 3, 0
8, 17, 0
8, 2, 0
8, 16, 0
8, 19, 0
8, 18, 0
8, 11, 0
5, 3, 0
5, 17, 0
5, 2, 0
5, 6, 0
5, 19, 0
5, 15, 0
11, 16, 0
11, 8, 0
11, 17, 0
10, 0, 0
10, 12, 0
10, 13, 0
10, 17, 0
10, 4, 0
10, 14, 0
10, 9, 1
10, 15, 0
10, 7, 0
10, 1, 0
7, 0, 0
7, 12, 0
7, 13, 0
7, 17, 0
7, 9, 0
7, 4, 0
7, 10, 0
7, 15, 0
7, 1, 0
12, 0, 0
12, 13, 0
12, 17, 0
12, 16, 0
12, 10, 0
12, 7, 0
12, 4, 0
12, 14, 0
12, 19, 0
12, 1, 0
12, 15, 0
12, 9, 0
4, 0, 0
4, 12, 0
4, 13, 0
4, 17, 0
4, 9, 0
4, 10, 0
4, 7, 0
4, 1, 0
14, 0, 0
14, 12, 0
14, 13, 1
14, 10, 0
14, 1, 0
2, 3, 1
2, 17, 0
2, 18, 0
2, 6, 0
2, 19, 0
2, 8, 0
2, 5, 0
19, 12, 0
19, 3, 0
19, 2, 0
19, 16, 0
19, 6, 0
19, 8, 0
19, 18, 1
19, 5, 0
1, 0, 1
1, 12, 0
1, 13, 0
1, 14, 0
1, 4, 0
1, 9, 0
1, 15, 0
1, 7, 0
1, 10, 0
15, 0, 0
15, 12, 0
15, 13, 0
15, 17, 0
15, 7, 0
15, 9, 0
15, 10, 0
15, 5, 0
15, 1, 0
18, 2, 0
18, 6, 0
18, 19, 1
18, 8, 0
18, 3, 0
9, 0, 0
9, 12, 0
9, 13, 0
9, 17, 0
9, 4, 0
9, 10, 1
9, 15, 0
9, 7, 0
9, 1, 0
