0, 1, 0
0, 8, 0
0, 5, 0
0, 4, 0
0, 2, 0
3, 7, 0
3, 6, 0
4, 0, 0
4, 6, 0
4, 5, 0
4, 2, 0
7, 3, 0
2, 0, 0
2, 6, 0
2, 4, 0
2, 1, 0
6, 3, 0
6, 4, 0
6, 2, 0
8, 0, 0
8, 5, 0
8, 1, 0
5, 0, 0
5, 8, 0
5, 4, 0
5, 1, 0
1, 0, 0
1, 8, 0
1, 5, 0
1, 2, 0
