0, 7, 0
0, 3, 0
0, 1, 0
0, 6, 0
3, 0, 0
3, 7, 0
3, 6, 0
3, 2, 0
3, 1, 0
4, 8, 0
4, 5, 1
2, 3, 0
2, 6, 0
2, 8, 0
2, 1, 0
6, 0, 0
6, 3, 0
6, 2, 0
6, 7, 0
6, 9, 0
1, 0, 0
1, 3, 0
1, 8, 0
1, 7, 0
1, 2, 0
8, 1, 0
8, 4, 0
8, 5, 0
8, 2, 0
5, 8, 0
5, 4, 1
7, 0, 0
7, 3, 0
7, 1, 0
7, 6, 0
9, 6, 0
