0, 7, 0
0, 6, 0
0, 8, 0
0, 5, 0
0, 1, 0
3, 6, 0
3, 9, 0
3, 5, 0
3, 2, 1
4, 5, 1
4, 9, 0
2, 3, 1
2, 6, 0
2, 9, 0
6, 0, 0
6, 3, 0
6, 7, 0
6, 2, 0
6, 1, 0
6, 5, 0
6, 9, 0
1, 0, 0
1, 7, 0
1, 8, 0
1, 5, 0
1, 6, 0
8, 0, 0
8, 7, 1
8, 5, 0
8, 1, 0
5, 0, 0
5, 3, 0
5, 4, 1
5, 6, 0
5, 1, 0
5, 8, 0
5, 9, 0
7, 0, 0
7, 6, 0
7, 8, 1
7, 1, 0
9, 3, 0
9, 6, 0
9, 4, 0
9, 5, 0
9, 2, 0
