13, 24, 0
13, 11, 0
13, 1, 0
17, 18, 1
17, 21, 0
17, 26, 0
23, 16, 0
2, 20, 0
2, 25, 0
2, 5, 0
5, 20, 0
5, 3, 0
5, 15, 0
5, 2, 0
11, 1, 0
11, 13, 0
11, 24, 0
1, 13, 0
1, 10, 0
1, 11, 0
1, 9, 0
20, 25, 0
20, 5, 0
20, 2, 0
4, 27, 0
4, 15, 0
4, 3, 1
14, 7, 0
14, 12, 0
14, 8, 0
24, 13, 0
24, 25, 0
24, 11, 0
8, 7, 1
8, 12, 0
8, 14, 0
8, 26, 0
15, 3, 0
15, 4, 0
15, 5, 0
22, 21, 0
22, 9, 0
22, 10, 0
0, 27, 0
0, 3, 0
0, 6, 0
3, 0, 0
3, 27, 0
3, 4, 1
3, 15, 0
3, 5, 0
16, 6, 0
16, 23, 0
6, 0, 0
6, 16, 0
10, 1, 0
10, 22, 0
10, 9, 0
7, 8, 1
7, 14, 0
7, 26, 0
12, 8, 0
12, 14, 0
25, 20, 0
25, 2, 0
25, 24, 0
26, 7, 0
26, 21, 0
26, 17, 0
26, 18, 0
26, 19, 0
26, 8, 0
27, 0, 0
27, 3, 0
27, 4, 0
21, 18, 0
21, 19, 0
21, 17, 0
21, 26, 0
21, 22, 0
19, 21, 0
19, 18, 1
19, 26, 0
18, 21, 0
18, 19, 1
18, 17, 1
18, 26, 0
9, 10, 0
9, 22, 0
9, 1, 0
