0, 6, 0
0, 8, 0
0, 5, 0
3, 7, 0
3, 8, 0
3, 1, 0
4, 7, 0
4, 2, 0
7, 3, 0
7, 4, 0
7, 2, 0
2, 7, 0
2, 4, 0
6, 0, 0
6, 8, 0
6, 5, 1
8, 0, 0
8, 3, 0
8, 1, 0
8, 5, 0
8, 6, 0
5, 0, 0
5, 6, 1
5, 8, 0
1, 3, 0
1, 8, 0
