0, 3, 0
0, 4, 0
13, 7, 0
13, 1, 0
3, 0, 0
3, 16, 0
3, 7, 0
3, 4, 0
3, 2, 0
16, 7, 0
16, 3, 0
16, 2, 0
16, 15, 0
16, 9, 0
6, 8, 0
6, 14, 0
6, 5, 0
6, 4, 0
6, 10, 0
8, 6, 0
8, 4, 0
8, 14, 0
8, 10, 0
5, 6, 0
5, 10, 0
11, 1, 0
10, 6, 0
10, 8, 0
10, 5, 0
10, 4, 0
7, 12, 0
7, 13, 0
7, 3, 0
7, 16, 0
7, 15, 0
7, 1, 0
12, 7, 0
12, 15, 0
4, 0, 0
4, 3, 0
4, 14, 0
4, 6, 0
4, 8, 0
4, 10, 0
14, 6, 0
14, 8, 0
14, 4, 0
2, 16, 0
2, 3, 0
1, 7, 0
1, 13, 0
1, 11, 0
15, 16, 0
15, 12, 0
15, 7, 0
15, 9, 0
9, 16, 0
9, 15, 0
