0, 7, 0
0, 9, 0
0, 2, 0
0, 6, 0
0, 8, 0
0, 5, 0
0, 1, 0
3, 7, 0
3, 6, 0
3, 8, 0
3, 4, 1
4, 7, 0
4, 3, 1
4, 8, 0
4, 6, 0
2, 0, 0
2, 1, 1
2, 9, 0
6, 0, 0
6, 3, 0
6, 4, 0
6, 8, 0
6, 7, 0
6, 5, 0
1, 0, 0
1, 2, 1
1, 9, 0
8, 7, 1
8, 3, 0
8, 4, 0
8, 0, 0
8, 6, 0
5, 0, 0
5, 6, 0
7, 0, 0
7, 3, 0
7, 8, 1
7, 4, 0
7, 6, 0
9, 0, 0
9, 2, 0
9, 1, 0
