0, 12, 0
0, 13, 0
0, 9, 0
0, 6, 0
0, 8, 0
0, 10, 0
13, 0, 0
13, 6, 0
13, 10, 0
3, 4, 0
3, 5, 0
6, 0, 0
6, 12, 0
6, 13, 0
6, 10, 0
6, 9, 0
8, 0, 0
8, 7, 1
8, 9, 0
8, 10, 0
5, 3, 0
5, 4, 0
5, 11, 0
11, 5, 0
11, 2, 0
10, 0, 0
10, 7, 0
10, 13, 0
10, 6, 0
10, 8, 0
10, 9, 0
7, 8, 1
7, 10, 0
12, 0, 0
12, 6, 0
12, 9, 0
4, 3, 0
4, 5, 0
4, 9, 0
2, 11, 0
2, 1, 0
1, 2, 0
9, 0, 0
9, 12, 0
9, 4, 0
9, 6, 0
9, 8, 0
9, 10, 0
