0, 12, 0
0, 19, 0
0, 5, 0
0, 3, 0
13, 10, 0
13, 9, 0
13, 15, 0
13, 5, 0
13, 11, 0
13, 1, 0
17, 16, 0
17, 7, 0
17, 8, 0
17, 2, 0
3, 0, 0
3, 12, 0
3, 19, 0
3, 5, 0
16, 7, 0
16, 8, 0
16, 17, 0
16, 9, 0
16, 1, 0
6, 18, 0
6, 4, 0
6, 14, 0
6, 2, 0
8, 7, 1
8, 16, 0
8, 17, 0
8, 2, 0
5, 0, 0
5, 12, 0
5, 13, 0
5, 3, 0
5, 15, 0
5, 9, 0
11, 1, 0
11, 13, 0
11, 9, 0
11, 10, 1
10, 13, 0
10, 9, 0
10, 11, 1
10, 1, 0
7, 16, 0
7, 8, 1
7, 17, 0
7, 2, 0
12, 0, 0
12, 3, 0
12, 19, 0
12, 5, 0
4, 18, 0
4, 6, 0
4, 14, 0
4, 2, 0
14, 18, 0
14, 6, 0
14, 4, 0
2, 7, 0
2, 4, 0
2, 17, 0
2, 18, 0
2, 6, 0
2, 8, 0
19, 0, 0
19, 12, 0
19, 3, 0
1, 16, 0
1, 13, 0
1, 10, 0
1, 11, 0
1, 9, 0
15, 13, 0
15, 5, 0
18, 6, 0
18, 4, 0
18, 14, 0
18, 2, 0
9, 13, 0
9, 16, 0
9, 1, 0
9, 5, 0
9, 11, 0
9, 10, 0
