0, 18, 0
0, 3, 0
0, 13, 0
0, 2, 0
13, 0, 0
13, 3, 0
13, 11, 0
13, 2, 0
17, 16, 1
17, 8, 0
17, 14, 0
17, 5, 0
3, 0, 0
3, 13, 0
3, 11, 0
3, 2, 1
16, 14, 0
16, 8, 0
16, 17, 1
16, 9, 0
6, 12, 0
6, 15, 0
8, 14, 0
8, 16, 0
8, 17, 0
8, 9, 0
8, 5, 0
8, 10, 0
5, 19, 0
5, 8, 0
5, 17, 0
5, 10, 0
11, 3, 0
11, 13, 0
11, 2, 0
10, 7, 0
10, 9, 0
10, 19, 0
10, 8, 0
10, 5, 0
10, 1, 0
7, 10, 0
7, 1, 0
12, 6, 0
12, 15, 0
4, 18, 0
4, 14, 0
4, 9, 0
14, 16, 0
14, 8, 0
14, 17, 0
14, 4, 0
14, 9, 0
2, 0, 0
2, 3, 1
2, 13, 0
2, 11, 0
19, 5, 0
19, 10, 0
1, 7, 0
1, 15, 0
1, 10, 0
15, 12, 0
15, 1, 0
15, 6, 0
18, 0, 0
18, 4, 0
9, 16, 0
9, 8, 0
9, 14, 0
9, 4, 0
9, 10, 0
