12, 20, 0
12, 34, 0
12, 13, 0
12, 10, 0
13, 20, 0
13, 34, 0
13, 7, 0
13, 17, 0
13, 31, 0
13, 32, 0
13, 12, 0
13, 16, 0
13, 2, 0
13, 24, 0
13, 10, 0
17, 20, 0
17, 34, 0
17, 13, 0
17, 24, 0
17, 16, 0
17, 2, 0
17, 10, 0
31, 0, 0
31, 34, 0
31, 13, 0
31, 32, 0
31, 4, 0
31, 1, 0
23, 33, 0
23, 19, 0
23, 10, 0
23, 35, 0
24, 20, 0
24, 34, 0
24, 13, 0
24, 17, 0
24, 2, 0
24, 16, 0
5, 18, 0
5, 0, 0
5, 4, 1
5, 34, 0
11, 6, 0
11, 8, 0
11, 38, 0
1, 7, 0
1, 31, 0
20, 34, 0
20, 13, 0
20, 17, 0
20, 24, 0
20, 16, 0
20, 10, 0
20, 12, 0
21, 3, 0
21, 8, 0
21, 15, 0
21, 22, 1
4, 0, 0
4, 18, 0
4, 5, 1
4, 31, 0
4, 32, 0
14, 6, 0
14, 9, 0
35, 23, 0
35, 10, 0
28, 19, 0
28, 30, 0
28, 26, 0
28, 29, 0
30, 25, 0
30, 26, 0
30, 29, 1
30, 37, 0
30, 28, 0
30, 9, 0
8, 3, 0
8, 38, 0
8, 11, 0
8, 21, 0
8, 6, 0
8, 15, 0
8, 22, 0
15, 21, 0
15, 3, 0
15, 8, 0
15, 22, 0
19, 33, 0
19, 28, 0
19, 26, 0
19, 23, 0
19, 29, 0
22, 21, 1
22, 8, 0
22, 15, 0
36, 37, 1
36, 25, 0
36, 9, 0
0, 18, 0
0, 4, 0
0, 5, 0
0, 31, 0
0, 32, 0
38, 3, 0
38, 8, 0
38, 11, 0
3, 21, 0
3, 38, 0
3, 8, 0
3, 15, 0
16, 20, 0
16, 34, 0
16, 13, 0
16, 17, 0
16, 24, 0
6, 8, 0
6, 14, 0
6, 11, 0
6, 9, 0
10, 20, 0
10, 34, 0
10, 13, 0
10, 17, 0
10, 23, 0
10, 35, 0
10, 12, 0
7, 34, 0
7, 13, 0
7, 1, 0
34, 7, 0
34, 13, 0
34, 17, 0
34, 16, 0
34, 2, 0
34, 5, 0
34, 10, 0
34, 20, 0
34, 12, 0
34, 31, 0
34, 24, 0
34, 18, 0
25, 26, 1
25, 37, 0
25, 27, 1
25, 30, 0
25, 36, 0
25, 9, 0
33, 19, 0
33, 23, 0
32, 0, 0
32, 4, 0
32, 13, 0
32, 31, 0
32, 2, 0
32, 18, 0
27, 25, 1
27, 26, 1
37, 30, 0
37, 9, 0
37, 25, 0
37, 36, 1
29, 19, 0
29, 28, 0
29, 26, 0
29, 30, 1
2, 34, 0
2, 13, 0
2, 17, 0
2, 32, 0
2, 24, 0
2, 18, 0
26, 28, 0
26, 27, 1
26, 25, 1
26, 19, 0
26, 29, 0
26, 30, 0
18, 0, 0
18, 34, 0
18, 4, 0
18, 32, 0
18, 2, 0
18, 5, 0
9, 14, 0
9, 6, 0
9, 37, 0
9, 25, 0
9, 30, 0
9, 36, 0
