0, 6, 0
0, 3, 0
3, 0, 0
3, 6, 0
3, 7, 0
3, 1, 0
4, 7, 0
4, 1, 0
4, 5, 1
4, 2, 0
2, 7, 0
2, 4, 0
2, 1, 0
2, 8, 0
2, 5, 0
2, 9, 0
6, 0, 0
6, 3, 0
1, 7, 0
1, 3, 0
1, 4, 0
1, 5, 0
1, 2, 0
8, 2, 0
8, 5, 0
8, 9, 0
5, 7, 0
5, 1, 0
5, 8, 0
5, 4, 1
5, 2, 0
7, 2, 0
7, 3, 0
7, 4, 0
7, 5, 0
7, 1, 0
9, 8, 0
9, 2, 0
