0, 7, 0
0, 8, 0
3, 6, 0
3, 4, 0
3, 1, 0
4, 3, 0
4, 1, 0
4, 6, 0
7, 0, 0
7, 8, 0
7, 2, 0
2, 7, 0
6, 3, 0
6, 8, 0
6, 4, 0
6, 1, 0
8, 0, 0
8, 6, 0
8, 7, 0
8, 5, 0
5, 8, 0
5, 1, 0
1, 6, 0
1, 4, 0
1, 5, 0
1, 3, 0
