0, 3, 0
0, 8, 0
0, 1, 0
8, 0, 0
8, 3, 0
8, 1, 0
3, 0, 0
3, 8, 0
3, 2, 0
6, 7, 0
6, 9, 0
6, 10, 0
5, 12, 0
5, 4, 0
5, 11, 0
5, 1, 0
11, 12, 1
11, 5, 0
11, 1, 0
10, 6, 0
7, 6, 0
7, 4, 0
7, 9, 0
12, 5, 0
12, 11, 1
12, 1, 0
4, 7, 0
4, 9, 0
4, 5, 0
4, 1, 0
2, 3, 0
1, 0, 0
1, 12, 0
1, 4, 0
1, 8, 0
1, 5, 0
1, 11, 0
9, 7, 0
9, 6, 0
9, 4, 0
