0, 2, 0
8, 7, 0
8, 12, 0
8, 2, 0
8, 6, 0
3, 12, 0
3, 4, 1
3, 9, 0
3, 11, 0
3, 10, 0
6, 7, 1
6, 12, 0
6, 8, 0
5, 7, 0
5, 12, 0
5, 4, 1
5, 1, 0
5, 9, 0
5, 11, 0
5, 10, 0
11, 3, 0
11, 4, 0
11, 5, 0
11, 10, 0
11, 1, 0
10, 12, 0
10, 4, 0
10, 3, 0
10, 1, 0
10, 5, 0
10, 11, 0
10, 9, 1
7, 2, 0
7, 12, 0
7, 8, 0
7, 5, 0
7, 6, 1
12, 7, 0
12, 3, 0
12, 6, 0
12, 1, 0
12, 8, 0
12, 5, 0
12, 10, 0
12, 9, 0
4, 3, 1
4, 1, 0
4, 10, 0
4, 5, 1
4, 11, 0
4, 9, 0
2, 0, 0
2, 7, 0
2, 8, 0
1, 12, 0
1, 4, 0
1, 10, 0
1, 5, 0
1, 11, 0
1, 9, 0
9, 12, 0
9, 4, 0
9, 3, 0
9, 1, 0
9, 5, 0
9, 10, 1
