13, 0, 0
13, 3, 0
13, 4, 0
17, 18, 0
17, 4, 0
17, 23, 0
17, 9, 0
23, 17, 0
23, 9, 0
5, 20, 0
5, 14, 0
5, 24, 0
5, 21, 0
5, 19, 0
5, 2, 0
11, 6, 0
11, 8, 0
11, 15, 0
11, 10, 0
1, 16, 0
1, 22, 0
1, 10, 0
20, 21, 0
20, 19, 1
20, 24, 0
20, 5, 0
20, 2, 0
4, 18, 0
4, 3, 0
4, 13, 0
4, 17, 0
4, 0, 0
14, 21, 0
14, 5, 0
24, 20, 0
24, 19, 0
24, 5, 0
24, 2, 0
8, 15, 0
8, 11, 0
15, 7, 0
15, 12, 0
15, 8, 0
15, 11, 0
22, 16, 0
22, 10, 0
22, 1, 0
0, 7, 0
0, 3, 0
0, 13, 0
0, 4, 0
3, 0, 0
3, 13, 0
3, 4, 0
16, 21, 0
16, 22, 0
16, 1, 0
6, 11, 0
6, 10, 0
10, 6, 0
10, 11, 0
10, 22, 0
10, 1, 0
7, 0, 0
7, 12, 0
7, 15, 0
12, 7, 0
12, 15, 0
2, 20, 0
2, 21, 0
2, 19, 0
2, 5, 0
2, 24, 0
21, 20, 0
21, 14, 0
21, 2, 0
21, 16, 0
21, 19, 0
21, 5, 0
19, 20, 1
19, 21, 0
19, 2, 0
19, 5, 0
19, 24, 0
18, 4, 0
18, 17, 0
9, 17, 0
9, 23, 0
