0, 3, 0
3, 0, 0
3, 8, 0
3, 4, 0
3, 9, 0
4, 3, 0
4, 6, 0
4, 8, 0
4, 9, 0
4, 2, 0
2, 6, 0
2, 8, 0
2, 4, 0
6, 7, 0
6, 4, 0
6, 2, 0
6, 10, 0
6, 8, 0
6, 5, 0
6, 1, 0
1, 7, 0
1, 6, 0
1, 8, 0
1, 5, 0
1, 10, 0
8, 3, 0
8, 4, 0
8, 2, 0
8, 6, 0
8, 1, 0
8, 9, 1
5, 7, 0
5, 6, 0
5, 1, 0
5, 10, 0
7, 6, 0
7, 10, 0
7, 5, 0
7, 1, 0
10, 7, 0
10, 6, 0
10, 5, 0
10, 1, 0
9, 3, 0
9, 8, 1
9, 4, 0
