0, 7, 0
0, 12, 0
13, 6, 0
13, 5, 0
17, 12, 0
17, 4, 0
17, 14, 0
17, 1, 0
3, 16, 0
3, 6, 0
3, 15, 0
16, 3, 0
16, 8, 0
16, 15, 0
6, 3, 0
6, 13, 0
6, 5, 0
6, 2, 0
8, 16, 0
8, 10, 0
5, 6, 0
5, 13, 0
5, 2, 0
11, 9, 0
11, 14, 0
11, 10, 0
10, 8, 0
10, 14, 0
10, 11, 0
7, 0, 0
7, 12, 0
12, 0, 0
12, 7, 0
12, 17, 0
4, 14, 0
4, 17, 0
4, 1, 0
14, 4, 0
14, 17, 0
14, 1, 0
14, 9, 0
14, 11, 0
14, 10, 0
2, 6, 0
2, 5, 0
1, 14, 0
1, 4, 0
1, 17, 0
1, 9, 0
15, 16, 0
15, 3, 0
9, 14, 0
9, 11, 0
9, 1, 0
