0, 3, 0
0, 6, 0
0, 8, 0
0, 9, 0
0, 1, 0
3, 0, 0
3, 8, 0
3, 2, 1
4, 5, 0
2, 3, 1
2, 8, 0
2, 1, 0
6, 0, 0
6, 8, 0
6, 9, 0
1, 0, 0
1, 2, 0
1, 8, 0
1, 9, 0
8, 0, 0
8, 3, 0
8, 6, 0
8, 1, 0
8, 2, 0
5, 7, 0
5, 4, 0
5, 9, 0
7, 5, 0
7, 9, 0
9, 0, 0
9, 7, 0
9, 1, 0
9, 5, 0
9, 6, 0
