0, 6, 0
0, 8, 0
0, 5, 0
0, 4, 0
0, 9, 0
3, 1, 0
3, 10, 0
4, 0, 0
4, 5, 1
4, 9, 0
2, 7, 0
2, 8, 0
6, 0, 0
6, 10, 0
6, 5, 1
6, 9, 0
1, 3, 0
8, 0, 0
8, 2, 0
5, 0, 0
5, 6, 1
5, 4, 1
5, 9, 0
7, 2, 0
10, 3, 0
10, 6, 0
10, 9, 0
9, 0, 0
9, 6, 0
9, 4, 0
9, 5, 0
9, 10, 0
