0, 7, 0
0, 3, 0
0, 5, 0
3, 0, 0
3, 7, 0
3, 4, 0
3, 2, 0
3, 5, 0
3, 1, 0
4, 3, 0
4, 2, 0
4, 1, 0
7, 0, 0
7, 3, 0
7, 5, 0
7, 2, 0
2, 7, 0
2, 3, 0
2, 4, 0
2, 1, 1
6, 5, 0
5, 0, 0
5, 3, 0
5, 7, 0
5, 6, 0
1, 3, 0
1, 4, 0
1, 2, 1
