0, 2, 0
0, 6, 0
0, 10, 0
0, 5, 0
0, 9, 0
3, 2, 0
3, 4, 0
3, 10, 0
4, 2, 0
4, 3, 0
4, 10, 0
4, 1, 0
2, 0, 0
2, 3, 0
2, 4, 0
2, 6, 0
2, 1, 1
2, 10, 0
6, 0, 0
6, 7, 0
6, 2, 0
6, 8, 0
6, 9, 0
1, 4, 0
1, 2, 1
8, 7, 0
8, 6, 0
5, 0, 0
5, 10, 0
7, 6, 0
7, 8, 0
10, 0, 0
10, 3, 0
10, 4, 0
10, 5, 0
10, 2, 0
9, 0, 0
9, 6, 0
