0, 7, 0
0, 3, 0
0, 4, 0
0, 9, 0
0, 2, 0
0, 6, 0
0, 10, 0
0, 5, 0
0, 1, 0
3, 7, 0
3, 0, 0
3, 4, 1
3, 6, 0
3, 5, 0
3, 1, 0
4, 0, 0
4, 3, 1
4, 7, 0
4, 6, 0
4, 5, 0
4, 1, 0
2, 0, 0
2, 10, 0
2, 1, 1
6, 0, 0
6, 3, 0
6, 4, 0
6, 7, 1
6, 5, 0
6, 1, 0
1, 0, 0
1, 3, 0
1, 7, 0
1, 4, 0
1, 2, 1
1, 6, 0
1, 5, 0
8, 10, 0
8, 9, 1
5, 0, 0
5, 3, 0
5, 4, 0
5, 6, 0
5, 10, 0
5, 7, 0
5, 1, 0
7, 0, 0
7, 3, 0
7, 4, 0
7, 6, 1
7, 5, 0
7, 1, 0
10, 0, 0
10, 2, 0
10, 8, 0
10, 5, 0
10, 9, 0
9, 0, 0
9, 8, 1
9, 10, 0
