0, 2, 0
0, 10, 0
0, 8, 0
0, 9, 0
0, 1, 0
3, 7, 0
3, 4, 0
3, 6, 0
3, 10, 0
3, 5, 0
3, 1, 0
4, 7, 0
4, 3, 0
4, 5, 1
4, 6, 0
2, 0, 0
2, 8, 0
2, 10, 0
6, 7, 1
6, 3, 0
6, 4, 0
6, 5, 0
1, 0, 0
1, 3, 0
1, 10, 0
1, 9, 0
8, 0, 0
8, 2, 0
5, 7, 0
5, 3, 0
5, 4, 1
5, 6, 0
7, 3, 0
7, 4, 0
7, 5, 0
7, 6, 1
10, 0, 0
10, 3, 0
10, 1, 0
10, 2, 0
9, 0, 0
9, 1, 0
