13, 16, 0
13, 14, 1
13, 11, 0
17, 0, 0
17, 12, 0
17, 18, 0
5, 18, 0
5, 8, 0
5, 4, 0
11, 3, 0
11, 13, 0
11, 14, 0
11, 2, 0
11, 16, 0
11, 15, 0
1, 6, 0
1, 2, 0
20, 21, 1
20, 12, 0
20, 9, 0
4, 18, 0
4, 8, 0
4, 5, 0
14, 3, 0
14, 13, 1
14, 16, 0
14, 8, 0
14, 15, 1
14, 11, 0
8, 3, 0
8, 4, 0
8, 14, 0
8, 16, 0
8, 15, 0
8, 5, 0
8, 18, 0
15, 16, 0
15, 3, 0
15, 8, 0
15, 14, 1
15, 11, 0
22, 21, 1
22, 12, 0
22, 9, 0
0, 18, 0
0, 17, 0
3, 16, 0
3, 15, 0
3, 8, 0
3, 14, 0
3, 11, 0
16, 3, 0
16, 13, 0
16, 14, 0
16, 8, 0
16, 15, 0
16, 11, 0
6, 7, 0
6, 2, 0
6, 19, 0
6, 1, 0
6, 10, 0
10, 7, 0
10, 6, 0
10, 19, 0
7, 6, 0
7, 19, 0
7, 10, 0
12, 20, 0
12, 21, 0
12, 17, 0
12, 22, 0
12, 9, 0
2, 6, 0
2, 11, 0
2, 1, 0
21, 20, 1
21, 12, 0
21, 22, 1
21, 9, 0
19, 7, 0
19, 6, 0
19, 10, 0
18, 0, 0
18, 8, 0
18, 17, 0
18, 5, 0
18, 4, 0
9, 20, 0
9, 12, 0
9, 22, 0
9, 21, 0
