13, 27, 0
13, 11, 0
13, 26, 0
17, 16, 0
17, 3, 0
17, 15, 0
17, 5, 0
23, 18, 0
23, 20, 0
23, 22, 0
23, 0, 0
2, 7, 0
2, 21, 0
2, 19, 0
2, 25, 0
5, 16, 0
5, 15, 0
5, 17, 0
5, 3, 0
5, 9, 0
11, 0, 0
11, 20, 0
11, 13, 0
11, 26, 0
11, 24, 0
11, 27, 0
1, 21, 0
20, 0, 0
20, 11, 0
20, 23, 0
20, 24, 0
20, 18, 0
20, 22, 0
4, 18, 0
4, 3, 0
14, 7, 0
14, 6, 0
14, 8, 0
14, 25, 0
14, 12, 0
24, 20, 0
24, 0, 0
24, 11, 0
24, 18, 0
24, 22, 0
8, 12, 0
8, 14, 0
8, 9, 0
15, 16, 1
15, 17, 0
15, 5, 0
22, 20, 0
22, 18, 0
22, 23, 0
22, 24, 0
0, 20, 0
0, 18, 0
0, 11, 0
0, 23, 0
0, 24, 0
3, 18, 0
3, 4, 0
3, 17, 0
3, 5, 0
16, 15, 1
16, 17, 0
16, 5, 0
6, 7, 0
6, 12, 0
6, 14, 0
6, 25, 0
6, 21, 0
10, 26, 0
7, 25, 0
7, 2, 0
7, 21, 0
7, 6, 0
7, 19, 0
7, 14, 0
12, 6, 0
12, 8, 0
12, 14, 0
25, 7, 0
25, 6, 0
25, 21, 0
25, 14, 0
25, 2, 0
26, 13, 0
26, 11, 0
26, 10, 0
27, 13, 0
27, 11, 0
21, 7, 0
21, 25, 0
21, 2, 0
21, 6, 0
21, 19, 0
21, 1, 0
19, 7, 0
19, 21, 0
19, 2, 0
18, 20, 0
18, 0, 0
18, 4, 0
18, 23, 0
18, 3, 0
18, 24, 0
18, 22, 0
9, 8, 0
9, 5, 0
