0, 7, 0
0, 1, 0
0, 8, 0
0, 9, 0
13, 12, 1
13, 14, 0
13, 2, 0
13, 6, 0
13, 9, 0
13, 5, 0
13, 10, 0
3, 6, 0
3, 4, 0
3, 5, 0
3, 11, 0
3, 2, 0
6, 12, 0
6, 13, 0
6, 14, 0
6, 3, 0
6, 2, 0
6, 10, 0
6, 11, 0
6, 9, 0
8, 0, 0
8, 7, 1
8, 9, 0
8, 1, 0
5, 12, 0
5, 13, 0
5, 3, 0
5, 4, 0
5, 2, 0
5, 11, 0
5, 10, 0
11, 12, 1
11, 14, 0
11, 3, 0
11, 2, 0
11, 6, 0
11, 9, 0
11, 5, 0
11, 10, 0
10, 12, 0
10, 13, 0
10, 2, 0
10, 6, 0
10, 5, 0
10, 11, 0
7, 0, 0
7, 8, 1
7, 1, 0
12, 13, 1
12, 14, 0
12, 2, 0
12, 6, 0
12, 9, 0
12, 5, 0
12, 11, 1
12, 10, 0
4, 3, 0
4, 5, 0
4, 2, 0
14, 12, 0
14, 13, 0
14, 2, 0
14, 6, 0
14, 11, 0
14, 9, 0
2, 12, 0
2, 13, 0
2, 14, 0
2, 4, 0
2, 3, 0
2, 6, 0
2, 9, 0
2, 5, 0
2, 11, 0
2, 10, 0
1, 0, 0
1, 7, 0
1, 8, 0
9, 0, 0
9, 12, 0
9, 13, 0
9, 14, 0
9, 2, 0
9, 6, 0
9, 8, 0
9, 11, 0
