13, 21, 0
13, 8, 0
13, 14, 1
17, 7, 0
17, 3, 0
17, 4, 0
17, 25, 0
17, 12, 0
17, 18, 1
17, 6, 0
17, 24, 0
17, 15, 0
17, 0, 0
23, 0, 0
23, 16, 0
23, 22, 1
23, 24, 0
5, 7, 0
5, 20, 0
5, 26, 0
5, 6, 1
5, 15, 0
5, 11, 0
5, 10, 0
11, 24, 0
11, 12, 0
11, 25, 0
11, 26, 0
11, 2, 0
11, 16, 0
11, 8, 0
11, 15, 0
11, 5, 0
11, 1, 0
1, 12, 0
1, 8, 0
1, 25, 0
1, 22, 0
1, 26, 0
1, 24, 0
1, 16, 0
1, 2, 0
1, 15, 0
1, 11, 0
20, 26, 0
20, 21, 0
20, 6, 0
20, 19, 1
20, 8, 0
20, 15, 0
20, 5, 0
20, 10, 0
20, 9, 0
4, 7, 0
4, 3, 1
4, 17, 0
4, 12, 0
4, 18, 0
4, 25, 0
4, 24, 0
4, 15, 0
4, 0, 0
14, 7, 0
14, 3, 0
14, 13, 1
14, 21, 0
14, 19, 0
14, 8, 0
14, 10, 0
14, 9, 0
24, 0, 0
24, 17, 0
24, 23, 0
24, 3, 0
24, 16, 0
24, 11, 0
24, 1, 0
24, 12, 0
24, 4, 0
24, 19, 0
24, 10, 0
24, 18, 0
24, 22, 0
24, 9, 0
8, 7, 0
8, 13, 0
8, 11, 0
8, 10, 0
8, 20, 0
8, 3, 0
8, 14, 0
8, 2, 0
8, 21, 0
8, 19, 0
8, 1, 0
8, 9, 0
15, 7, 0
15, 17, 0
15, 18, 0
15, 6, 0
15, 5, 0
15, 11, 0
15, 1, 0
15, 20, 0
15, 3, 0
15, 4, 0
15, 25, 0
15, 26, 0
15, 19, 0
15, 10, 0
15, 9, 0
22, 0, 0
22, 16, 0
22, 24, 0
22, 23, 1
22, 1, 0
0, 7, 0
0, 3, 0
0, 4, 0
0, 17, 0
0, 23, 0
0, 24, 0
0, 16, 0
0, 19, 0
0, 22, 0
0, 9, 0
3, 0, 0
3, 17, 0
3, 18, 0
3, 6, 0
3, 2, 0
3, 7, 0
3, 12, 0
3, 4, 1
3, 14, 0
3, 24, 0
3, 25, 0
3, 8, 0
3, 15, 0
3, 9, 0
16, 0, 0
16, 11, 0
16, 23, 0
16, 24, 0
16, 22, 0
16, 1, 0
6, 7, 0
6, 3, 0
6, 17, 0
6, 26, 0
6, 21, 0
6, 19, 0
6, 9, 0
6, 15, 0
6, 5, 1
6, 20, 0
6, 10, 0
10, 7, 0
10, 6, 0
10, 24, 0
10, 5, 0
10, 20, 0
10, 12, 0
10, 14, 0
10, 26, 0
10, 2, 0
10, 21, 0
10, 25, 0
10, 19, 0
10, 8, 0
10, 15, 0
10, 9, 1
7, 0, 0
7, 17, 0
7, 12, 0
7, 18, 0
7, 6, 0
7, 5, 0
7, 10, 0
7, 3, 0
7, 4, 0
7, 14, 0
7, 26, 0
7, 2, 0
7, 21, 0
7, 25, 0
7, 19, 0
7, 8, 0
7, 15, 0
7, 9, 0
12, 17, 0
12, 18, 0
12, 11, 0
12, 10, 0
12, 7, 0
12, 3, 0
12, 4, 0
12, 25, 0
12, 24, 0
12, 19, 0
12, 1, 0
12, 9, 0
25, 7, 0
25, 3, 0
25, 4, 0
25, 17, 0
25, 9, 0
25, 12, 0
25, 19, 0
25, 10, 0
25, 15, 0
25, 11, 0
25, 1, 0
26, 7, 0
26, 6, 0
26, 5, 0
26, 11, 0
26, 10, 0
26, 20, 0
26, 2, 0
26, 21, 0
26, 19, 0
26, 1, 0
26, 15, 0
26, 9, 0
2, 7, 0
2, 3, 0
2, 9, 0
2, 26, 0
2, 21, 0
2, 19, 0
2, 8, 0
2, 10, 0
2, 11, 0
2, 1, 0
21, 20, 0
21, 7, 0
21, 13, 0
21, 14, 0
21, 9, 0
21, 26, 0
21, 2, 0
21, 6, 0
21, 19, 0
21, 8, 0
21, 10, 0
19, 0, 0
19, 7, 0
19, 6, 0
19, 24, 0
19, 10, 0
19, 20, 1
19, 12, 0
19, 14, 0
19, 26, 0
19, 2, 0
19, 21, 0
19, 25, 0
19, 8, 0
19, 15, 0
19, 9, 0
18, 7, 0
18, 3, 0
18, 4, 0
18, 17, 1
18, 24, 0
18, 15, 0
18, 12, 0
9, 0, 0
9, 7, 0
9, 12, 0
9, 6, 0
9, 24, 0
9, 10, 1
9, 20, 0
9, 3, 0
9, 14, 0
9, 26, 0
9, 2, 0
9, 21, 0
9, 25, 0
9, 19, 0
9, 8, 0
9, 15, 0
