2, 0, 0
2, 7, 0
2, 23, 0
2, 6, 0
2, 5, 0
2, 1, 0
2, 20, 0
2, 4, 0
2, 14, 0
2, 25, 0
2, 19, 0
2, 15, 0
13, 3, 0
13, 23, 0
17, 16, 1
17, 18, 0
17, 26, 0
17, 9, 0
23, 3, 0
23, 13, 0
23, 14, 0
23, 4, 0
23, 2, 0
23, 5, 0
23, 1, 0
29, 12, 0
29, 8, 0
29, 11, 0
5, 0, 0
5, 4, 1
5, 14, 0
5, 23, 0
5, 2, 0
5, 6, 1
5, 1, 0
11, 3, 0
11, 26, 0
11, 29, 0
11, 27, 0
11, 10, 1
11, 9, 0
1, 0, 1
1, 4, 0
1, 14, 0
1, 23, 0
1, 2, 0
1, 25, 0
1, 5, 0
20, 25, 0
20, 24, 0
20, 21, 0
20, 19, 1
20, 2, 0
20, 15, 0
4, 0, 0
4, 14, 0
4, 23, 0
4, 2, 0
4, 6, 1
4, 5, 1
4, 1, 0
14, 0, 0
14, 4, 0
14, 23, 0
14, 2, 0
14, 5, 0
14, 1, 0
24, 20, 0
24, 15, 0
24, 19, 0
24, 25, 1
24, 21, 0
28, 12, 0
28, 26, 0
8, 7, 0
8, 12, 0
8, 29, 0
15, 20, 0
15, 25, 0
15, 2, 0
15, 21, 0
15, 19, 0
15, 24, 0
22, 21, 1
0, 4, 0
0, 14, 0
0, 2, 0
0, 25, 0
0, 5, 0
0, 1, 1
12, 7, 0
12, 8, 0
12, 28, 0
12, 26, 0
12, 29, 0
16, 18, 0
16, 17, 1
16, 26, 0
16, 9, 0
6, 4, 1
6, 5, 1
6, 2, 0
10, 27, 0
10, 11, 1
10, 3, 0
7, 12, 0
7, 26, 0
7, 2, 0
7, 27, 0
7, 8, 0
7, 9, 0
3, 27, 0
3, 13, 0
3, 11, 0
3, 23, 0
3, 10, 0
25, 20, 0
25, 0, 0
25, 24, 1
25, 21, 0
25, 19, 0
25, 2, 0
25, 15, 0
25, 1, 0
26, 7, 0
26, 12, 0
26, 28, 0
26, 16, 0
26, 17, 0
26, 18, 0
26, 11, 0
26, 9, 0
27, 7, 0
27, 3, 0
27, 9, 0
27, 11, 0
27, 10, 0
21, 20, 0
21, 25, 0
21, 24, 0
21, 19, 0
21, 15, 0
21, 22, 1
19, 20, 1
19, 25, 0
19, 24, 0
19, 21, 0
19, 2, 0
19, 15, 0
18, 16, 0
18, 17, 0
18, 26, 0
18, 9, 0
9, 7, 0
9, 18, 0
9, 17, 0
9, 26, 0
9, 16, 0
9, 27, 0
9, 11, 0
