0, 3, 0
0, 8, 0
0, 11, 0
0, 4, 0
0, 2, 0
6, 7, 0
6, 10, 0
6, 9, 0
6, 5, 0
6, 1, 0
1, 6, 0
1, 5, 0
1, 11, 0
1, 9, 0
5, 7, 0
5, 6, 0
5, 1, 0
11, 0, 0
11, 8, 0
11, 9, 0
11, 10, 0
11, 1, 0
10, 3, 0
10, 4, 0
10, 2, 0
10, 6, 0
10, 8, 0
10, 11, 0
10, 9, 0
7, 6, 0
7, 5, 0
3, 0, 0
3, 8, 0
3, 10, 0
3, 4, 1
3, 2, 1
4, 0, 0
4, 3, 1
4, 8, 0
4, 10, 0
2, 0, 0
2, 3, 1
2, 8, 0
2, 10, 0
8, 0, 0
8, 3, 0
8, 4, 0
8, 2, 0
8, 11, 0
8, 10, 0
9, 6, 0
9, 10, 0
9, 11, 0
9, 1, 0
