0, 7, 0
0, 12, 0
0, 14, 0
0, 6, 0
0, 1, 0
0, 8, 0
0, 5, 0
0, 11, 0
0, 10, 0
13, 7, 0
13, 3, 0
13, 2, 0
13, 6, 0
13, 8, 0
13, 10, 0
3, 7, 0
3, 13, 0
3, 14, 0
3, 2, 0
3, 6, 0
3, 8, 0
3, 10, 0
6, 7, 1
6, 3, 0
6, 13, 0
6, 14, 0
6, 10, 0
6, 0, 0
8, 7, 1
8, 3, 0
8, 13, 0
8, 14, 0
8, 0, 0
8, 10, 0
5, 0, 0
5, 12, 0
5, 14, 0
11, 0, 0
11, 4, 0
11, 14, 0
11, 2, 0
11, 9, 0
11, 10, 0
10, 0, 0
10, 7, 0
10, 13, 0
10, 14, 0
10, 3, 0
10, 2, 0
10, 6, 0
10, 8, 0
10, 11, 0
7, 0, 0
7, 3, 0
7, 13, 0
7, 14, 0
7, 6, 1
7, 8, 1
7, 10, 0
12, 0, 0
12, 5, 0
12, 1, 0
4, 9, 0
4, 11, 0
4, 2, 0
14, 0, 0
14, 7, 0
14, 3, 0
14, 6, 0
14, 8, 0
14, 5, 0
14, 11, 0
14, 10, 0
2, 3, 0
2, 13, 0
2, 4, 0
2, 9, 0
2, 11, 0
2, 10, 0
1, 0, 0
1, 12, 0
9, 4, 0
9, 11, 0
9, 2, 0
