0, 12, 0
0, 4, 0
0, 6, 0
0, 8, 0
0, 11, 0
0, 10, 0
13, 12, 0
13, 2, 0
13, 6, 0
13, 10, 0
13, 8, 0
13, 5, 0
13, 11, 0
13, 1, 0
3, 7, 0
3, 9, 0
6, 0, 0
6, 12, 0
6, 13, 0
6, 8, 0
6, 11, 0
6, 10, 0
8, 0, 0
8, 12, 0
8, 13, 0
8, 4, 0
8, 2, 0
8, 6, 0
8, 1, 0
8, 5, 0
8, 11, 0
8, 10, 0
5, 12, 0
5, 8, 0
5, 13, 0
5, 11, 0
5, 4, 0
11, 0, 0
11, 12, 1
11, 13, 0
11, 2, 0
11, 6, 0
11, 8, 0
11, 5, 0
11, 1, 0
10, 0, 0
10, 12, 1
10, 13, 0
10, 2, 0
10, 6, 0
10, 8, 0
10, 1, 0
7, 3, 0
7, 9, 0
7, 2, 0
12, 0, 0
12, 13, 0
12, 2, 0
12, 6, 0
12, 1, 0
12, 8, 0
12, 5, 0
12, 11, 1
12, 10, 1
4, 0, 0
4, 8, 0
4, 5, 0
2, 7, 0
2, 12, 0
2, 13, 0
2, 1, 0
2, 8, 0
2, 11, 0
2, 10, 0
1, 12, 0
1, 13, 0
1, 2, 0
1, 8, 0
1, 11, 0
1, 10, 0
9, 7, 0
9, 3, 0
