0, 3, 0
0, 9, 0
0, 5, 0
0, 11, 0
0, 1, 1
6, 7, 1
6, 9, 0
6, 10, 0
1, 0, 1
1, 3, 0
1, 2, 1
1, 5, 0
1, 11, 0
1, 9, 0
5, 0, 0
5, 3, 0
5, 4, 0
5, 9, 0
5, 2, 0
5, 8, 0
5, 11, 0
5, 1, 0
11, 0, 0
11, 3, 0
11, 7, 0
11, 2, 0
11, 10, 0
11, 1, 0
11, 5, 0
11, 9, 0
10, 7, 0
10, 6, 0
10, 11, 0
10, 9, 0
7, 6, 1
7, 9, 0
7, 11, 0
7, 10, 0
3, 0, 0
3, 9, 0
3, 2, 0
3, 8, 0
3, 5, 0
3, 11, 0
3, 1, 0
4, 8, 0
4, 5, 0
2, 3, 0
2, 9, 0
2, 5, 0
2, 11, 0
2, 1, 1
8, 3, 0
8, 4, 0
8, 5, 0
8, 9, 0
9, 0, 0
9, 7, 0
9, 3, 0
9, 2, 0
9, 6, 0
9, 10, 0
9, 8, 0
9, 5, 0
9, 11, 0
9, 1, 0
