0, 12, 0
0, 10, 0
0, 5, 0
0, 1, 1
13, 6, 0
13, 5, 0
13, 11, 0
3, 12, 0
3, 9, 0
3, 2, 0
3, 1, 0
3, 8, 0
3, 5, 0
3, 10, 0
6, 13, 0
8, 7, 0
8, 3, 0
8, 9, 0
8, 10, 0
5, 0, 0
5, 12, 0
5, 13, 0
5, 3, 0
5, 2, 0
5, 10, 0
5, 11, 0
5, 1, 0
11, 12, 0
11, 13, 0
11, 5, 0
10, 0, 0
10, 12, 0
10, 9, 0
10, 3, 0
10, 2, 0
10, 8, 0
10, 5, 0
10, 1, 0
7, 8, 0
7, 4, 0
12, 0, 0
12, 3, 0
12, 2, 0
12, 10, 0
12, 5, 0
12, 11, 0
12, 1, 0
4, 7, 0
4, 14, 0
14, 4, 0
2, 12, 0
2, 3, 0
2, 10, 0
2, 5, 0
2, 1, 1
1, 0, 1
1, 12, 0
1, 3, 0
1, 2, 1
1, 5, 0
1, 10, 0
9, 3, 0
9, 8, 0
9, 10, 0
