0, 3, 0
0, 13, 0
0, 14, 0
0, 2, 0
0, 6, 0
0, 8, 0
0, 10, 0
0, 9, 0
13, 0, 0
13, 3, 0
13, 9, 0
13, 14, 1
13, 10, 0
3, 0, 0
3, 13, 0
3, 14, 0
3, 10, 0
3, 15, 0
3, 9, 0
6, 0, 0
6, 1, 0
6, 10, 0
6, 5, 1
6, 2, 0
8, 0, 0
8, 12, 0
8, 7, 1
8, 4, 0
8, 2, 0
8, 11, 0
8, 1, 0
5, 2, 0
5, 6, 1
5, 10, 0
5, 11, 0
5, 1, 0
11, 7, 0
11, 12, 0
11, 4, 0
11, 2, 0
11, 10, 0
11, 8, 0
11, 5, 0
11, 1, 0
10, 0, 0
10, 13, 0
10, 3, 0
10, 6, 0
10, 5, 0
10, 11, 0
10, 1, 0
10, 12, 0
10, 14, 0
10, 2, 0
10, 15, 0
10, 9, 0
7, 12, 0
7, 4, 0
7, 2, 0
7, 8, 1
7, 11, 0
7, 1, 0
12, 7, 0
12, 4, 0
12, 2, 0
12, 8, 0
12, 10, 0
12, 11, 0
12, 1, 0
4, 7, 0
4, 12, 0
4, 2, 0
4, 8, 0
4, 11, 0
4, 1, 0
14, 0, 0
14, 3, 0
14, 13, 1
14, 10, 0
14, 15, 1
14, 9, 0
2, 0, 0
2, 12, 0
2, 7, 0
2, 4, 0
2, 10, 0
2, 6, 0
2, 8, 0
2, 5, 0
2, 11, 0
2, 1, 1
1, 7, 0
1, 12, 0
1, 4, 0
1, 2, 1
1, 6, 0
1, 8, 0
1, 5, 0
1, 11, 0
1, 10, 0
15, 3, 0
15, 9, 0
15, 14, 1
15, 10, 0
9, 0, 0
9, 3, 0
9, 13, 0
9, 14, 0
9, 15, 0
9, 10, 0
