0, 2, 0
0, 3, 0
0, 10, 0
0, 1, 0
8, 7, 0
8, 4, 0
8, 9, 0
8, 1, 0
3, 0, 0
3, 1, 0
3, 10, 0
3, 2, 1
6, 12, 0
6, 5, 0
6, 11, 0
6, 9, 0
5, 12, 0
5, 11, 0
5, 6, 0
11, 12, 0
11, 5, 0
11, 6, 0
10, 0, 0
10, 3, 0
10, 2, 0
7, 12, 0
7, 1, 0
7, 8, 0
7, 4, 0
7, 9, 0
12, 7, 0
12, 6, 0
12, 5, 0
12, 11, 0
12, 9, 0
4, 7, 0
4, 8, 0
4, 9, 0
4, 1, 0
2, 0, 0
2, 3, 1
2, 10, 0
1, 0, 0
1, 7, 0
1, 8, 0
1, 4, 0
1, 3, 0
9, 7, 0
9, 12, 0
9, 8, 0
9, 4, 0
9, 6, 0
