0, 6, 0
0, 10, 0
0, 1, 0
6, 7, 1
6, 0, 0
6, 1, 0
6, 4, 0
6, 9, 0
1, 0, 0
1, 6, 0
1, 9, 0
5, 3, 0
5, 11, 0
5, 2, 0
11, 3, 0
11, 2, 0
11, 5, 0
11, 10, 0
10, 0, 0
10, 3, 0
10, 11, 0
10, 2, 0
7, 6, 1
7, 8, 1
7, 4, 0
7, 9, 0
3, 10, 0
3, 5, 0
3, 11, 0
3, 2, 1
4, 7, 0
4, 6, 0
4, 8, 0
4, 9, 0
2, 3, 1
2, 5, 0
2, 11, 0
2, 10, 0
8, 7, 1
8, 4, 0
9, 7, 0
9, 6, 0
9, 4, 0
9, 1, 0
