0, 8, 0
0, 1, 0
3, 7, 0
3, 6, 0
3, 2, 0
3, 5, 0
3, 9, 0
4, 6, 0
4, 5, 0
2, 7, 0
2, 3, 0
2, 5, 0
6, 7, 0
6, 3, 0
6, 4, 0
6, 8, 0
6, 5, 0
6, 1, 0
1, 0, 0
1, 6, 0
8, 0, 0
8, 6, 0
8, 9, 0
5, 7, 0
5, 3, 0
5, 6, 0
5, 4, 0
5, 2, 0
7, 3, 0
7, 6, 0
7, 5, 0
7, 2, 0
9, 3, 0
9, 8, 0
