0, 7, 0
0, 4, 0
0, 13, 0
0, 2, 0
0, 6, 0
0, 14, 0
0, 9, 0
0, 5, 0
0, 11, 0
0, 10, 0
13, 0, 0
13, 7, 0
13, 11, 0
13, 9, 0
3, 4, 0
3, 2, 0
3, 8, 0
3, 15, 0
3, 5, 0
3, 11, 0
6, 0, 0
6, 4, 0
6, 14, 0
6, 2, 0
6, 5, 0
6, 11, 0
6, 9, 0
8, 12, 0
8, 11, 0
8, 3, 0
5, 0, 0
5, 3, 0
5, 4, 1
5, 9, 0
5, 2, 0
5, 6, 0
5, 1, 0
5, 15, 0
5, 11, 0
5, 12, 0
11, 0, 0
11, 13, 0
11, 3, 0
11, 6, 0
11, 5, 0
11, 1, 0
11, 12, 0
11, 4, 0
11, 2, 0
11, 8, 0
11, 15, 0
11, 10, 0
11, 9, 0
10, 0, 0
10, 7, 0
10, 9, 0
10, 11, 0
10, 1, 0
7, 0, 0
7, 13, 0
7, 9, 0
7, 10, 0
12, 4, 0
12, 9, 0
12, 8, 0
12, 5, 0
12, 11, 0
12, 1, 0
4, 0, 0
4, 3, 0
4, 2, 0
4, 6, 0
4, 9, 0
4, 15, 0
4, 5, 1
4, 11, 0
4, 12, 0
14, 0, 0
14, 6, 0
14, 2, 0
2, 0, 0
2, 3, 0
2, 4, 0
2, 14, 0
2, 6, 0
2, 15, 0
2, 5, 0
2, 11, 0
2, 9, 0
1, 12, 0
1, 9, 0
1, 5, 0
1, 11, 0
1, 10, 0
15, 3, 0
15, 4, 0
15, 5, 0
15, 11, 0
15, 2, 0
9, 0, 0
9, 7, 0
9, 13, 0
9, 4, 0
9, 12, 0
9, 6, 0
9, 10, 0
9, 2, 0
9, 5, 0
9, 11, 0
9, 1, 0
