13, 7, 0
13, 22, 0
13, 2, 0
13, 6, 0
13, 11, 0
13, 9, 0
17, 20, 0
17, 21, 0
17, 12, 0
17, 16, 1
17, 5, 0
17, 0, 0
5, 0, 0
5, 21, 0
5, 17, 0
5, 12, 0
5, 16, 0
5, 20, 0
5, 10, 0
11, 7, 0
11, 13, 0
11, 4, 0
11, 2, 0
11, 6, 0
11, 1, 0
11, 8, 0
11, 9, 0
1, 4, 0
1, 8, 0
1, 11, 0
1, 9, 0
20, 0, 0
20, 21, 1
20, 17, 0
20, 12, 0
20, 16, 0
20, 5, 0
20, 10, 0
4, 8, 0
4, 9, 0
4, 11, 0
4, 1, 0
14, 19, 0
14, 22, 0
14, 2, 0
8, 1, 0
8, 4, 0
8, 11, 0
8, 9, 0
15, 18, 0
15, 3, 0
15, 2, 0
22, 19, 0
22, 13, 0
22, 14, 0
22, 2, 0
0, 20, 0
0, 12, 0
0, 17, 0
0, 21, 0
0, 16, 0
0, 5, 0
0, 10, 0
3, 19, 0
3, 15, 0
16, 20, 0
16, 0, 0
16, 17, 1
16, 12, 0
16, 21, 0
16, 5, 0
16, 10, 0
6, 7, 1
6, 13, 0
6, 9, 0
6, 11, 0
6, 2, 0
10, 20, 0
10, 0, 0
10, 12, 0
10, 16, 0
10, 5, 0
10, 18, 0
7, 6, 1
7, 13, 0
7, 11, 0
12, 20, 0
12, 0, 0
12, 17, 0
12, 21, 0
12, 16, 0
12, 5, 0
12, 10, 0
2, 13, 0
2, 14, 0
2, 11, 0
2, 6, 0
2, 19, 0
2, 15, 0
2, 22, 0
2, 9, 0
21, 20, 1
21, 0, 0
21, 17, 0
21, 12, 0
21, 16, 0
21, 5, 0
19, 3, 0
19, 14, 0
19, 22, 0
19, 2, 0
18, 15, 0
18, 10, 0
9, 4, 0
9, 13, 0
9, 2, 0
9, 6, 0
9, 8, 0
9, 11, 0
9, 1, 0
