12, 33, 0
12, 22, 0
12, 23, 0
13, 3, 0
13, 26, 0
17, 18, 0
17, 19, 0
17, 26, 0
31, 27, 0
31, 4, 0
31, 14, 0
23, 12, 0
23, 22, 0
24, 34, 0
24, 9, 0
24, 41, 0
24, 35, 0
40, 21, 0
40, 37, 0
40, 36, 0
40, 25, 0
40, 10, 0
5, 16, 0
5, 8, 0
5, 15, 0
5, 11, 0
11, 16, 0
11, 8, 0
11, 5, 0
11, 41, 0
30, 9, 0
30, 29, 1
20, 7, 0
20, 32, 0
20, 2, 0
21, 37, 0
21, 25, 0
21, 36, 0
21, 40, 0
21, 10, 0
4, 42, 0
4, 14, 0
4, 31, 0
4, 27, 0
14, 27, 0
14, 4, 0
14, 31, 0
35, 34, 1
35, 41, 0
35, 24, 0
42, 7, 0
42, 4, 0
1, 38, 0
1, 28, 0
1, 39, 0
1, 33, 0
15, 16, 1
15, 8, 0
15, 5, 0
41, 34, 0
41, 35, 0
41, 11, 0
41, 24, 0
22, 12, 0
22, 33, 0
22, 23, 0
22, 32, 0
22, 2, 0
36, 37, 0
36, 21, 0
36, 40, 0
36, 25, 0
36, 10, 0
0, 18, 0
0, 8, 0
7, 20, 0
7, 42, 0
7, 32, 0
7, 2, 0
6, 37, 0
8, 0, 0
8, 18, 0
8, 16, 0
8, 19, 0
8, 15, 0
8, 5, 0
8, 11, 0
38, 33, 0
38, 39, 1
38, 1, 0
3, 13, 0
3, 26, 0
16, 8, 0
16, 15, 1
16, 5, 0
16, 11, 0
39, 33, 0
39, 38, 1
39, 1, 0
18, 0, 0
18, 19, 0
18, 8, 0
18, 17, 0
18, 26, 0
27, 4, 0
27, 14, 0
27, 31, 0
27, 29, 0
28, 10, 0
28, 1, 0
34, 35, 1
34, 41, 0
34, 24, 0
25, 21, 0
25, 37, 0
25, 10, 0
25, 40, 0
25, 36, 0
33, 12, 0
33, 39, 0
33, 38, 0
33, 22, 0
33, 1, 0
32, 20, 0
32, 7, 0
32, 22, 0
32, 2, 0
2, 20, 0
2, 7, 0
2, 32, 0
2, 22, 0
37, 21, 0
37, 6, 0
37, 40, 0
37, 25, 0
37, 36, 0
29, 27, 0
29, 9, 0
29, 30, 1
19, 18, 0
19, 8, 0
19, 17, 0
19, 26, 0
26, 18, 0
26, 3, 0
26, 19, 0
26, 13, 0
26, 17, 0
10, 21, 0
10, 40, 0
10, 28, 0
10, 25, 0
10, 36, 0
9, 29, 0
9, 30, 0
9, 24, 0
