13, 20, 0
13, 8, 0
13, 15, 0
17, 2, 0
17, 14, 0
17, 5, 0
17, 1, 0
23, 5, 0
23, 2, 0
5, 17, 0
5, 23, 0
5, 2, 0
11, 12, 0
11, 8, 0
1, 14, 0
1, 17, 0
20, 12, 0
20, 8, 0
20, 13, 0
4, 19, 0
4, 8, 0
4, 15, 0
14, 17, 0
14, 1, 0
8, 20, 0
8, 12, 0
8, 13, 0
8, 4, 0
8, 15, 0
8, 11, 0
15, 8, 0
15, 13, 0
15, 4, 0
22, 21, 1
22, 0, 0
22, 9, 0
22, 2, 0
0, 21, 0
0, 2, 0
0, 22, 0
0, 9, 0
3, 7, 0
3, 19, 0
16, 18, 0
16, 6, 0
16, 7, 0
16, 9, 0
16, 10, 0
6, 16, 0
6, 18, 0
6, 10, 0
6, 9, 0
10, 16, 0
10, 6, 0
10, 7, 0
10, 18, 0
7, 16, 0
7, 3, 0
7, 18, 0
7, 10, 0
12, 20, 0
12, 8, 0
12, 11, 0
2, 0, 0
2, 17, 0
2, 23, 0
2, 21, 0
2, 5, 0
2, 22, 0
21, 0, 0
21, 22, 1
21, 2, 0
19, 3, 0
19, 4, 0
18, 16, 0
18, 6, 0
18, 7, 0
18, 10, 0
9, 0, 0
9, 16, 0
9, 22, 0
9, 6, 0
