0, 12, 0
0, 4, 0
0, 13, 0
0, 11, 0
13, 0, 0
13, 12, 0
13, 11, 0
3, 4, 0
3, 9, 0
6, 14, 0
6, 5, 0
6, 10, 0
8, 7, 1
8, 2, 0
8, 1, 0
5, 6, 0
5, 10, 0
11, 0, 0
11, 12, 1
11, 13, 0
10, 6, 0
10, 5, 0
7, 2, 0
7, 8, 1
7, 9, 0
7, 1, 0
12, 0, 0
12, 13, 0
12, 11, 1
4, 0, 0
4, 3, 0
4, 9, 0
14, 6, 0
14, 1, 0
2, 7, 0
2, 8, 0
2, 9, 0
2, 1, 0
1, 7, 0
1, 8, 0
1, 14, 0
1, 9, 0
1, 2, 0
9, 7, 0
9, 3, 0
9, 2, 0
9, 4, 0
9, 1, 0
