0, 6, 0
0, 9, 0
0, 1, 1
8, 12, 0
8, 2, 0
3, 7, 0
3, 12, 0
3, 11, 0
3, 10, 0
6, 0, 0
6, 9, 0
6, 1, 0
5, 2, 0
11, 3, 0
11, 4, 0
11, 9, 0
11, 10, 0
11, 1, 0
10, 7, 0
10, 12, 0
10, 11, 0
10, 3, 0
7, 12, 0
7, 3, 0
7, 10, 0
12, 7, 0
12, 3, 0
12, 8, 0
12, 10, 0
4, 11, 0
4, 9, 0
2, 8, 0
2, 5, 0
1, 0, 1
1, 6, 0
1, 11, 0
1, 9, 0
9, 0, 0
9, 6, 0
9, 4, 0
9, 11, 0
9, 1, 0
