0, 12, 0
0, 13, 0
0, 17, 0
0, 4, 0
0, 3, 0
0, 2, 0
0, 1, 0
13, 0, 0
13, 12, 1
13, 4, 0
13, 17, 0
13, 5, 0
13, 1, 0
17, 0, 0
17, 3, 0
17, 13, 0
17, 5, 0
17, 1, 0
3, 0, 0
3, 17, 0
3, 11, 0
3, 2, 0
16, 6, 0
16, 15, 1
16, 10, 0
6, 14, 0
6, 2, 0
6, 16, 0
6, 8, 0
6, 15, 0
6, 5, 0
6, 10, 0
8, 7, 0
8, 14, 0
8, 2, 0
8, 18, 0
8, 6, 0
8, 9, 0
5, 13, 0
5, 14, 0
5, 4, 0
5, 2, 0
5, 6, 0
5, 17, 0
11, 3, 0
10, 16, 0
10, 6, 0
10, 15, 0
10, 9, 0
7, 18, 0
7, 8, 0
12, 0, 0
12, 13, 1
12, 4, 0
12, 1, 0
4, 0, 0
4, 12, 0
4, 13, 0
4, 14, 0
4, 2, 0
4, 5, 0
4, 1, 0
14, 6, 0
14, 8, 0
14, 5, 0
14, 4, 0
14, 2, 0
2, 0, 0
2, 3, 0
2, 4, 0
2, 14, 0
2, 18, 0
2, 6, 0
2, 8, 0
2, 5, 0
2, 9, 0
1, 0, 0
1, 12, 0
1, 13, 0
1, 17, 0
1, 4, 0
15, 16, 1
15, 6, 0
15, 9, 0
15, 10, 0
18, 7, 0
18, 8, 0
18, 9, 0
18, 2, 0
9, 18, 0
9, 2, 0
9, 8, 0
9, 15, 0
9, 10, 0
