0, 2, 0
0, 3, 0
0, 9, 0
0, 11, 0
0, 10, 0
8, 7, 0
8, 6, 0
8, 5, 0
8, 11, 0
8, 2, 0
3, 0, 0
3, 12, 0
3, 2, 0
3, 1, 0
3, 10, 0
3, 9, 0
6, 7, 0
6, 4, 1
6, 2, 0
6, 8, 0
6, 5, 1
6, 11, 0
5, 7, 0
5, 6, 1
5, 8, 0
5, 2, 0
11, 0, 0
11, 7, 0
11, 4, 0
11, 2, 0
11, 6, 0
11, 8, 0
11, 9, 0
10, 0, 0
10, 3, 0
10, 1, 0
7, 4, 0
7, 2, 0
7, 6, 0
7, 8, 0
7, 5, 0
7, 11, 0
12, 3, 0
12, 2, 0
12, 9, 0
4, 7, 0
4, 6, 1
4, 11, 0
4, 2, 0
2, 0, 0
2, 12, 0
2, 7, 0
2, 4, 0
2, 3, 0
2, 6, 0
2, 8, 0
2, 5, 0
2, 11, 0
2, 9, 0
1, 3, 0
1, 10, 0
9, 0, 0
9, 12, 0
9, 2, 0
9, 11, 0
9, 3, 0
