0, 4, 0
0, 5, 0
0, 1, 0
3, 7, 0
3, 2, 0
3, 5, 0
3, 1, 0
4, 0, 0
7, 3, 0
7, 5, 1
2, 3, 0
2, 5, 0
2, 1, 1
6, 5, 1
6, 1, 0
5, 0, 0
5, 3, 0
5, 7, 1
5, 2, 0
5, 6, 1
5, 1, 0
1, 0, 0
1, 3, 0
1, 6, 0
1, 5, 0
1, 2, 1
