0, 7, 0
0, 6, 0
3, 8, 0
3, 5, 0
4, 6, 0
4, 8, 0
4, 2, 0
7, 0, 0
7, 6, 0
7, 1, 0
2, 6, 0
2, 8, 0
2, 4, 0
6, 0, 0
6, 7, 0
6, 1, 0
6, 4, 0
6, 2, 0
8, 3, 0
8, 4, 0
8, 5, 0
8, 2, 0
5, 3, 0
5, 8, 0
1, 7, 0
1, 6, 0
