333929, 333930, 2
333929, 333928, 2
333939, 333940, 1
333939, 333938, 2
333928, 333929, 3
333928, 333930, 1
333933, 333934, 1
333933, 333932, 2
333933, 333935, 2
333933, 333936, 2
333932, 333933, 1
333932, 333931, 2
333931, 333930, 2
333931, 333932, 1
333937, 333938, 2
333937, 333936, 2
333938, 333937, 2
333938, 333939, 1
333938, 333936, 2
333930, 333929, 2
333930, 333928, 2
333930, 333931, 1
333940, 333939, 2
333934, 333933, 2
333934, 333935, 1
333934, 333936, 2
333935, 333933, 2
333935, 333934, 2
333935, 333936, 1
333936, 333933, 2
333936, 333934, 2
333936, 333937, 3
333936, 333935, 2
333936, 333938, 1
