119981, 119983, 2
119981, 119989, 2
119981, 119980, 2
119981, 119982, 1
119991, 119992, 1
119991, 119990, 2
119991, 119989, 2
119984, 119983, 2
119984, 119985, 1
119987, 119992, 2
119987, 119990, 1
119987, 119988, 3
119987, 119986, 2
119987, 119989, 0
119982, 119981, 2
119982, 119983, 1
119990, 119991, 1
119990, 119988, 2
119990, 119987, 2
119990, 119986, 2
119990, 119989, 2
119992, 119991, 2
119992, 119988, 2
119992, 119987, 2
119992, 119989, 2
119983, 119981, 2
119983, 119984, 1
119983, 119979, 2
119983, 119982, 2
119978, 119988, 2
119978, 119979, 1
119978, 119989, 2
119979, 119983, 2
119979, 119978, 2
119979, 119980, 1
119979, 119988, 2
119979, 119989, 2
119989, 119991, 2
119989, 119992, 2
119989, 119978, 2
119989, 119987, 2
119989, 119981, 2
119989, 119990, 2
119989, 119986, 2
119989, 119979, 2
119989, 119988, 2
119980, 119981, 1
119980, 119979, 2
119986, 119990, 2
119986, 119988, 2
119986, 119987, 1
119986, 119985, 2
119986, 119989, 2
119985, 119984, 2
119985, 119986, 1
119988, 119992, 2
119988, 119978, 2
119988, 119987, 2
119988, 119990, 2
119988, 119986, 2
119988, 119979, 2
119988, 119989, 2
