171024, 171023, 2
171024, 171025, 2
171023, 171024, 3
171023, 171025, 1
171025, 171024, 2
171025, 171023, 2
171025, 171026, 1
171026, 171025, 2
171026, 171027, 1
171029, 171028, 2
171029, 171027, 2
171028, 171029, 1
171028, 171027, 2
171027, 171028, 1
171027, 171029, 2
171027, 171026, 2
