63303, 63302, 2
63303, 63307, 2
63303, 63304, 2
63303, 63301, 2
63304, 63306, 2
63304, 63305, 1
63304, 63302, 2
63304, 63303, 2
63306, 63312, 2
63306, 63302, 2
63306, 63307, 2
63306, 63304, 2
63306, 63308, 2
63306, 63314, 2
63306, 63301, 2
63306, 63309, 2
63306, 63305, 2
63312, 63306, 2
63312, 63311, 2
63312, 63314, 0
63312, 63313, 3
63312, 63310, 2
63312, 63309, 2
63302, 63306, 2
63302, 63305, 2
63302, 63301, 2
63302, 63303, 3
63302, 63304, 1
63307, 63306, 2
63307, 63305, 2
63307, 63303, 2
63307, 63310, 2
63307, 63308, 1
63314, 63306, 2
63314, 63312, 2
63314, 63313, 2
63308, 63306, 2
63308, 63307, 2
63308, 63310, 2
63308, 63309, 1
63313, 63312, 2
63313, 63314, 2
63313, 63310, 2
63310, 63312, 2
63310, 63307, 2
63310, 63311, 2
63310, 63308, 2
63310, 63313, 2
63310, 63309, 2
63301, 63306, 2
63301, 63302, 1
63301, 63303, 2
63309, 63306, 2
63309, 63312, 2
63309, 63311, 1
63309, 63310, 3
63309, 63308, 2
63305, 63306, 6
63305, 63302, 2
63305, 63307, 1
63305, 63304, 2
63311, 63312, 1
63311, 63309, 2
63311, 63310, 2
