256247, 256246, 2
256247, 256258, 2
256247, 256250, 2
256247, 256249, 2
256247, 256254, 2
256247, 256243, 2
256247, 256259, 2
256247, 256253, 2
256247, 256256, 2
256247, 256251, 2
256247, 256252, 2
256247, 256242, 2
256247, 256248, 1
256267, 256264, 2
256267, 256266, 2
256267, 256273, 2
256267, 256257, 2
256267, 256269, 1
256267, 256256, 2
256267, 256263, 2
256267, 256265, 2
256267, 256262, 2
256266, 256276, 2
256266, 256267, 6
256266, 256273, 1
256266, 256256, 2
256266, 256269, 2
256266, 256254, 2
256266, 256268, 4
256266, 256271, 2
256266, 256258, 2
256266, 256262, 2
256266, 256264, 2
256266, 256259, 2
256266, 256270, 2
256266, 256253, 2
256266, 256260, 2
256266, 256261, 2
256266, 256263, 2
256266, 256265, 2
256266, 256275, 2
256266, 256272, 2
256273, 256276, 2
256273, 256267, 2
256273, 256266, 2
256273, 256257, 2
256273, 256269, 2
256273, 256268, 2
256273, 256271, 2
256273, 256274, 1
256273, 256278, 2
256273, 256272, 2
256273, 256277, 2
256273, 256270, 2
256273, 256262, 2
256273, 256260, 2
256273, 256261, 2
256273, 256243, 2
256273, 256263, 2
256273, 256265, 2
256273, 256275, 2
256276, 256266, 2
256276, 256273, 2
256276, 256257, 2
256276, 256256, 2
256276, 256243, 2
256276, 256263, 2
256276, 256265, 2
256276, 256271, 2
256276, 256274, 2
256249, 256246, 2
256249, 256247, 2
256249, 256258, 2
256249, 256254, 2
256249, 256250, 6
256249, 256245, 2
256249, 256243, 2
256249, 256259, 2
256249, 256253, 2
256249, 256256, 1
256249, 256251, 4
256249, 256252, 2
256249, 256255, 2
256249, 256248, 2
256251, 256246, 2
256251, 256247, 2
256251, 256256, 2
256251, 256252, 1
256251, 256243, 2
256251, 256249, 2
256251, 256245, 2
256251, 256248, 2
256274, 256276, 6
256274, 256277, 2
256274, 256273, 2
256274, 256272, 2
256274, 256275, 4
256274, 256271, 2
256274, 256278, 2
256262, 256264, 0
256262, 256267, 2
256262, 256266, 2
256262, 256273, 2
256262, 256257, 2
256262, 256260, 2
256262, 256268, 2
256262, 256270, 2
256262, 256265, 2
256262, 256256, 2
256264, 256267, 2
256264, 256266, 2
256264, 256257, 2
256264, 256255, 2
256264, 256268, 2
256264, 256265, 2
256264, 256262, 2
256259, 256247, 2
256259, 256266, 2
256259, 256257, 2
256259, 256256, 2
256259, 256255, 2
256259, 256248, 2
256259, 256249, 2
256259, 256254, 2
256259, 256265, 2
256259, 256261, 1
256277, 256274, 2
256277, 256275, 2
256277, 256273, 2
256277, 256271, 2
256277, 256278, 1
256253, 256247, 2
256253, 256258, 2
256253, 256266, 2
256253, 256257, 2
256253, 256256, 2
256253, 256250, 2
256253, 256249, 2
256253, 256255, 0
256253, 256265, 2
256253, 256248, 2
256256, 256247, 2
256256, 256267, 2
256256, 256266, 2
256256, 256276, 2
256256, 256249, 2
256256, 256251, 2
256256, 256262, 2
256256, 256259, 2
256256, 256253, 2
256256, 256252, 2
256256, 256263, 2
256256, 256265, 2
256256, 256246, 2
256256, 256258, 2
256256, 256257, 1
256256, 256269, 2
256256, 256254, 2
256256, 256268, 2
256256, 256250, 2
256256, 256245, 2
256256, 256271, 2
256256, 256270, 2
256256, 256260, 2
256256, 256261, 2
256256, 256243, 2
256256, 256255, 2
256256, 256248, 2
256252, 256246, 2
256252, 256247, 2
256252, 256256, 2
256252, 256251, 2
256252, 256249, 2
256252, 256254, 1
256252, 256248, 2
256263, 256276, 2
256263, 256267, 2
256263, 256266, 2
256263, 256273, 2
256263, 256257, 2
256263, 256256, 2
256263, 256261, 2
256263, 256268, 2
256263, 256265, 2
256263, 256271, 2
256265, 256276, 2
256265, 256267, 2
256265, 256266, 1
256265, 256273, 2
256265, 256257, 2
256265, 256269, 2
256265, 256254, 2
256265, 256268, 2
256265, 256271, 2
256265, 256258, 2
256265, 256262, 2
256265, 256264, 2
256265, 256259, 2
256265, 256270, 2
256265, 256253, 2
256265, 256260, 2
256265, 256261, 2
256265, 256263, 2
256265, 256275, 2
256265, 256272, 2
256265, 256256, 2
256275, 256272, 2
256275, 256277, 1
256275, 256273, 2
256275, 256266, 2
256275, 256265, 2
256275, 256271, 2
256275, 256274, 2
256246, 256247, 2
256246, 256250, 2
256246, 256256, 2
256246, 256251, 2
256246, 256252, 2
256246, 256243, 2
256246, 256249, 2
256246, 256254, 2
256246, 256245, 2
256246, 256244, 2
256246, 256248, 2
256258, 256260, 1
256258, 256247, 2
256258, 256266, 2
256258, 256253, 2
256258, 256256, 2
256258, 256255, 2
256258, 256265, 2
256258, 256248, 2
256258, 256249, 2
256258, 256257, 2
256257, 256276, 2
256257, 256267, 2
256257, 256271, 2
256257, 256273, 2
256257, 256260, 2
256257, 256269, 2
256257, 256254, 2
256257, 256268, 2
256257, 256255, 2
256257, 256258, 6
256257, 256262, 2
256257, 256264, 2
256257, 256259, 4
256257, 256270, 2
256257, 256253, 2
256257, 256256, 2
256257, 256261, 2
256257, 256263, 2
256257, 256265, 1
256257, 256272, 2
256269, 256267, 2
256269, 256266, 2
256269, 256273, 2
256269, 256257, 2
256269, 256256, 2
256269, 256265, 2
256269, 256271, 1
256250, 256246, 2
256250, 256247, 2
256250, 256253, 1
256250, 256256, 2
256250, 256243, 2
256250, 256249, 2
256250, 256244, 2
256250, 256242, 2
256250, 256248, 2
256268, 256264, 2
256268, 256266, 2
256268, 256273, 2
256268, 256257, 2
256268, 256260, 2
256268, 256256, 2
256268, 256263, 2
256268, 256265, 2
256268, 256270, 1
256268, 256262, 2
256254, 256246, 2
256254, 256247, 2
256254, 256259, 2
256254, 256266, 2
256254, 256257, 2
256254, 256256, 2
256254, 256252, 2
256254, 256249, 2
256254, 256265, 2
256254, 256248, 2
256245, 256246, 2
256245, 256256, 2
256245, 256251, 2
256245, 256249, 2
256245, 256248, 2
256245, 256242, 2
256245, 256244, 2
256271, 256276, 2
256271, 256277, 2
256271, 256273, 2
256271, 256269, 2
256271, 256256, 2
256271, 256263, 2
256271, 256265, 2
256271, 256275, 2
256271, 256274, 2
256271, 256266, 2
256271, 256257, 2
256278, 256274, 2
256278, 256277, 2
256278, 256273, 2
256244, 256246, 1
256244, 256243, 2
256244, 256245, 8
256244, 256242, 2
256244, 256250, 2
256270, 256272, 1
256270, 256266, 2
256270, 256273, 2
256270, 256257, 2
256270, 256256, 2
256270, 256268, 2
256270, 256265, 2
256270, 256262, 2
256260, 256243, 2
256260, 256258, 2
256260, 256266, 2
256260, 256273, 2
256260, 256257, 2
256260, 256256, 2
256260, 256268, 2
256260, 256265, 2
256260, 256262, 1
256261, 256259, 2
256261, 256266, 2
256261, 256273, 2
256261, 256257, 2
256261, 256256, 2
256261, 256263, 1
256261, 256265, 2
256243, 256246, 2
256243, 256247, 2
256243, 256273, 2
256243, 256256, 2
256243, 256250, 2
256243, 256276, 2
256243, 256249, 2
256243, 256244, 2
256243, 256260, 2
256243, 256251, 2
256243, 256242, 2
256243, 256248, 2
256255, 256264, 2
256255, 256258, 2
256255, 256253, 2
256255, 256256, 2
256255, 256249, 2
256255, 256259, 2
256255, 256257, 2
256272, 256266, 2
256272, 256273, 2
256272, 256257, 2
256272, 256270, 2
256272, 256265, 2
256272, 256275, 2
256272, 256274, 2
256242, 256243, 6
256242, 256247, 1
256242, 256244, 3
256242, 256245, 2
256242, 256250, 2
256248, 256246, 2
256248, 256247, 2
256248, 256258, 2
256248, 256250, 2
256248, 256249, 1
256248, 256254, 2
256248, 256245, 2
256248, 256252, 2
256248, 256259, 2
256248, 256253, 2
256248, 256256, 2
256248, 256251, 2
256248, 256243, 2
