333452, 333451, 2
333452, 333453, 2
333449, 333448, 2
333449, 333450, 1
333451, 333452, 8
333451, 333453, 1
333451, 333450, 2
333459, 333458, 2
333457, 333458, 1
333457, 333456, 2
333450, 333451, 1
333450, 333449, 2
333450, 333448, 2
333454, 333455, 1
333454, 333453, 2
333458, 333459, 3
333458, 333457, 2
333456, 333455, 2
333456, 333457, 1
333455, 333454, 2
333455, 333456, 1
333453, 333454, 1
333453, 333452, 2
333453, 333451, 2
333448, 333449, 1
333448, 333450, 2
