299921, 299922, 1
299921, 299920, 2
299921, 299923, 2
299922, 299921, 2
299922, 299923, 6
299920, 299919, 2
299920, 299921, 1
299920, 299923, 2
299919, 299920, 1
299919, 299923, 2
299923, 299919, 2
299923, 299920, 2
299923, 299922, 2
299923, 299921, 2
