63656, 63655, 2
63656, 63654, 2
63646, 63643, 2
63646, 63647, 2
63646, 63644, 2
63646, 63645, 2
63651, 63655, 2
63651, 63653, 2
63651, 63649, 2
63651, 63650, 2
63651, 63652, 3
63647, 63643, 2
63647, 63646, 2
63647, 63649, 1
63647, 63644, 2
63647, 63648, 0
63647, 63645, 2
63644, 63647, 1
63644, 63643, 2
63644, 63646, 8
63644, 63645, 0
63648, 63647, 2
63648, 63649, 2
63652, 63653, 0
63652, 63651, 2
63652, 63650, 2
63652, 63655, 1
63652, 63654, 8
63652, 63649, 2
63643, 63647, 2
63643, 63646, 2
63643, 63644, 1
63649, 63652, 2
63649, 63647, 2
63649, 63648, 2
63649, 63651, 2
63649, 63650, 1
63650, 63649, 2
63650, 63651, 1
63650, 63652, 2
63654, 63655, 2
63654, 63656, 2
63654, 63653, 2
63654, 63652, 2
63655, 63654, 2
63655, 63656, 3
63655, 63653, 2
63655, 63651, 2
63655, 63652, 2
63653, 63655, 2
63653, 63654, 2
63653, 63651, 2
63653, 63652, 2
63645, 63647, 2
63645, 63646, 2
63645, 63644, 2
