167433, 167430, 2
167433, 167435, 2
167433, 167432, 2
167433, 167434, 1
167420, 167413, 2
167420, 167406, 2
167420, 167409, 2
167420, 167411, 2
167420, 167403, 2
167420, 167416, 2
167420, 167415, 2
167420, 167418, 2
167420, 167412, 2
167420, 167423, 1
167420, 167404, 2
167411, 167413, 2
167411, 167409, 2
167411, 167415, 1
167411, 167420, 2
167411, 167410, 2
167411, 167408, 2
167411, 167406, 2
167411, 167419, 2
167411, 167405, 2
167411, 167417, 2
167411, 167418, 2
167411, 167412, 2
167411, 167404, 2
167441, 167425, 2
167441, 167440, 2
167441, 167439, 2
167441, 167442, 1
167441, 167444, 2
167410, 167413, 1
167410, 167409, 2
167410, 167411, 2
167410, 167412, 2
167410, 167416, 2
167410, 167417, 2
167410, 167415, 2
167410, 167414, 2
167439, 167436, 2
167439, 167445, 2
167439, 167437, 2
167439, 167438, 2
167439, 167441, 2
167439, 167444, 2
167439, 167440, 2
167439, 167427, 2
167435, 167436, 1
167435, 167433, 2
167435, 167432, 2
167435, 167429, 2
167435, 167428, 2
167435, 167425, 2
167435, 167430, 2
167435, 167437, 2
167435, 167434, 2
167412, 167413, 2
167412, 167409, 2
167412, 167411, 2
167412, 167416, 2
167412, 167420, 2
167412, 167407, 2
167412, 167410, 2
167412, 167414, 1
167412, 167408, 2
167412, 167406, 2
167412, 167403, 2
167412, 167428, 2
167412, 167418, 2
167412, 167404, 2
167407, 167408, 1
167407, 167406, 2
167407, 167412, 2
167407, 167403, 2
167442, 167445, 2
167442, 167425, 2
167442, 167441, 2
167442, 167443, 1
167442, 167444, 2
167421, 167413, 2
167421, 167419, 2
167421, 167422, 1
167421, 167428, 2
167421, 167418, 2
167421, 167414, 2
167438, 167436, 2
167438, 167437, 2
167438, 167440, 2
167438, 167439, 1
167419, 167413, 2
167419, 167409, 2
167419, 167411, 2
167419, 167416, 2
167419, 167415, 2
167419, 167414, 2
167419, 167421, 1
167419, 167408, 2
167419, 167406, 2
167419, 167405, 2
167419, 167417, 2
167419, 167418, 2
167419, 167404, 2
167403, 167408, 2
167403, 167406, 2
167403, 167409, 2
167403, 167423, 2
167403, 167413, 2
167403, 167405, 2
167403, 167420, 2
167403, 167407, 2
167403, 167412, 2
167403, 167402, 2
167403, 167404, 2
167425, 167445, 2
167425, 167413, 2
167425, 167443, 2
167425, 167441, 2
167425, 167435, 2
167425, 167428, 2
167425, 167430, 2
167425, 167418, 2
167425, 167442, 2
167425, 167423, 2
167418, 167427, 2
167418, 167430, 2
167418, 167411, 2
167418, 167429, 2
167418, 167413, 2
167418, 167416, 2
167418, 167415, 2
167418, 167420, 4
167418, 167426, 2
167418, 167423, 2
167418, 167414, 2
167418, 167421, 2
167418, 167419, 6
167418, 167422, 2
167418, 167428, 1
167418, 167425, 2
167418, 167417, 2
167418, 167424, 2
167418, 167412, 2
167402, 167403, 2
167402, 167404, 1
167427, 167445, 2
167427, 167413, 2
167427, 167429, 2
167427, 167444, 2
167427, 167418, 2
167427, 167426, 2
167427, 167434, 2
167427, 167437, 2
167427, 167432, 2
167427, 167439, 2
167427, 167428, 2
167427, 167424, 2
167427, 167431, 2
167429, 167427, 2
167429, 167432, 2
167429, 167435, 2
167429, 167428, 2
167429, 167418, 2
167429, 167430, 2
167429, 167431, 1
167429, 167413, 2
167416, 167413, 2
167416, 167423, 2
167416, 167409, 2
167416, 167419, 2
167416, 167417, 2
167416, 167420, 2
167416, 167418, 2
167416, 167412, 2
167416, 167410, 2
167416, 167414, 2
167415, 167413, 2
167415, 167409, 2
167415, 167411, 2
167415, 167419, 2
167415, 167417, 1
167415, 167420, 2
167415, 167418, 2
167415, 167410, 2
167414, 167421, 2
167414, 167413, 2
167414, 167409, 2
167414, 167419, 2
167414, 167416, 1
167414, 167418, 2
167414, 167412, 2
167414, 167410, 2
167436, 167445, 2
167436, 167437, 0
167436, 167438, 2
167436, 167439, 2
167436, 167435, 2
167436, 167440, 1
167436, 167430, 2
167436, 167434, 2
167408, 167406, 2
167408, 167409, 1
167408, 167411, 2
167408, 167419, 2
167408, 167403, 2
167408, 167407, 2
167408, 167412, 2
167437, 167436, 2
167437, 167427, 2
167437, 167438, 1
167437, 167439, 2
167437, 167435, 2
167437, 167440, 2
167437, 167430, 2
167437, 167434, 2
167432, 167427, 2
167432, 167433, 1
167432, 167429, 2
167432, 167435, 2
167432, 167428, 2
167432, 167430, 2
167432, 167431, 2
167432, 167434, 2
167422, 167421, 2
167422, 167428, 2
167422, 167424, 1
167422, 167418, 2
167428, 167427, 2
167428, 167430, 3
167428, 167429, 0
167428, 167413, 2
167428, 167424, 2
167428, 167435, 1
167428, 167434, 2
167428, 167421, 2
167428, 167432, 2
167428, 167422, 2
167428, 167425, 2
167428, 167431, 2
167428, 167412, 2
167428, 167418, 2
167405, 167406, 1
167405, 167411, 2
167405, 167419, 2
167405, 167403, 2
167405, 167404, 2
167417, 167413, 2
167417, 167409, 2
167417, 167411, 2
167417, 167419, 2
167417, 167416, 2
167417, 167415, 2
167417, 167418, 2
167417, 167410, 2
167434, 167436, 2
167434, 167427, 2
167434, 167433, 2
167434, 167432, 2
167434, 167435, 2
167434, 167428, 2
167434, 167444, 2
167434, 167430, 2
167434, 167437, 2
167434, 167445, 2
167424, 167428, 2
167424, 167427, 2
167424, 167418, 2
167424, 167426, 1
167424, 167422, 2
167445, 167436, 2
167445, 167427, 2
167445, 167443, 2
167445, 167439, 2
167445, 167444, 2
167445, 167425, 2
167445, 167440, 2
167445, 167430, 2
167445, 167442, 2
167445, 167434, 2
167413, 167427, 2
167413, 167409, 2
167413, 167411, 6
167413, 167429, 2
167413, 167416, 2
167413, 167415, 2
167413, 167430, 2
167413, 167426, 2
167413, 167410, 2
167413, 167414, 2
167413, 167421, 2
167413, 167420, 2
167413, 167423, 2
167413, 167403, 2
167413, 167428, 2
167413, 167425, 2
167413, 167417, 2
167413, 167418, 1
167413, 167412, 4
167413, 167419, 2
167409, 167413, 2
167409, 167411, 2
167409, 167416, 2
167409, 167415, 2
167409, 167420, 2
167409, 167410, 1
167409, 167414, 2
167409, 167408, 2
167409, 167419, 2
167409, 167403, 2
167409, 167417, 2
167409, 167412, 2
167444, 167445, 2
167444, 167427, 2
167444, 167441, 2
167444, 167439, 2
167444, 167442, 2
167444, 167443, 2
167444, 167434, 2
167440, 167436, 2
167440, 167445, 2
167440, 167437, 2
167440, 167438, 2
167440, 167441, 1
167440, 167439, 2
167430, 167445, 2
167430, 167413, 2
167430, 167433, 2
167430, 167429, 2
167430, 167431, 2
167430, 167434, 2
167430, 167436, 2
167430, 167437, 2
167430, 167432, 2
167430, 167435, 2
167430, 167428, 2
167430, 167425, 2
167430, 167418, 2
167430, 167443, 2
167426, 167427, 1
167426, 167418, 2
167426, 167424, 2
167426, 167413, 2
167423, 167413, 2
167423, 167403, 2
167423, 167416, 2
167423, 167425, 1
167423, 167420, 2
167423, 167418, 2
167406, 167408, 2
167406, 167411, 2
167406, 167419, 2
167406, 167403, 2
167406, 167405, 2
167406, 167420, 2
167406, 167407, 1
167406, 167412, 2
167431, 167428, 2
167431, 167427, 2
167431, 167430, 2
167431, 167429, 2
167431, 167432, 1
167443, 167445, 1
167443, 167425, 2
167443, 167430, 2
167443, 167442, 2
167443, 167444, 6
167404, 167411, 2
167404, 167419, 2
167404, 167403, 4
167404, 167405, 1
167404, 167420, 2
167404, 167412, 2
167404, 167402, 2
