21601, 21604, 2
21601, 21602, 1
21601, 21600, 2
21601, 21599, 2
21601, 21603, 2
21605, 21604, 2
21605, 21603, 2
21604, 21599, 2
21604, 21601, 2
21604, 21605, 2
21604, 21603, 2
21603, 21602, 2
21603, 21601, 2
21603, 21605, 1
21603, 21604, 8
21602, 21601, 2
21602, 21603, 1
21599, 21600, 1
21599, 21601, 2
21599, 21604, 2
21600, 21599, 2
21600, 21601, 1
