161750, 161748, 2
161750, 161751, 1
161750, 161752, 2
161750, 161749, 2
161747, 161745, 2
161747, 161748, 2
161747, 161752, 2
161747, 161746, 2
161756, 161755, 2
161756, 161753, 2
161756, 161752, 2
161756, 161754, 2
161745, 161748, 1
161745, 161744, 2
161745, 161747, 0
161745, 161746, 3
161753, 161755, 3
161753, 161752, 2
161753, 161754, 0
161753, 161756, 1
161754, 161755, 2
161754, 161753, 2
161754, 161756, 2
161749, 161748, 2
161749, 161750, 1
161749, 161752, 2
161749, 161751, 2
161751, 161748, 2
161751, 161750, 2
161751, 161752, 2
161751, 161749, 2
161751, 161746, 2
161744, 161745, 1
161744, 161748, 2
161744, 161746, 2
161752, 161753, 1
161752, 161747, 2
161752, 161755, 2
161752, 161750, 2
161752, 161748, 2
161752, 161751, 2
161752, 161756, 2
161752, 161749, 2
161748, 161744, 2
161748, 161752, 1
161748, 161747, 2
161748, 161751, 2
161748, 161745, 2
161748, 161750, 2
161748, 161749, 8
161748, 161746, 2
161755, 161753, 2
161755, 161752, 2
161755, 161754, 2
161755, 161756, 2
161746, 161745, 2
161746, 161751, 2
161746, 161748, 2
161746, 161747, 2
161746, 161744, 2
