131496, 131497, 1
131530, 131531, 1
131530, 131528, 2
131530, 131527, 2
131530, 131529, 2
131526, 131528, 2
131526, 131525, 2
131526, 131527, 1
131548, 131546, 2
131548, 131547, 2
131548, 131535, 2
131548, 131543, 2
131548, 131540, 2
131548, 131545, 2
131518, 131521, 2
131518, 131523, 2
131518, 131511, 2
131518, 131524, 2
131518, 131522, 2
131518, 131516, 2
131518, 131520, 1
131518, 131517, 2
131518, 131525, 2
131518, 131519, 3
131525, 131526, 1
131525, 131527, 2
131525, 131518, 2
131525, 131541, 2
131525, 131512, 2
131525, 131519, 2
131525, 131522, 2
131525, 131521, 2
131525, 131528, 2
131525, 131523, 2
131525, 131516, 2
131525, 131524, 2
131525, 131520, 2
131525, 131534, 2
131500, 131498, 2
131500, 131497, 2
131500, 131501, 2
131506, 131502, 2
131506, 131513, 2
131506, 131512, 2
131506, 131515, 2
131506, 131511, 2
131506, 131508, 3
131506, 131514, 2
131506, 131509, 2
131506, 131505, 2
131506, 131501, 2
131506, 131503, 2
131506, 131510, 2
131506, 131504, 2
131521, 131523, 4
131521, 131522, 6
131521, 131518, 2
131521, 131524, 2
131521, 131520, 2
131521, 131525, 1
131521, 131519, 2
131508, 131502, 2
131508, 131506, 2
131508, 131503, 2
131508, 131514, 2
131508, 131509, 2
131508, 131505, 2
131508, 131513, 2
131508, 131504, 2
131508, 131510, 2
131508, 131511, 2
131522, 131513, 2
131522, 131521, 2
131522, 131534, 2
131522, 131511, 2
131522, 131518, 2
131522, 131524, 3
131522, 131520, 2
131522, 131517, 2
131522, 131525, 2
131522, 131515, 2
131522, 131519, 2
131520, 131521, 1
131520, 131523, 2
131520, 131524, 2
131520, 131518, 2
131520, 131522, 2
131520, 131525, 2
131520, 131519, 2
131507, 131502, 2
131507, 131503, 2
131507, 131514, 2
131507, 131509, 2
131507, 131505, 2
131507, 131501, 2
131507, 131512, 2
131507, 131511, 2
131507, 131510, 2
131507, 131515, 2
131507, 131504, 2
131532, 131533, 1
131532, 131531, 2
131532, 131534, 2
131535, 131542, 2
131535, 131540, 2
131535, 131538, 2
131535, 131546, 2
131535, 131548, 2
131535, 131533, 2
131535, 131541, 1
131535, 131536, 0
131535, 131539, 2
131535, 131534, 2
131535, 131537, 2
131547, 131546, 2
131547, 131545, 2
131547, 131548, 1
131512, 131502, 2
131512, 131525, 2
131512, 131515, 2
131512, 131519, 2
131512, 131506, 2
131512, 131503, 2
131512, 131523, 2
131512, 131514, 2
131512, 131509, 2
131512, 131505, 2
131512, 131516, 2
131512, 131507, 2
131512, 131510, 2
131512, 131504, 2
131538, 131541, 2
131538, 131535, 2
131538, 131539, 1
131538, 131537, 2
131514, 131506, 2
131514, 131508, 2
131514, 131509, 2
131514, 131513, 2
131514, 131512, 2
131514, 131511, 2
131514, 131510, 2
131514, 131515, 1
131514, 131507, 2
131533, 131541, 2
131533, 131532, 2
131533, 131535, 1
131533, 131534, 0
131533, 131536, 2
131524, 131521, 2
131524, 131518, 2
131524, 131522, 2
131524, 131520, 2
131524, 131525, 2
131524, 131519, 2
131504, 131508, 2
131504, 131506, 2
131504, 131503, 2
131504, 131509, 2
131504, 131505, 1
131504, 131502, 2
131504, 131512, 2
131504, 131501, 2
131504, 131507, 2
131498, 131499, 4
131498, 131497, 2
131498, 131501, 1
131498, 131500, 6
131541, 131533, 2
131541, 131540, 2
131541, 131538, 2
131541, 131535, 2
131541, 131539, 2
131541, 131542, 1
131541, 131525, 2
131541, 131534, 2
131541, 131537, 2
131511, 131506, 2
131511, 131508, 2
131511, 131514, 2
131511, 131509, 2
131511, 131505, 2
131511, 131518, 2
131511, 131522, 2
131511, 131513, 3
131511, 131510, 2
131511, 131515, 2
131511, 131507, 2
131499, 131498, 2
131499, 131497, 2
131499, 131501, 2
131540, 131546, 2
131540, 131535, 2
131540, 131544, 2
131540, 131542, 2
131540, 131541, 2
131540, 131548, 2
131540, 131539, 2
131540, 131545, 2
131503, 131502, 2
131503, 131506, 2
131503, 131508, 2
131503, 131509, 2
131503, 131505, 2
131503, 131501, 2
131503, 131504, 2
131503, 131512, 2
131503, 131515, 2
131503, 131507, 2
131505, 131502, 2
131505, 131506, 6
131505, 131508, 2
131505, 131509, 1
131505, 131501, 2
131505, 131504, 2
131505, 131503, 2
131505, 131507, 4
131505, 131512, 2
131505, 131511, 2
131544, 131543, 2
131544, 131546, 2
131544, 131540, 2
131544, 131545, 1
131537, 131541, 2
131537, 131538, 1
131537, 131535, 2
131537, 131534, 2
131537, 131536, 2
131539, 131541, 2
131539, 131540, 1
131539, 131538, 2
131539, 131535, 2
131539, 131546, 2
131545, 131544, 2
131545, 131540, 2
131545, 131547, 1
131545, 131546, 0
131545, 131548, 2
131502, 131506, 2
131502, 131508, 2
131502, 131509, 2
131502, 131505, 2
131502, 131501, 2
131502, 131503, 3
131502, 131504, 1
131502, 131512, 2
131502, 131507, 2
131546, 131540, 2
131546, 131547, 2
131546, 131535, 2
131546, 131548, 2
131546, 131542, 2
131546, 131544, 2
131546, 131543, 2
131546, 131545, 2
131546, 131539, 2
131531, 131530, 2
131531, 131532, 1
131531, 131534, 2
131527, 131530, 1
131527, 131528, 3
131527, 131526, 2
131527, 131525, 2
131527, 131534, 2
131527, 131529, 2
131542, 131541, 2
131542, 131540, 2
131542, 131535, 2
131542, 131546, 2
131542, 131543, 1
131517, 131518, 1
131517, 131522, 2
131517, 131515, 2
131517, 131516, 2
131497, 131498, 1
131497, 131499, 2
131497, 131496, 2
131497, 131501, 2
131497, 131500, 2
131515, 131513, 2
131515, 131517, 1
131515, 131512, 2
131515, 131511, 2
131515, 131506, 2
131515, 131503, 2
131515, 131514, 2
131515, 131509, 2
131515, 131522, 2
131515, 131516, 3
131515, 131507, 2
131515, 131510, 2
131519, 131521, 2
131519, 131516, 2
131519, 131523, 2
131519, 131524, 2
131519, 131518, 2
131519, 131522, 2
131519, 131520, 2
131519, 131525, 2
131519, 131512, 2
131513, 131506, 2
131513, 131508, 2
131513, 131514, 2
131513, 131509, 2
131513, 131522, 2
131513, 131510, 2
131513, 131515, 2
131513, 131511, 2
131543, 131542, 2
131543, 131544, 1
131543, 131546, 2
131543, 131548, 2
131528, 131527, 2
131528, 131530, 2
131528, 131525, 2
131528, 131526, 2
131528, 131529, 1
131523, 131521, 2
131523, 131518, 2
131523, 131516, 2
131523, 131520, 2
131523, 131519, 2
131523, 131512, 2
131523, 131525, 2
131509, 131502, 2
131509, 131513, 2
131509, 131512, 2
131509, 131515, 2
131509, 131507, 2
131509, 131506, 2
131509, 131508, 2
131509, 131514, 2
131509, 131505, 2
131509, 131501, 2
131509, 131516, 2
131509, 131503, 2
131509, 131511, 2
131509, 131510, 1
131509, 131504, 2
131510, 131506, 2
131510, 131508, 2
131510, 131514, 1
131510, 131509, 2
131510, 131513, 2
131510, 131516, 2
131510, 131507, 2
131510, 131512, 4
131510, 131515, 2
131510, 131511, 6
131516, 131525, 2
131516, 131523, 2
131516, 131509, 2
131516, 131510, 2
131516, 131518, 2
131516, 131517, 2
131516, 131512, 2
131516, 131515, 2
131516, 131519, 2
131536, 131533, 2
131536, 131535, 2
131536, 131534, 2
131536, 131537, 1
131501, 131502, 1
131501, 131506, 2
131501, 131497, 2
131501, 131503, 2
131501, 131509, 2
131501, 131499, 2
131501, 131498, 2
131501, 131504, 2
131501, 131505, 2
131501, 131507, 2
131501, 131500, 2
131534, 131532, 2
131534, 131535, 2
131534, 131527, 2
131534, 131537, 2
131534, 131522, 2
131534, 131533, 2
131534, 131541, 2
131534, 131531, 2
131534, 131525, 2
131534, 131536, 2
131529, 131528, 2
131529, 131530, 2
131529, 131527, 2
