335568, 335566, 2
335568, 335565, 2
335568, 335567, 2
335568, 335569, 0
335568, 335570, 1
335565, 335568, 2
335565, 335566, 1
335565, 335567, 2
335565, 335569, 2
335580, 335581, 1
335580, 335579, 2
335582, 335581, 2
335577, 335575, 2
335577, 335574, 2
335577, 335573, 2
335577, 335576, 2
335577, 335578, 8
335577, 335579, 1
335581, 335580, 2
335581, 335582, 1
335567, 335568, 2
335567, 335565, 2
335567, 335566, 2
335567, 335570, 2
335578, 335576, 2
335578, 335579, 2
335578, 335577, 2
335579, 335573, 2
335579, 335580, 1
335579, 335578, 2
335579, 335577, 2
335566, 335568, 1
335566, 335565, 2
335566, 335567, 3
335566, 335569, 2
335572, 335573, 1
335572, 335571, 2
335572, 335570, 2
335571, 335573, 2
335571, 335572, 1
335571, 335570, 2
335570, 335568, 2
335570, 335571, 1
335570, 335574, 2
335570, 335573, 2
335570, 335567, 2
335570, 335569, 2
335570, 335572, 2
335575, 335574, 2
335575, 335573, 2
335575, 335576, 1
335575, 335577, 2
335574, 335575, 1
335574, 335573, 2
335574, 335570, 2
335574, 335576, 2
335574, 335577, 2
335573, 335579, 2
335573, 335571, 2
335573, 335577, 1
335573, 335575, 2
335573, 335574, 8
335573, 335570, 2
335573, 335576, 2
335573, 335572, 2
335576, 335575, 2
335576, 335574, 2
335576, 335573, 2
335576, 335578, 2
335576, 335577, 2
335569, 335568, 2
335569, 335565, 2
335569, 335566, 2
335569, 335570, 2
