71904, 71905, 1
71904, 71906, 2
71905, 71904, 2
71905, 71907, 2
71905, 71906, 1
71910, 71909, 2
71908, 71907, 2
71908, 71909, 1
71907, 71905, 2
71907, 71908, 1
71907, 71906, 2
71906, 71904, 2
71906, 71905, 2
71906, 71907, 1
71909, 71910, 1
71909, 71908, 2
