70814, 70812, 2
70814, 70816, 2
70814, 70817, 2
70814, 70815, 1
70814, 70813, 2
70813, 70814, 1
70813, 70812, 2
70812, 70814, 2
70812, 70813, 1
70816, 70814, 2
70816, 70817, 0
70816, 70815, 2
70815, 70814, 2
70815, 70816, 1
70817, 70814, 2
70817, 70816, 2
