63040, 63044, 2
63040, 63042, 2
63040, 63038, 2
63040, 63041, 2
63040, 63039, 2
63036, 63038, 2
63036, 63037, 1
63046, 63047, 0
63046, 63044, 2
63046, 63043, 2
63046, 63045, 2
63044, 63042, 2
63044, 63043, 2
63044, 63046, 2
63044, 63040, 2
63044, 63045, 1
63047, 63046, 2
63045, 63046, 1
63045, 63044, 2
63042, 63040, 2
63042, 63043, 0
63042, 63041, 2
63042, 63044, 1
63043, 63042, 2
63043, 63046, 2
63043, 63044, 2
63039, 63040, 3
63039, 63038, 2
63039, 63041, 1
63041, 63042, 1
63041, 63040, 2
63041, 63039, 2
63038, 63040, 2
63038, 63036, 2
63038, 63037, 2
63038, 63039, 1
63037, 63038, 1
63037, 63036, 2
