301066, 301063, 2
301066, 301065, 2
301066, 301064, 2
301063, 301066, 2
301063, 301064, 1
301063, 301061, 2
301063, 301062, 2
301064, 301066, 2
301064, 301063, 2
301064, 301065, 1
301061, 301063, 2
301061, 301062, 1
301062, 301063, 1
301062, 301061, 2
301065, 301066, 0
301065, 301064, 2
