133882, 133883, 1
133882, 133862, 2
133882, 133884, 2
133882, 133881, 2
133849, 133853, 2
133849, 133848, 2
133849, 133862, 2
133849, 133850, 3
133849, 133843, 2
133849, 133851, 2
133849, 133856, 2
133849, 133846, 2
133849, 133827, 2
133849, 133844, 2
133849, 133855, 2
133849, 133847, 2
133849, 133854, 1
133879, 133880, 2
133879, 133878, 2
133879, 133881, 2
133832, 133836, 2
133832, 133823, 2
133832, 133822, 2
133832, 133828, 2
133832, 133834, 1
133832, 133826, 2
133832, 133831, 2
133832, 133819, 2
133832, 133833, 8
133832, 133817, 2
133832, 133835, 2
133832, 133829, 2
133832, 133830, 2
133870, 133868, 2
133870, 133862, 2
133870, 133871, 3
133870, 133876, 2
133870, 133869, 2
133870, 133884, 2
133870, 133873, 2
133870, 133877, 2
133870, 133867, 2
133870, 133864, 2
133870, 133872, 2
133870, 133874, 2
133870, 133875, 1
133863, 133827, 2
133863, 133862, 2
133863, 133855, 2
133863, 133860, 2
133863, 133865, 1
133863, 133859, 2
133863, 133861, 2
133863, 133856, 2
133842, 133843, 1
133842, 133827, 2
133842, 133841, 2
133842, 133844, 2
133842, 133840, 2
133867, 133862, 2
133867, 133866, 2
133867, 133870, 2
133867, 133876, 2
133867, 133883, 2
133867, 133865, 2
133867, 133869, 2
133867, 133861, 2
133867, 133884, 2
133867, 133868, 2
133871, 133859, 2
133871, 133870, 2
133871, 133868, 2
133871, 133855, 2
133871, 133876, 2
133871, 133872, 8
133871, 133869, 2
133871, 133864, 2
133871, 133875, 2
133871, 133873, 1
133847, 133846, 2
133847, 133849, 2
133847, 133850, 2
133847, 133848, 2
133847, 133843, 2
133847, 133851, 2
133840, 133838, 2
133840, 133836, 2
133840, 133844, 2
133840, 133845, 2
133840, 133843, 2
133840, 133842, 2
133840, 133841, 2
133840, 133839, 2
133838, 133837, 2
133838, 133836, 2
133838, 133834, 2
133838, 133817, 2
133838, 133831, 2
133838, 133844, 2
133838, 133841, 2
133838, 133829, 2
133838, 133839, 8
133838, 133840, 1
133827, 133836, 2
133827, 133849, 2
133827, 133821, 2
133827, 133862, 2
133827, 133829, 2
133827, 133843, 2
133827, 133842, 2
133827, 133822, 2
133827, 133816, 2
133827, 133828, 2
133827, 133863, 2
133827, 133831, 2
133827, 133855, 2
133827, 133825, 2
133827, 133835, 2
133827, 133841, 2
133827, 133830, 2
133883, 133882, 2
133883, 133862, 2
133883, 133884, 0
133883, 133867, 2
133873, 133870, 2
133873, 133876, 2
133873, 133872, 2
133873, 133871, 2
133873, 133874, 1
133873, 133875, 2
133875, 133870, 2
133875, 133876, 1
133875, 133871, 2
133875, 133874, 2
133875, 133873, 2
133858, 133864, 2
133858, 133862, 2
133858, 133857, 2
133858, 133855, 2
133858, 133859, 1
133858, 133856, 2
133821, 133820, 2
133821, 133827, 1
133821, 133817, 2
133821, 133819, 2
133821, 133818, 2
133821, 133825, 8
133821, 133816, 2
133821, 133822, 2
133821, 133830, 2
133845, 133846, 2
133845, 133817, 2
133845, 133844, 2
133845, 133843, 2
133845, 133826, 2
133845, 133829, 2
133845, 133840, 2
133865, 133862, 2
133865, 133866, 8
133865, 133867, 1
133865, 133855, 2
133865, 133860, 2
133865, 133863, 2
133865, 133861, 2
133865, 133868, 2
133869, 133864, 2
133869, 133862, 2
133869, 133867, 2
133869, 133870, 1
133869, 133871, 2
133869, 133868, 2
133822, 133821, 6
133822, 133832, 2
133822, 133824, 2
133822, 133823, 2
133822, 133816, 2
133822, 133828, 2
133822, 133820, 2
133822, 133827, 2
133822, 133817, 2
133822, 133819, 4
133822, 133818, 2
133822, 133862, 2
133822, 133825, 2
133822, 133826, 2
133822, 133829, 2
133822, 133830, 1
133856, 133858, 1
133856, 133849, 2
133856, 133862, 2
133856, 133852, 2
133856, 133853, 2
133856, 133851, 2
133856, 133829, 2
133856, 133860, 2
133856, 133857, 8
133856, 133855, 2
133856, 133863, 2
133856, 133859, 2
133856, 133854, 2
133828, 133827, 2
133828, 133826, 2
133828, 133831, 2
133828, 133832, 2
133828, 133829, 1
133828, 133822, 2
133828, 133830, 2
133823, 133820, 2
133823, 133817, 2
133823, 133819, 2
133823, 133833, 2
133823, 133824, 8
133823, 133832, 2
133823, 133830, 2
133823, 133826, 1
133823, 133864, 2
133823, 133822, 2
133823, 133816, 2
133880, 133876, 2
133880, 133879, 2
133880, 133878, 2
133880, 133881, 2
133819, 133820, 1
133819, 133823, 2
133819, 133821, 2
133819, 133817, 2
133819, 133833, 2
133819, 133818, 2
133819, 133832, 2
133819, 133816, 2
133819, 133822, 2
133818, 133821, 2
133818, 133817, 2
133818, 133819, 2
133818, 133833, 2
133818, 133816, 2
133818, 133822, 2
133860, 133868, 2
133860, 133855, 2
133860, 133862, 2
133860, 133864, 2
133860, 133863, 2
133860, 133865, 2
133860, 133859, 2
133860, 133861, 1
133860, 133856, 2
133835, 133836, 1
133835, 133827, 2
133835, 133832, 2
133835, 133834, 2
133835, 133831, 2
133854, 133853, 2
133854, 133849, 2
133854, 133850, 2
133854, 133855, 1
133854, 133851, 2
133854, 133856, 2
133836, 133837, 3
133836, 133835, 2
133836, 133832, 2
133836, 133829, 2
133836, 133834, 2
133836, 133840, 2
133836, 133838, 2
133836, 133827, 2
133836, 133831, 2
133836, 133844, 2
133836, 133862, 2
133836, 133825, 2
133836, 133841, 1
133848, 133846, 2
133848, 133849, 1
133848, 133847, 2
133848, 133844, 2
133848, 133843, 2
133862, 133882, 2
133862, 133849, 2
133862, 133870, 2
133862, 133843, 2
133862, 133883, 2
133862, 133884, 2
133862, 133855, 2
133862, 133827, 2
133862, 133831, 2
133862, 133867, 2
133862, 133825, 2
133862, 133859, 2
133862, 133830, 2
133862, 133858, 2
133862, 133881, 2
133862, 133876, 2
133862, 133865, 2
133862, 133869, 2
133862, 133822, 2
133862, 133856, 2
133862, 133860, 2
133862, 133836, 2
133862, 133863, 3
133862, 133816, 2
133862, 133861, 2
133866, 133868, 2
133866, 133865, 2
133866, 133861, 2
133866, 133867, 2
133824, 133823, 2
133824, 133826, 2
133824, 133822, 2
133843, 133849, 2
133843, 133862, 2
133843, 133844, 3
133843, 133848, 1
133843, 133845, 2
133843, 133842, 2
133843, 133847, 2
133843, 133840, 2
133843, 133846, 2
133843, 133827, 2
133843, 133850, 2
133843, 133841, 2
133851, 133853, 1
133851, 133849, 2
133851, 133829, 2
133851, 133817, 2
133851, 133850, 2
133851, 133864, 2
133851, 133852, 8
133851, 133856, 2
133851, 133854, 2
133851, 133847, 2
133884, 133882, 2
133884, 133862, 2
133884, 133881, 2
133884, 133870, 2
133884, 133876, 2
133884, 133883, 2
133884, 133867, 2
133878, 133877, 2
133878, 133880, 1
133878, 133881, 2
133878, 133864, 2
133878, 133876, 2
133878, 133879, 8
133878, 133874, 2
133846, 133849, 2
133846, 133844, 2
133846, 133848, 2
133846, 133843, 2
133846, 133847, 1
133846, 133845, 2
133864, 133853, 2
133864, 133858, 2
133864, 133870, 2
133864, 133869, 2
133864, 133871, 2
133864, 133878, 2
133864, 133851, 2
133864, 133823, 2
133864, 133861, 2
133864, 133817, 2
133864, 133857, 2
133864, 133852, 2
133864, 133855, 2
133864, 133826, 2
133864, 133872, 2
133864, 133859, 2
133864, 133829, 2
133864, 133860, 2
133864, 133868, 2
133877, 133870, 2
133877, 133876, 2
133877, 133878, 1
133877, 133874, 2
133877, 133881, 2
133826, 133832, 2
133826, 133824, 2
133826, 133845, 2
133826, 133822, 2
133826, 133829, 2
133826, 133828, 1
133826, 133823, 2
133826, 133817, 2
133826, 133857, 2
133826, 133833, 2
133826, 133864, 2
133826, 133831, 2
133826, 133816, 2
133826, 133830, 2
133831, 133836, 2
133831, 133837, 2
133831, 133825, 2
133831, 133832, 3
133831, 133838, 2
133831, 133834, 2
133831, 133828, 2
133831, 133827, 2
133831, 133826, 2
133831, 133833, 2
133831, 133862, 2
133831, 133835, 1
133831, 133829, 2
133831, 133830, 2
133844, 133836, 2
133844, 133849, 2
133844, 133841, 2
133844, 133848, 2
133844, 133843, 2
133844, 133838, 2
133844, 133840, 2
133844, 133846, 1
133844, 133842, 2
133844, 133845, 8
133844, 133829, 2
133844, 133839, 2
133833, 133834, 2
133833, 133826, 2
133833, 133831, 2
133833, 133819, 2
133833, 133818, 2
133833, 133817, 2
133833, 133823, 2
133833, 133832, 2
133833, 133829, 2
133825, 133836, 2
133825, 133827, 2
133825, 133821, 2
133825, 133862, 2
133825, 133831, 2
133825, 133816, 2
133825, 133822, 2
133825, 133830, 2
133859, 133858, 2
133859, 133864, 2
133859, 133868, 2
133859, 133860, 2
133859, 133855, 2
133859, 133862, 2
133859, 133863, 2
133859, 133871, 2
133859, 133861, 2
133859, 133856, 2
133841, 133838, 2
133841, 133836, 2
133841, 133827, 2
133841, 133837, 2
133841, 133844, 2
133841, 133843, 2
133841, 133842, 1
133841, 133840, 2
133874, 133877, 2
133874, 133870, 2
133874, 133876, 2
133874, 133873, 2
133874, 133878, 2
133874, 133875, 2
133830, 133828, 2
133830, 133827, 2
133830, 133821, 2
133830, 133832, 2
133830, 133831, 1
133830, 133862, 2
133830, 133825, 2
133830, 133826, 2
133830, 133823, 2
133830, 133822, 2
133830, 133829, 2
133881, 133882, 1
133881, 133877, 2
133881, 133880, 2
133881, 133862, 2
133881, 133876, 2
133881, 133879, 2
133881, 133878, 2
133881, 133884, 2
133852, 133853, 2
133852, 133864, 2
133852, 133851, 2
133852, 133856, 2
133853, 133849, 2
133853, 133855, 2
133853, 133857, 2
133853, 133864, 2
133853, 133852, 2
133853, 133854, 2
133853, 133851, 2
133853, 133856, 2
133868, 133859, 2
133868, 133855, 2
133868, 133860, 2
133868, 133866, 2
133868, 133867, 2
133868, 133870, 2
133868, 133871, 2
133868, 133865, 2
133868, 133869, 1
133868, 133864, 2
133868, 133861, 2
133861, 133855, 2
133861, 133862, 6
133861, 133866, 2
133861, 133867, 2
133861, 133864, 4
133861, 133860, 2
133861, 133863, 2
133861, 133865, 2
133861, 133859, 2
133861, 133868, 1
133837, 133838, 1
133837, 133836, 2
133837, 133834, 2
133837, 133817, 2
133837, 133831, 2
133837, 133841, 2
133837, 133829, 2
133820, 133823, 1
133820, 133821, 2
133820, 133819, 2
133820, 133822, 2
133820, 133816, 2
133834, 133836, 2
133834, 133837, 2
133834, 133832, 2
133834, 133831, 2
133834, 133833, 2
133834, 133838, 2
133834, 133835, 2
133834, 133829, 2
133829, 133836, 2
133829, 133837, 2
133829, 133832, 2
133829, 133850, 2
133829, 133845, 2
133829, 133838, 2
133829, 133834, 2
133829, 133822, 2
133829, 133851, 2
133829, 133828, 2
133829, 133827, 2
133829, 133817, 2
133829, 133857, 2
133829, 133844, 2
133829, 133833, 2
133829, 133864, 2
133829, 133826, 2
133829, 133831, 2
133829, 133856, 2
133829, 133830, 2
133817, 133838, 2
133817, 133821, 2
133817, 133832, 2
133817, 133845, 2
133817, 133851, 2
133817, 133822, 2
133817, 133829, 2
133817, 133837, 2
133817, 133864, 2
133817, 133823, 2
133817, 133826, 2
133817, 133819, 2
133817, 133833, 2
133817, 133818, 3
133817, 133816, 2
133850, 133849, 2
133850, 133851, 1
133850, 133843, 2
133850, 133847, 2
133850, 133854, 2
133850, 133829, 2
133876, 133862, 2
133876, 133881, 1
133876, 133870, 2
133876, 133871, 2
133876, 133878, 2
133876, 133884, 2
133876, 133873, 2
133876, 133877, 3
133876, 133867, 2
133876, 133880, 2
133876, 133874, 2
133876, 133875, 2
133855, 133858, 2
133855, 133849, 2
133855, 133862, 2
133855, 133853, 2
133855, 133865, 2
133855, 133871, 2
133855, 133856, 3
133855, 133827, 2
133855, 133860, 1
133855, 133857, 2
133855, 133864, 2
133855, 133863, 2
133855, 133872, 2
133855, 133859, 2
133855, 133854, 2
133855, 133861, 2
133855, 133868, 2
133872, 133855, 2
133872, 133864, 2
133872, 133870, 2
133872, 133871, 2
133872, 133873, 2
133816, 133820, 2
133816, 133827, 2
133816, 133821, 2
133816, 133817, 3
133816, 133819, 2
133816, 133818, 2
133816, 133862, 2
133816, 133825, 2
133816, 133826, 2
133816, 133823, 2
133816, 133822, 1
133839, 133838, 2
133839, 133844, 2
133839, 133840, 2
133857, 133858, 2
133857, 133853, 2
133857, 133826, 2
133857, 133855, 2
133857, 133864, 2
133857, 133829, 2
133857, 133856, 2
