15241, 15239, 2
15241, 15242, 1
15241, 15238, 2
15241, 15240, 2
15243, 15242, 2
15243, 15244, 1
15244, 15243, 2
15244, 15245, 1
15239, 15241, 2
15239, 15238, 2
15239, 15240, 2
15242, 15241, 2
15242, 15243, 1
15247, 15246, 2
15246, 15247, 1
15246, 15245, 2
15238, 15239, 0
15238, 15241, 2
15238, 15240, 1
15245, 15244, 2
15245, 15246, 1
15240, 15239, 2
15240, 15241, 1
15240, 15238, 2
