66189, 66190, 1
66189, 66186, 2
66189, 66188, 2
66187, 66185, 2
66187, 66188, 1
66187, 66186, 2
66198, 66199, 2
66198, 66197, 2
66196, 66197, 2
66196, 66195, 2
66196, 66193, 2
66196, 66194, 2
66202, 66186, 2
66202, 66201, 2
66197, 66196, 2
66197, 66195, 2
66197, 66186, 2
66197, 66198, 3
66197, 66199, 1
66193, 66192, 2
66193, 66195, 1
66193, 66194, 8
66193, 66196, 2
66191, 66190, 2
66191, 66192, 1
66191, 66186, 2
66201, 66199, 2
66201, 66200, 2
66201, 66202, 1
66201, 66186, 2
66182, 66180, 2
66182, 66186, 2
66182, 66185, 2
66182, 66181, 2
66182, 66184, 2
66182, 66183, 1
66183, 66185, 1
66183, 66184, 8
66183, 66182, 2
66183, 66186, 2
66192, 66195, 2
66192, 66186, 2
66192, 66194, 2
66192, 66190, 2
66192, 66193, 1
66192, 66191, 2
66184, 66185, 2
66184, 66182, 2
66184, 66183, 2
66184, 66186, 2
66195, 66196, 3
66195, 66197, 1
66195, 66193, 2
66195, 66194, 2
66195, 66192, 2
66190, 66189, 2
66190, 66191, 1
66190, 66186, 2
66190, 66192, 2
66185, 66182, 2
66185, 66187, 1
66185, 66186, 6
66185, 66184, 2
66185, 66183, 2
66181, 66180, 2
66181, 66182, 2
66200, 66199, 2
66200, 66201, 2
66199, 66197, 2
66199, 66186, 2
66199, 66200, 3
66199, 66198, 2
66199, 66201, 1
66180, 66181, 3
66180, 66182, 1
66180, 66186, 2
66186, 66189, 2
66186, 66184, 2
66186, 66192, 2
66186, 66190, 2
66186, 66185, 2
66186, 66202, 2
66186, 66180, 2
66186, 66201, 2
66186, 66199, 2
66186, 66187, 2
66186, 66188, 2
66186, 66197, 2
66186, 66191, 2
66186, 66182, 2
66186, 66183, 2
66194, 66196, 2
66194, 66195, 2
66194, 66193, 2
66194, 66192, 2
66188, 66189, 1
66188, 66187, 2
66188, 66186, 2
