63661, 63659, 2
63661, 63663, 2
63661, 63660, 2
63661, 63662, 1
63670, 63667, 2
63670, 63669, 2
63670, 63671, 2
63662, 63659, 2
63662, 63664, 1
63662, 63661, 2
63662, 63663, 6
63665, 63663, 2
63665, 63667, 2
63665, 63664, 2
63665, 63666, 1
63660, 63659, 2
63660, 63661, 2
63660, 63664, 2
63660, 63658, 2
63668, 63667, 2
63668, 63669, 1
63668, 63666, 2
63664, 63663, 2
63664, 63660, 2
63664, 63667, 2
63664, 63662, 2
63664, 63665, 1
63658, 63659, 1
63658, 63660, 2
63658, 63663, 2
63659, 63663, 2
63659, 63660, 3
63659, 63658, 2
63659, 63662, 2
63659, 63661, 1
63667, 63670, 2
63667, 63669, 2
63667, 63665, 2
63667, 63666, 2
63667, 63668, 2
63667, 63664, 2
63663, 63659, 2
63663, 63658, 2
63663, 63662, 2
63663, 63665, 2
63663, 63666, 2
63663, 63669, 2
63663, 63661, 2
63663, 63664, 2
63663, 63671, 2
63666, 63667, 3
63666, 63668, 1
63666, 63669, 2
63666, 63665, 2
63666, 63663, 2
63669, 63667, 2
63669, 63663, 2
63669, 63670, 3
63669, 63666, 2
63669, 63668, 2
63669, 63671, 0
63671, 63669, 2
63671, 63670, 2
63671, 63663, 2
