61942, 61943, 1
61942, 61938, 2
61942, 61940, 2
61942, 61941, 2
61943, 61942, 2
61943, 61944, 1
61943, 61941, 2
61940, 61942, 0
61940, 61939, 2
61940, 61937, 2
61940, 61941, 3
61940, 61938, 2
61944, 61943, 2
61944, 61941, 2
61939, 61938, 2
61939, 61937, 2
61939, 61936, 2
61939, 61940, 1
61939, 61941, 2
61938, 61939, 2
61938, 61942, 2
61938, 61940, 2
61938, 61937, 2
61938, 61936, 2
61937, 61939, 2
61937, 61938, 2
61937, 61940, 2
61937, 61936, 2
61937, 61941, 2
61936, 61939, 1
61936, 61938, 0
61936, 61937, 3
61936, 61941, 2
61941, 61942, 2
61941, 61943, 2
61941, 61940, 2
61941, 61944, 2
61941, 61939, 2
61941, 61937, 2
61941, 61936, 2
