21398, 21397, 2
21398, 21401, 2
21398, 21396, 2
21398, 21400, 2
21398, 21399, 2
21396, 21398, 2
21396, 21399, 2
21396, 21397, 1
21400, 21398, 2
21400, 21401, 1
21400, 21399, 2
21401, 21398, 2
21401, 21399, 2
21401, 21400, 2
21399, 21398, 6
21399, 21401, 2
21399, 21396, 2
21399, 21397, 2
21399, 21400, 1
21397, 21398, 2
21397, 21396, 2
21397, 21399, 1
