63448, 63450, 2
63448, 63451, 2
63448, 63449, 1
63448, 63447, 2
63448, 63452, 2
63450, 63448, 2
63450, 63451, 1
63450, 63449, 2
63450, 63447, 2
63449, 63448, 2
63449, 63450, 1
63453, 63451, 2
63453, 63452, 2
63446, 63445, 2
63446, 63443, 2
63446, 63447, 1
63446, 63444, 2
63443, 63441, 2
63443, 63444, 2
63443, 63442, 2
63443, 63446, 2
63442, 63443, 3
63442, 63441, 2
63442, 63444, 1
63452, 63448, 2
63452, 63451, 2
63452, 63453, 1
63445, 63444, 2
63445, 63446, 1
63451, 63448, 2
63451, 63450, 2
63451, 63452, 1
63451, 63453, 2
63441, 63443, 2
63441, 63442, 1
63444, 63445, 1
63444, 63443, 2
63444, 63442, 2
63444, 63446, 2
63447, 63448, 1
63447, 63450, 2
63447, 63446, 2
