122618, 122619, 1
122618, 122617, 2
122618, 122620, 2
122618, 122616, 2
122631, 122632, 1
122631, 122629, 2
122631, 122630, 2
122628, 122625, 2
122628, 122629, 2
122628, 122626, 2
122628, 122624, 2
122626, 122625, 2
122626, 122628, 3
122626, 122630, 2
122626, 122624, 2
122626, 122629, 2
122624, 122627, 2
122624, 122629, 2
122624, 122626, 2
122624, 122620, 2
122624, 122621, 2
122624, 122625, 1
122624, 122622, 2
122624, 122623, 2
122624, 122628, 2
122616, 122618, 2
122616, 122614, 2
122616, 122617, 2
122616, 122620, 2
122616, 122615, 2
122632, 122633, 1
122632, 122631, 2
122632, 122629, 2
122632, 122630, 2
122617, 122618, 1
122617, 122616, 2
122617, 122615, 2
122630, 122633, 2
122630, 122631, 2
122630, 122632, 2
122630, 122629, 2
122630, 122626, 2
122633, 122632, 2
122633, 122630, 2
122621, 122622, 2
122621, 122623, 2
122621, 122620, 2
122621, 122624, 2
122629, 122631, 1
122629, 122626, 2
122629, 122624, 2
122629, 122627, 2
122629, 122625, 2
122629, 122632, 2
122629, 122628, 2
122629, 122630, 0
122613, 122614, 1
122613, 122612, 2
122627, 122625, 2
122627, 122629, 2
122627, 122624, 2
122620, 122618, 2
122620, 122621, 3
122620, 122624, 1
122620, 122619, 2
122620, 122616, 2
122620, 122622, 0
122620, 122623, 2
122620, 122615, 2
122625, 122627, 4
122625, 122629, 1
122625, 122626, 6
122625, 122628, 2
122625, 122624, 2
122614, 122616, 2
122614, 122612, 2
122614, 122615, 1
122614, 122613, 2
122622, 122621, 2
122622, 122620, 2
122622, 122623, 1
122622, 122615, 2
122622, 122624, 2
122623, 122621, 2
122623, 122622, 2
122623, 122620, 2
122623, 122624, 2
122619, 122618, 2
122619, 122620, 1
122612, 122614, 2
122612, 122613, 1
122615, 122614, 2
122615, 122616, 8
122615, 122617, 1
122615, 122620, 2
122615, 122622, 2
