341294, 341295, 1
341294, 341293, 2
341298, 341297, 2
341292, 341293, 1
341292, 341291, 2
341293, 341294, 1
341293, 341292, 2
341293, 341295, 2
341290, 341291, 1
341296, 341295, 2
341296, 341297, 1
341295, 341294, 2
341295, 341296, 1
341295, 341293, 2
341297, 341296, 2
341297, 341298, 0
341291, 341290, 2
341291, 341292, 1
