72162, 72161, 2
72160, 72159, 2
72160, 72161, 1
72159, 72160, 1
72159, 72158, 2
72161, 72162, 0
72161, 72160, 2
72156, 72157, 6
72156, 72158, 1
72158, 72159, 1
72158, 72157, 2
72158, 72156, 2
72157, 72156, 2
72157, 72158, 2
