15348, 15350, 0
15348, 15349, 3
15348, 15352, 1
15348, 15351, 2
15354, 15353, 2
15354, 15355, 2
15354, 15349, 2
15352, 15353, 1
15352, 15348, 2
15352, 15349, 2
15352, 15351, 2
15353, 15349, 2
15353, 15351, 2
15353, 15355, 1
15353, 15354, 3
15353, 15352, 2
15356, 15355, 2
15356, 15351, 2
15350, 15348, 2
15350, 15349, 2
15350, 15351, 3
15355, 15353, 2
15355, 15356, 1
15355, 15354, 2
15355, 15351, 2
15349, 15348, 2
15349, 15354, 2
15349, 15352, 2
15349, 15353, 2
15349, 15350, 2
15349, 15351, 2
15351, 15348, 2
15351, 15352, 2
15351, 15353, 2
15351, 15356, 2
15351, 15350, 2
15351, 15355, 2
15351, 15349, 2
