185666, 185664, 2
185666, 185665, 2
185666, 185668, 1
185666, 185667, 0
185663, 185662, 2
185663, 185664, 1
185663, 185665, 2
185663, 185667, 2
185670, 185669, 2
185670, 185671, 2
185670, 185668, 2
185665, 185666, 1
185665, 185664, 2
185665, 185663, 2
185665, 185667, 2
185659, 185657, 2
185659, 185660, 1
185659, 185658, 2
185660, 185661, 1
185660, 185662, 2
185660, 185659, 2
185652, 185653, 2
185652, 185651, 2
185654, 185655, 1
185654, 185653, 2
185654, 185651, 2
185667, 185666, 2
185667, 185664, 2
185667, 185665, 2
185667, 185668, 2
185667, 185663, 2
185664, 185666, 2
185664, 185665, 1
185664, 185663, 2
185664, 185667, 2
185671, 185670, 2
185671, 185672, 1
185671, 185669, 2
185671, 185668, 2
185658, 185657, 2
185658, 185659, 2
185662, 185661, 2
185662, 185663, 1
185662, 185660, 2
185655, 185656, 1
185655, 185654, 2
185653, 185652, 2
185653, 185654, 1
185653, 185651, 2
185651, 185654, 2
185651, 185652, 0
185651, 185653, 1
185661, 185662, 1
185661, 185660, 2
185668, 185666, 2
185668, 185670, 2
185668, 185669, 1
185668, 185667, 2
185668, 185671, 2
185669, 185670, 8
185669, 185672, 2
185669, 185668, 2
185669, 185671, 1
185656, 185655, 2
185656, 185657, 1
185657, 185656, 2
185657, 185659, 1
185657, 185658, 8
185672, 185669, 2
185672, 185671, 2
