301030, 301029, 2
301030, 301031, 1
301029, 301030, 1
301029, 301028, 2
301026, 301028, 1
301026, 301027, 3
301028, 301027, 2
301028, 301029, 1
301028, 301026, 2
301027, 301028, 2
301027, 301026, 2
301032, 301031, 2
301031, 301030, 2
301031, 301032, 1
