171087, 171088, 2
171087, 171086, 2
171091, 171090, 2
171091, 171092, 1
171086, 171087, 3
171086, 171088, 1
171090, 171091, 1
171090, 171089, 2
171090, 171092, 2
171092, 171090, 2
171092, 171091, 2
171089, 171090, 1
171089, 171088, 2
171088, 171087, 2
171088, 171089, 1
171088, 171086, 2
