62934, 62940, 2
62934, 62935, 1
62934, 62933, 2
62934, 62936, 2
62943, 62940, 2
62943, 62942, 2
62943, 62944, 0
62937, 62940, 2
62937, 62938, 1
62937, 62936, 2
62935, 62934, 2
62935, 62936, 1
62933, 62934, 1
62933, 62932, 2
62938, 62940, 2
62938, 62939, 1
62938, 62941, 2
62938, 62937, 2
62939, 62940, 6
62939, 62941, 1
62939, 62938, 2
62936, 62940, 2
62936, 62934, 2
62936, 62935, 2
62936, 62937, 1
62942, 62940, 2
62942, 62941, 2
62942, 62943, 1
62944, 62940, 2
62944, 62943, 2
62940, 62934, 2
62940, 62943, 2
62940, 62942, 2
62940, 62937, 2
62940, 62941, 2
62940, 62939, 2
62940, 62938, 2
62940, 62944, 2
62940, 62936, 2
62932, 62933, 1
62941, 62940, 2
62941, 62939, 2
62941, 62938, 2
62941, 62942, 1
