334847, 334848, 1
334847, 334846, 2
334849, 334851, 2
334849, 334848, 2
334849, 334850, 1
334858, 334859, 1
334858, 334857, 2
334850, 334851, 1
334850, 334848, 2
334850, 334849, 2
334853, 334852, 2
334853, 334854, 1
334852, 334851, 2
334852, 334853, 1
334852, 334848, 2
334859, 334856, 2
334859, 334858, 2
334855, 334856, 1
334855, 334854, 2
334851, 334848, 2
334851, 334849, 2
334851, 334850, 2
334851, 334852, 1
334856, 334857, 0
334856, 334859, 2
334856, 334855, 2
334857, 334856, 2
334857, 334858, 1
334848, 334851, 2
334848, 334847, 2
334848, 334849, 1
334848, 334850, 2
334848, 334852, 2
334854, 334853, 2
334854, 334855, 1
334846, 334847, 1
