169882, 169878, 2
169882, 169876, 2
169882, 169874, 2
169882, 169875, 2
169882, 169881, 2
169882, 169879, 2
169882, 169880, 2
169848, 169845, 2
169848, 169849, 1
169848, 169843, 2
169848, 169844, 2
169848, 169846, 2
169848, 169842, 2
169848, 169847, 2
169860, 169877, 2
169860, 169857, 2
169860, 169856, 2
169860, 169854, 2
169860, 169858, 2
169860, 169862, 2
169860, 169855, 2
169860, 169853, 2
169844, 169845, 4
169844, 169848, 2
169844, 169849, 2
169844, 169843, 6
169844, 169846, 2
169844, 169847, 1
169844, 169842, 2
169876, 169882, 2
169876, 169878, 4
169876, 169880, 2
169876, 169874, 2
169876, 169881, 1
169876, 169875, 2
169876, 169868, 2
169876, 169879, 2
169876, 169873, 2
169876, 169877, 6
169880, 169882, 2
169880, 169878, 2
169880, 169876, 2
169880, 169868, 2
169880, 169875, 2
169880, 169881, 2
169847, 169845, 2
169847, 169848, 1
169847, 169849, 2
169847, 169843, 2
169847, 169844, 2
169847, 169846, 2
169847, 169842, 2
169852, 169855, 2
169852, 169851, 2
169852, 169853, 1
169866, 169878, 2
169866, 169867, 2
169866, 169865, 2
169866, 169864, 2
169866, 169868, 2
169866, 169863, 4
169866, 169862, 2
169866, 169869, 1
169866, 169877, 2
169849, 169845, 2
169849, 169848, 2
169849, 169844, 2
169849, 169846, 2
169849, 169851, 2
169849, 169850, 1
169849, 169853, 2
169849, 169842, 2
169849, 169847, 2
169857, 169853, 2
169857, 169860, 2
169857, 169861, 2
169857, 169856, 2
169857, 169854, 2
169857, 169858, 1
169857, 169862, 2
169857, 169855, 2
169857, 169859, 2
169834, 169828, 2
169834, 169827, 2
169834, 169837, 1
169834, 169825, 2
169834, 169831, 4
169834, 169833, 2
169834, 169829, 2
169834, 169832, 2
169834, 169826, 2
169834, 169835, 2
169834, 169830, 2
169834, 169836, 2
169870, 169878, 2
169870, 169867, 2
169870, 169865, 2
169870, 169871, 1
169870, 169868, 2
169870, 169869, 2
169870, 169877, 2
169846, 169848, 2
169846, 169849, 2
169846, 169843, 2
169846, 169844, 2
169846, 169847, 2
169846, 169842, 2
169835, 169829, 2
169835, 169834, 2
169835, 169836, 1
169835, 169837, 2
169835, 169833, 2
169835, 169827, 2
169879, 169882, 2
169879, 169876, 2
169879, 169874, 2
169879, 169875, 2
169879, 169881, 2
169879, 169877, 2
169859, 169861, 1
169859, 169856, 2
169859, 169857, 2
169859, 169854, 2
169859, 169858, 2
169859, 169862, 2
169859, 169855, 2
169859, 169853, 2
169836, 169827, 2
169836, 169840, 2
169836, 169837, 2
169836, 169833, 2
169836, 169845, 2
169836, 169838, 2
169836, 169829, 2
169836, 169834, 2
169836, 169826, 2
169836, 169835, 2
169836, 169839, 2
169836, 169842, 2
169840, 169842, 2
169840, 169839, 2
169840, 169830, 2
169840, 169836, 2
169840, 169841, 1
169838, 169837, 2
169838, 169829, 2
169838, 169839, 1
169838, 169833, 2
169838, 169836, 2
169837, 169838, 1
169837, 169834, 2
169837, 169836, 2
169837, 169829, 2
169837, 169835, 2
169837, 169830, 2
169837, 169833, 2
169825, 169828, 2
169825, 169829, 2
169825, 169834, 2
169825, 169827, 2
169825, 169826, 1
169845, 169848, 2
169845, 169849, 2
169845, 169844, 2
169845, 169847, 2
169845, 169836, 2
169845, 169842, 2
169873, 169878, 2
169873, 169876, 2
169873, 169872, 2
169873, 169881, 2
169873, 169874, 1
169873, 169868, 2
169873, 169877, 2
169841, 169840, 2
169841, 169842, 1
169874, 169882, 2
169874, 169873, 2
169874, 169876, 2
169874, 169878, 2
169874, 169875, 1
169874, 169881, 2
169874, 169879, 2
169874, 169877, 2
169830, 169837, 2
169830, 169834, 2
169830, 169827, 2
169830, 169840, 2
169830, 169828, 2
169830, 169831, 2
169830, 169826, 2
169830, 169839, 2
169830, 169842, 2
169842, 169848, 2
169842, 169844, 1
169842, 169840, 2
169842, 169829, 2
169842, 169847, 2
169842, 169845, 2
169842, 169849, 2
169842, 169843, 2
169842, 169846, 2
169842, 169841, 2
169842, 169830, 2
169842, 169836, 2
169861, 169857, 2
169861, 169862, 2
169861, 169859, 2
169861, 169858, 2
169861, 169856, 2
169827, 169829, 6
169827, 169832, 2
169827, 169834, 1
169827, 169833, 2
169827, 169826, 2
169827, 169835, 2
169827, 169828, 4
169827, 169825, 2
169827, 169831, 2
169827, 169830, 2
169827, 169836, 2
169829, 169827, 2
169829, 169837, 2
169829, 169825, 2
169829, 169833, 2
169829, 169838, 2
169829, 169832, 2
169829, 169834, 2
169829, 169839, 2
169829, 169826, 2
169829, 169843, 2
169829, 169835, 2
169829, 169836, 2
169829, 169842, 2
169854, 169860, 2
169854, 169857, 1
169854, 169856, 6
169854, 169862, 2
169854, 169859, 2
169854, 169855, 4
169854, 169853, 2
169858, 169860, 6
169858, 169857, 2
169858, 169856, 2
169858, 169861, 2
169858, 169853, 2
169858, 169862, 1
169858, 169859, 4
169858, 169855, 2
169869, 169866, 2
169869, 169865, 2
169869, 169864, 2
169869, 169868, 2
169869, 169867, 2
169869, 169870, 1
169832, 169834, 2
169832, 169827, 2
169832, 169826, 2
169832, 169829, 2
169832, 169831, 2
169832, 169833, 1
169833, 169838, 2
169833, 169832, 2
169833, 169834, 2
169833, 169827, 2
169833, 169826, 2
169833, 169829, 2
169833, 169835, 1
169833, 169839, 2
169833, 169836, 2
169833, 169837, 2
169881, 169882, 1
169881, 169878, 2
169881, 169876, 2
169881, 169873, 2
169881, 169875, 2
169881, 169874, 2
169881, 169879, 2
169881, 169880, 2
169881, 169868, 2
169867, 169866, 2
169867, 169865, 2
169867, 169868, 1
169867, 169862, 2
169867, 169869, 2
169867, 169870, 2
169855, 169852, 2
169855, 169860, 2
169855, 169857, 2
169855, 169851, 2
169855, 169854, 2
169855, 169863, 2
169855, 169862, 2
169855, 169858, 2
169855, 169859, 2
169855, 169853, 2
169839, 169838, 2
169839, 169836, 2
169839, 169840, 1
169839, 169829, 2
169839, 169830, 2
169839, 169833, 2
169853, 169852, 2
169853, 169860, 2
169853, 169857, 2
169853, 169851, 2
169853, 169856, 2
169853, 169854, 1
169853, 169858, 2
169853, 169862, 2
169853, 169849, 2
169853, 169859, 2
169853, 169855, 2
169872, 169868, 2
169872, 169871, 2
169872, 169877, 2
169872, 169878, 2
169872, 169873, 1
169851, 169852, 1
169851, 169850, 2
169851, 169849, 2
169851, 169855, 2
169851, 169853, 2
169878, 169882, 2
169878, 169872, 2
169878, 169866, 2
169878, 169875, 2
169878, 169868, 2
169878, 169880, 1
169878, 169873, 2
169878, 169876, 2
169878, 169870, 2
169878, 169874, 2
169878, 169881, 2
169878, 169863, 2
169878, 169862, 2
169878, 169865, 2
169875, 169882, 2
169875, 169878, 2
169875, 169876, 1
169875, 169881, 2
169875, 169874, 2
169875, 169879, 2
169875, 169880, 2
169875, 169877, 2
169864, 169866, 2
169864, 169863, 2
169864, 169862, 2
169864, 169865, 1
169864, 169869, 2
169831, 169832, 1
169831, 169834, 2
169831, 169827, 2
169831, 169826, 2
169831, 169828, 2
169831, 169830, 2
169868, 169872, 2
169868, 169866, 2
169868, 169862, 2
169868, 169880, 2
169868, 169869, 2
169868, 169871, 2
169868, 169873, 2
169868, 169876, 2
169868, 169870, 2
169868, 169881, 2
169868, 169867, 2
169868, 169878, 2
169868, 169865, 2
169850, 169849, 2
169850, 169851, 1
169828, 169834, 2
169828, 169827, 2
169828, 169826, 2
169828, 169825, 2
169828, 169831, 2
169828, 169830, 1
169843, 169848, 2
169843, 169844, 2
169843, 169846, 1
169843, 169829, 2
169843, 169847, 2
169843, 169842, 2
169826, 169829, 2
169826, 169832, 2
169826, 169834, 2
169826, 169827, 1
169826, 169833, 2
169826, 169828, 2
169826, 169825, 2
169826, 169831, 2
169826, 169830, 2
169826, 169836, 2
169856, 169860, 2
169856, 169857, 2
169856, 169861, 2
169856, 169854, 2
169856, 169858, 2
169856, 169862, 2
169856, 169859, 2
169856, 169853, 2
169871, 169868, 2
169871, 169872, 1
169871, 169870, 2
169871, 169877, 2
169863, 169866, 2
169863, 169862, 2
169863, 169855, 2
169863, 169864, 1
169863, 169878, 2
169862, 169860, 2
169862, 169861, 2
169862, 169878, 2
169862, 169868, 2
169862, 169854, 2
169862, 169858, 2
169862, 169855, 2
169862, 169864, 2
169862, 169866, 1
169862, 169857, 2
169862, 169865, 2
169862, 169856, 2
169862, 169867, 2
169862, 169877, 2
169862, 169863, 2
169862, 169859, 2
169862, 169853, 2
169877, 169873, 2
169877, 169860, 2
169877, 169876, 2
169877, 169872, 2
169877, 169870, 2
169877, 169871, 2
169877, 169875, 2
169877, 169874, 2
169877, 169879, 1
169877, 169866, 2
169877, 169862, 2
169865, 169866, 2
169865, 169867, 1
169865, 169870, 2
169865, 169878, 2
169865, 169864, 2
169865, 169868, 2
169865, 169862, 2
169865, 169869, 2
