133495, 133492, 2
133495, 133496, 1
133495, 133497, 2
133495, 133500, 2
133495, 133494, 2
133495, 133490, 2
133495, 133498, 2
133496, 133495, 2
133496, 133492, 2
133496, 133497, 4
133496, 133500, 1
133496, 133499, 2
133496, 133490, 2
133496, 133498, 6
133485, 133493, 2
133485, 133483, 2
133485, 133484, 2
133485, 133488, 1
133510, 133505, 2
133510, 133509, 2
133510, 133518, 2
133510, 133515, 2
133510, 133502, 2
133510, 133508, 2
133510, 133513, 2
133510, 133506, 2
133510, 133511, 1
133510, 133500, 2
133510, 133514, 2
133510, 133507, 2
133510, 133512, 2
133500, 133495, 2
133500, 133496, 2
133500, 133505, 2
133500, 133497, 2
133500, 133510, 2
133500, 133503, 2
133500, 133499, 2
133500, 133506, 2
133500, 133502, 2
133500, 133498, 2
133500, 133493, 2
133500, 133508, 2
133500, 133492, 2
133500, 133489, 2
133500, 133507, 2
133500, 133483, 2
133500, 133501, 1
133500, 133490, 2
133500, 133509, 2
133500, 133494, 2
133500, 133504, 2
133503, 133501, 2
133503, 133500, 2
133503, 133507, 2
133503, 133504, 1
133503, 133502, 2
133503, 133508, 2
133499, 133492, 2
133499, 133496, 2
133499, 133497, 2
133499, 133493, 2
133499, 133500, 2
133532, 133529, 2
133532, 133531, 2
133532, 133536, 2
133532, 133535, 2
133532, 133533, 1
133532, 133527, 2
133532, 133528, 2
133508, 133503, 2
133508, 133509, 2
133508, 133500, 2
133508, 133507, 2
133508, 133510, 2
133508, 133504, 2
133508, 133502, 2
133508, 133501, 2
133492, 133495, 2
133492, 133496, 2
133492, 133499, 2
133492, 133497, 2
133492, 133488, 2
133492, 133500, 2
133492, 133483, 2
133492, 133494, 2
133492, 133493, 2
133492, 133491, 2
133483, 133493, 1
133483, 133485, 2
133483, 133484, 4
133483, 133489, 2
133483, 133498, 2
133483, 133492, 2
133483, 133497, 2
133483, 133486, 6
133483, 133488, 2
133483, 133500, 2
133483, 133494, 2
133483, 133490, 2
133483, 133491, 2
133483, 133487, 2
133497, 133495, 2
133497, 133496, 2
133497, 133492, 2
133497, 133500, 2
133497, 133483, 2
133497, 133494, 2
133497, 133499, 1
133497, 133493, 2
133488, 133492, 2
133488, 133483, 2
133488, 133485, 2
133488, 133484, 2
133488, 133493, 2
133488, 133491, 1
133546, 133541, 2
133546, 133547, 2
133546, 133548, 2
133546, 133545, 2
133535, 133522, 2
133535, 133529, 2
133535, 133542, 2
133535, 133534, 2
133535, 133541, 2
133535, 133521, 2
133535, 133537, 3
133535, 133532, 2
133535, 133527, 2
133535, 133519, 2
133535, 133539, 2
133535, 133518, 2
133535, 133548, 2
133535, 133533, 2
133535, 133538, 2
133501, 133503, 2
133501, 133502, 1
133501, 133500, 2
133501, 133508, 2
133490, 133493, 2
133490, 133496, 2
133490, 133495, 2
133490, 133500, 2
133490, 133483, 2
133490, 133494, 2
133490, 133489, 2
133490, 133498, 2
133490, 133487, 2
133533, 133529, 2
133533, 133534, 1
133533, 133541, 2
133533, 133537, 2
133533, 133545, 2
133533, 133532, 2
133533, 133544, 2
133533, 133527, 2
133533, 133519, 2
133533, 133538, 2
133533, 133540, 2
133533, 133531, 2
133533, 133548, 2
133533, 133535, 2
133533, 133536, 2
133531, 133529, 2
133531, 133540, 2
133531, 133541, 2
133531, 133530, 2
133531, 133548, 2
133531, 133536, 2
133531, 133532, 2
133531, 133533, 2
133531, 133527, 2
133512, 133513, 3
133512, 133511, 2
133512, 133516, 2
133512, 133518, 2
133512, 133510, 2
133512, 133515, 2
133512, 133517, 2
133525, 133522, 2
133525, 133524, 2
133525, 133528, 2
133525, 133518, 2
133525, 133526, 2
133525, 133523, 2
133525, 133527, 2
133525, 133529, 2
133505, 133506, 2
133505, 133504, 2
133505, 133510, 2
133505, 133500, 2
133505, 133507, 2
133509, 133507, 2
133509, 133510, 1
133509, 133500, 2
133509, 133508, 2
133506, 133505, 2
133506, 133510, 2
133506, 133500, 2
133506, 133507, 2
133506, 133504, 2
133506, 133502, 2
133541, 133529, 2
133541, 133542, 6
133541, 133543, 2
133541, 133547, 2
133541, 133548, 1
133541, 133518, 2
133541, 133545, 2
133541, 133544, 4
133541, 133538, 2
133541, 133540, 2
133541, 133531, 2
133541, 133546, 2
133541, 133535, 2
133541, 133533, 2
133541, 133536, 2
133541, 133539, 2
133541, 133530, 2
133498, 133495, 2
133498, 133496, 2
133498, 133500, 2
133498, 133483, 2
133498, 133494, 2
133498, 133489, 2
133498, 133490, 2
133539, 133542, 2
133539, 133534, 2
133539, 133541, 2
133539, 133545, 2
133539, 133537, 2
133539, 133535, 2
133539, 133540, 2
133539, 133543, 2
133539, 133544, 2
133539, 133538, 2
133513, 133518, 2
133513, 133511, 2
133513, 133515, 1
133513, 133510, 2
133513, 133512, 2
133514, 133518, 2
133514, 133511, 2
133514, 133510, 2
133524, 133525, 2
133524, 133522, 2
133524, 133523, 2
133524, 133528, 2
133524, 133518, 2
133528, 133525, 2
133528, 133522, 2
133528, 133524, 2
133528, 133518, 2
133528, 133532, 2
133528, 133527, 2
133528, 133529, 1
133491, 133492, 1
133491, 133483, 2
133491, 133488, 2
133522, 133525, 2
133522, 133524, 2
133522, 133528, 2
133522, 133521, 2
133522, 133535, 2
133522, 133526, 1
133522, 133523, 3
133522, 133527, 2
133522, 133519, 2
133522, 133529, 2
133547, 133545, 2
133547, 133542, 2
133547, 133541, 2
133547, 133548, 2
133547, 133546, 2
133521, 133522, 1
133521, 133518, 2
133521, 133520, 2
133521, 133535, 2
133521, 133523, 2
133521, 133519, 2
133489, 133493, 2
133489, 133483, 2
133489, 133500, 2
133489, 133494, 2
133489, 133490, 0
133489, 133498, 2
133489, 133487, 2
133545, 133542, 2
133545, 133543, 2
133545, 133547, 1
133545, 133548, 2
133545, 133546, 8
133545, 133534, 2
133545, 133541, 2
133545, 133540, 2
133545, 133533, 2
133545, 133539, 2
133502, 133503, 3
133502, 133510, 2
133502, 133501, 2
133502, 133500, 2
133502, 133506, 2
133502, 133507, 1
133502, 133504, 2
133502, 133508, 2
133523, 133525, 1
133523, 133522, 2
133523, 133524, 8
133523, 133521, 2
133523, 133518, 2
133523, 133526, 2
133523, 133520, 2
133523, 133527, 2
133519, 133522, 2
133519, 133518, 2
133519, 133542, 2
133519, 133548, 2
133519, 133521, 2
133519, 133537, 2
133519, 133535, 2
133519, 133526, 2
133519, 133533, 2
133519, 133527, 2
133519, 133520, 2
133543, 133542, 2
133543, 133534, 2
133543, 133541, 2
133543, 133548, 2
133543, 133536, 2
133543, 133545, 1
133543, 133540, 2
133543, 133539, 2
133486, 133493, 2
133486, 133483, 2
133486, 133487, 1
133517, 133518, 2
133517, 133515, 2
133517, 133511, 2
133517, 133516, 2
133517, 133512, 2
133516, 133518, 2
133516, 133515, 2
133516, 133511, 2
133516, 133517, 2
133516, 133512, 2
133494, 133495, 1
133494, 133492, 2
133494, 133497, 2
133494, 133500, 2
133494, 133483, 2
133494, 133489, 2
133494, 133490, 2
133494, 133498, 2
133494, 133493, 2
133526, 133525, 2
133526, 133522, 2
133526, 133523, 2
133526, 133527, 1
133526, 133519, 2
133504, 133505, 8
133504, 133503, 2
133504, 133500, 2
133504, 133506, 1
133504, 133507, 2
133504, 133502, 2
133504, 133508, 2
133487, 133489, 1
133487, 133483, 2
133487, 133490, 2
133487, 133486, 2
133493, 133489, 2
133493, 133497, 2
133493, 133484, 2
133493, 133499, 2
133493, 133492, 2
133493, 133483, 2
133493, 133485, 2
133493, 133486, 2
133493, 133488, 2
133493, 133500, 2
133493, 133494, 1
133493, 133490, 2
133518, 133525, 2
133518, 133524, 2
133518, 133528, 2
133518, 133510, 2
133518, 133521, 2
133518, 133537, 2
133518, 133515, 2
133518, 133536, 2
133518, 133523, 2
133518, 133527, 2
133518, 133519, 0
133518, 133513, 2
133518, 133520, 1
133518, 133511, 2
133518, 133540, 2
133518, 133517, 2
133518, 133516, 2
133518, 133535, 2
133518, 133514, 2
133518, 133541, 2
133518, 133512, 2
133542, 133534, 2
133542, 133547, 2
133542, 133537, 2
133542, 133545, 2
133542, 133541, 2
133542, 133519, 2
133542, 133539, 2
133542, 133540, 2
133542, 133548, 2
133542, 133536, 2
133542, 133535, 2
133542, 133543, 3
133534, 133542, 2
133534, 133543, 2
133534, 133537, 2
133534, 133545, 2
133534, 133544, 2
133534, 133539, 2
133534, 133540, 1
133534, 133548, 2
133534, 133536, 4
133534, 133535, 6
133534, 133533, 2
133534, 133538, 2
133511, 133513, 2
133511, 133518, 1
133511, 133510, 2
133511, 133516, 2
133511, 133514, 4
133511, 133515, 2
133511, 133517, 2
133511, 133512, 6
133484, 133493, 2
133484, 133483, 2
133484, 133485, 1
133484, 133488, 2
133529, 133525, 2
133529, 133522, 2
133529, 133541, 2
133529, 133532, 2
133529, 133527, 2
133529, 133540, 2
133529, 133530, 8
133529, 133536, 2
133529, 133535, 2
133529, 133533, 2
133529, 133531, 1
133529, 133528, 2
133520, 133518, 2
133520, 133523, 2
133520, 133519, 2
133520, 133521, 1
133544, 133534, 2
133544, 133541, 2
133544, 133538, 2
133544, 133548, 2
133544, 133536, 2
133544, 133540, 2
133544, 133533, 2
133544, 133539, 2
133527, 133525, 2
133527, 133522, 2
133527, 133518, 2
133527, 133529, 2
133527, 133532, 1
133527, 133536, 2
133527, 133523, 2
133527, 133519, 2
133527, 133531, 2
133527, 133526, 2
133527, 133535, 2
133527, 133533, 2
133527, 133528, 3
133548, 133542, 2
133548, 133543, 2
133548, 133547, 2
133548, 133545, 2
133548, 133540, 2
133548, 133541, 2
133548, 133544, 2
133548, 133519, 2
133548, 133534, 2
133548, 133531, 2
133548, 133546, 2
133548, 133536, 2
133548, 133535, 2
133548, 133533, 2
133548, 133530, 2
133538, 133534, 2
133538, 133541, 2
133538, 133537, 2
133538, 133535, 2
133538, 133540, 2
133538, 133533, 2
133538, 133544, 2
133538, 133539, 2
133507, 133505, 2
133507, 133506, 2
133507, 133509, 1
133507, 133500, 2
133507, 133503, 2
133507, 133510, 2
133507, 133504, 2
133507, 133502, 2
133507, 133508, 0
133540, 133529, 2
133540, 133542, 2
133540, 133534, 2
133540, 133541, 1
133540, 133539, 2
133540, 133518, 2
133540, 133545, 2
133540, 133544, 2
133540, 133538, 2
133540, 133543, 2
133540, 133531, 2
133540, 133548, 2
133540, 133536, 2
133540, 133533, 2
133540, 133530, 2
133537, 133542, 2
133537, 133534, 2
133537, 133538, 8
133537, 133518, 2
133537, 133535, 2
133537, 133533, 2
133537, 133519, 2
133537, 133539, 1
133536, 133529, 2
133536, 133542, 2
133536, 133534, 2
133536, 133541, 2
133536, 133518, 2
133536, 133532, 2
133536, 133543, 2
133536, 133544, 2
133536, 133527, 2
133536, 133540, 2
133536, 133531, 2
133536, 133548, 2
133536, 133533, 2
133536, 133530, 2
133515, 133513, 2
133515, 133510, 2
133515, 133516, 8
133515, 133518, 2
133515, 133511, 2
133515, 133517, 1
133515, 133512, 2
133530, 133529, 2
133530, 133540, 2
133530, 133541, 2
133530, 133531, 2
133530, 133548, 2
133530, 133536, 2
