132948, 132949, 1
132950, 132949, 2
132950, 132952, 1
132950, 132951, 8
132952, 132950, 2
132952, 132953, 1
132952, 132951, 2
132949, 132948, 2
132949, 132950, 1
132949, 132951, 2
132953, 132952, 2
132953, 132951, 2
132951, 132949, 2
132951, 132950, 2
132951, 132952, 2
132951, 132953, 2
