63617, 63619, 2
63617, 63616, 2
63617, 63618, 8
63617, 63621, 1
63617, 63620, 2
63621, 63625, 1
63621, 63624, 2
63621, 63623, 2
63621, 63619, 2
63621, 63618, 2
63621, 63622, 8
63621, 63617, 2
63621, 63620, 2
63614, 63613, 2
63614, 63615, 2
63614, 63620, 2
63614, 63616, 2
63618, 63619, 1
63618, 63616, 2
63618, 63617, 2
63618, 63621, 2
63618, 63620, 2
63622, 63625, 2
63622, 63624, 2
63622, 63621, 2
63622, 63620, 2
63622, 63623, 1
63626, 63625, 2
63626, 63624, 2
63620, 63614, 2
63620, 63617, 2
63620, 63622, 2
63620, 63619, 2
63620, 63618, 2
63620, 63621, 2
63625, 63622, 2
63625, 63626, 1
63625, 63621, 2
63625, 63624, 2
63625, 63623, 2
63624, 63625, 2
63624, 63626, 2
63624, 63621, 2
63624, 63623, 2
63624, 63622, 2
63613, 63614, 3
63613, 63616, 2
63613, 63615, 1
63623, 63625, 2
63623, 63624, 1
63623, 63621, 2
63623, 63622, 2
63619, 63617, 2
63619, 63621, 2
63619, 63618, 2
63619, 63620, 1
63616, 63614, 2
63616, 63615, 2
63616, 63617, 1
63616, 63613, 2
63616, 63618, 2
63615, 63614, 2
63615, 63616, 1
63615, 63613, 2
