340287, 340285, 2
340287, 340288, 1
340287, 340286, 2
340288, 340287, 2
340288, 340289, 1
340290, 340289, 2
340290, 340291, 2
340286, 340287, 1
340286, 340285, 2
340289, 340288, 2
340289, 340290, 3
340289, 340291, 1
340285, 340287, 2
340285, 340286, 1
340291, 340289, 2
340291, 340290, 2
