256127, 256130, 2
256127, 256128, 2
256127, 256129, 2
256127, 256131, 2
256127, 256125, 2
256127, 256126, 2
256132, 256133, 1
256132, 256135, 2
256132, 256134, 2
256132, 256131, 2
256105, 256107, 2
256105, 256109, 2
256105, 256111, 1
256105, 256110, 2
256105, 256113, 2
256105, 256106, 3
256105, 256108, 2
256130, 256131, 1
256130, 256126, 2
256130, 256134, 2
256130, 256129, 2
256130, 256127, 2
256129, 256135, 1
256129, 256130, 3
256129, 256134, 2
256129, 256117, 2
256129, 256127, 2
256129, 256128, 2
256129, 256125, 2
256129, 256126, 2
256133, 256132, 2
256133, 256134, 1
256108, 256111, 2
256108, 256107, 2
256108, 256105, 2
256108, 256109, 1
256108, 256110, 2
256126, 256125, 2
256126, 256130, 2
256126, 256124, 2
256126, 256129, 2
256126, 256128, 1
256126, 256127, 8
256112, 256119, 2
256112, 256120, 2
256112, 256111, 2
256112, 256114, 2
256112, 256117, 2
256112, 256110, 2
256112, 256115, 2
256112, 256116, 2
256112, 256113, 2
256112, 256118, 2
256120, 256122, 2
256120, 256121, 1
256120, 256112, 2
256120, 256111, 2
256120, 256119, 2
256109, 256108, 2
256109, 256111, 2
256109, 256110, 1
256109, 256105, 2
256114, 256112, 2
256114, 256117, 2
256114, 256115, 1
256114, 256116, 2
256114, 256113, 2
256114, 256118, 2
256124, 256117, 2
256124, 256128, 2
256124, 256122, 2
256124, 256123, 2
256124, 256125, 3
256124, 256126, 1
256116, 256112, 2
256116, 256111, 2
256116, 256114, 2
256116, 256117, 1
256116, 256115, 2
256116, 256113, 2
256118, 256119, 1
256118, 256111, 2
256118, 256114, 2
256118, 256112, 2
256118, 256117, 2
256118, 256113, 2
256131, 256132, 1
256131, 256130, 2
256131, 256134, 2
256131, 256125, 2
256131, 256127, 2
256121, 256122, 1
256121, 256120, 2
256134, 256132, 2
256134, 256130, 2
256134, 256129, 2
256134, 256135, 2
256134, 256133, 2
256134, 256131, 2
256107, 256105, 2
256107, 256111, 2
256107, 256110, 2
256107, 256108, 1
256107, 256106, 2
256119, 256112, 2
256119, 256120, 3
256119, 256111, 2
256119, 256122, 2
256119, 256117, 2
256119, 256123, 1
256119, 256118, 2
256117, 256135, 2
256117, 256129, 2
256117, 256112, 2
256117, 256123, 2
256117, 256136, 2
256117, 256119, 2
256117, 256114, 2
256117, 256128, 2
256117, 256124, 2
256117, 256115, 2
256117, 256116, 2
256117, 256118, 2
256123, 256117, 2
256123, 256122, 2
256123, 256124, 1
256123, 256119, 2
256106, 256107, 1
256106, 256105, 2
256106, 256111, 2
256125, 256127, 2
256125, 256129, 2
256125, 256124, 2
256125, 256122, 2
256125, 256126, 2
256125, 256128, 2
256125, 256131, 2
256136, 256117, 2
256136, 256135, 2
256122, 256121, 2
256122, 256120, 2
256122, 256124, 2
256122, 256119, 2
256122, 256123, 2
256122, 256125, 2
256111, 256105, 2
256111, 256107, 2
256111, 256108, 2
256111, 256106, 2
256111, 256115, 2
256111, 256119, 2
256111, 256120, 2
256111, 256109, 2
256111, 256110, 2
256111, 256112, 3
256111, 256116, 2
256111, 256113, 0
256111, 256118, 1
256110, 256112, 2
256110, 256105, 2
256110, 256111, 2
256110, 256107, 2
256110, 256109, 2
256110, 256108, 2
256115, 256112, 2
256115, 256111, 2
256115, 256114, 2
256115, 256117, 2
256115, 256113, 2
256115, 256116, 1
256135, 256117, 2
256135, 256132, 2
256135, 256136, 1
256135, 256129, 2
256135, 256134, 2
256113, 256112, 2
256113, 256105, 2
256113, 256111, 2
256113, 256114, 1
256113, 256115, 2
256113, 256116, 2
256113, 256118, 2
256128, 256129, 1
256128, 256124, 2
256128, 256117, 2
256128, 256127, 2
256128, 256125, 2
256128, 256126, 2
