72373, 72372, 2
72373, 72377, 2
72373, 72376, 2
72373, 72375, 1
72373, 72374, 3
72377, 72376, 2
72377, 72373, 2
72377, 72375, 2
72372, 72373, 1
72372, 72371, 2
72376, 72373, 2
72376, 72377, 6
72376, 72375, 2
72375, 72374, 2
72375, 72376, 1
72375, 72373, 2
72375, 72377, 2
72374, 72373, 2
72374, 72375, 2
72371, 72372, 1
