17570, 17569, 2
17570, 17572, 1
17570, 17571, 0
17563, 17565, 1
17563, 17562, 2
17563, 17561, 2
17563, 17560, 2
17563, 17564, 0
17566, 17565, 2
17566, 17567, 1
17566, 17569, 2
17559, 17558, 2
17559, 17560, 2
17564, 17565, 2
17564, 17563, 2
17565, 17566, 1
17565, 17563, 2
17565, 17564, 2
17561, 17562, 1
17561, 17563, 2
17561, 17560, 2
17567, 17566, 2
17567, 17569, 1
17567, 17568, 3
17571, 17570, 2
17571, 17572, 2
17568, 17569, 2
17568, 17567, 2
17569, 17566, 2
17569, 17570, 1
17569, 17567, 2
17569, 17572, 2
17569, 17568, 2
17562, 17561, 2
17562, 17563, 1
17558, 17559, 3
17558, 17560, 1
17560, 17558, 2
17560, 17559, 2
17560, 17561, 1
17560, 17563, 2
17572, 17570, 2
17572, 17569, 2
17572, 17571, 2
