301847, 301844, 2
301847, 301843, 2
301847, 301846, 2
301847, 301845, 2
301841, 301844, 2
301841, 301842, 1
301841, 301843, 2
301843, 301847, 2
301843, 301842, 2
301843, 301846, 2
301843, 301845, 1
301843, 301844, 3
301843, 301841, 2
301842, 301844, 2
301842, 301841, 2
301842, 301843, 1
301845, 301844, 2
301845, 301847, 2
301845, 301843, 2
301845, 301846, 1
301844, 301842, 2
301844, 301843, 2
301844, 301846, 2
301844, 301845, 2
301844, 301847, 2
301844, 301841, 2
301846, 301844, 2
301846, 301847, 3
301846, 301843, 2
301846, 301845, 2
