72965, 72966, 1
72968, 72970, 2
72968, 72969, 1
72968, 72967, 2
72972, 72971, 2
72972, 72973, 1
72970, 72968, 2
72970, 72969, 2
72970, 72971, 1
72966, 72965, 2
72966, 72967, 1
72969, 72970, 1
72969, 72968, 2
72967, 72966, 2
72967, 72968, 1
72971, 72970, 2
72971, 72972, 1
72973, 72972, 2
