166369, 166366, 2
166369, 166367, 2
166369, 166368, 2
166367, 166369, 2
166367, 166368, 1
166367, 166366, 2
166368, 166369, 1
166368, 166367, 2
166368, 166366, 2
166366, 166369, 2
166366, 166367, 1
166366, 166368, 2
