123423, 123432, 2
123423, 123424, 3
123423, 123421, 2
123423, 123422, 2
123423, 123425, 1
123423, 123420, 2
123434, 123432, 2
123434, 123431, 2
123434, 123430, 2
123434, 123429, 2
123434, 123433, 2
123434, 123435, 1
123425, 123432, 2
123425, 123423, 2
123425, 123426, 1
123425, 123424, 2
123425, 123430, 2
123433, 123431, 2
123433, 123441, 2
123433, 123436, 2
123433, 123434, 2
123433, 123429, 2
123433, 123440, 2
123433, 123437, 2
123433, 123443, 2
123433, 123430, 2
123433, 123444, 2
123433, 123427, 2
123433, 123435, 2
123437, 123440, 2
123437, 123441, 2
123437, 123436, 2
123437, 123433, 2
123437, 123439, 2
123437, 123438, 2
123437, 123435, 2
123440, 123437, 2
123440, 123441, 2
123440, 123435, 2
123440, 123433, 2
123440, 123438, 2
123440, 123439, 2
123442, 123443, 1
123442, 123441, 2
123444, 123432, 2
123444, 123443, 2
123444, 123433, 2
123439, 123437, 2
123439, 123440, 3
123439, 123441, 1
123439, 123432, 2
123439, 123438, 2
123439, 123435, 2
123432, 123428, 2
123432, 123434, 2
123432, 123423, 2
123432, 123425, 2
123432, 123429, 2
123432, 123420, 2
123432, 123438, 2
123432, 123443, 2
123432, 123444, 2
123432, 123427, 2
123432, 123435, 2
123432, 123439, 2
123432, 123441, 2
123428, 123432, 2
123428, 123427, 2
123428, 123429, 1
123428, 123430, 2
123441, 123432, 2
123441, 123440, 2
123441, 123442, 1
123441, 123437, 2
123441, 123433, 2
123441, 123439, 2
123421, 123423, 2
123421, 123420, 2
123421, 123424, 2
123421, 123430, 2
123421, 123422, 2
123436, 123437, 1
123436, 123431, 2
123436, 123430, 2
123436, 123429, 2
123436, 123433, 2
123436, 123438, 2
123436, 123435, 2
123426, 123425, 2
123426, 123427, 1
123426, 123430, 2
123429, 123432, 6
123429, 123428, 2
123429, 123434, 1
123429, 123436, 2
123429, 123427, 2
123429, 123431, 2
123429, 123433, 2
123429, 123430, 4
123420, 123432, 2
123420, 123423, 2
123420, 123424, 2
123420, 123430, 2
123420, 123421, 3
123420, 123422, 1
123438, 123437, 2
123438, 123440, 2
123438, 123432, 2
123438, 123436, 2
123438, 123439, 1
123438, 123435, 2
123443, 123432, 2
123443, 123444, 1
123443, 123442, 2
123443, 123433, 2
123422, 123423, 1
123422, 123424, 2
123422, 123420, 2
123422, 123421, 2
123424, 123423, 2
123424, 123430, 2
123424, 123421, 2
123424, 123422, 2
123424, 123425, 2
123424, 123420, 2
123430, 123431, 1
123430, 123428, 2
123430, 123434, 2
123430, 123421, 2
123430, 123436, 2
123430, 123425, 2
123430, 123433, 2
123430, 123426, 2
123430, 123429, 2
123430, 123420, 2
123430, 123424, 2
123430, 123427, 2
123430, 123435, 2
123427, 123432, 2
123427, 123428, 1
123427, 123430, 2
123427, 123429, 2
123427, 123426, 2
123427, 123433, 2
123427, 123431, 2
123431, 123430, 2
123431, 123436, 2
123431, 123429, 2
123431, 123427, 2
123431, 123435, 2
123431, 123433, 1
123431, 123434, 2
123435, 123437, 2
123435, 123432, 2
123435, 123430, 2
123435, 123436, 3
123435, 123434, 2
123435, 123431, 2
123435, 123433, 2
123435, 123439, 2
123435, 123440, 2
123435, 123438, 1
