121030, 121028, 2
121030, 121032, 2
121030, 121029, 2
121030, 121031, 1
121026, 121023, 2
121026, 121027, 1
121026, 121025, 2
121026, 121029, 2
121026, 121028, 2
121026, 121024, 2
121023, 121028, 2
121023, 121022, 2
121023, 121027, 2
121023, 121026, 2
121023, 121025, 1
121023, 121021, 2
121023, 121020, 2
121023, 121024, 3
121028, 121023, 2
121028, 121027, 2
121028, 121031, 2
121028, 121026, 2
121028, 121025, 2
121028, 121029, 3
121028, 121032, 2
121028, 121030, 1
121028, 121024, 2
121017, 121020, 2
121017, 121019, 1
121017, 121018, 3
121017, 121021, 2
121017, 121016, 2
121017, 121015, 2
121017, 121014, 2
121032, 121029, 2
121032, 121028, 2
121032, 121030, 2
121032, 121031, 2
121016, 121018, 2
121016, 121017, 1
121016, 121014, 2
121016, 121015, 2
121015, 121018, 2
121015, 121017, 2
121015, 121016, 2
121015, 121014, 2
121014, 121018, 2
121014, 121017, 2
121014, 121016, 1
121014, 121015, 3
121025, 121027, 2
121025, 121026, 1
121025, 121023, 2
121025, 121029, 2
121025, 121028, 2
121025, 121024, 2
121027, 121023, 2
121027, 121026, 2
121027, 121025, 2
121027, 121029, 2
121027, 121028, 1
121027, 121024, 2
121019, 121018, 2
121019, 121021, 2
121019, 121020, 1
121019, 121017, 2
121031, 121029, 2
121031, 121030, 2
121031, 121032, 3
121031, 121028, 2
121022, 121023, 1
121022, 121021, 2
121022, 121020, 2
121022, 121024, 2
121018, 121020, 2
121018, 121019, 2
121018, 121016, 2
121018, 121021, 2
121018, 121017, 2
121018, 121015, 2
121018, 121014, 2
121021, 121023, 2
121021, 121020, 2
121021, 121019, 2
121021, 121022, 2
121021, 121018, 2
121021, 121017, 2
121021, 121024, 2
121020, 121022, 1
121020, 121019, 2
121020, 121023, 2
121020, 121018, 2
121020, 121021, 3
121020, 121017, 2
121020, 121024, 2
121029, 121027, 2
121029, 121031, 2
121029, 121026, 2
121029, 121025, 2
121029, 121028, 2
121029, 121032, 2
121029, 121030, 2
121029, 121024, 2
121024, 121023, 2
121024, 121027, 2
121024, 121026, 2
121024, 121022, 2
121024, 121029, 2
121024, 121020, 2
121024, 121025, 2
121024, 121021, 2
121024, 121028, 2
