127378, 127381, 2
127378, 127380, 2
127378, 127379, 0
127381, 127378, 2
127381, 127380, 2
127381, 127379, 2
127380, 127378, 2
127380, 127381, 2
127380, 127379, 2
127379, 127378, 2
127379, 127381, 1
127379, 127380, 8
