337012, 337013, 2
337012, 337011, 2
337008, 337006, 2
337008, 337009, 2
337008, 337007, 2
337019, 337018, 2
337006, 337005, 2
337006, 337007, 2
337006, 337008, 2
337017, 337016, 2
337017, 337015, 2
337017, 337014, 2
337017, 337018, 1
337015, 337016, 3
337015, 337017, 1
337015, 337014, 2
337009, 337007, 2
337009, 337010, 1
337009, 337008, 2
337013, 337011, 2
337013, 337012, 2
337013, 337014, 1
337004, 337005, 3
337004, 337007, 1
337004, 337003, 2
336995, 336994, 2
336995, 336996, 1
336995, 336998, 2
336995, 336993, 2
337005, 337006, 2
337005, 337004, 2
337005, 337007, 2
336997, 336996, 2
336997, 336998, 2
337001, 337002, 2
337001, 337000, 2
336994, 336993, 2
336994, 336995, 1
336993, 336994, 1
336993, 336995, 2
337003, 337002, 2
337003, 337004, 1
337016, 337017, 2
337016, 337015, 2
336996, 336998, 1
336996, 336997, 3
336996, 336995, 2
337010, 337009, 2
337010, 337011, 1
336998, 336996, 2
336998, 336999, 1
336998, 336997, 2
336998, 336995, 2
337002, 337001, 2
337002, 337000, 2
337002, 337003, 1
337000, 337001, 3
337000, 336999, 2
337000, 337002, 1
337011, 337013, 1
337011, 337012, 3
337011, 337010, 2
337011, 337014, 2
337014, 337013, 2
337014, 337017, 2
337014, 337015, 1
337014, 337011, 2
337007, 337005, 2
337007, 337006, 2
337007, 337008, 3
337007, 337004, 2
337007, 337009, 1
336999, 336998, 2
336999, 337000, 1
337018, 337017, 2
337018, 337019, 1
