222223, 222224, 1
222223, 222225, 2
222224, 222223, 2
222224, 222225, 1
222229, 222230, 1
222229, 222228, 2
222230, 222229, 2
222227, 222226, 2
222227, 222228, 1
222226, 222227, 1
222226, 222225, 2
222225, 222223, 2
222225, 222224, 2
222225, 222226, 1
222228, 222227, 2
222228, 222229, 1
