218018, 218020, 2
218018, 218017, 2
218018, 218019, 1
218026, 218025, 2
218026, 218027, 1
218027, 218025, 2
218027, 218028, 1
218027, 218026, 2
218027, 218029, 2
218015, 218016, 1
218015, 218014, 2
218024, 218025, 1
218024, 218023, 2
218030, 218029, 2
218028, 218027, 2
218028, 218029, 1
218013, 218014, 1
218023, 218022, 2
218023, 218024, 1
218025, 218027, 2
218025, 218026, 1
218025, 218024, 2
218016, 218017, 1
218016, 218014, 2
218016, 218015, 2
218029, 218028, 2
218029, 218027, 2
218029, 218030, 0
218014, 218016, 2
218014, 218013, 2
218014, 218015, 1
218017, 218016, 2
218017, 218018, 1
218020, 218021, 1
218020, 218018, 2
218020, 218019, 2
218022, 218021, 2
218022, 218023, 1
218019, 218020, 1
218019, 218018, 2
218021, 218020, 2
218021, 218022, 1
