118666, 118663, 2
118666, 118662, 2
118666, 118665, 2
118666, 118660, 2
118666, 118658, 2
118666, 118659, 2
118666, 118661, 2
118666, 118664, 2
118657, 118656, 2
118657, 118659, 2
118657, 118658, 1
118663, 118660, 2
118663, 118666, 2
118663, 118662, 2
118663, 118664, 1
118662, 118660, 2
118662, 118666, 2
118662, 118663, 1
118662, 118661, 2
118658, 118666, 2
118658, 118657, 2
118658, 118656, 2
118658, 118659, 2
118660, 118666, 1
118660, 118663, 2
118660, 118662, 2
118660, 118659, 2
118660, 118661, 0
118660, 118664, 2
118656, 118657, 3
118656, 118659, 1
118656, 118661, 2
118656, 118658, 2
118665, 118666, 2
118665, 118664, 2
118659, 118666, 2
118659, 118657, 2
118659, 118658, 2
118659, 118660, 1
118659, 118656, 2
118659, 118661, 2
118661, 118660, 2
118661, 118666, 2
118661, 118656, 2
118661, 118659, 2
118661, 118662, 1
118664, 118660, 2
118664, 118666, 2
118664, 118663, 2
118664, 118665, 1
