196161, 196162, 1
196161, 196152, 2
196161, 196160, 2
196161, 196163, 2
196163, 196162, 2
196163, 196161, 2
196151, 196152, 6
196151, 196153, 1
196155, 196156, 2
196155, 196157, 2
196155, 196154, 2
196155, 196153, 2
196157, 196152, 2
196157, 196159, 2
196157, 196155, 2
196157, 196156, 2
196157, 196158, 1
196157, 196154, 2
196154, 196156, 1
196154, 196157, 2
196154, 196153, 2
196154, 196155, 8
196162, 196161, 2
196162, 196163, 1
196152, 196157, 2
196152, 196161, 2
196152, 196151, 2
196152, 196159, 2
196152, 196156, 2
196152, 196160, 2
196152, 196153, 2
196159, 196157, 2
196159, 196152, 2
196159, 196160, 1
196159, 196158, 2
196156, 196157, 1
196156, 196152, 2
196156, 196153, 2
196156, 196154, 2
196156, 196155, 2
196160, 196161, 1
196160, 196152, 2
196160, 196159, 2
196158, 196157, 2
196158, 196159, 1
196153, 196156, 2
196153, 196152, 2
196153, 196154, 1
196153, 196151, 2
196153, 196155, 2
