186554, 186555, 1
186556, 186559, 2
186556, 186555, 2
186556, 186558, 1
186556, 186557, 8
186558, 186559, 1
186558, 186556, 2
186558, 186557, 2
186559, 186558, 2
186559, 186556, 2
186559, 186557, 2
186557, 186559, 2
186557, 186556, 2
186557, 186558, 2
186555, 186554, 2
186555, 186556, 1
