252703, 252701, 2
252703, 252696, 2
252703, 252699, 2
252703, 252702, 2
252696, 252694, 2
252696, 252703, 2
252696, 252697, 8
252696, 252699, 2
252696, 252693, 2
252696, 252700, 2
252696, 252695, 2
252696, 252698, 1
252691, 252693, 2
252691, 252690, 2
252691, 252694, 2
252691, 252692, 2
252699, 252703, 2
252699, 252696, 2
252699, 252697, 2
252699, 252701, 2
252699, 252700, 3
252699, 252698, 2
252699, 252702, 1
252693, 252694, 3
252693, 252696, 1
252693, 252691, 2
252693, 252692, 2
252695, 252700, 2
252695, 252694, 2
252695, 252696, 2
252695, 252697, 2
252695, 252698, 2
252690, 252691, 3
252690, 252692, 1
252694, 252693, 2
252694, 252695, 1
252694, 252696, 2
252694, 252691, 2
252694, 252692, 2
252701, 252700, 2
252701, 252703, 2
252701, 252702, 2
252701, 252699, 2
252697, 252700, 2
252697, 252695, 2
252697, 252696, 2
252697, 252699, 2
252697, 252698, 2
252692, 252693, 1
252692, 252690, 2
252692, 252691, 2
252692, 252694, 2
252700, 252701, 1
252700, 252696, 2
252700, 252697, 2
252700, 252699, 2
252700, 252695, 2
252700, 252702, 2
252700, 252698, 2
252702, 252700, 2
252702, 252703, 1
252702, 252701, 2
252702, 252699, 2
252698, 252700, 2
252698, 252695, 2
252698, 252696, 2
252698, 252697, 2
252698, 252699, 1
