339378, 339377, 2
339373, 339374, 1
339377, 339375, 2
339377, 339378, 0
339377, 339376, 2
339375, 339376, 1
339375, 339377, 2
339375, 339374, 2
339376, 339375, 2
339376, 339377, 1
339374, 339375, 1
339374, 339373, 2
