17418, 17414, 2
17418, 17419, 1
17418, 17415, 2
17418, 17416, 2
17418, 17417, 2
17421, 17422, 1
17421, 17414, 2
17421, 17420, 2
17420, 17421, 1
17420, 17419, 2
17422, 17421, 2
17422, 17423, 1
17414, 17418, 2
17414, 17415, 3
17414, 17421, 2
17414, 17417, 1
17415, 17418, 2
17415, 17414, 2
17415, 17417, 2
17415, 17416, 3
17426, 17427, 1
17426, 17425, 2
17425, 17427, 2
17425, 17426, 1
17425, 17424, 2
17428, 17427, 2
17419, 17418, 2
17419, 17420, 1
17419, 17416, 2
17416, 17418, 2
17416, 17415, 2
17416, 17419, 2
17416, 17417, 2
17427, 17428, 1
17427, 17426, 2
17427, 17425, 2
17424, 17425, 1
17424, 17423, 2
17417, 17418, 1
17417, 17414, 2
17417, 17415, 2
17417, 17416, 2
17423, 17422, 2
17423, 17424, 1
