215877, 215878, 1
215877, 215876, 2
215879, 215878, 2
215879, 215883, 2
215879, 215880, 2
215875, 215876, 1
215884, 215883, 2
215883, 215879, 2
215883, 215884, 1
215883, 215882, 2
215882, 215881, 2
215882, 215883, 1
215876, 215877, 1
215876, 215875, 2
215876, 215878, 2
215881, 215882, 1
215881, 215880, 2
215878, 215877, 2
215878, 215879, 8
215878, 215876, 2
215878, 215880, 1
215880, 215879, 2
215880, 215878, 2
215880, 215881, 1
