301264, 301267, 2
301264, 301268, 2
301264, 301265, 1
301266, 301267, 1
301266, 301268, 2
301266, 301265, 2
301267, 301266, 2
301267, 301264, 2
301267, 301269, 1
301267, 301268, 6
301267, 301265, 2
301268, 301266, 2
301268, 301264, 2
301268, 301267, 2
301268, 301269, 2
301268, 301265, 2
301270, 301269, 2
301269, 301270, 1
301269, 301267, 2
301269, 301268, 2
301265, 301264, 2
301265, 301266, 1
301265, 301267, 2
301265, 301268, 2
