300703, 300704, 1
300705, 300704, 2
300705, 300707, 1
300705, 300706, 8
300705, 300708, 2
300704, 300703, 2
300704, 300705, 1
300704, 300706, 2
300707, 300705, 2
300707, 300706, 2
300707, 300708, 1
300706, 300705, 2
300706, 300704, 2
300706, 300707, 2
300708, 300705, 2
300708, 300707, 2
