163750, 163747, 2
163750, 163751, 1
163750, 163748, 2
163750, 163752, 2
163747, 163750, 2
163747, 163748, 6
163747, 163749, 4
163747, 163752, 1
163747, 163751, 2
163747, 163753, 2
163770, 163749, 2
163770, 163769, 2
163761, 163762, 1
163761, 163751, 2
163761, 163760, 2
163761, 163749, 2
163769, 163751, 2
163769, 163749, 2
163769, 163768, 2
163769, 163770, 1
163768, 163767, 2
163768, 163751, 2
163768, 163749, 2
163768, 163769, 1
163758, 163759, 1
163758, 163757, 2
163758, 163749, 2
163758, 163751, 2
163762, 163751, 2
163762, 163761, 2
163762, 163749, 2
163762, 163764, 2
163762, 163763, 1
163759, 163758, 2
163759, 163751, 2
163759, 163749, 2
163759, 163760, 1
163765, 163751, 2
163765, 163764, 2
163765, 163766, 1
163752, 163750, 2
163752, 163747, 2
163752, 163748, 2
163752, 163749, 2
163752, 163751, 2
163752, 163753, 1
163763, 163762, 2
163763, 163764, 1
163767, 163768, 1
163767, 163751, 2
163767, 163766, 2
163757, 163758, 1
163757, 163751, 2
163757, 163756, 2
163749, 163747, 2
163749, 163770, 2
163749, 163761, 2
163749, 163769, 2
163749, 163759, 2
163749, 163762, 2
163749, 163756, 2
163749, 163766, 2
163749, 163758, 2
163749, 163760, 2
163749, 163755, 2
163749, 163752, 2
163749, 163754, 2
163749, 163768, 2
163749, 163753, 2
163764, 163762, 2
163764, 163765, 1
163764, 163766, 2
163764, 163763, 2
163756, 163751, 2
163756, 163749, 2
163756, 163757, 1
163756, 163755, 2
163766, 163767, 1
163766, 163765, 2
163766, 163749, 2
163766, 163751, 2
163766, 163764, 2
163748, 163750, 1
163748, 163747, 2
163748, 163752, 2
163760, 163759, 2
163760, 163751, 2
163760, 163761, 1
163760, 163749, 2
163755, 163751, 2
163755, 163749, 2
163755, 163756, 1
163755, 163754, 2
163751, 163750, 2
163751, 163747, 2
163751, 163757, 2
163751, 163761, 2
163751, 163769, 2
163751, 163759, 2
163751, 163762, 2
163751, 163756, 2
163751, 163767, 2
163751, 163766, 2
163751, 163758, 2
163751, 163760, 2
163751, 163755, 2
163751, 163752, 2
163751, 163765, 2
163751, 163754, 2
163751, 163768, 2
163751, 163753, 2
163753, 163747, 2
163753, 163751, 2
163753, 163749, 2
163753, 163752, 2
163753, 163754, 1
163754, 163751, 2
163754, 163749, 2
163754, 163755, 1
163754, 163753, 2
