121060, 121059, 2
121060, 121062, 2
121060, 121061, 1
121060, 121058, 2
121060, 121063, 2
121063, 121060, 2
121063, 121058, 2
121063, 121059, 2
121063, 121065, 2
121063, 121064, 1
121063, 121062, 2
121063, 121061, 2
121057, 121056, 2
121057, 121058, 1
121052, 121053, 1
121059, 121060, 2
121059, 121063, 2
121059, 121058, 2
121059, 121070, 2
121059, 121064, 2
121059, 121062, 2
121059, 121061, 2
121059, 121069, 2
121059, 121066, 2
121067, 121068, 3
121067, 121069, 1
121067, 121066, 2
121055, 121054, 2
121055, 121056, 2
121055, 121058, 2
121055, 121053, 2
121056, 121054, 2
121056, 121057, 1
121056, 121058, 2
121056, 121055, 2
121053, 121054, 1
121053, 121052, 2
121053, 121055, 2
121066, 121068, 2
121066, 121067, 1
121066, 121059, 2
121066, 121065, 2
121066, 121064, 2
121068, 121067, 2
121068, 121069, 2
121068, 121065, 2
121068, 121066, 2
121058, 121060, 3
121058, 121063, 1
121058, 121057, 2
121058, 121062, 2
121058, 121059, 0
121058, 121055, 2
121058, 121056, 2
121058, 121061, 2
121070, 121059, 2
121070, 121069, 2
121065, 121068, 2
121065, 121063, 2
121065, 121062, 2
121065, 121066, 2
121065, 121064, 2
121064, 121063, 2
121064, 121059, 2
121064, 121065, 3
121064, 121066, 1
121062, 121060, 2
121062, 121063, 2
121062, 121058, 2
121062, 121059, 2
121062, 121065, 2
121062, 121061, 2
121061, 121060, 2
121061, 121063, 2
121061, 121062, 1
121061, 121059, 2
121061, 121058, 2
121069, 121067, 2
121069, 121070, 1
121069, 121059, 2
121069, 121068, 2
121054, 121056, 1
121054, 121055, 3
121054, 121053, 2
