72152, 72151, 2
72152, 72154, 2
72152, 72153, 1
72150, 72151, 2
72150, 72149, 2
72154, 72152, 2
72154, 72153, 2
72153, 72152, 2
72153, 72154, 1
72151, 72152, 1
72151, 72150, 2
72151, 72149, 2
72149, 72150, 3
72149, 72151, 1
