218140, 218139, 2
218140, 218141, 1
218131, 218130, 2
218131, 218133, 2
218131, 218132, 1
218128, 218127, 2
218128, 218126, 2
218128, 218129, 2
218128, 218125, 2
218133, 218134, 1
218133, 218131, 2
218133, 218132, 2
218136, 218134, 2
218136, 218135, 2
218136, 218137, 2
218136, 218138, 2
218130, 218129, 2
218130, 218131, 1
218135, 218134, 2
218135, 218136, 0
218135, 218137, 3
218135, 218138, 1
218129, 218127, 2
218129, 218126, 2
218129, 218130, 1
218129, 218128, 2
218141, 218140, 2
218134, 218136, 2
218134, 218135, 1
218134, 218137, 2
218134, 218133, 2
218126, 218127, 0
218126, 218125, 2
218126, 218129, 1
218126, 218128, 3
218138, 218136, 2
218138, 218139, 1
218138, 218135, 2
218138, 218137, 2
218125, 218127, 2
218125, 218126, 1
218125, 218124, 2
218125, 218128, 2
218123, 218124, 1
218132, 218131, 2
218132, 218133, 1
218127, 218126, 2
218127, 218125, 2
218127, 218128, 2
218127, 218129, 2
218124, 218125, 1
218124, 218123, 2
218139, 218140, 1
218139, 218138, 2
218137, 218134, 2
218137, 218136, 2
218137, 218135, 2
218137, 218138, 2
