186979, 186980, 1
186980, 186979, 2
186980, 186981, 1
186982, 186985, 2
186982, 186981, 2
186982, 186984, 1
186982, 186983, 8
186981, 186980, 2
186981, 186982, 1
186981, 186983, 2
186985, 186984, 2
186985, 186982, 2
186985, 186983, 2
186984, 186985, 1
186984, 186982, 2
186984, 186983, 2
186983, 186985, 2
186983, 186981, 2
186983, 186984, 2
186983, 186982, 2
