164140, 164139, 2
164140, 164145, 2
164140, 164141, 1
164140, 164154, 2
164140, 164143, 2
164140, 164138, 2
164140, 164137, 2
164140, 164153, 2
164139, 164140, 6
164139, 164137, 2
164139, 164145, 1
164139, 164141, 2
164139, 164143, 2
164139, 164138, 2
164139, 164142, 4
164139, 164144, 2
164148, 164149, 3
164148, 164147, 2
164148, 164151, 1
164148, 164146, 2
164148, 164144, 2
164148, 164143, 2
164148, 164150, 2
164148, 164142, 2
164148, 164153, 2
164156, 164163, 2
164156, 164162, 2
164156, 164144, 2
164156, 164151, 2
164156, 164152, 2
164156, 164142, 2
164156, 164150, 2
164152, 164159, 2
164152, 164151, 2
164152, 164163, 2
164152, 164144, 2
164152, 164156, 4
164152, 164153, 6
164152, 164155, 2
164152, 164160, 2
164152, 164162, 1
164152, 164154, 2
164152, 164158, 2
164152, 164161, 2
164152, 164157, 2
164152, 164150, 2
164161, 164162, 2
164161, 164160, 2
164161, 164152, 2
164161, 164163, 2
164163, 164152, 2
164163, 164160, 2
164163, 164156, 2
164163, 164162, 2
164163, 164161, 2
164162, 164154, 2
164162, 164160, 2
164162, 164151, 2
164162, 164150, 2
164162, 164159, 2
164162, 164156, 2
164162, 164161, 2
164162, 164152, 2
164162, 164163, 1
164154, 164140, 2
164154, 164143, 2
164154, 164152, 2
164154, 164138, 2
164154, 164153, 2
164154, 164155, 4
164154, 164160, 2
164154, 164162, 2
164154, 164159, 2
164154, 164157, 2
164154, 164151, 2
164154, 164158, 1
164153, 164140, 2
164153, 164143, 2
164153, 164148, 2
164153, 164146, 2
164153, 164154, 1
164153, 164145, 2
164153, 164151, 2
164153, 164152, 2
164158, 164154, 2
164158, 164160, 1
164158, 164159, 3
164158, 164157, 2
164158, 164151, 2
164158, 164152, 2
164150, 164149, 2
164150, 164148, 2
164150, 164152, 2
164150, 164162, 2
164150, 164151, 2
164150, 164156, 2
164150, 164142, 2
164150, 164144, 2
164149, 164144, 2
164149, 164151, 2
164149, 164148, 2
164149, 164142, 2
164149, 164150, 3
164143, 164140, 2
164143, 164139, 2
164143, 164145, 2
164143, 164141, 2
164143, 164154, 2
164143, 164148, 2
164143, 164144, 2
164143, 164151, 2
164143, 164137, 2
164143, 164138, 2
164143, 164153, 2
164138, 164140, 2
164138, 164139, 1
164138, 164145, 2
164138, 164141, 2
164138, 164154, 2
164138, 164143, 2
164138, 164137, 2
164138, 164142, 2
164138, 164144, 2
164144, 164149, 2
164144, 164139, 2
164144, 164148, 2
164144, 164156, 2
164144, 164143, 2
164144, 164152, 2
164144, 164138, 2
164144, 164150, 2
164144, 164147, 2
164144, 164145, 2
164144, 164146, 2
164144, 164142, 2
164155, 164154, 2
164155, 164157, 1
164155, 164152, 2
164160, 164154, 2
164160, 164162, 2
164160, 164159, 2
164160, 164157, 2
164160, 164161, 0
164160, 164152, 2
164160, 164158, 2
164160, 164163, 2
164137, 164140, 2
164137, 164139, 2
164137, 164145, 2
164137, 164143, 2
164137, 164138, 1
164137, 164142, 2
164145, 164140, 2
164145, 164139, 2
164145, 164141, 2
164145, 164146, 1
164145, 164144, 4
164145, 164143, 2
164145, 164137, 2
164145, 164138, 2
164145, 164142, 2
164145, 164153, 2
164147, 164148, 1
164147, 164146, 2
164147, 164144, 2
164146, 164145, 2
164146, 164144, 2
164146, 164147, 1
164146, 164148, 2
164146, 164153, 2
164159, 164160, 2
164159, 164162, 2
164159, 164154, 2
164159, 164157, 2
164159, 164151, 2
164159, 164152, 2
164159, 164158, 2
164157, 164155, 2
164157, 164160, 2
164157, 164159, 2
164157, 164154, 2
164157, 164158, 2
164157, 164151, 2
164157, 164152, 2
164151, 164149, 2
164151, 164148, 2
164151, 164152, 1
164151, 164143, 2
164151, 164156, 2
164151, 164150, 2
164151, 164154, 2
164151, 164162, 2
164151, 164159, 2
164151, 164157, 2
164151, 164153, 2
164151, 164158, 2
164142, 164149, 2
164142, 164139, 2
164142, 164145, 2
164142, 164150, 2
164142, 164148, 2
164142, 164137, 2
164142, 164156, 2
164142, 164138, 2
164142, 164144, 2
164141, 164140, 2
164141, 164139, 2
164141, 164145, 2
164141, 164138, 2
164141, 164143, 1
