258676, 258674, 2
258676, 258677, 1
258676, 258678, 2
258676, 258675, 2
258678, 258676, 2
258678, 258677, 2
258673, 258674, 1
258674, 258676, 2
258674, 258675, 1
258674, 258673, 2
258677, 258676, 2
258677, 258678, 1
258677, 258675, 2
258675, 258674, 2
258675, 258676, 1
258675, 258677, 2
