161782, 161781, 2
161782, 161783, 2
161782, 161780, 2
161782, 161779, 2
161782, 161784, 2
161782, 161778, 2
161777, 161780, 2
161777, 161776, 2
161777, 161778, 1
161777, 161779, 2
161777, 161775, 2
161780, 161782, 2
161780, 161777, 2
161780, 161783, 2
161780, 161778, 2
161780, 161779, 2
161780, 161781, 1
161780, 161774, 2
161780, 161775, 2
161780, 161784, 2
161780, 161776, 2
161773, 161772, 2
161773, 161774, 2
161773, 161775, 2
161783, 161782, 2
161783, 161778, 2
161783, 161780, 2
161783, 161779, 2
161783, 161784, 1
161772, 161774, 3
161772, 161775, 1
161772, 161773, 0
161781, 161782, 1
161781, 161778, 2
161781, 161780, 2
161781, 161779, 2
161775, 161772, 2
161775, 161777, 1
161775, 161776, 8
161775, 161780, 2
161775, 161773, 2
161775, 161774, 2
161778, 161782, 2
161778, 161777, 2
161778, 161783, 1
161778, 161780, 3
161778, 161779, 0
161778, 161781, 2
161778, 161784, 2
161784, 161782, 2
161784, 161783, 2
161784, 161780, 2
161784, 161779, 2
161784, 161778, 2
161774, 161772, 2
161774, 161775, 2
161774, 161780, 2
161774, 161773, 2
161774, 161776, 2
161776, 161774, 2
161776, 161777, 2
161776, 161775, 2
161776, 161780, 2
161779, 161782, 2
161779, 161777, 2
161779, 161783, 2
161779, 161780, 2
161779, 161781, 2
161779, 161778, 2
161779, 161784, 2
