71620, 71621, 2
71620, 71623, 2
71620, 71619, 2
71620, 71622, 2
71618, 71617, 2
71618, 71619, 1
71619, 71621, 1
71619, 71620, 0
71619, 71617, 2
71619, 71618, 2
71619, 71622, 2
71621, 71620, 2
71621, 71619, 2
71621, 71622, 1
71617, 71619, 2
71617, 71618, 1
71623, 71620, 2
71623, 71622, 2
71622, 71621, 2
71622, 71620, 2
71622, 71623, 0
71622, 71619, 2
