133942, 133937, 2
133942, 133941, 2
133942, 133943, 1
133942, 133938, 2
133914, 133910, 2
133914, 133915, 1
133914, 133913, 2
133914, 133909, 2
133922, 133915, 2
133922, 133923, 1
133922, 133924, 2
133922, 133921, 2
133922, 133916, 2
133941, 133942, 1
133941, 133943, 2
133941, 133940, 2
133887, 133889, 1
133887, 133886, 2
133887, 133891, 2
133887, 133892, 2
133887, 133885, 2
133948, 133953, 2
133948, 133943, 2
133948, 133951, 2
133948, 133944, 2
133948, 133950, 1
133948, 133946, 2
133948, 133952, 2
133919, 133920, 3
133919, 133915, 2
133919, 133924, 2
133919, 133916, 2
133932, 133934, 2
133932, 133930, 2
133932, 133931, 2
133924, 133917, 2
133924, 133921, 2
133924, 133930, 2
133924, 133916, 2
133924, 133920, 2
133924, 133919, 2
133924, 133925, 1
133924, 133923, 2
133924, 133918, 2
133924, 133915, 2
133924, 133928, 2
133924, 133922, 2
133924, 133927, 2
133924, 133926, 2
133946, 133948, 1
133946, 133943, 2
133946, 133952, 2
133946, 133944, 2
133946, 133945, 2
133886, 133890, 2
133886, 133888, 6
133886, 133885, 2
133886, 133887, 4
133886, 133889, 2
133886, 133891, 2
133886, 133892, 1
133923, 133924, 2
133923, 133916, 2
133923, 133915, 2
133923, 133922, 2
133923, 133921, 2
133928, 133927, 2
133928, 133924, 2
133928, 133926, 2
133928, 133929, 2
133885, 133886, 1
133885, 133889, 2
133885, 133888, 2
133885, 133887, 2
133900, 133901, 2
133900, 133899, 2
133900, 133894, 2
133900, 133897, 2
133900, 133892, 2
133951, 133948, 2
133951, 133943, 2
133951, 133944, 2
133951, 133950, 2
133951, 133952, 2
133912, 133910, 2
133912, 133911, 2
133912, 133913, 1
133912, 133909, 2
133940, 133937, 2
133940, 133941, 1
133940, 133943, 2
133940, 133934, 2
133940, 133939, 2
133940, 133938, 2
133905, 133906, 2
133905, 133897, 2
133905, 133902, 2
133905, 133903, 2
133910, 133912, 2
133910, 133914, 2
133910, 133911, 2
133910, 133909, 2
133910, 133906, 2
133910, 133913, 2
133910, 133915, 2
133910, 133908, 2
133911, 133910, 2
133911, 133912, 1
133911, 133909, 2
133911, 133908, 2
133911, 133906, 2
133911, 133907, 2
133894, 133898, 2
133894, 133899, 2
133894, 133896, 1
133894, 133900, 2
133894, 133893, 2
133894, 133892, 2
133894, 133897, 2
133930, 133924, 2
133930, 133926, 2
133930, 133932, 2
133930, 133927, 2
133930, 133934, 2
133930, 133931, 1
133930, 133929, 2
133930, 133933, 2
133916, 133918, 2
133916, 133923, 2
133916, 133917, 6
133916, 133921, 2
133916, 133922, 2
133916, 133915, 2
133916, 133920, 2
133916, 133919, 4
133916, 133924, 1
133920, 133915, 2
133920, 133897, 2
133920, 133924, 2
133920, 133919, 2
133920, 133916, 2
133935, 133939, 2
133935, 133936, 1
133935, 133934, 2
133947, 133943, 2
133947, 133953, 2
133947, 133944, 2
133947, 133949, 3
133947, 133952, 2
133915, 133910, 2
133915, 133914, 2
133915, 133917, 2
133915, 133922, 2
133915, 133921, 2
133915, 133916, 1
133915, 133920, 2
133915, 133919, 2
133915, 133924, 2
133915, 133918, 2
133915, 133923, 2
133915, 133909, 2
133915, 133895, 2
133915, 133906, 2
133915, 133913, 2
133915, 133897, 2
133939, 133937, 2
133939, 133936, 2
133939, 133934, 2
133939, 133935, 2
133939, 133940, 1
133939, 133938, 2
133952, 133947, 2
133952, 133948, 2
133952, 133953, 1
133952, 133943, 2
133952, 133946, 2
133952, 133945, 2
133952, 133951, 2
133952, 133944, 2
133952, 133950, 2
133952, 133949, 2
133902, 133901, 2
133902, 133898, 2
133902, 133899, 2
133902, 133904, 2
133902, 133895, 2
133902, 133903, 1
133902, 133906, 2
133902, 133892, 2
133902, 133893, 2
133902, 133897, 2
133902, 133905, 2
133904, 133906, 2
133904, 133902, 2
133904, 133895, 2
133904, 133903, 2
133906, 133910, 2
133906, 133911, 1
133906, 133904, 2
133906, 133908, 2
133906, 133895, 2
133906, 133903, 2
133906, 133909, 2
133906, 133905, 2
133906, 133915, 2
133906, 133902, 2
133906, 133907, 0
133945, 133944, 2
133945, 133943, 2
133945, 133946, 1
133945, 133952, 2
133892, 133890, 2
133892, 133894, 2
133892, 133907, 2
133892, 133887, 2
133892, 133896, 2
133892, 133893, 1
133892, 133886, 2
133892, 133888, 2
133892, 133895, 2
133892, 133900, 2
133892, 133889, 2
133892, 133891, 2
133892, 133897, 2
133892, 133902, 2
133901, 133898, 2
133901, 133899, 2
133901, 133895, 2
133901, 133900, 2
133901, 133897, 2
133901, 133902, 2
133917, 133918, 1
133917, 133915, 2
133917, 133924, 2
133917, 133916, 2
133929, 133927, 2
133929, 133928, 2
133929, 133926, 2
133929, 133930, 2
133895, 133898, 2
133895, 133901, 2
133895, 133915, 2
133895, 133953, 2
133895, 133904, 2
133895, 133908, 2
133895, 133906, 2
133895, 133893, 2
133895, 133892, 2
133895, 133902, 2
133895, 133907, 2
133934, 133937, 2
133934, 133938, 2
133934, 133936, 2
133934, 133943, 2
133934, 133930, 2
133934, 133932, 2
133934, 133939, 1
133934, 133931, 2
133934, 133935, 0
133934, 133940, 2
133934, 133933, 2
133927, 133926, 2
133927, 133924, 2
133927, 133929, 1
133927, 133930, 2
133927, 133928, 8
133899, 133901, 1
133899, 133898, 2
133899, 133894, 2
133899, 133896, 2
133899, 133900, 8
133899, 133893, 2
133899, 133897, 2
133899, 133902, 2
133950, 133948, 2
133950, 133951, 1
133950, 133944, 2
133950, 133943, 2
133950, 133952, 2
133938, 133942, 2
133938, 133937, 2
133938, 133936, 2
133938, 133943, 2
133938, 133934, 2
133938, 133939, 2
133938, 133940, 2
133890, 133886, 2
133890, 133888, 2
133890, 133892, 2
133931, 133934, 1
133931, 133932, 6
133931, 133930, 2
133931, 133933, 4
133907, 133906, 2
133907, 133911, 2
133907, 133908, 1
133907, 133895, 2
133907, 133892, 2
133921, 133918, 2
133921, 133915, 2
133921, 133924, 2
133921, 133922, 1
133921, 133916, 2
133921, 133923, 2
133918, 133915, 2
133918, 133917, 2
133918, 133924, 2
133918, 133921, 1
133918, 133916, 2
133944, 133947, 4
133944, 133951, 2
133944, 133953, 2
133944, 133943, 2
133944, 133949, 2
133944, 133945, 6
133944, 133948, 2
133944, 133950, 2
133944, 133946, 2
133944, 133952, 1
133893, 133898, 1
133893, 133899, 2
133893, 133894, 4
133893, 133896, 2
133893, 133895, 6
133893, 133897, 2
133893, 133902, 2
133893, 133892, 2
133888, 133886, 2
133888, 133890, 3
133888, 133892, 2
133888, 133885, 2
133898, 133901, 2
133898, 133899, 3
133898, 133894, 2
133898, 133896, 2
133898, 133895, 2
133898, 133893, 2
133898, 133897, 2
133898, 133902, 1
133953, 133947, 2
133953, 133937, 2
133953, 133895, 2
133953, 133948, 2
133953, 133944, 2
133953, 133897, 2
133953, 133949, 2
133953, 133952, 2
133937, 133942, 2
133937, 133953, 2
133937, 133936, 2
133937, 133943, 2
133937, 133934, 2
133937, 133939, 2
133937, 133940, 2
133937, 133938, 3
133925, 133924, 2
133925, 133926, 1
133936, 133937, 1
133936, 133939, 2
133936, 133938, 2
133936, 133935, 2
133936, 133934, 2
133943, 133942, 2
133943, 133941, 2
133943, 133948, 2
133943, 133945, 2
133943, 133946, 2
133943, 133947, 2
133943, 133937, 2
133943, 133940, 2
133943, 133934, 2
133943, 133951, 2
133943, 133952, 2
133943, 133944, 1
133943, 133950, 2
133943, 133949, 2
133943, 133938, 2
133908, 133910, 2
133908, 133911, 2
133908, 133907, 2
133908, 133895, 2
133908, 133906, 2
133908, 133909, 1
133896, 133898, 2
133896, 133899, 2
133896, 133894, 2
133896, 133893, 2
133896, 133897, 1
133896, 133892, 2
133903, 133906, 1
133903, 133904, 6
133903, 133902, 2
133903, 133905, 4
133889, 133886, 2
133889, 133891, 1
133889, 133892, 2
133889, 133885, 2
133889, 133887, 2
133949, 133947, 2
133949, 133944, 2
133949, 133953, 2
133949, 133943, 2
133949, 133952, 2
133909, 133910, 3
133909, 133914, 2
133909, 133911, 2
133909, 133908, 2
133909, 133912, 2
133909, 133906, 2
133909, 133913, 2
133909, 133915, 2
133913, 133910, 2
133913, 133914, 1
133913, 133915, 2
133913, 133909, 2
133913, 133912, 2
133891, 133886, 2
133891, 133889, 2
133891, 133892, 2
133891, 133887, 2
133897, 133898, 2
133897, 133894, 2
133897, 133920, 2
133897, 133893, 2
133897, 133892, 2
133897, 133953, 2
133897, 133901, 2
133897, 133915, 2
133897, 133896, 2
133897, 133900, 2
133897, 133899, 2
133897, 133902, 2
133897, 133905, 2
133926, 133925, 2
133926, 133928, 2
133926, 133930, 1
133926, 133927, 3
133926, 133924, 2
133926, 133929, 2
133933, 133934, 2
133933, 133930, 2
133933, 133931, 2
