216597, 216599, 3
216597, 216598, 6
216597, 216596, 2
216597, 216595, 2
216599, 216596, 2
216599, 216595, 2
216599, 216597, 2
216596, 216598, 2
216596, 216599, 2
216596, 216595, 2
216596, 216597, 1
216593, 216592, 2
216593, 216594, 1
216593, 216595, 2
216595, 216599, 2
216595, 216594, 2
216595, 216597, 2
216595, 216598, 2
216595, 216596, 1
216595, 216593, 2
216591, 216588, 2
216591, 216590, 2
216591, 216592, 1
216591, 216589, 2
216590, 216591, 2
216590, 216589, 2
216590, 216588, 2
216594, 216593, 2
216594, 216595, 1
216598, 216596, 2
216598, 216595, 2
216598, 216597, 2
216588, 216591, 2
216588, 216590, 2
216588, 216589, 1
216589, 216591, 1
216589, 216590, 3
216589, 216588, 2
216592, 216591, 2
216592, 216593, 1
