120749, 120751, 2
120749, 120750, 1
120749, 120748, 2
120749, 120758, 2
120756, 120754, 2
120756, 120763, 2
120756, 120753, 2
120756, 120757, 1
120756, 120755, 2
120756, 120758, 2
120754, 120755, 1
120754, 120751, 2
120754, 120753, 2
120754, 120756, 2
120754, 120750, 2
120755, 120754, 2
120755, 120763, 2
120755, 120753, 2
120755, 120756, 2
120760, 120761, 1
120760, 120763, 2
120760, 120759, 2
120760, 120757, 2
120753, 120754, 3
120753, 120751, 2
120753, 120756, 1
120753, 120755, 2
120753, 120758, 2
120753, 120752, 2
120753, 120750, 2
120752, 120751, 2
120752, 120753, 1
120752, 120750, 2
120748, 120747, 2
120748, 120749, 1
120748, 120751, 2
120747, 120751, 2
120747, 120748, 1
120763, 120755, 2
120763, 120759, 2
120763, 120757, 2
120763, 120761, 2
120763, 120760, 2
120763, 120758, 2
120763, 120762, 2
120763, 120756, 2
120751, 120747, 2
120751, 120749, 2
120751, 120753, 2
120751, 120750, 2
120751, 120754, 2
120751, 120752, 2
120751, 120748, 2
120750, 120754, 2
120750, 120749, 2
120750, 120751, 3
120750, 120758, 2
120750, 120753, 2
120750, 120752, 1
120757, 120763, 1
120757, 120756, 2
120757, 120761, 2
120757, 120760, 2
120757, 120758, 0
120757, 120762, 2
120757, 120759, 2
120761, 120760, 2
120761, 120763, 2
120761, 120762, 1
120761, 120757, 2
120758, 120763, 2
120758, 120753, 2
120758, 120759, 1
120758, 120757, 2
120758, 120750, 2
120758, 120749, 2
120758, 120756, 2
120762, 120761, 2
120762, 120763, 2
120762, 120757, 2
120759, 120760, 1
120759, 120763, 2
120759, 120758, 2
120759, 120757, 2
