126685, 126696, 2
126685, 126692, 2
126685, 126682, 2
126685, 126689, 2
126685, 126683, 2
126685, 126691, 2
126685, 126697, 2
126685, 126687, 4
126685, 126684, 2
126685, 126694, 1
126685, 126693, 2
126685, 126690, 2
126685, 126688, 2
126685, 126686, 6
126709, 126711, 1
126709, 126712, 2
126709, 126710, 0
126709, 126707, 2
126709, 126708, 2
126698, 126695, 2
126698, 126697, 2
126698, 126700, 1
126698, 126694, 2
126698, 126702, 2
126698, 126687, 2
126698, 126704, 2
126698, 126692, 2
126715, 126714, 2
126715, 126716, 1
126704, 126695, 2
126704, 126705, 1
126704, 126699, 2
126704, 126694, 2
126704, 126702, 2
126704, 126698, 2
126704, 126703, 2
126704, 126706, 2
126687, 126692, 2
126687, 126682, 2
126687, 126685, 2
126687, 126683, 2
126687, 126697, 2
126687, 126695, 2
126687, 126698, 2
126687, 126690, 2
126687, 126688, 0
126687, 126684, 2
126705, 126708, 2
126705, 126707, 1
126705, 126710, 2
126705, 126702, 2
126705, 126703, 2
126705, 126706, 3
126705, 126704, 2
126684, 126687, 2
126684, 126682, 2
126684, 126685, 2
126684, 126683, 2
126684, 126686, 2
126707, 126711, 2
126707, 126709, 1
126707, 126705, 2
126707, 126710, 2
126707, 126703, 2
126707, 126706, 2
126707, 126708, 3
126694, 126696, 2
126694, 126692, 2
126694, 126682, 2
126694, 126689, 2
126694, 126685, 2
126694, 126699, 2
126694, 126702, 2
126694, 126698, 2
126694, 126704, 2
126694, 126697, 2
126694, 126703, 2
126694, 126695, 1
126694, 126693, 2
126694, 126688, 2
126695, 126696, 6
126695, 126703, 2
126695, 126700, 2
126695, 126699, 2
126695, 126697, 4
126695, 126698, 2
126695, 126704, 1
126695, 126687, 2
126695, 126701, 2
126695, 126694, 2
126695, 126702, 2
126695, 126693, 2
126695, 126706, 2
126703, 126701, 2
126703, 126705, 2
126703, 126710, 2
126703, 126707, 2
126703, 126694, 2
126703, 126695, 2
126703, 126704, 2
126712, 126697, 2
126712, 126711, 2
126712, 126713, 1
126712, 126709, 2
126712, 126714, 2
126712, 126708, 2
126706, 126695, 2
126706, 126697, 2
126706, 126705, 2
126706, 126708, 2
126706, 126707, 2
126706, 126702, 2
126706, 126704, 2
126713, 126697, 2
126713, 126711, 2
126713, 126712, 2
126713, 126714, 2
126710, 126711, 2
126710, 126709, 2
126710, 126705, 2
126710, 126707, 2
126710, 126716, 2
126710, 126703, 2
126710, 126714, 2
126696, 126692, 2
126696, 126685, 2
126696, 126699, 1
126696, 126694, 2
126696, 126695, 2
126696, 126693, 2
126692, 126696, 2
126692, 126687, 2
126692, 126682, 2
126692, 126685, 2
126692, 126694, 2
126692, 126697, 2
126692, 126698, 2
126692, 126690, 2
126692, 126688, 2
126682, 126694, 2
126682, 126692, 2
126682, 126689, 2
126682, 126685, 1
126682, 126683, 3
126682, 126687, 2
126682, 126693, 2
126682, 126688, 2
126682, 126686, 2
126682, 126684, 0
126689, 126682, 2
126689, 126685, 2
126689, 126686, 2
126689, 126691, 1
126689, 126694, 2
126700, 126702, 1
126700, 126698, 2
126700, 126695, 2
126700, 126697, 2
126683, 126687, 2
126683, 126682, 2
126683, 126685, 2
126683, 126684, 2
126683, 126688, 2
126683, 126686, 2
126699, 126696, 2
126699, 126701, 1
126699, 126694, 2
126699, 126695, 2
126699, 126693, 2
126699, 126704, 2
126691, 126693, 1
126691, 126685, 2
126691, 126689, 2
126693, 126696, 2
126693, 126682, 2
126693, 126685, 2
126693, 126699, 2
126693, 126691, 2
126693, 126694, 2
126693, 126695, 2
126697, 126692, 2
126697, 126702, 2
126697, 126700, 2
126697, 126698, 0
126697, 126688, 2
126697, 126687, 2
126697, 126708, 2
126697, 126694, 2
126697, 126695, 2
126697, 126685, 2
126697, 126712, 2
126697, 126706, 2
126697, 126713, 2
126711, 126713, 2
126711, 126710, 2
126711, 126707, 2
126711, 126709, 2
126711, 126712, 3
126711, 126714, 1
126711, 126708, 2
126701, 126695, 2
126701, 126703, 1
126701, 126699, 2
126708, 126697, 2
126708, 126711, 2
126708, 126705, 2
126708, 126707, 2
126708, 126709, 2
126708, 126712, 2
126708, 126706, 2
126714, 126711, 2
126714, 126710, 2
126714, 126716, 2
126714, 126712, 2
126714, 126715, 1
126714, 126713, 2
126716, 126715, 2
126716, 126714, 2
126716, 126710, 2
126702, 126697, 2
126702, 126700, 2
126702, 126694, 2
126702, 126695, 2
126702, 126698, 2
126702, 126705, 2
126702, 126704, 2
126702, 126706, 2
126690, 126687, 2
126690, 126685, 2
126690, 126688, 2
126690, 126692, 1
126688, 126692, 2
126688, 126682, 2
126688, 126697, 2
126688, 126685, 2
126688, 126683, 2
126688, 126694, 2
126688, 126687, 2
126688, 126690, 1
126686, 126682, 2
126686, 126689, 1
126686, 126685, 2
126686, 126684, 2
126686, 126683, 2
