221677, 221675, 2
221677, 221676, 2
221677, 221678, 1
221681, 221680, 2
221681, 221679, 2
221681, 221675, 2
221678, 221677, 2
221678, 221676, 2
221678, 221679, 1
221678, 221675, 2
221680, 221679, 2
221680, 221681, 1
221680, 221675, 2
221675, 221677, 2
221675, 221681, 2
221675, 221678, 2
221675, 221680, 2
221675, 221679, 2
221675, 221676, 2
221679, 221680, 1
221679, 221678, 2
221679, 221681, 2
221679, 221675, 2
221676, 221677, 1
221676, 221678, 2
221676, 221675, 6
