72520, 72522, 2
72520, 72519, 2
72520, 72521, 1
72517, 72519, 2
72517, 72518, 2
72517, 72516, 2
72517, 72515, 2
72516, 72517, 8
72516, 72519, 2
72516, 72518, 1
72516, 72515, 2
72515, 72517, 2
72515, 72516, 1
72515, 72518, 2
72521, 72520, 2
72521, 72519, 2
72521, 72522, 3
72522, 72520, 2
72522, 72519, 2
72522, 72521, 2
72518, 72516, 2
72518, 72517, 2
72518, 72519, 1
72518, 72515, 2
72519, 72520, 1
72519, 72517, 2
72519, 72516, 2
72519, 72521, 2
72519, 72522, 2
72519, 72518, 2
