301164, 301162, 2
301164, 301163, 2
301159, 301161, 1
301159, 301163, 2
301159, 301160, 3
301162, 301164, 1
301162, 301161, 2
301162, 301163, 6
301161, 301162, 1
301161, 301160, 2
301161, 301159, 2
301161, 301163, 2
301163, 301164, 2
301163, 301159, 2
301163, 301161, 2
301163, 301162, 2
301160, 301159, 2
301160, 301161, 2
