61964, 61963, 2
61964, 61962, 2
61957, 61959, 1
61957, 61958, 8
61957, 61956, 2
61958, 61957, 2
61958, 61959, 2
61958, 61956, 2
61958, 61960, 2
61962, 61963, 2
61962, 61964, 2
61962, 61961, 2
61962, 61959, 2
61962, 61960, 2
61960, 61959, 2
61960, 61961, 1
61960, 61958, 2
61960, 61962, 2
61960, 61963, 2
61963, 61964, 1
61963, 61961, 2
61963, 61959, 2
61963, 61962, 2
61963, 61960, 2
61961, 61963, 2
61961, 61959, 2
61961, 61962, 1
61961, 61960, 2
61959, 61957, 2
61959, 61958, 2
61959, 61962, 2
61959, 61960, 8
61959, 61963, 1
61959, 61961, 2
61956, 61957, 1
61956, 61958, 2
