221050, 221048, 2
221050, 221047, 2
221050, 221049, 2
221048, 221050, 2
221048, 221047, 2
221048, 221046, 2
221048, 221049, 2
221047, 221050, 2
221047, 221048, 8
221047, 221046, 2
221047, 221049, 1
221046, 221048, 2
221046, 221047, 1
221046, 221049, 2
221049, 221050, 1
221049, 221048, 2
221049, 221047, 2
221049, 221046, 2
