119508, 119500, 2
119508, 119503, 2
119508, 119510, 2
119508, 119506, 2
119508, 119507, 2
119508, 119509, 2
119508, 119511, 2
119510, 119512, 1
119510, 119508, 2
119510, 119506, 2
119510, 119507, 2
119510, 119509, 2
119510, 119511, 0
119506, 119508, 2
119506, 119510, 2
119506, 119501, 2
119506, 119505, 2
119506, 119509, 2
119506, 119507, 1
119507, 119511, 2
119507, 119508, 0
119507, 119506, 2
119507, 119509, 8
119507, 119510, 1
119503, 119502, 2
119503, 119508, 2
119503, 119500, 2
119503, 119504, 1
119503, 119501, 2
119503, 119505, 2
119511, 119512, 2
119511, 119508, 2
119511, 119507, 2
119511, 119510, 2
119512, 119511, 2
119512, 119509, 2
119512, 119510, 2
119502, 119501, 2
119502, 119500, 2
119502, 119503, 1
119505, 119504, 2
119505, 119501, 2
119505, 119506, 1
119505, 119503, 2
119500, 119501, 3
119500, 119502, 1
119500, 119508, 2
119500, 119503, 2
119504, 119501, 2
119504, 119505, 1
119504, 119503, 2
119501, 119502, 2
119501, 119505, 2
119501, 119500, 2
119501, 119504, 2
119501, 119506, 2
119501, 119503, 2
119509, 119512, 2
119509, 119508, 2
119509, 119506, 2
119509, 119507, 2
119509, 119510, 2
