184674, 184673, 2
184674, 184675, 1
184673, 184675, 2
184673, 184676, 2
184673, 184672, 2
184673, 184674, 1
184677, 184676, 2
184677, 184678, 1
184676, 184678, 2
184676, 184673, 2
184676, 184677, 1
184676, 184675, 2
184678, 184677, 2
184678, 184676, 2
184678, 184679, 1
184671, 184669, 2
184671, 184670, 2
184671, 184672, 1
184669, 184671, 2
184669, 184670, 1
184672, 184671, 2
184672, 184673, 1
184670, 184671, 1
184670, 184669, 2
184679, 184678, 2
184675, 184673, 2
184675, 184676, 1
184675, 184674, 2
