122494, 122493, 2
122494, 122492, 2
122494, 122496, 2
122494, 122490, 2
122494, 122488, 2
122494, 122499, 2
122494, 122495, 1
122494, 122491, 2
122482, 122485, 2
122482, 122481, 2
122482, 122492, 2
122482, 122480, 2
122482, 122484, 2
122482, 122493, 2
122482, 122483, 2
122487, 122488, 1
122487, 122489, 2
122487, 122486, 2
122487, 122492, 2
122490, 122494, 2
122490, 122489, 2
122490, 122493, 2
122490, 122492, 2
122490, 122488, 2
122490, 122491, 1
122493, 122494, 2
122493, 122482, 2
122493, 122486, 2
122493, 122485, 2
122493, 122492, 2
122493, 122496, 2
122493, 122490, 2
122493, 122499, 2
122493, 122497, 2
122493, 122491, 2
122493, 122495, 2
122483, 122482, 2
122483, 122481, 2
122483, 122484, 1
122483, 122480, 2
122500, 122501, 1
122500, 122498, 2
122500, 122497, 2
122500, 122499, 2
122500, 122496, 2
122495, 122494, 2
122495, 122493, 2
122495, 122499, 2
122495, 122496, 1
122485, 122482, 2
122485, 122486, 1
122485, 122481, 2
122485, 122492, 2
122485, 122484, 2
122485, 122493, 2
122486, 122485, 2
122486, 122489, 2
122486, 122481, 2
122486, 122492, 2
122486, 122493, 2
122486, 122487, 1
122486, 122488, 2
122501, 122500, 2
122501, 122499, 2
122497, 122498, 3
122497, 122500, 1
122497, 122493, 2
122497, 122499, 0
122497, 122496, 2
122488, 122494, 2
122488, 122498, 2
122488, 122489, 1
122488, 122481, 2
122488, 122487, 2
122488, 122490, 2
122488, 122486, 2
122491, 122494, 1
122491, 122490, 2
122491, 122493, 2
122491, 122492, 0
122480, 122481, 1
122480, 122482, 0
122480, 122483, 2
122480, 122484, 2
122489, 122487, 2
122489, 122490, 1
122489, 122488, 2
122489, 122486, 2
122481, 122485, 2
122481, 122486, 2
122481, 122480, 2
122481, 122484, 2
122481, 122488, 2
122481, 122483, 1
122481, 122482, 2
122492, 122494, 2
122492, 122482, 2
122492, 122486, 2
122492, 122487, 2
122492, 122490, 2
122492, 122493, 1
122492, 122485, 2
122492, 122491, 2
122496, 122494, 2
122496, 122500, 2
122496, 122498, 2
122496, 122497, 1
122496, 122493, 2
122496, 122499, 2
122496, 122495, 2
122498, 122500, 2
122498, 122488, 2
122498, 122499, 2
122498, 122497, 2
122498, 122496, 2
122484, 122481, 2
122484, 122482, 2
122484, 122483, 2
122484, 122485, 1
122484, 122480, 2
122499, 122494, 2
122499, 122498, 2
122499, 122500, 2
122499, 122496, 2
122499, 122501, 2
122499, 122497, 2
122499, 122493, 2
122499, 122495, 2
