61730, 61729, 2
61730, 61731, 2
61730, 61728, 2
61731, 61730, 2
61731, 61729, 2
61731, 61732, 0
61731, 61733, 1
61728, 61730, 2
61728, 61729, 2
61728, 61727, 2
61728, 61726, 2
61732, 61731, 2
61732, 61733, 2
61734, 61735, 1
61734, 61733, 2
61726, 61729, 2
61726, 61728, 2
61726, 61727, 1
61733, 61731, 2
61733, 61735, 2
61733, 61732, 2
61733, 61734, 1
61729, 61730, 8
61729, 61731, 1
61729, 61728, 2
61729, 61727, 2
61729, 61726, 2
61735, 61734, 2
61735, 61733, 2
61727, 61729, 1
61727, 61728, 8
61727, 61726, 2
