172005, 172006, 1
172005, 172004, 2
172005, 172003, 2
172006, 172005, 2
172006, 172007, 1
172006, 172009, 2
172006, 172004, 2
172006, 172008, 2
172006, 172003, 2
172007, 172006, 2
172007, 172008, 8
172007, 172010, 2
172007, 172009, 1
172009, 172007, 2
172009, 172008, 2
172009, 172010, 1
172009, 172006, 2
172004, 172005, 2
172004, 172006, 2
172004, 172003, 2
172008, 172007, 2
172008, 172009, 2
172008, 172010, 2
172008, 172006, 2
172003, 172005, 1
172003, 172006, 2
172003, 172004, 3
172010, 172007, 2
172010, 172009, 2
172010, 172008, 2
