164261, 164264, 1
164261, 164262, 0
164261, 164263, 3
164261, 164260, 2
164258, 164260, 1
164258, 164257, 2
164258, 164259, 0
164259, 164262, 2
164259, 164258, 2
164259, 164260, 2
164254, 164249, 2
164254, 164248, 2
164254, 164255, 1
164254, 164252, 2
164254, 164256, 2
164254, 164250, 2
164254, 164257, 2
164254, 164253, 2
164254, 164251, 2
164263, 164260, 2
164263, 164261, 2
164263, 164256, 2
164263, 164264, 2
164263, 164262, 2
164263, 164266, 2
164263, 164257, 2
164256, 164254, 2
164256, 164263, 2
164256, 164255, 2
164256, 164252, 2
164256, 164257, 2
164256, 164253, 2
164248, 164246, 2
164248, 164249, 2
164248, 164254, 2
164248, 164245, 2
164248, 164250, 2
164248, 164247, 2
164265, 164268, 1
164265, 164269, 2
164265, 164270, 2
164265, 164264, 2
164265, 164267, 0
164265, 164266, 3
164268, 164269, 1
164268, 164267, 2
164268, 164265, 2
164268, 164266, 2
164268, 164270, 2
164266, 164269, 2
164266, 164263, 2
164266, 164264, 2
164266, 164270, 2
164266, 164268, 2
164266, 164267, 2
164266, 164265, 2
164253, 164254, 2
164253, 164255, 2
164253, 164252, 2
164253, 164256, 2
164253, 164257, 2
164253, 164251, 2
164245, 164246, 1
164245, 164248, 2
164245, 164247, 2
164255, 164252, 2
164255, 164256, 1
164255, 164254, 2
164255, 164253, 2
164255, 164257, 2
164270, 164269, 2
164270, 164266, 2
164270, 164268, 2
164270, 164265, 2
164250, 164249, 2
164250, 164254, 2
164250, 164248, 2
164250, 164251, 2
164257, 164254, 2
164257, 164263, 2
164257, 164255, 2
164257, 164258, 1
164257, 164260, 2
164257, 164252, 2
164257, 164256, 2
164257, 164253, 2
164246, 164248, 3
164246, 164249, 1
164246, 164245, 2
164246, 164247, 0
164249, 164246, 2
164249, 164254, 2
164249, 164248, 2
164249, 164251, 1
164249, 164250, 8
164249, 164247, 2
164251, 164249, 2
164251, 164254, 2
164251, 164253, 2
164251, 164252, 1
164251, 164250, 2
164251, 164247, 2
164260, 164263, 2
164260, 164258, 2
164260, 164259, 2
164260, 164261, 1
164260, 164262, 2
164260, 164257, 2
164252, 164255, 2
164252, 164254, 3
164252, 164253, 0
164252, 164251, 2
164252, 164256, 2
164252, 164257, 1
164264, 164263, 2
164264, 164261, 2
164264, 164267, 2
164264, 164262, 2
164264, 164266, 2
164264, 164265, 1
164267, 164268, 2
164267, 164264, 2
164267, 164269, 2
164267, 164262, 2
164267, 164266, 2
164267, 164265, 2
164262, 164263, 2
164262, 164261, 2
164262, 164260, 2
164262, 164264, 2
164262, 164267, 2
164262, 164259, 2
164247, 164246, 2
164247, 164245, 2
164247, 164249, 2
164247, 164248, 2
164247, 164251, 2
164269, 164268, 2
164269, 164267, 2
164269, 164265, 2
164269, 164266, 2
164269, 164270, 1
