216179, 216180, 2
216179, 216181, 2
216179, 216178, 2
216179, 216177, 2
216183, 216184, 0
216183, 216182, 2
216183, 216181, 2
216175, 216176, 1
216175, 216177, 2
216178, 216179, 8
216178, 216180, 1
216178, 216177, 2
216176, 216175, 2
216176, 216177, 1
216181, 216179, 2
216181, 216180, 2
216181, 216183, 2
216181, 216182, 1
216182, 216183, 1
216182, 216181, 2
216184, 216183, 2
216180, 216179, 2
216180, 216181, 1
216180, 216178, 2
216180, 216177, 2
216177, 216176, 2
216177, 216179, 2
216177, 216180, 2
216177, 216175, 2
216177, 216178, 1
