63778, 63779, 1
63778, 63780, 2
63787, 63788, 1
63787, 63786, 2
63781, 63783, 2
63781, 63780, 2
63781, 63782, 1
63781, 63784, 2
63788, 63787, 2
63788, 63789, 1
63788, 63785, 2
63788, 63786, 2
63784, 63783, 2
63784, 63781, 2
63784, 63785, 1
63782, 63783, 1
63782, 63781, 2
63786, 63788, 2
63786, 63787, 1
63786, 63789, 2
63786, 63790, 2
63786, 63785, 2
63779, 63778, 2
63779, 63780, 1
63789, 63788, 2
63789, 63786, 2
63789, 63791, 2
63789, 63790, 1
63783, 63780, 2
63783, 63784, 1
63783, 63781, 2
63783, 63782, 2
63785, 63788, 2
63785, 63784, 2
63785, 63786, 1
63780, 63778, 2
63780, 63783, 2
63780, 63779, 2
63780, 63781, 1
63791, 63789, 2
63791, 63790, 2
63790, 63786, 2
63790, 63789, 2
63790, 63791, 1
