251886, 251884, 2
251886, 251887, 2
251886, 251882, 2
251886, 251885, 2
251881, 251882, 1
251881, 251883, 2
251888, 251887, 2
251888, 251890, 2
251888, 251889, 2
251884, 251886, 2
251884, 251887, 2
251884, 251882, 2
251884, 251885, 2
251884, 251883, 2
251882, 251886, 2
251882, 251881, 2
251882, 251884, 8
251882, 251887, 2
251882, 251885, 1
251882, 251883, 3
251889, 251888, 2
251889, 251887, 2
251889, 251890, 1
251890, 251891, 1
251890, 251888, 2
251890, 251889, 2
251891, 251890, 2
251887, 251886, 2
251887, 251888, 8
251887, 251884, 2
251887, 251882, 2
251887, 251889, 1
251887, 251885, 2
251885, 251886, 3
251885, 251884, 2
251885, 251887, 1
251885, 251882, 2
251885, 251883, 2
251883, 251881, 2
251883, 251884, 2
251883, 251882, 2
251883, 251885, 2
