301394, 301395, 1
301394, 301396, 2
301394, 301393, 6
301395, 301394, 2
301395, 301396, 2
301395, 301393, 2
301395, 301397, 1
301400, 301396, 2
301400, 301397, 2
301400, 301398, 2
301400, 301399, 6
301398, 301396, 2
301398, 301400, 1
301398, 301397, 2
301398, 301399, 2
301396, 301394, 2
301396, 301395, 2
301396, 301400, 2
301396, 301398, 2
301396, 301393, 2
301396, 301397, 2
301396, 301399, 2
301393, 301394, 2
301393, 301395, 2
301393, 301399, 2
301393, 301397, 2
301393, 301396, 2
301397, 301395, 2
301397, 301400, 2
301397, 301398, 1
301397, 301396, 6
301397, 301393, 2
301397, 301399, 2
301399, 301396, 2
301399, 301400, 2
301399, 301393, 2
301399, 301397, 2
301399, 301398, 2
