122175, 122162, 2
122175, 122174, 2
122175, 122176, 1
122175, 122172, 2
122175, 122170, 2
122175, 122163, 2
122175, 122169, 2
122175, 122171, 2
122175, 122173, 2
122166, 122167, 1
122166, 122165, 2
122166, 122168, 2
122176, 122162, 2
122176, 122174, 2
122176, 122163, 2
122176, 122170, 2
122176, 122178, 2
122176, 122175, 2
122176, 122177, 1
122163, 122162, 2
122163, 122165, 2
122163, 122176, 2
122163, 122168, 2
122163, 122179, 2
122163, 122164, 2
122163, 122178, 2
122163, 122175, 2
122163, 122169, 2
122163, 122161, 2
122163, 122177, 2
122170, 122174, 2
122170, 122176, 2
122170, 122172, 2
122170, 122171, 0
122170, 122175, 1
122170, 122169, 2
122170, 122173, 2
122167, 122168, 1
122167, 122165, 2
122167, 122166, 2
122165, 122162, 2
122165, 122166, 1
122165, 122163, 2
122165, 122171, 2
122165, 122168, 2
122165, 122167, 2
122165, 122172, 2
122165, 122164, 2
122172, 122170, 2
122172, 122171, 2
122172, 122164, 2
122172, 122165, 2
122172, 122175, 2
122172, 122169, 2
122172, 122161, 2
122172, 122173, 1
122164, 122162, 2
122164, 122163, 2
122164, 122171, 2
122164, 122165, 1
122164, 122172, 2
122164, 122161, 2
122178, 122162, 2
122178, 122177, 2
122178, 122179, 1
122178, 122176, 2
122178, 122163, 2
122177, 122162, 2
122177, 122178, 1
122177, 122176, 2
122177, 122163, 2
122162, 122169, 2
122162, 122176, 2
122162, 122163, 3
122162, 122164, 2
122162, 122165, 2
122162, 122175, 2
122162, 122179, 2
122162, 122178, 2
122162, 122177, 2
122162, 122161, 2
122160, 122161, 1
122174, 122170, 2
122174, 122175, 2
122174, 122176, 2
122174, 122173, 2
122171, 122172, 1
122171, 122170, 2
122171, 122164, 2
122171, 122165, 2
122171, 122175, 2
122171, 122169, 2
122171, 122161, 2
122168, 122167, 2
122168, 122165, 2
122168, 122169, 1
122168, 122166, 2
122168, 122163, 2
122173, 122170, 2
122173, 122175, 2
122173, 122169, 2
122173, 122174, 1
122173, 122172, 2
122179, 122162, 2
122179, 122178, 2
122179, 122163, 2
122161, 122162, 3
122161, 122160, 2
122161, 122163, 2
122161, 122171, 2
122161, 122172, 2
122161, 122164, 1
122169, 122162, 2
122169, 122172, 2
122169, 122163, 2
122169, 122170, 1
122169, 122168, 2
122169, 122175, 2
122169, 122171, 2
122169, 122173, 2
