220053, 220051, 2
220053, 220052, 2
220053, 220054, 1
220050, 220051, 2
220050, 220048, 2
220050, 220049, 2
220050, 220052, 2
220055, 220056, 1
220055, 220054, 2
220037, 220036, 2
220037, 220035, 2
220037, 220034, 2
220037, 220039, 1
220037, 220038, 3
220052, 220050, 2
220052, 220051, 2
220052, 220049, 2
220052, 220053, 2
220044, 220045, 1
220044, 220043, 2
220044, 220042, 2
220044, 220046, 2
220047, 220045, 2
220047, 220048, 2
220047, 220049, 2
220047, 220046, 2
220051, 220050, 2
220051, 220048, 2
220051, 220049, 2
220051, 220052, 3
220051, 220053, 1
220039, 220040, 1
220039, 220037, 2
220039, 220038, 2
220041, 220040, 2
220041, 220042, 1
220031, 220034, 1
220031, 220033, 8
220031, 220032, 3
220031, 220030, 2
220045, 220048, 1
220045, 220046, 3
220045, 220044, 2
220045, 220047, 8
220058, 220057, 2
220058, 220056, 2
220029, 220028, 2
220029, 220030, 1
220033, 220035, 2
220033, 220034, 2
220033, 220032, 2
220033, 220031, 2
220048, 220051, 1
220048, 220049, 3
220048, 220050, 8
220048, 220045, 2
220048, 220046, 2
220048, 220047, 2
220032, 220035, 2
220032, 220033, 2
220032, 220034, 2
220032, 220030, 2
220032, 220031, 2
220034, 220033, 2
220034, 220036, 8
220034, 220032, 2
220034, 220031, 2
220034, 220035, 3
220034, 220037, 1
220057, 220056, 2
220057, 220058, 1
220056, 220057, 1
220056, 220055, 2
220056, 220054, 2
220056, 220058, 2
220042, 220043, 1
220042, 220044, 2
220042, 220041, 2
220028, 220030, 2
220028, 220029, 1
220040, 220039, 2
220040, 220041, 1
220036, 220035, 2
220036, 220034, 2
220036, 220037, 2
220036, 220038, 2
220043, 220042, 2
220043, 220044, 1
220030, 220028, 2
220030, 220032, 2
220030, 220031, 1
220030, 220029, 2
220035, 220033, 2
220035, 220034, 2
220035, 220032, 2
220035, 220036, 2
220035, 220037, 2
220035, 220038, 2
220049, 220051, 2
220049, 220048, 2
220049, 220050, 2
220049, 220052, 2
220049, 220046, 2
220049, 220047, 2
220038, 220036, 2
220038, 220035, 2
220038, 220037, 2
220038, 220039, 2
220046, 220045, 2
220046, 220048, 2
220046, 220049, 2
220046, 220044, 2
220046, 220047, 2
220054, 220055, 1
220054, 220056, 2
220054, 220053, 2
