297559, 297557, 2
297559, 297558, 2
297559, 297560, 1
297559, 297563, 2
297559, 297556, 2
297558, 297559, 2
297558, 297557, 2
297558, 297560, 2
297558, 297556, 2
297563, 297559, 2
297563, 297562, 2
297563, 297560, 2
297563, 297555, 2
297563, 297544, 2
297563, 297554, 2
297542, 297544, 2
297542, 297543, 1
297560, 297559, 2
297560, 297558, 2
297560, 297561, 1
297560, 297563, 2
297560, 297556, 2
297547, 297545, 2
297547, 297549, 2
297547, 297546, 2
297547, 297548, 2
297552, 297553, 1
297552, 297551, 2
297556, 297559, 1
297556, 297558, 8
297556, 297557, 3
297556, 297560, 2
297556, 297555, 2
297546, 297550, 2
297546, 297549, 1
297546, 297547, 3
297546, 297545, 2
297546, 297544, 2
297546, 297548, 8
297544, 297562, 2
297544, 297549, 2
297544, 297554, 2
297544, 297543, 2
297544, 297546, 2
297544, 297553, 2
297544, 297545, 2
297544, 297563, 2
297544, 297542, 2
297553, 297550, 2
297553, 297544, 2
297553, 297551, 2
297553, 297554, 1
297553, 297552, 2
297554, 297544, 2
297554, 297553, 2
297554, 297555, 1
297554, 297563, 2
297549, 297546, 2
297549, 297544, 2
297549, 297550, 1
297549, 297547, 2
297549, 297548, 2
297557, 297559, 2
297557, 297558, 2
297557, 297555, 2
297557, 297556, 2
297551, 297550, 2
297551, 297553, 2
297551, 297552, 1
297562, 297561, 2
297562, 297544, 2
297562, 297563, 0
297550, 297553, 2
297550, 297546, 2
297550, 297549, 2
297550, 297551, 1
297550, 297548, 2
297555, 297557, 2
297555, 297556, 1
297555, 297554, 2
297555, 297563, 2
297543, 297545, 1
297543, 297544, 0
297543, 297542, 2
297545, 297546, 1
297545, 297544, 2
297545, 297547, 2
297545, 297543, 2
297561, 297562, 1
297561, 297560, 2
297548, 297546, 2
297548, 297549, 2
297548, 297550, 2
297548, 297547, 2
