222006, 222005, 2
222000, 222001, 1
222000, 221999, 2
222001, 222003, 2
222001, 222000, 2
222001, 222002, 1
222001, 222004, 2
221999, 222000, 1
222004, 222001, 2
222004, 222003, 2
222004, 222005, 1
222004, 222002, 2
222003, 222001, 2
222003, 222002, 2
222003, 222005, 2
222003, 222004, 2
222005, 222006, 1
222005, 222003, 2
222005, 222004, 2
222002, 222001, 2
222002, 222003, 8
222002, 222004, 1
