70867, 70868, 1
70867, 70866, 2
70870, 70869, 2
70870, 70868, 2
70870, 70871, 0
70868, 70867, 2
70868, 70870, 2
70868, 70869, 1
70868, 70866, 2
70869, 70870, 1
70869, 70868, 2
70871, 70870, 2
70866, 70867, 1
70866, 70868, 2
