171827, 171829, 2
171827, 171830, 2
171827, 171828, 1
171827, 171826, 2
171825, 171826, 1
171825, 171824, 2
171823, 171824, 1
171829, 171828, 2
171829, 171827, 2
171830, 171828, 2
171830, 171827, 2
171830, 171826, 2
171828, 171829, 4
171828, 171830, 6
171828, 171827, 2
171826, 171830, 2
171826, 171827, 1
171826, 171825, 2
171824, 171825, 1
171824, 171823, 2
