72212, 72214, 2
72212, 72213, 1
72213, 72212, 2
72213, 72214, 1
72216, 72215, 2
72216, 72217, 2
72216, 72218, 2
72215, 72216, 0
72215, 72217, 1
72215, 72214, 2
72217, 72218, 1
72217, 72216, 2
72217, 72215, 2
72214, 72212, 2
72214, 72213, 2
72214, 72215, 1
72218, 72216, 2
72218, 72217, 2
