61586, 61587, 3
61586, 61591, 2
61586, 61589, 2
61586, 61590, 1
61586, 61588, 0
61589, 61587, 2
61589, 61586, 2
61589, 61590, 2
61589, 61592, 2
61589, 61588, 2
61595, 61591, 2
61595, 61594, 2
61593, 61592, 2
61593, 61591, 2
61593, 61594, 1
61587, 61586, 2
61587, 61589, 0
61587, 61592, 2
61587, 61591, 2
61587, 61590, 2
61587, 61588, 2
61592, 61587, 2
61592, 61591, 2
61592, 61589, 2
61592, 61594, 2
61592, 61593, 2
61591, 61586, 2
61591, 61595, 2
61591, 61587, 2
61591, 61592, 3
61591, 61590, 2
61591, 61594, 2
61591, 61593, 1
61591, 61588, 2
61594, 61592, 2
61594, 61591, 2
61594, 61595, 0
61594, 61593, 2
61590, 61587, 2
61590, 61586, 2
61590, 61589, 2
61590, 61591, 1
61590, 61588, 2
61588, 61587, 2
61588, 61586, 2
61588, 61589, 2
61588, 61590, 2
61588, 61591, 2
