166447, 166448, 2
166447, 166446, 2
166447, 166449, 3
166448, 166447, 2
166448, 166446, 2
166448, 166449, 2
166446, 166447, 3
166446, 166448, 0
166446, 166449, 2
166449, 166447, 2
166449, 166448, 2
166449, 166446, 2
