222578, 222579, 1
222578, 222577, 2
222579, 222578, 2
222579, 222580, 1
222574, 222575, 1
222574, 222573, 2
222580, 222579, 2
222580, 222581, 1
222575, 222576, 1
222575, 222574, 2
222575, 222573, 2
222576, 222575, 2
222576, 222577, 1
222573, 222575, 2
222573, 222574, 1
222581, 222580, 2
222577, 222578, 1
222577, 222576, 2
