259086, 259087, 2
259086, 259084, 2
259086, 259088, 2
259086, 259085, 2
259090, 259089, 2
259084, 259086, 2
259084, 259087, 2
259084, 259088, 1
259084, 259085, 3
259089, 259090, 1
259089, 259088, 2
259085, 259086, 8
259085, 259084, 2
259085, 259088, 2
259085, 259087, 1
259088, 259086, 2
259088, 259085, 2
259088, 259087, 2
259088, 259084, 2
259088, 259089, 1
259087, 259086, 2
259087, 259084, 2
259087, 259088, 2
259087, 259085, 2
