341067, 341069, 2
341067, 341070, 1
341067, 341068, 3
341067, 341065, 2
341067, 341066, 2
341072, 341073, 2
341072, 341070, 2
341072, 341071, 2
341070, 341067, 2
341070, 341072, 2
341070, 341071, 1
341070, 341069, 2
341070, 341068, 2
341068, 341067, 2
341068, 341070, 2
341068, 341069, 0
341069, 341067, 2
341069, 341070, 2
341069, 341068, 2
341071, 341073, 1
341071, 341072, 3
341071, 341070, 2
341073, 341072, 2
341073, 341071, 2
341065, 341067, 2
341065, 341066, 1
341066, 341067, 1
341066, 341065, 2
