73077, 73074, 2
73077, 73076, 2
73077, 73073, 2
73077, 73078, 2
73073, 73077, 2
73073, 73074, 1
73073, 73076, 2
73073, 73075, 2
73075, 73074, 2
73075, 73076, 2
73075, 73073, 2
73075, 73078, 2
73074, 73077, 2
73074, 73076, 1
73074, 73073, 2
73074, 73075, 8
73080, 73079, 2
73080, 73078, 2
73079, 73080, 1
73079, 73078, 2
73076, 73077, 0
73076, 73074, 2
73076, 73073, 2
73076, 73075, 2
73076, 73078, 1
73078, 73077, 2
73078, 73080, 2
73078, 73079, 1
73078, 73076, 2
73078, 73075, 2
