131018, 131019, 1
131018, 131017, 2
131018, 131022, 2
131018, 131015, 2
131018, 131016, 2
131002, 131009, 2
131002, 130999, 2
131002, 131000, 2
131002, 130997, 2
131002, 131004, 2
131002, 131029, 2
131002, 130998, 2
131002, 130994, 2
131002, 131010, 2
131002, 131005, 2
131002, 131006, 2
131027, 131024, 2
131027, 131026, 2
131027, 131025, 2
131027, 131029, 2
131027, 131020, 2
131027, 131023, 2
131027, 131028, 2
131027, 131016, 2
131027, 131021, 2
130986, 130988, 2
130986, 130987, 1
130986, 130989, 2
130986, 130984, 2
130986, 130990, 2
130986, 130994, 2
130986, 130983, 2
130986, 130991, 2
130986, 130985, 2
130982, 130979, 2
130982, 130980, 2
130982, 130983, 2
131006, 131009, 2
131006, 131002, 2
131006, 131000, 2
131006, 131008, 2
131006, 130999, 2
131006, 131005, 2
131006, 131007, 2
131001, 131003, 3
131001, 131004, 2
131001, 131029, 2
131001, 131012, 2
131001, 130993, 2
131001, 131015, 2
131001, 131014, 2
131001, 130992, 2
131001, 131000, 2
131001, 130997, 2
131001, 130995, 2
131001, 131013, 2
131001, 131008, 2
131001, 130999, 2
131001, 131005, 2
131001, 131011, 2
130992, 130989, 2
130992, 130988, 2
130992, 130994, 4
130992, 130998, 2
130992, 130997, 2
130992, 130995, 2
130992, 130996, 1
130992, 130993, 6
130992, 131001, 2
130992, 130991, 2
130992, 130990, 2
130997, 131002, 2
130997, 130998, 3
130997, 130993, 2
130997, 131001, 2
130997, 130989, 2
130997, 130992, 2
130997, 130995, 2
130997, 130996, 2
130997, 130994, 2
130997, 130999, 1
130997, 130991, 2
130997, 130985, 2
130996, 130989, 2
130996, 130988, 2
130996, 130992, 2
130996, 130994, 2
130996, 130997, 1
130996, 130995, 2
130996, 130993, 2
130996, 130991, 2
131020, 131019, 2
131020, 131022, 2
131020, 131027, 2
131020, 131016, 2
131020, 131021, 1
131013, 131014, 1
131013, 131012, 2
131013, 131015, 2
131013, 131001, 2
130985, 130988, 2
130985, 130984, 2
130985, 130997, 2
130985, 130989, 2
130985, 130986, 2
130985, 130987, 2
130985, 130983, 2
130985, 130991, 2
130985, 130990, 2
131009, 131002, 2
131009, 131007, 2
131009, 131010, 1
131009, 131008, 2
131009, 131006, 2
131009, 131011, 2
130989, 130987, 2
130989, 130992, 2
130989, 130994, 2
130989, 130997, 2
130989, 130986, 2
130989, 130984, 2
130989, 130996, 2
130989, 130993, 2
130989, 130983, 2
130989, 130991, 2
130989, 130985, 2
131026, 131027, 0
131026, 131028, 1
131026, 131025, 2
131026, 131029, 2
131004, 131002, 2
131004, 130998, 2
131004, 131003, 2
131004, 131000, 2
131004, 130999, 2
131004, 131005, 1
131004, 131001, 2
130984, 130989, 2
130984, 130987, 2
130984, 130986, 1
130984, 130990, 2
130984, 130988, 2
130984, 130994, 2
130984, 130983, 2
130984, 130991, 2
130984, 130985, 3
131012, 131013, 1
131012, 131008, 2
131012, 131015, 2
131012, 131011, 2
131012, 131001, 2
130993, 130988, 2
130993, 130987, 2
130993, 131003, 2
130993, 131001, 2
130993, 130989, 2
130993, 130992, 2
130993, 131000, 2
130993, 130997, 2
130993, 130995, 3
130993, 130996, 2
130993, 130991, 2
130993, 130990, 2
131028, 131026, 2
131028, 131027, 2
131028, 131029, 1
131000, 131002, 4
131000, 130998, 2
131000, 131003, 2
131000, 131004, 1
131000, 130993, 2
131000, 130999, 2
131000, 131005, 2
131000, 131006, 2
131000, 131001, 6
131011, 131009, 2
131011, 131012, 1
131011, 131008, 2
131011, 131010, 2
131011, 131001, 2
131019, 131018, 2
131019, 131022, 2
131019, 131020, 1
131019, 131016, 2
130987, 130989, 4
130987, 130988, 6
130987, 130994, 2
130987, 130985, 2
130987, 130986, 2
130987, 130984, 2
130987, 130993, 2
130987, 130983, 2
130987, 130991, 1
130987, 130990, 2
131022, 131019, 2
131022, 131018, 2
131022, 131014, 2
131022, 131023, 1
131022, 131016, 2
131022, 131020, 2
131022, 131015, 2
131022, 131021, 2
130998, 131002, 2
130998, 131000, 2
130998, 131004, 2
130998, 130997, 2
130998, 130994, 2
130998, 130999, 2
130998, 131005, 2
130998, 130992, 2
130998, 130991, 2
131029, 131002, 2
131029, 131026, 2
131029, 131001, 2
131029, 131021, 2
131029, 131027, 2
131029, 131028, 2
131029, 131024, 2
131029, 131016, 2
131010, 131009, 2
131010, 131002, 2
131010, 131008, 2
131010, 131011, 2
130983, 130989, 2
130983, 130987, 2
130983, 130980, 2
130983, 130986, 2
130983, 130984, 1
130983, 130988, 2
130983, 130982, 2
130983, 130981, 2
130983, 130979, 2
130983, 130991, 2
130983, 130985, 2
130980, 130982, 6
130980, 130981, 4
130980, 130979, 2
130980, 130983, 1
131003, 131005, 2
131003, 131000, 2
131003, 131004, 2
131003, 130993, 2
131003, 130999, 2
131003, 131015, 2
131003, 131001, 2
130995, 130988, 2
130995, 130992, 2
130995, 130997, 2
130995, 130996, 2
130995, 130993, 2
130995, 130991, 2
130995, 130990, 2
130995, 131001, 2
131007, 131009, 2
131007, 131008, 1
131007, 131005, 2
131007, 131006, 2
130991, 130988, 2
130991, 130987, 2
130991, 130998, 2
130991, 130986, 2
130991, 130993, 2
130991, 130983, 2
130991, 130989, 2
130991, 130984, 2
130991, 130992, 1
130991, 130985, 2
130991, 130997, 2
130991, 130995, 2
130991, 130996, 2
130991, 130994, 2
130991, 130990, 2
131016, 131018, 2
131016, 131017, 0
131016, 131027, 2
131016, 131014, 2
131016, 131022, 1
131016, 131019, 2
131016, 131023, 2
131016, 131020, 2
131016, 131015, 2
131016, 131029, 2
131016, 131021, 2
130988, 130987, 2
130988, 130986, 2
130988, 130993, 2
130988, 130983, 2
130988, 130984, 2
130988, 130992, 2
130988, 130985, 2
130988, 130995, 2
130988, 130996, 2
130988, 130994, 2
130988, 130991, 2
130988, 130990, 3
131008, 131009, 3
131008, 131012, 2
131008, 131010, 2
131008, 131007, 2
131008, 131001, 2
131008, 131005, 2
131008, 131006, 2
131008, 131011, 1
131025, 131024, 2
131025, 131026, 1
131025, 131027, 2
131025, 131021, 2
130999, 131002, 2
130999, 131000, 1
130999, 131003, 2
130999, 130997, 2
130999, 131004, 2
130999, 130998, 2
130999, 131005, 2
130999, 131006, 2
130999, 131001, 2
130981, 130979, 2
130981, 130983, 2
130981, 130980, 2
131005, 131002, 2
131005, 131000, 2
131005, 131004, 2
131005, 131003, 2
131005, 131007, 1
131005, 130998, 2
131005, 131008, 2
131005, 130999, 2
131005, 131015, 2
131005, 131006, 3
131005, 131001, 2
131014, 131017, 2
131014, 131022, 2
131014, 131013, 2
131014, 131001, 2
131014, 131015, 0
131014, 131016, 1
131017, 131018, 1
131017, 131014, 2
131017, 131015, 2
131017, 131016, 2
131024, 131029, 2
131024, 131027, 2
131024, 131025, 1
131024, 131023, 2
131023, 131022, 2
131023, 131024, 1
131023, 131027, 2
131023, 131016, 2
131023, 131021, 2
131021, 131023, 2
131021, 131025, 2
131021, 131022, 2
131021, 131027, 2
131021, 131020, 2
131021, 131029, 2
131021, 131016, 2
130994, 130989, 2
130994, 130987, 2
130994, 131002, 2
130994, 130998, 2
130994, 130986, 2
130994, 130997, 2
130994, 130984, 2
130994, 130988, 2
130994, 130996, 2
130994, 130992, 2
130994, 130991, 2
130979, 130982, 2
130979, 130981, 2
130979, 130983, 2
130979, 130980, 1
131015, 131018, 2
131015, 131017, 2
131015, 131005, 2
131015, 131003, 2
131015, 131022, 2
131015, 131012, 2
131015, 131013, 2
131015, 131001, 2
131015, 131014, 2
131015, 131016, 2
130990, 130988, 2
130990, 130987, 2
130990, 130992, 2
130990, 130986, 2
130990, 130984, 2
130990, 130995, 2
130990, 130993, 2
130990, 130991, 2
130990, 130985, 2
