252294, 252291, 2
252294, 252292, 2
252294, 252293, 2
252294, 252295, 1
252293, 252294, 1
252293, 252295, 2
252293, 252292, 2
252299, 252301, 2
252299, 252298, 2
252299, 252300, 1
252295, 252298, 2
252295, 252293, 2
252295, 252294, 2
252295, 252292, 2
252295, 252297, 2
252295, 252296, 1
252291, 252294, 2
252291, 252292, 1
252292, 252294, 2
252292, 252291, 2
252292, 252293, 1
252292, 252295, 2
252303, 252301, 2
252303, 252302, 2
252300, 252301, 1
252300, 252297, 2
252300, 252299, 2
252300, 252298, 2
252298, 252299, 1
252298, 252295, 2
252298, 252301, 2
252298, 252297, 2
252298, 252296, 2
252298, 252300, 2
252297, 252301, 2
252297, 252300, 2
252297, 252296, 2
252297, 252298, 2
252297, 252295, 2
252301, 252298, 2
252301, 252299, 2
252301, 252297, 2
252301, 252302, 1
252301, 252300, 2
252301, 252303, 2
252302, 252301, 2
252302, 252303, 1
252296, 252298, 1
252296, 252297, 8
252296, 252295, 2
