255375, 255376, 1
255375, 255373, 2
255375, 255374, 2
255367, 255369, 1
255367, 255366, 2
255367, 255368, 0
255362, 255361, 2
255362, 255363, 2
255371, 255372, 1
255371, 255370, 2
255371, 255368, 2
255376, 255378, 1
255376, 255375, 2
255376, 255373, 2
255376, 255374, 2
255376, 255377, 0
255358, 255359, 1
255372, 255373, 1
255372, 255371, 2
255372, 255368, 2
255381, 255380, 2
255381, 255382, 1
255383, 255384, 0
255383, 255385, 1
255383, 255382, 2
255379, 255378, 2
255379, 255384, 2
255379, 255380, 2
255379, 255382, 2
255368, 255371, 2
255368, 255369, 2
255368, 255367, 2
255368, 255372, 2
255365, 255366, 1
255365, 255364, 2
255365, 255363, 2
255364, 255365, 2
255364, 255366, 2
255364, 255363, 2
255373, 255376, 2
255373, 255375, 1
255373, 255372, 2
255373, 255374, 0
255373, 255377, 2
255385, 255384, 2
255385, 255383, 2
255382, 255383, 1
255382, 255381, 2
255382, 255379, 2
255377, 255378, 2
255377, 255376, 2
255377, 255373, 2
255377, 255374, 2
255378, 255376, 2
255378, 255380, 1
255378, 255379, 0
255378, 255377, 2
255384, 255383, 2
255384, 255385, 2
255384, 255379, 2
255369, 255366, 2
255369, 255367, 2
255369, 255370, 1
255369, 255368, 2
255360, 255361, 1
255360, 255359, 2
255361, 255362, 0
255361, 255360, 2
255361, 255359, 2
255361, 255363, 1
255374, 255376, 2
255374, 255375, 2
255374, 255373, 2
255374, 255377, 2
255370, 255369, 2
255370, 255371, 1
255366, 255365, 2
255366, 255369, 2
255366, 255367, 1
255366, 255364, 2
255366, 255363, 2
255380, 255378, 2
255380, 255381, 1
255380, 255379, 2
255359, 255358, 2
255359, 255360, 1
255359, 255361, 2
255363, 255365, 1
255363, 255362, 2
255363, 255366, 2
255363, 255361, 2
255363, 255364, 0
