20743, 20747, 2
20743, 20745, 1
20743, 20744, 3
20743, 20746, 2
20747, 20743, 2
20747, 20746, 2
20745, 20743, 2
20745, 20744, 2
20745, 20746, 1
20744, 20743, 2
20744, 20745, 2
20746, 20743, 2
20746, 20747, 0
20746, 20745, 2
