160824, 160825, 2
160824, 160822, 2
160824, 160823, 2
160824, 160826, 1
160820, 160821, 1
160821, 160820, 2
160821, 160823, 1
160821, 160822, 0
160822, 160824, 2
160822, 160821, 2
160822, 160823, 2
160822, 160825, 2
160825, 160824, 2
160825, 160822, 2
160825, 160827, 2
160825, 160828, 2
160825, 160823, 2
160825, 160826, 2
160827, 160825, 2
160827, 160828, 0
160827, 160826, 2
160828, 160825, 2
160828, 160827, 2
160823, 160824, 1
160823, 160821, 2
160823, 160822, 2
160823, 160825, 2
160826, 160824, 2
160826, 160827, 1
160826, 160825, 6
