300461, 300459, 2
300461, 300460, 2
300461, 300457, 2
300461, 300462, 6
300459, 300461, 2
300459, 300462, 2
300459, 300460, 1
300459, 300457, 2
300459, 300458, 2
300460, 300461, 1
300460, 300459, 2
300460, 300462, 2
300462, 300461, 2
300462, 300459, 2
300462, 300460, 2
300462, 300457, 2
300462, 300458, 2
300457, 300461, 2
300457, 300459, 2
300457, 300458, 1
300457, 300462, 2
300458, 300459, 1
300458, 300457, 2
300458, 300462, 2
