171911, 171910, 2
171911, 171908, 2
171908, 171911, 2
171908, 171910, 2
171908, 171906, 2
171908, 171907, 2
171908, 171909, 2
171904, 171905, 1
171904, 171906, 2
171910, 171911, 1
171910, 171908, 2
171910, 171909, 2
171905, 171904, 2
171905, 171906, 1
171906, 171904, 2
171906, 171908, 8
171906, 171905, 2
171906, 171907, 3
171906, 171909, 1
171907, 171908, 2
171907, 171906, 2
171907, 171909, 2
171909, 171910, 1
171909, 171908, 2
171909, 171906, 2
171909, 171907, 2
