16723, 16726, 2
16723, 16722, 2
16723, 16724, 2
16723, 16725, 2
16723, 16721, 2
16725, 16726, 0
16725, 16723, 2
16725, 16724, 2
16725, 16722, 2
16725, 16727, 1
16720, 16721, 1
16726, 16724, 2
16726, 16725, 2
16726, 16729, 2
16726, 16723, 2
16726, 16727, 2
16726, 16722, 2
16729, 16726, 2
16729, 16731, 2
16729, 16727, 2
16729, 16728, 2
16729, 16730, 2
16722, 16726, 2
16722, 16723, 0
16722, 16724, 1
16722, 16725, 2
16722, 16721, 2
16730, 16729, 2
16730, 16731, 1
16730, 16728, 2
16731, 16729, 2
16731, 16728, 2
16731, 16730, 2
16724, 16726, 2
16724, 16722, 2
16724, 16725, 1
16724, 16723, 2
16728, 16729, 0
16728, 16731, 2
16728, 16730, 1
16728, 16727, 2
16727, 16726, 2
16727, 16729, 2
16727, 16725, 2
16727, 16728, 1
16721, 16723, 2
16721, 16722, 1
16721, 16720, 2
