73121, 73120, 2
73121, 73125, 2
73121, 73122, 6
73121, 73126, 2
73121, 73123, 2
73121, 73124, 2
73122, 73120, 2
73122, 73121, 2
73122, 73123, 2
73122, 73124, 2
73123, 73122, 2
73123, 73121, 2
73123, 73120, 2
73123, 73124, 2
73125, 73121, 2
73125, 73126, 1
73125, 73124, 2
73120, 73122, 2
73120, 73121, 3
73120, 73119, 2
73120, 73124, 1
73120, 73123, 8
73126, 73121, 2
73126, 73125, 2
73126, 73124, 2
73119, 73120, 1
73119, 73118, 2
73124, 73121, 2
73124, 73122, 2
73124, 73125, 1
73124, 73120, 2
73124, 73126, 2
73124, 73123, 2
73118, 73119, 1
