168861, 168859, 2
168861, 168860, 2
168861, 168862, 1
168859, 168861, 1
168859, 168860, 8
168859, 168858, 2
168859, 168862, 2
168860, 168861, 2
168860, 168859, 2
168860, 168858, 2
168858, 168859, 1
168858, 168860, 2
168862, 168861, 2
168862, 168859, 2
