164005, 164004, 2
164005, 164006, 2
164005, 164007, 1
164005, 164010, 2
164005, 164002, 2
164005, 164008, 2
164005, 164003, 2
164005, 164011, 2
164014, 164013, 2
164014, 164009, 2
164014, 164011, 2
164014, 164016, 1
164014, 164010, 2
164014, 164012, 2
164014, 164015, 2
164002, 164005, 2
164002, 164003, 1
164018, 164017, 2
164018, 164020, 1
164018, 164016, 2
164018, 164010, 2
164018, 164009, 2
164018, 164019, 8
164019, 164017, 2
164019, 164020, 2
164019, 164018, 2
164019, 164016, 2
164019, 164009, 2
164006, 164004, 2
164006, 164005, 2
164006, 164008, 1
164006, 164007, 2
164006, 164009, 2
164011, 164017, 2
164011, 164013, 1
164011, 164007, 2
164011, 164005, 2
164011, 164012, 2
164011, 164008, 2
164011, 164014, 2
164011, 164003, 2
164011, 164015, 2
164011, 164004, 2
164011, 164010, 2
164011, 164009, 2
164015, 164017, 2
164015, 164014, 2
164015, 164011, 2
164015, 164016, 2
164015, 164010, 2
164015, 164012, 2
164022, 164024, 1
164022, 164028, 2
164022, 164021, 2
164022, 164020, 2
164022, 164026, 2
164022, 164025, 2
164022, 164009, 2
164022, 164023, 2
164009, 164013, 2
164009, 164007, 2
164009, 164022, 2
164009, 164014, 2
164009, 164024, 2
164009, 164027, 2
164009, 164008, 2
164009, 164018, 2
164009, 164003, 2
164009, 164019, 2
164009, 164004, 2
164009, 164020, 2
164009, 164006, 2
164009, 164016, 2
164009, 164010, 2
164009, 164011, 2
164009, 164025, 2
164017, 164011, 2
164017, 164016, 2
164017, 164010, 2
164017, 164012, 2
164017, 164018, 1
164017, 164015, 2
164017, 164019, 2
164025, 164024, 2
164025, 164022, 2
164025, 164021, 2
164025, 164027, 1
164025, 164026, 2
164025, 164009, 2
164025, 164023, 2
164007, 164004, 2
164007, 164005, 2
164007, 164011, 2
164007, 164010, 2
164007, 164006, 2
164007, 164008, 2
164007, 164003, 2
164007, 164009, 1
164024, 164021, 2
164024, 164025, 1
164024, 164009, 2
164024, 164022, 2
164024, 164023, 6
164021, 164028, 1
164021, 164022, 3
164021, 164020, 2
164021, 164027, 2
164021, 164026, 2
164021, 164025, 2
164021, 164024, 2
164021, 164023, 2
164008, 164004, 2
164008, 164005, 2
164008, 164007, 2
164008, 164010, 1
164008, 164006, 2
164008, 164011, 2
164008, 164009, 2
164012, 164017, 2
164012, 164013, 2
164012, 164011, 2
164012, 164016, 2
164012, 164010, 2
164012, 164014, 2
164012, 164015, 2
164003, 164004, 1
164003, 164005, 2
164003, 164007, 2
164003, 164002, 2
164003, 164011, 2
164003, 164009, 2
164013, 164012, 6
164013, 164011, 2
164013, 164009, 2
164013, 164010, 2
164013, 164014, 1
164004, 164005, 4
164004, 164007, 2
164004, 164006, 1
164004, 164011, 2
164004, 164008, 2
164004, 164003, 2
164004, 164009, 2
164028, 164021, 2
164028, 164027, 2
164028, 164026, 2
164028, 164022, 2
164028, 164023, 2
164010, 164017, 1
164010, 164005, 2
164010, 164018, 2
164010, 164011, 3
164010, 164015, 2
164010, 164013, 2
164010, 164007, 2
164010, 164008, 2
164010, 164014, 2
164010, 164012, 2
164010, 164009, 2
164027, 164025, 2
164027, 164028, 2
164027, 164021, 2
164027, 164026, 6
164027, 164009, 2
164027, 164023, 2
164020, 164021, 1
164020, 164018, 2
164020, 164009, 2
164020, 164022, 2
164020, 164019, 2
164023, 164025, 2
164023, 164022, 2
164023, 164028, 2
164023, 164021, 2
164023, 164027, 2
164023, 164026, 2
164023, 164024, 2
164026, 164028, 2
164026, 164022, 2
164026, 164025, 2
164026, 164021, 2
164026, 164027, 2
164026, 164023, 2
164016, 164017, 2
164016, 164014, 2
164016, 164009, 2
164016, 164012, 2
164016, 164018, 2
164016, 164015, 6
164016, 164019, 2
