123244, 123245, 1
123244, 123246, 2
123255, 123257, 2
123255, 123263, 2
123255, 123261, 1
123255, 123254, 2
123255, 123259, 2
123255, 123267, 2
123255, 123260, 2
123255, 123258, 2
123255, 123253, 2
123255, 123256, 0
123261, 123257, 2
123261, 123263, 2
123261, 123255, 2
123261, 123254, 2
123261, 123253, 2
123261, 123262, 1
123261, 123258, 2
123261, 123259, 2
123261, 123260, 2
123257, 123261, 2
123257, 123255, 2
123257, 123258, 1
123257, 123256, 2
123257, 123254, 2
123258, 123261, 2
123258, 123257, 2
123258, 123255, 2
123258, 123259, 1
123260, 123263, 2
123260, 123261, 2
123260, 123255, 2
123260, 123267, 2
123260, 123262, 2
123260, 123259, 2
123249, 123248, 2
123249, 123250, 2
123249, 123251, 2
123249, 123247, 2
123259, 123267, 2
123259, 123255, 2
123259, 123258, 2
123259, 123260, 1
123259, 123261, 2
123264, 123267, 2
123264, 123263, 2
123264, 123265, 1
123250, 123248, 2
123250, 123245, 2
123250, 123249, 2
123250, 123251, 1
123251, 123245, 2
123251, 123249, 2
123251, 123250, 2
123251, 123254, 2
123251, 123252, 1
123253, 123261, 2
123253, 123252, 2
123253, 123255, 1
123253, 123254, 0
123253, 123256, 2
123247, 123248, 2
123247, 123245, 2
123247, 123249, 2
123247, 123246, 2
123245, 123244, 2
123245, 123254, 2
123245, 123248, 1
123245, 123250, 2
123245, 123251, 2
123245, 123246, 3
123245, 123247, 2
123254, 123257, 2
123254, 123255, 2
123254, 123261, 2
123254, 123256, 2
123254, 123245, 2
123254, 123252, 2
123254, 123251, 2
123254, 123253, 2
123248, 123245, 2
123248, 123249, 3
123248, 123250, 1
123248, 123247, 2
123252, 123254, 2
123252, 123253, 1
123252, 123251, 2
123266, 123267, 0
123266, 123268, 1
123266, 123265, 2
123246, 123244, 2
123246, 123245, 2
123246, 123247, 1
123268, 123267, 2
123268, 123266, 2
123267, 123263, 2
123267, 123255, 2
123267, 123265, 2
123267, 123264, 2
123267, 123266, 2
123267, 123268, 2
123267, 123259, 2
123267, 123260, 2
123263, 123255, 2
123263, 123261, 2
123263, 123267, 2
123263, 123262, 2
123263, 123264, 1
123263, 123260, 2
123256, 123257, 1
123256, 123255, 2
123256, 123254, 2
123256, 123253, 2
123262, 123263, 1
123262, 123261, 2
123262, 123260, 2
123265, 123267, 2
123265, 123266, 1
123265, 123264, 2
