339530, 339532, 2
339530, 339531, 2
339530, 339529, 2
339532, 339530, 2
339532, 339529, 2
339532, 339533, 1
339532, 339534, 2
339532, 339531, 2
339533, 339532, 2
339533, 339534, 1
339529, 339530, 0
339529, 339532, 2
339529, 339531, 1
339534, 339532, 2
339534, 339533, 2
339531, 339530, 2
339531, 339532, 1
339531, 339529, 2
