340298, 340296, 2
340298, 340297, 2
340297, 340298, 1
340297, 340296, 2
340294, 340292, 2
340294, 340295, 2
340294, 340293, 2
340293, 340296, 2
340293, 340294, 8
340293, 340295, 1
340293, 340292, 2
340296, 340298, 2
340296, 340297, 1
340296, 340295, 2
340296, 340293, 2
340292, 340294, 2
340292, 340293, 1
340295, 340296, 1
340295, 340294, 2
340295, 340293, 2
