251190, 251194, 2
251190, 251191, 3
251190, 251192, 1
251190, 251189, 2
251189, 251188, 2
251189, 251190, 1
251189, 251185, 2
251189, 251186, 2
251193, 251194, 2
251193, 251192, 2
251188, 251187, 2
251188, 251189, 2
251188, 251186, 2
251188, 251185, 2
251194, 251192, 2
251194, 251190, 2
251194, 251193, 2
251192, 251194, 1
251192, 251190, 2
251192, 251191, 2
251192, 251193, 3
251187, 251188, 1
251187, 251186, 2
251185, 251188, 2
251185, 251189, 1
251185, 251186, 3
251186, 251188, 2
251186, 251187, 1
251186, 251185, 2
251186, 251189, 2
251191, 251190, 2
251191, 251192, 2
