221245, 221241, 2
221245, 221242, 2
221245, 221244, 2
221241, 221245, 2
221241, 221244, 1
221241, 221242, 3
221242, 221241, 2
221242, 221245, 2
221242, 221244, 2
221242, 221243, 2
221244, 221245, 0
221244, 221241, 2
221244, 221242, 2
221244, 221243, 2
221243, 221244, 2
221243, 221242, 2
