339408, 339407, 2
339404, 339405, 1
339404, 339403, 2
339405, 339404, 2
339405, 339406, 1
339405, 339407, 2
339403, 339404, 1
339406, 339405, 2
339406, 339407, 1
339407, 339408, 0
339407, 339405, 2
339407, 339406, 2
