63255, 63252, 2
63255, 63256, 1
63255, 63251, 2
63255, 63254, 2
63255, 63253, 2
63248, 63249, 2
63248, 63250, 2
63248, 63247, 2
63248, 63246, 2
63248, 63245, 2
63252, 63255, 2
63252, 63251, 2
63252, 63253, 2
63252, 63258, 2
63252, 63257, 2
63252, 63250, 2
63252, 63245, 2
63256, 63258, 1
63256, 63255, 2
63256, 63257, 0
63258, 63252, 2
63258, 63256, 2
63258, 63257, 2
63257, 63258, 2
63257, 63252, 2
63257, 63256, 2
63254, 63255, 1
63254, 63250, 2
63254, 63251, 2
63254, 63253, 2
63246, 63248, 1
63246, 63247, 8
63246, 63245, 2
63251, 63254, 1
63251, 63250, 2
63251, 63252, 6
63251, 63255, 2
63251, 63253, 0
63249, 63248, 2
63249, 63250, 1
63249, 63245, 2
63253, 63251, 2
63253, 63252, 2
63253, 63254, 2
63253, 63255, 2
63250, 63248, 2
63250, 63254, 2
63250, 63249, 2
63250, 63252, 2
63250, 63251, 1
63250, 63245, 2
63247, 63248, 2
63247, 63246, 2
63247, 63245, 2
63245, 63248, 2
63245, 63246, 3
63245, 63252, 2
63245, 63249, 1
63245, 63250, 2
63245, 63247, 2
