298808, 298809, 1
298808, 298806, 2
298808, 298810, 2
298808, 298807, 2
298808, 298804, 2
298787, 298788, 1
298787, 298789, 2
298787, 298786, 2
298793, 298794, 1
298793, 298792, 2
298793, 298795, 2
298801, 298802, 2
298801, 298805, 2
298801, 298804, 2
298801, 298800, 2
298780, 298781, 1
298780, 298782, 2
298780, 298779, 2
298809, 298808, 2
298809, 298810, 1
298785, 298784, 2
298785, 298782, 2
298785, 298788, 2
298785, 298786, 2
298785, 298783, 2
298795, 298794, 2
298795, 298797, 2
298795, 298796, 2
298795, 298793, 2
298795, 298792, 2
298795, 298791, 2
298788, 298785, 2
298788, 298789, 1
298788, 298787, 2
298788, 298786, 2
298810, 298809, 2
298810, 298808, 2
298810, 298811, 1
298798, 298799, 1
298798, 298794, 2
298798, 298797, 2
298798, 298796, 2
298798, 298800, 2
298806, 298808, 1
298806, 298805, 2
298806, 298804, 2
298806, 298807, 3
298792, 298795, 2
298792, 298791, 2
298792, 298793, 1
298800, 298802, 1
298800, 298801, 8
298800, 298805, 2
298800, 298798, 2
298800, 298799, 2
298802, 298801, 2
298802, 298800, 2
298802, 298805, 2
298802, 298803, 1
298783, 298785, 2
298783, 298784, 1
298783, 298782, 2
298783, 298781, 2
298783, 298779, 2
298782, 298785, 2
298782, 298783, 2
298782, 298780, 2
298782, 298781, 2
298782, 298779, 2
298789, 298790, 1
298789, 298788, 2
298789, 298787, 2
298796, 298795, 2
298796, 298797, 3
298796, 298798, 1
298796, 298794, 2
298791, 298790, 2
298791, 298795, 2
298791, 298792, 1
298804, 298808, 2
298804, 298805, 3
298804, 298801, 2
298804, 298806, 1
298804, 298807, 2
298804, 298803, 2
298807, 298808, 2
298807, 298806, 2
298807, 298805, 2
298807, 298804, 2
298803, 298802, 2
298803, 298805, 2
298803, 298804, 1
298781, 298783, 1
298781, 298782, 3
298781, 298780, 2
298781, 298779, 2
298794, 298798, 2
298794, 298795, 3
298794, 298796, 1
298794, 298793, 2
298797, 298795, 2
298797, 298805, 2
298797, 298796, 2
298797, 298798, 2
298779, 298781, 2
298779, 298783, 2
298779, 298782, 2
298779, 298780, 1
298790, 298791, 1
298790, 298789, 2
298799, 298798, 2
298799, 298800, 1
298784, 298785, 3
298784, 298783, 2
298784, 298786, 1
298811, 298810, 2
298805, 298802, 2
298805, 298797, 2
298805, 298801, 2
298805, 298806, 2
298805, 298800, 2
298805, 298804, 2
298805, 298807, 2
298805, 298803, 2
298786, 298785, 2
298786, 298784, 2
298786, 298788, 2
298786, 298787, 1
