195838, 195837, 2
195838, 195839, 3
195838, 195840, 1
195837, 195838, 1
195837, 195836, 2
195841, 195842, 1
195841, 195840, 2
195841, 195844, 2
195841, 195843, 2
195836, 195837, 1
195842, 195840, 2
195842, 195841, 2
195842, 195843, 3
195842, 195844, 1
195840, 195838, 2
195840, 195841, 1
195840, 195842, 2
195840, 195839, 2
195840, 195844, 2
195840, 195843, 2
195839, 195838, 2
195839, 195840, 2
195844, 195842, 2
195844, 195840, 2
195844, 195841, 2
195844, 195843, 2
195844, 195845, 3
195843, 195842, 2
195843, 195840, 2
195843, 195844, 2
195843, 195845, 2
195843, 195841, 2
195845, 195844, 2
195845, 195843, 2
