259472, 259471, 2
259472, 259473, 1
259473, 259472, 2
259473, 259471, 2
259471, 259472, 1
259471, 259473, 2
259471, 259467, 2
259471, 259470, 2
259471, 259469, 2
259471, 259468, 2
259467, 259471, 2
259467, 259470, 1
259467, 259469, 2
259467, 259468, 0
259470, 259471, 1
259470, 259467, 2
259470, 259469, 2
259470, 259468, 2
259469, 259471, 2
259469, 259467, 2
259469, 259470, 2
259469, 259468, 2
259468, 259471, 2
259468, 259467, 2
259468, 259470, 2
259468, 259469, 1
