222245, 222244, 2
222245, 222246, 1
222246, 222245, 2
222243, 222244, 1
222243, 222242, 2
222241, 222239, 2
222241, 222240, 2
222241, 222242, 1
222244, 222245, 1
222244, 222243, 2
222240, 222239, 2
222240, 222241, 1
222239, 222241, 2
222239, 222240, 1
222242, 222241, 2
222242, 222243, 1
