187088, 187089, 3
187088, 187087, 2
187088, 187090, 0
187088, 187091, 1
187092, 187091, 2
187092, 187093, 1
187087, 187088, 1
187087, 187089, 2
187087, 187091, 2
187087, 187090, 2
187093, 187092, 2
187093, 187091, 2
187093, 187094, 1
187095, 187094, 2
187089, 187088, 2
187089, 187091, 2
187089, 187090, 2
187089, 187087, 2
187094, 187095, 1
187094, 187093, 2
187090, 187088, 2
187090, 187089, 2
187090, 187091, 2
187090, 187087, 2
187091, 187088, 2
187091, 187092, 1
187091, 187087, 2
187091, 187093, 2
187091, 187089, 2
187091, 187090, 2
