259516, 259518, 2
259516, 259517, 0
259516, 259515, 2
259517, 259516, 2
259517, 259518, 2
259517, 259515, 2
259520, 259521, 1
259520, 259519, 2
259520, 259518, 2
259521, 259519, 2
259521, 259520, 2
259518, 259516, 2
259518, 259519, 0
259518, 259515, 2
259518, 259517, 2
259518, 259520, 1
259519, 259521, 2
259519, 259518, 2
259519, 259520, 2
259515, 259516, 3
259515, 259518, 1
259515, 259517, 2
