185143, 185142, 2
185143, 185144, 1
185146, 185147, 1
185146, 185145, 2
185142, 185143, 1
185142, 185141, 2
185140, 185138, 2
185140, 185141, 1
185140, 185139, 2
185141, 185142, 1
185141, 185140, 2
185139, 185138, 2
185139, 185140, 1
185148, 185149, 1
185148, 185147, 2
185148, 185150, 2
185145, 185146, 1
185145, 185144, 2
185150, 185149, 2
185150, 185148, 2
185144, 185143, 2
185144, 185145, 1
185149, 185148, 2
185149, 185150, 1
185147, 185148, 1
185147, 185146, 2
185138, 185140, 2
185138, 185139, 1
