333840, 333839, 2
333840, 333838, 2
333840, 333841, 2
333849, 333848, 2
333844, 333845, 3
333844, 333847, 1
333844, 333843, 2
333844, 333842, 2
333847, 333848, 1
333847, 333844, 2
333847, 333845, 2
333847, 333846, 2
333837, 333838, 1
333839, 333838, 2
333839, 333842, 2
333839, 333840, 8
333839, 333841, 1
333838, 333839, 1
333838, 333840, 2
333838, 333837, 2
333843, 333844, 1
333843, 333842, 2
333846, 333845, 2
333846, 333847, 2
333845, 333844, 2
333845, 333847, 2
333845, 333846, 1
333848, 333847, 2
333848, 333849, 1
333842, 333839, 2
333842, 333844, 2
333842, 333843, 1
333842, 333841, 2
333841, 333839, 2
333841, 333842, 1
333841, 333840, 2
