61920, 61916, 2
61920, 61921, 2
61920, 61922, 2
61920, 61924, 2
61920, 61917, 2
61920, 61918, 2
61920, 61919, 2
61920, 61923, 2
61916, 61920, 2
61916, 61917, 1
61923, 61920, 2
61923, 61919, 2
61923, 61921, 2
61923, 61922, 2
61923, 61924, 3
61921, 61920, 2
61921, 61922, 2
61921, 61919, 2
61921, 61923, 2
61922, 61920, 2
61922, 61921, 2
61922, 61919, 2
61922, 61923, 1
61918, 61920, 2
61918, 61917, 2
61918, 61919, 1
61917, 61920, 2
61917, 61916, 2
61917, 61918, 1
61917, 61919, 2
61919, 61920, 3
61919, 61923, 2
61919, 61921, 0
61919, 61922, 1
61919, 61917, 2
61919, 61918, 2
61919, 61924, 2
61924, 61920, 2
61924, 61923, 2
61924, 61919, 2
