164042, 164036, 2
164042, 164039, 2
164042, 164051, 2
164042, 164043, 2
164042, 164050, 2
164042, 164041, 2
164042, 164044, 2
164042, 164048, 2
164042, 164049, 2
164042, 164053, 2
164042, 164037, 2
164042, 164054, 2
164042, 164035, 2
164054, 164041, 2
164054, 164042, 2
164054, 164047, 2
164054, 164053, 2
164036, 164038, 6
164036, 164042, 2
164036, 164040, 4
164036, 164039, 2
164036, 164043, 2
164036, 164050, 2
164036, 164041, 2
164036, 164044, 1
164036, 164048, 2
164036, 164032, 2
164036, 164035, 2
164036, 164033, 2
164036, 164030, 2
164036, 164037, 2
164036, 164029, 2
164036, 164049, 2
164039, 164038, 2
164039, 164041, 2
164039, 164042, 2
164039, 164032, 2
164039, 164036, 2
164039, 164043, 1
164039, 164047, 2
164039, 164044, 2
164039, 164037, 2
164039, 164035, 2
164039, 164034, 2
164043, 164038, 2
164043, 164042, 2
164043, 164036, 2
164043, 164039, 2
164043, 164044, 2
164043, 164041, 2
164043, 164048, 1
164043, 164046, 2
164043, 164033, 2
164043, 164045, 2
164043, 164047, 2
164043, 164032, 2
164050, 164041, 2
164050, 164038, 2
164050, 164042, 2
164050, 164049, 2
164050, 164051, 2
164050, 164044, 2
164050, 164045, 2
164050, 164047, 2
164050, 164036, 2
164032, 164041, 2
164032, 164036, 2
164032, 164039, 2
164032, 164043, 2
164032, 164029, 2
164032, 164038, 2
164032, 164044, 2
164032, 164035, 2
164032, 164033, 2
164032, 164030, 2
164032, 164037, 2
164032, 164031, 2
164032, 164034, 2
164035, 164041, 2
164035, 164042, 2
164035, 164040, 2
164035, 164036, 1
164035, 164039, 2
164035, 164044, 2
164035, 164038, 2
164035, 164032, 2
164035, 164034, 2
164035, 164033, 2
164035, 164037, 2
164035, 164029, 2
164053, 164052, 2
164053, 164041, 2
164053, 164042, 2
164053, 164038, 2
164053, 164047, 2
164053, 164054, 1
164045, 164044, 2
164045, 164048, 2
164045, 164046, 3
164045, 164049, 2
164045, 164051, 2
164045, 164043, 2
164045, 164047, 1
164045, 164037, 2
164045, 164050, 2
164047, 164052, 2
164047, 164040, 2
164047, 164039, 2
164047, 164051, 2
164047, 164043, 2
164047, 164050, 2
164047, 164048, 2
164047, 164046, 2
164047, 164049, 2
164047, 164053, 2
164047, 164033, 2
164047, 164045, 2
164047, 164037, 2
164047, 164054, 2
164030, 164029, 2
164030, 164032, 4
164030, 164036, 2
164030, 164031, 1
164030, 164034, 2
164037, 164041, 2
164037, 164042, 2
164037, 164036, 2
164037, 164039, 1
164037, 164044, 2
164037, 164038, 2
164037, 164032, 2
164037, 164035, 2
164037, 164033, 2
164037, 164045, 2
164037, 164046, 2
164037, 164047, 2
164037, 164034, 4
164029, 164032, 2
164029, 164030, 1
164029, 164034, 2
164029, 164035, 2
164029, 164036, 2
164052, 164051, 2
164052, 164047, 2
164052, 164053, 1
164038, 164036, 2
164038, 164039, 2
164038, 164051, 2
164038, 164043, 2
164038, 164050, 2
164038, 164041, 3
164038, 164048, 2
164038, 164032, 2
164038, 164034, 2
164038, 164053, 2
164038, 164033, 2
164038, 164037, 2
164038, 164035, 2
164038, 164049, 2
164040, 164033, 2
164040, 164048, 2
164040, 164046, 2
164040, 164034, 2
164040, 164044, 2
164040, 164047, 2
164040, 164035, 2
164040, 164036, 2
164051, 164052, 1
164051, 164041, 2
164051, 164042, 2
164051, 164049, 2
164051, 164038, 2
164051, 164045, 2
164051, 164047, 2
164051, 164050, 2
164041, 164042, 1
164041, 164036, 2
164041, 164039, 2
164041, 164051, 2
164041, 164043, 2
164041, 164050, 2
164041, 164038, 2
164041, 164044, 2
164041, 164048, 2
164041, 164032, 2
164041, 164049, 2
164041, 164053, 2
164041, 164037, 2
164041, 164054, 2
164041, 164035, 2
164044, 164042, 2
164044, 164040, 2
164044, 164036, 2
164044, 164039, 2
164044, 164043, 2
164044, 164050, 2
164044, 164041, 2
164044, 164048, 2
164044, 164032, 2
164044, 164035, 2
164044, 164045, 1
164044, 164046, 2
164044, 164037, 2
164048, 164041, 2
164048, 164038, 2
164048, 164042, 2
164048, 164046, 2
164048, 164049, 1
164048, 164043, 2
164048, 164045, 2
164048, 164047, 2
164048, 164044, 2
164048, 164040, 2
164048, 164036, 2
164046, 164044, 2
164046, 164048, 2
164046, 164040, 2
164046, 164043, 2
164046, 164045, 2
164046, 164047, 2
164046, 164037, 2
164049, 164041, 2
164049, 164038, 2
164049, 164042, 2
164049, 164036, 2
164049, 164051, 1
164049, 164045, 2
164049, 164047, 2
164049, 164048, 2
164049, 164050, 3
164033, 164038, 2
164033, 164040, 2
164033, 164032, 2
164033, 164036, 2
164033, 164034, 2
164033, 164043, 2
164033, 164047, 2
164033, 164037, 1
164033, 164031, 2
164033, 164035, 2
164031, 164033, 1
164031, 164032, 2
164031, 164030, 2
164031, 164034, 2
164034, 164038, 2
164034, 164031, 2
164034, 164032, 2
164034, 164035, 1
164034, 164039, 2
164034, 164033, 2
164034, 164030, 2
164034, 164037, 2
164034, 164029, 2
164034, 164040, 2
