125205, 125204, 2
125205, 125206, 2
125205, 125203, 2
125205, 125217, 2
125205, 125202, 2
125195, 125196, 3
125195, 125193, 2
125195, 125192, 2
125195, 125197, 1
125195, 125194, 2
125213, 125216, 2
125213, 125211, 2
125213, 125212, 2
125213, 125215, 2
125213, 125210, 2
125213, 125214, 1
125204, 125203, 2
125204, 125205, 3
125204, 125206, 1
125218, 125216, 2
125218, 125219, 1
125218, 125217, 2
125202, 125201, 2
125202, 125200, 2
125202, 125196, 2
125202, 125203, 2
125202, 125205, 2
125202, 125217, 2
125202, 125199, 2
125214, 125215, 8
125214, 125213, 2
125214, 125216, 1
125197, 125198, 1
125197, 125196, 2
125197, 125195, 2
125215, 125216, 2
125215, 125213, 2
125215, 125212, 2
125215, 125210, 2
125215, 125214, 2
125215, 125217, 2
125196, 125193, 2
125196, 125195, 2
125196, 125192, 2
125196, 125194, 2
125196, 125202, 2
125196, 125197, 2
125192, 125193, 3
125192, 125196, 2
125192, 125195, 2
125192, 125194, 1
125212, 125215, 2
125212, 125211, 2
125212, 125210, 2
125212, 125217, 2
125212, 125213, 2
125206, 125204, 2
125206, 125207, 1
125206, 125205, 2
125206, 125203, 2
125208, 125207, 2
125208, 125209, 1
125203, 125204, 1
125203, 125206, 2
125203, 125205, 2
125203, 125201, 2
125203, 125202, 2
125207, 125206, 2
125207, 125208, 1
125211, 125210, 2
125211, 125213, 1
125211, 125212, 8
125209, 125208, 2
125209, 125210, 1
125200, 125201, 1
125200, 125199, 2
125200, 125202, 2
125221, 125220, 2
125217, 125216, 2
125217, 125205, 2
125217, 125212, 2
125217, 125215, 2
125217, 125218, 2
125217, 125202, 2
125217, 125210, 2
125201, 125200, 2
125201, 125199, 2
125201, 125203, 1
125201, 125202, 3
125216, 125215, 2
125216, 125218, 1
125216, 125214, 2
125216, 125213, 2
125216, 125217, 3
125193, 125196, 2
125193, 125195, 2
125193, 125192, 2
125193, 125194, 2
125219, 125220, 1
125219, 125218, 2
125194, 125196, 2
125194, 125195, 1
125194, 125192, 2
125194, 125193, 2
125198, 125197, 2
125198, 125199, 1
125220, 125221, 1
125220, 125219, 2
125210, 125211, 1
125210, 125209, 2
125210, 125213, 2
125210, 125212, 2
125210, 125215, 2
125210, 125217, 2
125199, 125201, 2
125199, 125200, 1
125199, 125198, 2
125199, 125202, 2
