300710, 300711, 2
300710, 300709, 2
300711, 300710, 2
300711, 300712, 1
300711, 300713, 2
300711, 300709, 2
300709, 300710, 3
300709, 300711, 1
300712, 300711, 2
300712, 300713, 6
300712, 300714, 1
300713, 300711, 2
300713, 300712, 2
300713, 300714, 2
300714, 300712, 2
300714, 300713, 2
