164917, 164918, 1
164917, 164916, 2
164917, 164919, 2
164908, 164910, 2
164908, 164906, 2
164908, 164911, 2
164908, 164907, 2
164908, 164904, 2
164908, 164909, 3
164912, 164916, 2
164912, 164915, 2
164912, 164911, 2
164912, 164914, 2
164912, 164913, 1
164904, 164908, 2
164904, 164902, 2
164904, 164906, 2
164904, 164900, 2
164904, 164905, 2
164904, 164903, 2
164904, 164909, 2
164920, 164924, 2
164920, 164921, 1
164920, 164919, 2
164920, 164907, 2
164920, 164922, 2
164920, 164923, 2
164916, 164917, 1
164916, 164915, 2
164916, 164907, 2
164916, 164914, 2
164916, 164912, 2
164901, 164900, 2
164901, 164902, 1
164901, 164899, 2
164902, 164899, 2
164902, 164904, 2
164902, 164907, 2
164902, 164900, 2
164902, 164905, 1
164902, 164903, 3
164902, 164901, 2
164924, 164925, 2
164924, 164923, 2
164924, 164920, 2
164924, 164921, 2
164924, 164919, 2
164924, 164922, 2
164921, 164925, 2
164921, 164924, 2
164921, 164923, 2
164921, 164922, 1
164921, 164920, 2
164900, 164899, 2
164900, 164902, 2
164900, 164904, 2
164900, 164903, 2
164900, 164901, 2
164911, 164910, 2
164911, 164908, 2
164911, 164912, 1
164911, 164906, 2
164911, 164914, 2
164911, 164913, 2
164911, 164915, 2
164911, 164907, 2
164911, 164909, 2
164903, 164905, 2
164903, 164900, 2
164903, 164902, 2
164903, 164904, 3
164926, 164925, 2
164899, 164900, 3
164899, 164902, 2
164899, 164907, 2
164899, 164901, 1
164925, 164921, 2
164925, 164926, 1
164925, 164907, 2
164925, 164924, 2
164925, 164923, 2
164906, 164910, 1
164906, 164908, 3
164906, 164904, 2
164906, 164907, 6
164906, 164905, 2
164906, 164911, 2
164906, 164909, 2
164914, 164911, 2
164914, 164915, 3
164914, 164916, 1
164914, 164912, 2
164914, 164913, 2
164919, 164917, 2
164919, 164918, 2
164919, 164907, 2
164919, 164924, 2
164919, 164920, 1
164915, 164914, 2
164915, 164913, 2
164915, 164916, 2
164915, 164912, 2
164915, 164911, 2
164915, 164909, 2
164905, 164906, 1
164905, 164902, 2
164905, 164904, 2
164905, 164903, 2
164905, 164907, 2
164909, 164910, 2
164909, 164908, 2
164909, 164904, 2
164909, 164907, 2
164909, 164906, 2
164909, 164915, 2
164909, 164911, 2
164910, 164908, 2
164910, 164911, 1
164910, 164906, 2
164910, 164909, 2
164910, 164907, 2
164922, 164921, 2
164922, 164920, 2
164922, 164924, 2
164922, 164923, 1
164913, 164912, 2
164913, 164911, 2
164913, 164914, 1
164913, 164915, 2
164918, 164917, 2
164918, 164919, 1
164907, 164908, 2
164907, 164899, 2
164907, 164906, 2
164907, 164920, 2
164907, 164905, 2
164907, 164919, 2
164907, 164916, 2
164907, 164909, 2
164907, 164925, 2
164907, 164902, 2
164907, 164910, 2
164907, 164911, 2
164923, 164921, 2
164923, 164925, 1
164923, 164924, 3
164923, 164922, 2
164923, 164920, 2
