221829, 221830, 1
221830, 221829, 2
221830, 221831, 1
221832, 221833, 1
221832, 221831, 2
221835, 221834, 2
221833, 221834, 1
221833, 221832, 2
221834, 221835, 1
221834, 221833, 2
221831, 221830, 2
221831, 221832, 1
