332635, 332634, 2
332635, 332636, 1
332630, 332629, 2
332630, 332631, 2
332630, 332632, 2
332632, 332629, 2
332632, 332630, 2
332632, 332633, 1
332632, 332631, 2
332633, 332634, 1
332633, 332632, 2
332637, 332638, 0
332637, 332636, 2
332629, 332630, 3
332629, 332632, 2
332629, 332631, 1
332634, 332635, 1
332634, 332633, 2
332634, 332636, 2
332638, 332637, 2
332636, 332635, 2
332636, 332634, 2
332636, 332637, 1
332631, 332629, 2
332631, 332630, 2
332631, 332632, 1
