295115, 295116, 1
295115, 295114, 2
295109, 295110, 1
295109, 295111, 2
295109, 295113, 2
295109, 295108, 2
295109, 295107, 2
295106, 295113, 2
295106, 295105, 2
295106, 295107, 2
295108, 295109, 1
295108, 295107, 2
295114, 295115, 1
295114, 295116, 2
295114, 295113, 2
295114, 295112, 2
295105, 295106, 3
295105, 295107, 1
295112, 295110, 2
295112, 295114, 1
295112, 295111, 2
295112, 295113, 3
295107, 295108, 1
295107, 295106, 2
295107, 295105, 2
295107, 295109, 2
295116, 295115, 2
295116, 295114, 2
295111, 295110, 2
295111, 295109, 2
295111, 295112, 1
295111, 295113, 2
295110, 295111, 1
295110, 295112, 2
295110, 295109, 2
295110, 295113, 2
295113, 295114, 2
295113, 295109, 2
295113, 295112, 2
295113, 295111, 2
295113, 295110, 2
295113, 295106, 2
