71771, 71772, 1
71772, 71771, 2
71772, 71773, 1
71776, 71775, 2
71776, 71774, 2
71776, 71777, 3
71775, 71774, 2
71775, 71776, 1
71777, 71774, 2
71777, 71776, 2
71774, 71775, 1
71774, 71773, 2
71774, 71776, 2
71774, 71777, 2
71773, 71772, 2
71773, 71774, 1
