134830, 134827, 2
134830, 134826, 2
134830, 134831, 1
134830, 134828, 2
134830, 134829, 2
134826, 134830, 2
134826, 134827, 2
134826, 134825, 2
134826, 134828, 2
134826, 134829, 2
134832, 134831, 2
134828, 134830, 2
134828, 134827, 2
134828, 134826, 2
134828, 134829, 1
134827, 134830, 1
134827, 134826, 6
134827, 134825, 2
134827, 134828, 3
134825, 134827, 1
134825, 134826, 2
134831, 134830, 2
134831, 134832, 1
134829, 134830, 2
134829, 134826, 2
134829, 134828, 2
