186758, 186759, 1
186761, 186759, 2
186761, 186762, 1
186761, 186760, 2
186759, 186758, 2
186759, 186761, 2
186759, 186760, 1
186762, 186763, 1
186762, 186761, 2
186763, 186762, 2
186760, 186761, 1
186760, 186759, 2
