332840, 332839, 2
332840, 332841, 1
332843, 332842, 2
332843, 332846, 1
332843, 332844, 3
332843, 332848, 2
332847, 332846, 2
332847, 332848, 2
332844, 332845, 2
332844, 332843, 2
332844, 332846, 2
332842, 332839, 2
332842, 332843, 1
332842, 332841, 2
332842, 332846, 2
332845, 332846, 2
332845, 332844, 2
332841, 332840, 2
332841, 332839, 2
332841, 332842, 1
332839, 332840, 1
332839, 332842, 2
332839, 332841, 2
332846, 332843, 2
332846, 332847, 3
332846, 332844, 2
332846, 332845, 2
332846, 332842, 2
332846, 332848, 1
332848, 332843, 2
332848, 332846, 2
332848, 332847, 2
