71939, 71940, 1
71939, 71941, 2
71944, 71945, 6
71944, 71943, 2
71941, 71940, 2
71941, 71939, 2
71941, 71942, 3
71941, 71945, 2
71941, 71943, 1
71943, 71942, 2
71943, 71944, 1
71943, 71941, 2
71943, 71945, 2
71940, 71939, 2
71940, 71942, 2
71940, 71941, 1
71942, 71940, 2
71942, 71943, 2
71942, 71941, 2
71945, 71944, 2
71945, 71941, 2
71945, 71943, 2
