71529, 71524, 2
71529, 71528, 4
71529, 71534, 1
71529, 71518, 2
71529, 71527, 6
71529, 71531, 2
71529, 71525, 2
71529, 71532, 2
71529, 71533, 2
71529, 71530, 2
71529, 71526, 2
71529, 71517, 2
71574, 71567, 2
71574, 71562, 2
71574, 71575, 1
71574, 71565, 2
71574, 71566, 2
71574, 71569, 2
71574, 71570, 2
71574, 71568, 2
71574, 71572, 2
71574, 71555, 2
71574, 71573, 2
71574, 71571, 2
71574, 71557, 2
71574, 71564, 2
71574, 71563, 2
71580, 71578, 2
71580, 71579, 2
71580, 71575, 2
71540, 71542, 1
71540, 71536, 2
71540, 71538, 2
71540, 71539, 2
71540, 71537, 2
71540, 71534, 2
71540, 71541, 2
71540, 71544, 2
71540, 71546, 2
71556, 71560, 2
71556, 71553, 2
71556, 71563, 2
71556, 71559, 2
71556, 71555, 2
71556, 71558, 1
71556, 71557, 8
71556, 71554, 2
71575, 71574, 2
71575, 71579, 2
71575, 71576, 1
71575, 71578, 2
71575, 71580, 2
71575, 71577, 2
71578, 71576, 2
71578, 71580, 3
71578, 71579, 6
71578, 71575, 2
71578, 71577, 2
71518, 71516, 2
71518, 71519, 2
71518, 71522, 2
71518, 71515, 2
71518, 71520, 2
71518, 71523, 2
71518, 71529, 2
71518, 71514, 2
71518, 71528, 2
71518, 71534, 2
71518, 71524, 2
71547, 71544, 2
71547, 71550, 2
71547, 71552, 2
71547, 71548, 2
71547, 71546, 2
71552, 71542, 2
71552, 71553, 1
71552, 71551, 2
71552, 71544, 2
71552, 71541, 2
71552, 71549, 2
71552, 71547, 2
71552, 71546, 2
71552, 71543, 2
71552, 71545, 2
71552, 71550, 2
71552, 71537, 2
71552, 71548, 2
71545, 71543, 2
71545, 71542, 2
71545, 71551, 2
71545, 71549, 1
71545, 71544, 2
71545, 71541, 2
71545, 71552, 2
71545, 71548, 2
71545, 71546, 3
71535, 71543, 2
71535, 71542, 2
71535, 71536, 3
71535, 71539, 1
71535, 71534, 2
71535, 71541, 2
71535, 71538, 2
71530, 71532, 1
71530, 71529, 2
71530, 71526, 2
71530, 71534, 2
71530, 71528, 2
71530, 71524, 2
71537, 71542, 2
71537, 71534, 2
71537, 71540, 2
71537, 71536, 2
71537, 71544, 2
71537, 71552, 2
71537, 71538, 2
71570, 71574, 1
71570, 71567, 2
71570, 71572, 3
71570, 71563, 2
71570, 71565, 2
71570, 71566, 2
71570, 71571, 6
71570, 71569, 2
71570, 71573, 0
71573, 71574, 2
71573, 71572, 2
71573, 71566, 2
71573, 71563, 2
71573, 71565, 2
71573, 71571, 2
71573, 71570, 2
71568, 71574, 2
71568, 71572, 2
71568, 71567, 2
71568, 71564, 2
71568, 71569, 2
71563, 71574, 2
71563, 71566, 2
71563, 71556, 2
71563, 71559, 2
71563, 71565, 2
71563, 71554, 2
71563, 71570, 2
71563, 71553, 2
71563, 71573, 2
71563, 71555, 2
71563, 71558, 2
71563, 71571, 2
71563, 71561, 2
71539, 71543, 2
71539, 71542, 2
71539, 71535, 2
71539, 71540, 2
71539, 71536, 2
71539, 71544, 2
71539, 71541, 1
71539, 71534, 2
71539, 71538, 2
71519, 71525, 2
71519, 71516, 2
71519, 71517, 2
71519, 71522, 1
71519, 71515, 2
71519, 71520, 3
71519, 71523, 2
71519, 71521, 0
71519, 71518, 2
71519, 71527, 2
71549, 71543, 2
71549, 71545, 2
71549, 71550, 3
71549, 71551, 0
71549, 71552, 1
71549, 71548, 2
71549, 71546, 2
71527, 71524, 2
71527, 71528, 2
71527, 71529, 2
71527, 71519, 2
71527, 71531, 1
71527, 71525, 2
71527, 71533, 2
71527, 71534, 2
71527, 71522, 2
71527, 71515, 2
71527, 71523, 2
71527, 71526, 2
71527, 71521, 2
71527, 71517, 2
71546, 71545, 2
71546, 71548, 1
71546, 71540, 2
71546, 71542, 2
71546, 71544, 2
71546, 71534, 2
71546, 71541, 2
71546, 71552, 2
71546, 71547, 8
71546, 71549, 2
71543, 71539, 2
71543, 71545, 2
71543, 71551, 2
71543, 71535, 2
71543, 71536, 2
71543, 71549, 2
71543, 71534, 2
71543, 71541, 2
71543, 71538, 2
71543, 71552, 2
71532, 71524, 2
71532, 71533, 2
71532, 71526, 2
71532, 71530, 2
71532, 71534, 2
71532, 71528, 2
71532, 71529, 2
71517, 71525, 2
71517, 71522, 2
71517, 71515, 2
71517, 71523, 2
71517, 71529, 2
71517, 71534, 2
71517, 71521, 2
71517, 71527, 2
71517, 71519, 2
71515, 71516, 2
71515, 71517, 6
71515, 71533, 2
71515, 71528, 2
71515, 71519, 1
71515, 71514, 4
71515, 71518, 2
71515, 71521, 2
71515, 71527, 2
71515, 71520, 2
71536, 71543, 2
71536, 71535, 2
71536, 71540, 2
71536, 71539, 2
71536, 71537, 8
71536, 71534, 2
71536, 71538, 1
71523, 71525, 2
71523, 71524, 2
71523, 71517, 2
71523, 71522, 2
71523, 71533, 2
71523, 71528, 2
71523, 71526, 2
71523, 71519, 2
71523, 71518, 2
71523, 71521, 2
71523, 71527, 2
71526, 71531, 2
71526, 71525, 2
71526, 71532, 2
71526, 71533, 2
71526, 71522, 2
71526, 71529, 1
71526, 71523, 2
71526, 71530, 2
71526, 71528, 2
71526, 71524, 2
71526, 71527, 2
71561, 71553, 2
71561, 71562, 2
71561, 71563, 6
71561, 71559, 2
71561, 71565, 1
71561, 71566, 2
71561, 71554, 2
71561, 71560, 4
71561, 71567, 2
71561, 71555, 2
71561, 71558, 2
71561, 71571, 2
71561, 71557, 2
71561, 71564, 2
71557, 71574, 2
71557, 71560, 2
71557, 71553, 2
71557, 71562, 2
71557, 71556, 2
71557, 71558, 2
71557, 71564, 2
71557, 71561, 2
71548, 71545, 2
71548, 71550, 2
71548, 71549, 2
71548, 71552, 2
71548, 71547, 2
71548, 71546, 2
71577, 71576, 2
71577, 71578, 2
71577, 71579, 2
71577, 71575, 2
71553, 71567, 2
71553, 71560, 2
71553, 71566, 2
71553, 71563, 2
71553, 71556, 2
71553, 71559, 2
71553, 71552, 2
71553, 71555, 2
71553, 71561, 2
71553, 71554, 1
71553, 71557, 2
71528, 71524, 2
71528, 71520, 2
71528, 71529, 2
71528, 71514, 2
71528, 71518, 2
71528, 71527, 2
71528, 71525, 2
71528, 71532, 2
71528, 71522, 2
71528, 71515, 2
71528, 71530, 1
71528, 71523, 2
71528, 71526, 2
71544, 71545, 2
71544, 71538, 2
71544, 71540, 2
71544, 71542, 2
71544, 71552, 2
71544, 71537, 2
71544, 71550, 2
71544, 71541, 2
71544, 71539, 2
71544, 71547, 2
71544, 71546, 2
71566, 71574, 2
71566, 71567, 2
71566, 71553, 2
71566, 71573, 2
71566, 71563, 2
71566, 71565, 2
71566, 71570, 2
71566, 71571, 2
71566, 71564, 2
71566, 71569, 2
71566, 71561, 2
71554, 71553, 2
71554, 71562, 2
71554, 71563, 2
71554, 71556, 3
71554, 71559, 1
71554, 71555, 6
71554, 71558, 2
71554, 71564, 2
71554, 71561, 2
71516, 71522, 2
71516, 71515, 2
71516, 71520, 2
71516, 71519, 2
71516, 71518, 1
71516, 71514, 2
71572, 71568, 2
71572, 71574, 2
71572, 71564, 2
71572, 71570, 2
71572, 71571, 2
71572, 71569, 2
71572, 71573, 2
71559, 71560, 2
71559, 71553, 2
71559, 71562, 2
71559, 71563, 2
71559, 71556, 2
71559, 71555, 2
71559, 71558, 2
71559, 71554, 2
71559, 71564, 2
71559, 71561, 1
71550, 71547, 2
71550, 71551, 2
71550, 71544, 2
71550, 71552, 2
71550, 71548, 2
71550, 71549, 2
71576, 71578, 1
71576, 71575, 2
71576, 71579, 2
71576, 71577, 3
71555, 71574, 2
71555, 71560, 2
71555, 71553, 2
71555, 71562, 2
71555, 71563, 2
71555, 71556, 2
71555, 71559, 2
71555, 71558, 2
71555, 71554, 2
71555, 71561, 2
71558, 71560, 2
71558, 71562, 2
71558, 71563, 2
71558, 71556, 2
71558, 71559, 2
71558, 71555, 2
71558, 71561, 2
71558, 71557, 2
71558, 71564, 2
71558, 71554, 2
71571, 71566, 2
71571, 71574, 2
71571, 71567, 2
71571, 71561, 2
71571, 71563, 2
71571, 71572, 2
71571, 71573, 2
71571, 71565, 2
71571, 71570, 2
71520, 71521, 2
71520, 71524, 2
71520, 71522, 2
71520, 71515, 2
71520, 71528, 2
71520, 71514, 2
71520, 71518, 2
71520, 71516, 2
71520, 71519, 2
71542, 71545, 2
71542, 71538, 2
71542, 71535, 2
71542, 71540, 2
71542, 71539, 2
71542, 71552, 2
71542, 71537, 2
71542, 71544, 1
71542, 71541, 2
71542, 71534, 2
71542, 71546, 2
71524, 71518, 2
71524, 71528, 2
71524, 71529, 2
71524, 71534, 2
71524, 71520, 2
71524, 71527, 2
71524, 71525, 2
71524, 71532, 2
71524, 71522, 2
71524, 71530, 2
71524, 71523, 2
71524, 71526, 2
71567, 71574, 2
71567, 71566, 2
71567, 71562, 2
71567, 71565, 2
71567, 71569, 1
71567, 71570, 2
71567, 71568, 8
71567, 71560, 2
71567, 71553, 2
71567, 71571, 2
71567, 71564, 2
71567, 71561, 2
71562, 71574, 2
71562, 71560, 2
71562, 71567, 2
71562, 71559, 2
71562, 71557, 2
71562, 71555, 2
71562, 71565, 2
71562, 71558, 2
71562, 71554, 2
71562, 71564, 1
71562, 71561, 2
71538, 71543, 2
71538, 71542, 2
71538, 71541, 2
71538, 71535, 2
71538, 71540, 2
71538, 71536, 2
71538, 71537, 2
71538, 71534, 2
71538, 71539, 2
71538, 71544, 2
71551, 71543, 2
71551, 71545, 2
71551, 71550, 2
71551, 71534, 2
71551, 71541, 2
71551, 71552, 2
71551, 71549, 2
71565, 71574, 2
71565, 71567, 3
71565, 71566, 6
71565, 71562, 2
71565, 71563, 2
71565, 71561, 2
71565, 71570, 1
71565, 71571, 2
71565, 71564, 2
71565, 71569, 2
71565, 71573, 2
71514, 71516, 1
71514, 71518, 2
71514, 71528, 2
71514, 71515, 2
71514, 71520, 2
71541, 71542, 2
71541, 71540, 4
71541, 71538, 2
71541, 71539, 2
71541, 71534, 2
71541, 71551, 2
71541, 71552, 2
71541, 71546, 2
71541, 71543, 6
71541, 71545, 1
71541, 71535, 2
71541, 71544, 2
71560, 71553, 2
71560, 71567, 2
71560, 71562, 1
71560, 71556, 2
71560, 71559, 2
71560, 71555, 2
71560, 71558, 2
71560, 71557, 2
71560, 71564, 2
71560, 71561, 2
71569, 71568, 2
71569, 71574, 2
71569, 71567, 2
71569, 71572, 2
71569, 71565, 2
71569, 71566, 2
71569, 71570, 2
71531, 71525, 2
71531, 71533, 1
71531, 71522, 2
71531, 71526, 2
71531, 71529, 2
71531, 71534, 2
71531, 71527, 2
71525, 71524, 2
71525, 71528, 2
71525, 71529, 2
71525, 71519, 2
71525, 71517, 2
71525, 71527, 2
71525, 71531, 2
71525, 71533, 2
71525, 71522, 2
71525, 71523, 2
71525, 71526, 2
71525, 71521, 2
71525, 71534, 2
71533, 71531, 2
71533, 71525, 2
71533, 71532, 2
71533, 71522, 2
71533, 71515, 2
71533, 71529, 2
71533, 71523, 2
71533, 71526, 2
71533, 71534, 2
71533, 71521, 2
71533, 71527, 2
71522, 71524, 3
71522, 71518, 2
71522, 71528, 2
71522, 71519, 2
71522, 71520, 2
71522, 71527, 2
71522, 71531, 2
71522, 71525, 0
71522, 71516, 2
71522, 71533, 2
71522, 71523, 6
71522, 71526, 1
71522, 71521, 2
71522, 71517, 2
71521, 71525, 2
71521, 71517, 2
71521, 71533, 2
71521, 71515, 2
71521, 71520, 2
71521, 71523, 2
71521, 71519, 2
71521, 71527, 2
71521, 71522, 2
71579, 71576, 2
71579, 71578, 2
71579, 71580, 2
71579, 71575, 2
71579, 71577, 2
71534, 71543, 2
71534, 71524, 2
71534, 71551, 2
71534, 71540, 2
71534, 71539, 2
71534, 71529, 2
71534, 71518, 2
71534, 71538, 2
71534, 71541, 2
71534, 71546, 2
71534, 71531, 2
71534, 71525, 2
71534, 71532, 2
71534, 71533, 2
71534, 71542, 2
71534, 71527, 2
71534, 71535, 1
71534, 71536, 2
71534, 71530, 2
71534, 71537, 2
71534, 71517, 2
71564, 71574, 2
71564, 71567, 2
71564, 71562, 2
71564, 71559, 2
71564, 71565, 2
71564, 71554, 2
71564, 71568, 2
71564, 71560, 2
71564, 71566, 2
71564, 71572, 2
71564, 71558, 2
71564, 71557, 2
71564, 71561, 2
