185023, 185024, 1
185023, 185022, 2
185021, 185022, 1
185026, 185027, 8
185026, 185028, 1
185026, 185025, 2
185025, 185024, 2
185025, 185026, 1
185024, 185023, 2
185024, 185025, 1
185028, 185030, 2
185028, 185027, 2
185028, 185026, 2
185028, 185029, 1
185032, 185031, 2
185032, 185030, 2
185022, 185023, 1
185022, 185021, 2
185029, 185030, 1
185029, 185028, 2
185031, 185030, 2
185031, 185032, 1
185030, 185031, 1
185030, 185028, 2
185030, 185029, 2
185030, 185032, 2
185027, 185028, 2
185027, 185026, 2
