251298, 251297, 2
251298, 251299, 1
251299, 251298, 2
251299, 251300, 1
251302, 251303, 1
251302, 251301, 2
251300, 251299, 2
251300, 251301, 1
251297, 251298, 1
251297, 251295, 2
251297, 251296, 2
251296, 251297, 1
251296, 251295, 2
251295, 251297, 2
251295, 251296, 1
251303, 251302, 2
251301, 251302, 1
251301, 251300, 2
