296200, 296202, 1
296200, 296204, 2
296200, 296199, 2
296200, 296201, 6
296200, 296198, 2
296205, 296206, 1
296205, 296204, 6
296205, 296203, 2
296205, 296201, 2
296205, 296211, 2
296209, 296208, 2
296209, 296207, 2
296209, 296210, 1
296209, 296204, 2
296209, 296201, 2
296209, 296211, 2
296203, 296205, 1
296203, 296204, 2
296203, 296202, 2
296203, 296211, 2
296206, 296205, 2
296206, 296201, 2
296206, 296207, 1
296206, 296204, 2
296206, 296208, 2
296206, 296211, 2
296199, 296200, 1
296199, 296202, 2
296199, 296201, 2
296199, 296198, 2
296210, 296209, 2
296210, 296204, 2
296210, 296201, 2
296210, 296212, 1
296210, 296211, 6
296213, 296212, 2
296213, 296211, 2
296204, 296206, 2
296204, 296205, 2
296204, 296209, 2
296204, 296200, 2
296204, 296198, 2
296204, 296207, 2
296204, 296210, 2
296204, 296202, 2
296204, 296203, 2
296204, 296201, 2
296204, 296211, 2
296211, 296206, 2
296211, 296205, 2
296211, 296209, 2
296211, 296204, 2
296211, 296207, 2
296211, 296210, 2
296211, 296213, 2
296211, 296202, 2
296211, 296203, 2
296211, 296212, 2
296211, 296198, 2
296212, 296210, 2
296212, 296213, 1
296212, 296211, 2
296201, 296200, 2
296201, 296205, 2
296201, 296209, 2
296201, 296204, 2
296201, 296206, 2
296201, 296199, 2
296201, 296207, 2
296201, 296210, 2
296201, 296202, 2
296201, 296198, 2
296207, 296206, 2
296207, 296209, 1
296207, 296208, 3
296207, 296204, 2
296207, 296201, 2
296207, 296211, 2
296202, 296200, 2
296202, 296203, 1
296202, 296199, 2
296202, 296204, 2
296202, 296201, 2
296202, 296211, 2
296208, 296206, 2
296208, 296209, 2
296208, 296207, 2
296198, 296200, 2
296198, 296204, 2
296198, 296201, 2
296198, 296199, 1
296198, 296211, 2
