259107, 259106, 2
259107, 259110, 2
259107, 259108, 1
259107, 259109, 2
259106, 259107, 1
259106, 259108, 2
259106, 259105, 2
259110, 259111, 1
259110, 259107, 2
259110, 259108, 2
259110, 259109, 2
259111, 259110, 2
259108, 259107, 2
259108, 259106, 2
259108, 259109, 1
259108, 259110, 2
259109, 259107, 2
259109, 259108, 2
259109, 259110, 1
259105, 259106, 1
