62740, 62739, 2
62740, 62738, 2
62729, 62731, 0
62729, 62730, 3
62729, 62732, 1
62729, 62734, 2
62733, 62730, 2
62733, 62732, 2
62733, 62735, 0
62733, 62734, 3
62733, 62731, 2
62733, 62736, 1
62732, 62731, 2
62732, 62730, 2
62732, 62733, 1
62732, 62734, 2
62732, 62729, 2
62739, 62740, 2
62739, 62738, 2
62739, 62737, 2
62739, 62734, 2
62737, 62739, 2
62737, 62738, 2
62737, 62734, 2
62737, 62736, 2
62735, 62738, 2
62735, 62734, 2
62735, 62736, 2
62735, 62731, 2
62735, 62733, 2
62730, 62731, 2
62730, 62734, 2
62730, 62729, 2
62730, 62733, 2
62730, 62732, 2
62738, 62740, 0
62738, 62737, 2
62738, 62736, 2
62738, 62735, 2
62738, 62739, 3
62738, 62734, 2
62734, 62730, 2
62734, 62737, 2
62734, 62729, 2
62734, 62735, 2
62734, 62733, 2
62734, 62739, 2
62734, 62738, 2
62734, 62732, 2
62734, 62736, 2
62731, 62735, 2
62731, 62730, 2
62731, 62729, 2
62731, 62732, 2
62731, 62733, 2
62736, 62738, 1
62736, 62734, 2
62736, 62737, 8
62736, 62735, 2
62736, 62733, 2
