257912, 257913, 8
257912, 257911, 2
257912, 257915, 2
257912, 257914, 1
257913, 257912, 2
257913, 257914, 2
257913, 257911, 2
257913, 257915, 2
257911, 257912, 1
257911, 257913, 2
257915, 257912, 2
257915, 257913, 2
257915, 257914, 2
257914, 257912, 2
257914, 257913, 2
257914, 257915, 1
