62559, 62558, 2
62559, 62560, 1
62559, 62556, 2
62550, 62549, 2
62550, 62551, 2
62550, 62556, 2
62555, 62553, 2
62555, 62554, 2
62555, 62556, 6
62555, 62557, 1
62557, 62558, 1
62557, 62555, 2
62557, 62556, 2
62553, 62554, 1
62553, 62555, 2
62553, 62556, 2
62553, 62552, 2
62554, 62553, 2
62554, 62552, 2
62554, 62555, 1
62554, 62556, 2
62549, 62551, 1
62549, 62550, 0
62549, 62556, 2
62551, 62549, 2
62551, 62550, 2
62551, 62552, 1
62556, 62559, 2
62556, 62553, 2
62556, 62554, 2
62556, 62549, 2
62556, 62550, 2
62556, 62555, 2
62556, 62552, 2
62556, 62558, 2
62556, 62560, 2
62556, 62557, 2
62552, 62553, 1
62552, 62554, 2
62552, 62551, 2
62552, 62556, 2
62558, 62559, 1
62558, 62557, 2
62558, 62556, 2
62560, 62559, 2
62560, 62556, 2
