15506, 15507, 2
15506, 15505, 2
15505, 15506, 3
15505, 15507, 8
15505, 15504, 2
15498, 15499, 1
15498, 15500, 2
15503, 15502, 2
15503, 15500, 2
15503, 15504, 2
15501, 15502, 1
15501, 15500, 2
15502, 15503, 3
15502, 15504, 1
15502, 15500, 2
15502, 15501, 2
15504, 15502, 2
15504, 15505, 1
15504, 15503, 2
15499, 15498, 2
15499, 15500, 1
15500, 15502, 2
15500, 15503, 2
15500, 15499, 2
15500, 15498, 2
15500, 15501, 1
15507, 15506, 2
15507, 15505, 2
