221804, 221802, 2
221804, 221801, 2
221804, 221805, 1
221804, 221803, 2
221804, 221806, 2
221801, 221802, 3
221801, 221804, 2
221801, 221803, 8
221801, 221806, 1
221807, 221805, 2
221807, 221806, 2
221802, 221804, 2
221802, 221801, 2
221802, 221805, 2
221802, 221803, 2
221802, 221806, 2
221806, 221807, 3
221806, 221801, 2
221806, 221804, 2
221806, 221802, 2
221806, 221805, 2
221806, 221803, 2
221805, 221802, 2
221805, 221807, 2
221805, 221804, 2
221805, 221803, 2
221805, 221806, 2
221803, 221804, 1
221803, 221805, 2
221803, 221801, 2
221803, 221802, 2
221803, 221806, 2
