63022, 63020, 2
63022, 63021, 2
63020, 63019, 2
63020, 63022, 2
63020, 63017, 2
63020, 63021, 1
63017, 63019, 2
63017, 63021, 2
63017, 63020, 2
63017, 63016, 2
63017, 63018, 1
63010, 63012, 2
63010, 63011, 1
63012, 63011, 2
63012, 63014, 2
63012, 63013, 1
63012, 63015, 2
63012, 63010, 2
63011, 63012, 1
63011, 63010, 2
63021, 63022, 1
63021, 63020, 2
63021, 63017, 2
63013, 63012, 2
63013, 63014, 1
63013, 63015, 2
63015, 63014, 2
63015, 63013, 2
63015, 63016, 1
63015, 63012, 2
63019, 63020, 1
63019, 63017, 2
63019, 63018, 2
63019, 63016, 2
63014, 63012, 2
63014, 63013, 2
63014, 63015, 1
63018, 63019, 1
63018, 63017, 2
63016, 63019, 2
63016, 63017, 1
63016, 63015, 2
