222148, 222146, 2
222148, 222150, 2
222148, 222147, 2
222148, 222149, 2
222143, 222145, 2
222143, 222144, 1
222150, 222148, 2
222150, 222145, 2
222150, 222147, 2
222150, 222149, 2
222149, 222148, 2
222149, 222145, 2
222149, 222150, 1
222149, 222147, 2
222145, 222143, 2
222145, 222146, 2
222145, 222144, 2
222145, 222150, 2
222145, 222147, 2
222145, 222149, 2
222144, 222143, 2
222144, 222145, 6
222144, 222146, 1
222147, 222148, 3
222147, 222145, 2
222147, 222150, 2
222147, 222149, 1
222147, 222146, 2
222146, 222148, 2
222146, 222145, 2
222146, 222144, 2
222146, 222147, 1
