333568, 333569, 1
333572, 333573, 3
333572, 333569, 2
333572, 333570, 2
333572, 333574, 1
333572, 333571, 2
333574, 333573, 2
333574, 333575, 1
333574, 333572, 2
333578, 333576, 2
333578, 333579, 0
333578, 333575, 2
333578, 333577, 2
333573, 333572, 2
333573, 333574, 2
333576, 333578, 2
333576, 333575, 2
333576, 333577, 2
333575, 333576, 0
333575, 333578, 2
333575, 333574, 2
333575, 333577, 1
333571, 333569, 2
333571, 333572, 2
333571, 333570, 2
333569, 333568, 2
333569, 333572, 1
333569, 333570, 3
333569, 333571, 8
333579, 333578, 2
333577, 333576, 2
333577, 333575, 2
333577, 333578, 1
333570, 333569, 2
333570, 333572, 2
333570, 333571, 2
