61650, 61648, 2
61650, 61652, 2
61650, 61649, 2
61650, 61651, 2
61647, 61648, 2
61647, 61646, 2
61654, 61653, 2
61654, 61655, 1
61649, 61650, 0
61649, 61652, 1
61649, 61648, 2
61649, 61651, 8
61651, 61653, 2
61651, 61650, 2
61651, 61648, 2
61651, 61652, 2
61651, 61649, 2
61653, 61654, 1
61653, 61655, 2
61653, 61652, 2
61653, 61651, 2
61652, 61653, 1
61652, 61650, 2
61652, 61648, 2
61652, 61649, 2
61652, 61651, 2
61655, 61653, 2
61655, 61654, 2
61648, 61650, 2
61648, 61649, 1
61648, 61651, 2
61648, 61652, 2
61648, 61647, 2
61648, 61646, 2
61646, 61647, 0
61646, 61648, 1
