197578, 197580, 1
197578, 197577, 2
197578, 197579, 3
197580, 197578, 2
197580, 197579, 2
197580, 197582, 2
197580, 197581, 1
197577, 197578, 1
197577, 197576, 2
197577, 197579, 2
197579, 197578, 2
197579, 197580, 2
197579, 197577, 2
197584, 197583, 2
197584, 197582, 2
197584, 197581, 2
197581, 197583, 1
197581, 197580, 2
197581, 197584, 2
197581, 197582, 8
197576, 197577, 1
197583, 197584, 1
197583, 197582, 2
197583, 197581, 2
197582, 197583, 2
197582, 197580, 2
197582, 197584, 2
197582, 197581, 2
