221496, 221497, 2
221496, 221494, 2
221496, 221495, 2
221493, 221497, 2
221493, 221494, 1
221493, 221495, 2
221498, 221497, 2
221497, 221496, 2
221497, 221493, 2
221497, 221498, 1
221497, 221495, 2
221497, 221494, 2
221494, 221496, 3
221494, 221493, 2
221494, 221495, 0
221494, 221497, 1
221495, 221496, 2
221495, 221493, 2
221495, 221494, 2
221495, 221497, 2
