134616, 134612, 2
134616, 134613, 2
134616, 134615, 2
134613, 134616, 2
134613, 134609, 2
134613, 134610, 2
134613, 134614, 2
134613, 134612, 2
134613, 134615, 2
134610, 134609, 2
134610, 134613, 2
134610, 134611, 2
134610, 134612, 2
134614, 134612, 2
134614, 134613, 2
134614, 134615, 1
134612, 134616, 2
134612, 134613, 3
134612, 134610, 2
134612, 134614, 1
134612, 134609, 2
134612, 134615, 2
134612, 134611, 2
134615, 134616, 3
134615, 134613, 2
134615, 134614, 2
134615, 134612, 2
134611, 134612, 2
134611, 134609, 2
134611, 134610, 2
134609, 134612, 1
134609, 134613, 2
134609, 134610, 3
134609, 134611, 8
