132972, 132973, 1
132972, 132974, 2
132973, 132972, 2
132973, 132975, 1
132973, 132974, 0
132973, 132976, 2
132975, 132973, 2
132975, 132976, 0
132975, 132974, 2
132974, 132972, 2
132974, 132973, 2
132974, 132976, 2
132974, 132975, 2
132976, 132973, 2
132976, 132975, 2
132976, 132974, 2
