129018, 129016, 2
129018, 129015, 2
129018, 129017, 2
129018, 129019, 1
129040, 129039, 2
129040, 129044, 2
129040, 129042, 2
129040, 129045, 2
129040, 129038, 2
129040, 129046, 1
129040, 129043, 2
129040, 129041, 0
129025, 129023, 2
129025, 129015, 2
129025, 129019, 2
129025, 129024, 2
129025, 129026, 1
129025, 129022, 2
129021, 129020, 2
129021, 129019, 2
129021, 129015, 2
129021, 129017, 2
129021, 129022, 1
129045, 129040, 2
129045, 129048, 2
129045, 129046, 2
129045, 129047, 2
129045, 129044, 2
129046, 129039, 2
129046, 129040, 2
129046, 129047, 1
129046, 129042, 2
129046, 129045, 2
129046, 129044, 2
129046, 129038, 2
129046, 129043, 2
129046, 129016, 2
129046, 129017, 2
129043, 129040, 2
129043, 129046, 2
129043, 129042, 2
129043, 129044, 1
129016, 129018, 2
129016, 129015, 2
129016, 129029, 2
129016, 129038, 2
129016, 129046, 2
129016, 129033, 2
129016, 129022, 2
129016, 129030, 2
129016, 129023, 2
129016, 129019, 2
129016, 129032, 2
129016, 129020, 2
129016, 129036, 2
129016, 129017, 3
129013, 129012, 2
129013, 129014, 3
129013, 129011, 2
129013, 129015, 1
129037, 129039, 2
129037, 129038, 1
129037, 129034, 2
129037, 129036, 2
129027, 129028, 1
129027, 129023, 2
129027, 129029, 2
129027, 129024, 2
129027, 129034, 2
129027, 129026, 2
129050, 129048, 2
129050, 129049, 2
129050, 129051, 1
129047, 129048, 1
129047, 129046, 2
129047, 129045, 2
129044, 129040, 2
129044, 129046, 2
129044, 129043, 2
129044, 129045, 1
129038, 129039, 0
129038, 129040, 1
129038, 129037, 2
129038, 129046, 2
129038, 129016, 2
129038, 129041, 2
129038, 129017, 2
129051, 129050, 2
129026, 129027, 1
129026, 129015, 2
129026, 129019, 2
129026, 129025, 2
129026, 129024, 2
129026, 129029, 2
129026, 129034, 2
129026, 129023, 2
129012, 129014, 2
129012, 129011, 2
129012, 129015, 2
129012, 129013, 1
129009, 129010, 1
129009, 129011, 2
129009, 129007, 2
129009, 129008, 2
129023, 129027, 2
129023, 129029, 2
129023, 129025, 2
129023, 129024, 1
129023, 129016, 2
129023, 129017, 2
129023, 129026, 2
129023, 129022, 2
129041, 129039, 2
129041, 129040, 2
129041, 129042, 1
129041, 129038, 2
129007, 129009, 1
129007, 129008, 3
129015, 129018, 1
129015, 129025, 2
129015, 129021, 2
129015, 129029, 2
129015, 129011, 2
129015, 129016, 3
129015, 129026, 2
129015, 129022, 2
129015, 129012, 2
129015, 129014, 2
129015, 129034, 2
129015, 129013, 2
129015, 129017, 2
129008, 129009, 2
129008, 129014, 2
129008, 129007, 2
129011, 129012, 1
129011, 129014, 2
129011, 129015, 2
129011, 129009, 2
129011, 129010, 2
129011, 129013, 2
129022, 129025, 2
129022, 129021, 2
129022, 129023, 1
129022, 129019, 2
129022, 129020, 2
129022, 129015, 2
129022, 129017, 2
129022, 129016, 2
129028, 129030, 2
129028, 129024, 2
129028, 129027, 2
129028, 129034, 2
129028, 129029, 2
129030, 129028, 2
129030, 129034, 2
129030, 129029, 2
129030, 129032, 2
129030, 129031, 1
129030, 129024, 2
129030, 129016, 2
129030, 129017, 2
129019, 129018, 2
129019, 129025, 2
129019, 129021, 2
129019, 129020, 1
129019, 129016, 2
129019, 129017, 2
129019, 129026, 2
129019, 129022, 2
129033, 129032, 2
129033, 129035, 1
129033, 129034, 0
129033, 129016, 2
129033, 129017, 2
129024, 129028, 2
129024, 129030, 2
129024, 129027, 2
129024, 129029, 1
129024, 129025, 0
129024, 129023, 2
129024, 129026, 2
129036, 129039, 2
129036, 129037, 1
129036, 129034, 2
129036, 129035, 2
129036, 129016, 2
129036, 129017, 2
129048, 129050, 2
129048, 129049, 1
129048, 129047, 2
129048, 129045, 2
129029, 129028, 2
129029, 129030, 1
129029, 129027, 2
129029, 129015, 2
129029, 129023, 2
129029, 129024, 2
129029, 129017, 2
129029, 129026, 2
129029, 129016, 2
129035, 129033, 2
129035, 129034, 2
129035, 129036, 1
129031, 129032, 1
129031, 129030, 2
129031, 129034, 2
129039, 129040, 2
129039, 129034, 2
129039, 129042, 2
129039, 129037, 2
129039, 129038, 2
129039, 129046, 2
129039, 129036, 2
129039, 129041, 2
129014, 129012, 2
129014, 129008, 2
129014, 129011, 2
129014, 129015, 2
129014, 129013, 2
129020, 129019, 2
129020, 129017, 2
129020, 129021, 1
129020, 129016, 2
129020, 129022, 2
129049, 129050, 1
129049, 129048, 2
129042, 129039, 2
129042, 129040, 2
129042, 129046, 2
129042, 129043, 1
129042, 129041, 2
129032, 129030, 2
129032, 129034, 2
129032, 129031, 2
129032, 129033, 1
129032, 129016, 2
129032, 129017, 2
129010, 129009, 2
129010, 129011, 1
129034, 129039, 2
129034, 129027, 2
129034, 129015, 2
129034, 129037, 2
129034, 129035, 2
129034, 129031, 2
129034, 129026, 2
129034, 129028, 2
129034, 129030, 2
129034, 129032, 2
129034, 129033, 2
129034, 129036, 2
129017, 129018, 2
129017, 129015, 2
129017, 129029, 2
129017, 129038, 2
129017, 129046, 2
129017, 129016, 2
129017, 129033, 2
129017, 129022, 2
129017, 129030, 2
129017, 129023, 2
129017, 129019, 2
129017, 129032, 2
129017, 129020, 2
129017, 129036, 2
129017, 129021, 2
