161225, 161222, 2
161225, 161224, 2
161225, 161223, 2
161225, 161219, 2
161221, 161222, 1
161221, 161223, 2
161221, 161220, 2
161221, 161219, 2
161217, 161219, 2
161217, 161218, 1
161217, 161216, 2
161216, 161219, 2
161216, 161217, 1
161216, 161215, 2
161215, 161219, 2
161215, 161216, 1
161222, 161225, 2
161222, 161221, 2
161222, 161224, 1
161222, 161223, 2
161222, 161219, 2
161220, 161221, 1
161220, 161223, 2
161220, 161219, 2
161219, 161225, 2
161219, 161221, 2
161219, 161217, 2
161219, 161216, 2
161219, 161215, 2
161219, 161220, 2
161219, 161222, 2
161219, 161224, 2
161219, 161223, 1
161219, 161218, 2
161224, 161225, 1
161224, 161219, 2
161224, 161223, 2
161224, 161222, 2
161223, 161225, 2
161223, 161221, 2
161223, 161219, 2
161223, 161222, 2
161223, 161224, 2
161223, 161220, 4
161218, 161219, 1
161218, 161217, 2
