220963, 220964, 2
220963, 220961, 2
220963, 220962, 2
220964, 220963, 2
220964, 220965, 1
220964, 220962, 2
220965, 220964, 2
220965, 220962, 2
220961, 220963, 2
220961, 220962, 1
220962, 220963, 8
220962, 220965, 2
220962, 220961, 2
220962, 220964, 1
