120626, 120623, 2
120626, 120627, 2
120626, 120624, 2
120626, 120621, 2
120626, 120619, 2
120626, 120622, 2
120617, 120625, 2
120617, 120620, 2
120617, 120613, 2
120617, 120616, 2
120617, 120627, 2
120617, 120622, 2
120617, 120621, 2
120617, 120619, 2
120617, 120615, 2
120617, 120618, 1
120613, 120617, 2
120613, 120616, 1
120613, 120614, 3
120613, 120611, 2
120613, 120612, 2
120613, 120615, 2
120616, 120617, 1
120616, 120613, 2
120616, 120615, 2
120623, 120626, 2
120623, 120620, 2
120623, 120627, 1
120623, 120624, 6
120623, 120622, 2
120623, 120621, 2
120623, 120625, 4
120623, 120619, 2
120627, 120626, 2
120627, 120625, 2
120627, 120620, 2
120627, 120623, 2
120627, 120624, 2
120627, 120617, 2
120627, 120622, 2
120611, 120613, 2
120611, 120612, 1
120612, 120611, 2
120612, 120613, 1
120612, 120614, 2
120618, 120625, 2
120618, 120620, 4
120618, 120624, 2
120618, 120617, 2
120618, 120621, 2
120618, 120619, 6
120618, 120622, 1
120615, 120617, 2
120615, 120613, 2
120615, 120616, 2
120615, 120614, 2
120619, 120626, 2
120619, 120617, 2
120619, 120623, 2
120619, 120624, 2
120619, 120621, 3
120619, 120618, 2
120619, 120622, 2
120620, 120625, 2
120620, 120617, 2
120620, 120623, 2
120620, 120627, 2
120620, 120618, 2
120620, 120622, 2
120614, 120613, 2
120614, 120612, 2
120614, 120615, 1
120624, 120626, 3
120624, 120623, 2
120624, 120627, 2
120624, 120622, 2
120624, 120621, 2
120624, 120618, 2
120624, 120619, 2
120621, 120626, 2
120621, 120617, 2
120621, 120623, 2
120621, 120624, 2
120621, 120622, 2
120621, 120619, 2
120621, 120618, 2
120625, 120617, 2
120625, 120623, 2
120625, 120627, 2
120625, 120622, 2
120625, 120620, 2
120625, 120618, 2
120622, 120626, 2
120622, 120619, 2
120622, 120620, 2
120622, 120623, 1
120622, 120627, 2
120622, 120624, 2
120622, 120618, 2
120622, 120621, 2
120622, 120617, 2
120622, 120625, 2
