197466, 197465, 2
197466, 197468, 1
197466, 197467, 3
197464, 197465, 2
197464, 197467, 2
197464, 197463, 2
197468, 197466, 2
197468, 197470, 2
197468, 197469, 1
197468, 197467, 2
197465, 197466, 1
197465, 197464, 2
197465, 197463, 2
197470, 197468, 2
197470, 197469, 2
197469, 197470, 1
197469, 197468, 2
197467, 197466, 2
197467, 197464, 2
197467, 197468, 2
197463, 197465, 1
197463, 197464, 3
