300014, 300015, 1
300014, 300017, 2
300015, 300014, 2
300015, 300017, 2
300015, 300016, 1
300018, 300017, 2
300018, 300016, 2
300017, 300014, 2
300017, 300015, 2
300017, 300018, 2
300017, 300016, 2
300016, 300015, 2
300016, 300018, 1
300016, 300017, 3
