295457, 295456, 2
295457, 295461, 2
295457, 295455, 2
295457, 295453, 2
295457, 295460, 2
295457, 295459, 2
295457, 295458, 2
295457, 295449, 2
295453, 295451, 2
295453, 295457, 2
295453, 295454, 1
295453, 295450, 2
295453, 295452, 2
295453, 295449, 2
295460, 295462, 1
295460, 295458, 2
295460, 295457, 2
295460, 295461, 6
295460, 295459, 2
295459, 295462, 2
295459, 295457, 2
295459, 295460, 2
295459, 295456, 2
295459, 295461, 2
295459, 295458, 2
295462, 295458, 2
295462, 295461, 2
295462, 295460, 2
295462, 295459, 2
295461, 295458, 2
295461, 295457, 2
295461, 295455, 2
295461, 295460, 2
295461, 295459, 2
295461, 295462, 2
295461, 295456, 2
295451, 295449, 2
295451, 295453, 2
295451, 295450, 2
295455, 295456, 1
295455, 295457, 2
295455, 295461, 2
295455, 295454, 2
295454, 295455, 1
295454, 295453, 2
295450, 295451, 6
295450, 295452, 3
295450, 295449, 2
295450, 295453, 1
295458, 295462, 2
295458, 295457, 6
295458, 295460, 1
295458, 295459, 8
295458, 295456, 2
295458, 295461, 2
295452, 295449, 2
295452, 295453, 2
295452, 295450, 2
295449, 295451, 2
295449, 295452, 2
295449, 295453, 2
295449, 295457, 2
295449, 295450, 1
295456, 295458, 1
295456, 295457, 2
295456, 295455, 2
295456, 295461, 2
295456, 295459, 2
