71667, 71668, 2
71667, 71666, 2
71667, 71670, 2
71668, 71667, 2
71668, 71669, 1
71668, 71666, 2
71668, 71672, 2
71668, 71670, 2
71670, 71667, 2
71670, 71669, 2
71670, 71672, 2
71670, 71671, 2
71670, 71666, 2
71670, 71668, 2
71672, 71671, 2
71672, 71669, 2
71672, 71670, 2
71672, 71668, 2
71671, 71669, 2
71671, 71670, 2
71671, 71672, 2
71666, 71667, 0
71666, 71668, 1
71666, 71670, 2
71669, 71671, 0
71669, 71668, 2
71669, 71670, 6
71669, 71672, 1
