196981, 196983, 1
196981, 196982, 3
196981, 196980, 2
196979, 196980, 1
196982, 196983, 2
196982, 196981, 2
196982, 196980, 2
196980, 196981, 1
196980, 196979, 2
196980, 196982, 2
196980, 196983, 2
196983, 196981, 2
196983, 196982, 2
196983, 196980, 2
