66631, 66636, 2
66631, 66633, 8
66631, 66632, 3
66631, 66630, 2
66631, 66634, 1
66646, 66645, 2
66646, 66643, 2
66646, 66648, 2
66646, 66647, 2
66646, 66644, 2
66642, 66641, 2
66642, 66643, 2
66642, 66639, 2
66642, 66640, 2
66630, 66631, 1
66630, 66632, 2
66630, 66629, 2
66630, 66634, 2
66635, 66636, 2
66635, 66632, 2
66635, 66633, 2
66635, 66634, 2
66638, 66641, 2
66638, 66636, 2
66638, 66639, 1
66638, 66637, 2
66638, 66640, 2
66637, 66636, 2
66637, 66638, 1
66647, 66649, 8
66647, 66646, 2
66647, 66650, 1
66647, 66645, 2
66647, 66643, 2
66647, 66648, 3
66647, 66652, 2
66649, 66651, 2
66649, 66648, 2
66649, 66647, 2
66649, 66650, 2
66650, 66649, 2
66650, 66653, 1
66650, 66651, 3
66650, 66643, 2
66650, 66648, 2
66650, 66647, 2
66650, 66652, 0
66651, 66649, 2
66651, 66653, 2
66651, 66648, 2
66651, 66650, 2
66651, 66652, 2
66645, 66646, 3
66645, 66643, 2
66645, 66644, 2
66645, 66647, 1
66645, 66652, 2
66643, 66641, 2
66643, 66642, 2
66643, 66650, 2
66643, 66646, 2
66643, 66644, 4
66643, 66645, 1
66643, 66640, 2
66643, 66639, 2
66643, 66647, 2
66643, 66652, 2
66652, 66650, 2
66652, 66651, 2
66652, 66645, 2
66652, 66643, 2
66652, 66648, 2
66652, 66647, 2
66652, 66653, 2
66641, 66643, 2
66641, 66638, 2
66641, 66639, 2
66641, 66642, 2
66641, 66640, 2
66632, 66631, 2
66632, 66630, 2
66632, 66635, 2
66632, 66633, 2
66632, 66634, 2
66629, 66630, 1
66639, 66641, 3
66639, 66643, 1
66639, 66638, 2
66639, 66642, 8
66639, 66640, 0
66644, 66646, 2
66644, 66643, 2
66644, 66645, 2
66653, 66650, 2
66653, 66651, 2
66653, 66652, 2
66633, 66631, 2
66633, 66632, 2
66633, 66635, 2
66633, 66634, 2
66640, 66641, 2
66640, 66643, 2
66640, 66638, 2
66640, 66642, 2
66640, 66639, 2
66636, 66631, 2
66636, 66638, 2
66636, 66637, 1
66636, 66635, 2
66636, 66634, 2
66648, 66649, 2
66648, 66646, 2
66648, 66650, 2
66648, 66651, 2
66648, 66647, 2
66648, 66652, 2
66634, 66631, 2
66634, 66633, 2
66634, 66635, 3
66634, 66630, 2
66634, 66636, 1
66634, 66632, 2
