221407, 221406, 2
221407, 221408, 1
221405, 221404, 2
221405, 221403, 2
221405, 221406, 1
221404, 221403, 2
221404, 221405, 1
221403, 221404, 1
221403, 221405, 2
221406, 221407, 1
221406, 221405, 2
221408, 221407, 2
