301049, 301047, 2
301049, 301050, 1
301049, 301048, 2
301053, 301052, 2
301052, 301053, 1
301052, 301051, 2
301047, 301049, 1
301047, 301048, 3
301051, 301052, 1
301051, 301050, 2
301050, 301049, 2
301050, 301051, 1
301048, 301049, 2
301048, 301047, 2
