169752, 169743, 2
169752, 169754, 1
169752, 169755, 2
169752, 169746, 2
169752, 169749, 2
169752, 169748, 2
169736, 169734, 2
169736, 169735, 2
169736, 169732, 2
169736, 169742, 2
169736, 169737, 1
169735, 169736, 2
169735, 169738, 2
169735, 169742, 2
169735, 169734, 2
169735, 169737, 2
169735, 169746, 2
169735, 169749, 2
169735, 169739, 2
169735, 169732, 2
169757, 169763, 2
169757, 169759, 2
169757, 169754, 2
169757, 169755, 2
169757, 169762, 2
169757, 169758, 2
169757, 169764, 2
169757, 169748, 2
169757, 169761, 2
169757, 169756, 2
169757, 169760, 2
169757, 169766, 2
169757, 169743, 2
169757, 169765, 2
169729, 169724, 2
169729, 169728, 2
169729, 169730, 2
169729, 169731, 2
169729, 169741, 2
169729, 169722, 2
169729, 169732, 2
169764, 169763, 2
169764, 169757, 2
169764, 169762, 2
169764, 169766, 2
169764, 169754, 2
169764, 169765, 2
169730, 169726, 2
169730, 169729, 2
169730, 169731, 2
169730, 169722, 2
169730, 169742, 2
169730, 169732, 2
169766, 169763, 2
169766, 169757, 2
169766, 169756, 2
169766, 169753, 2
169766, 169764, 2
169766, 169762, 2
169766, 169754, 2
169766, 169743, 2
169766, 169765, 2
169766, 169759, 2
169766, 169761, 2
169733, 169734, 1
169733, 169750, 2
169733, 169741, 2
169733, 169732, 2
169750, 169747, 2
169750, 169755, 2
169750, 169748, 2
169750, 169737, 2
169750, 169741, 2
169750, 169732, 2
169750, 169734, 2
169750, 169738, 2
169750, 169744, 2
169750, 169733, 2
169750, 169746, 2
169750, 169745, 2
169750, 169743, 2
169750, 169751, 1
169740, 169738, 2
169740, 169743, 1
169740, 169739, 2
169740, 169747, 2
169740, 169746, 2
169740, 169745, 2
169740, 169744, 2
169740, 169741, 2
169740, 169742, 2
169726, 169714, 2
169726, 169721, 2
169726, 169719, 2
169726, 169720, 2
169726, 169730, 2
169726, 169713, 2
169726, 169731, 2
169726, 169722, 2
169726, 169732, 2
169720, 169718, 2
169720, 169726, 2
169720, 169721, 1
169720, 169719, 2
169720, 169723, 2
169720, 169731, 2
169720, 169722, 2
169761, 169763, 2
169761, 169757, 2
169761, 169753, 2
169761, 169766, 2
169761, 169755, 2
169761, 169762, 2
169761, 169765, 2
169761, 169760, 2
169761, 169759, 2
169715, 169714, 2
169715, 169716, 1
169759, 169757, 2
169759, 169756, 2
169759, 169753, 2
169759, 169766, 2
169759, 169755, 2
169759, 169762, 2
169759, 169758, 2
169759, 169743, 2
169759, 169760, 1
169759, 169761, 2
169714, 169712, 2
169714, 169726, 2
169714, 169713, 2
169714, 169723, 2
169714, 169715, 1
169714, 169716, 2
169714, 169717, 2
169723, 169714, 2
169723, 169712, 2
169723, 169711, 2
169723, 169718, 2
169723, 169721, 2
169723, 169724, 1
169723, 169720, 2
169723, 169716, 2
169723, 169717, 2
169723, 169722, 2
169760, 169762, 2
169760, 169757, 2
169760, 169759, 2
169760, 169761, 1
169728, 169721, 2
169728, 169729, 0
169728, 169727, 2
169728, 169724, 2
169728, 169731, 2
169728, 169741, 2
169728, 169722, 2
169728, 169732, 2
169727, 169724, 2
169727, 169722, 2
169727, 169725, 2
169727, 169728, 2
169744, 169740, 2
169744, 169750, 2
169744, 169743, 2
169744, 169746, 1
169744, 169748, 2
169744, 169751, 2
169744, 169742, 2
169716, 169714, 2
169716, 169715, 2
169716, 169717, 1
169716, 169723, 2
169756, 169748, 2
169756, 169757, 2
169756, 169751, 2
169756, 169759, 2
169756, 169766, 2
169756, 169755, 2
169756, 169762, 2
169756, 169758, 1
169756, 169743, 2
169756, 169753, 2
169749, 169752, 1
169749, 169735, 2
169749, 169743, 2
169749, 169742, 2
169749, 169747, 2
169749, 169755, 2
169749, 169746, 2
169749, 169745, 2
169749, 169748, 2
169749, 169739, 2
169749, 169732, 2
169713, 169714, 2
169713, 169712, 2
169713, 169726, 2
169765, 169763, 2
169765, 169762, 2
169765, 169757, 2
169765, 169753, 2
169765, 169764, 2
169765, 169766, 2
169765, 169761, 2
169739, 169740, 2
169739, 169735, 2
169739, 169743, 2
169739, 169749, 2
169739, 169746, 2
169739, 169741, 2
169739, 169738, 2
169739, 169742, 2
169753, 169765, 2
169753, 169743, 2
169753, 169759, 2
169753, 169755, 2
169753, 169766, 2
169753, 169758, 2
169753, 169756, 2
169753, 169748, 2
169753, 169751, 2
169753, 169761, 2
169724, 169721, 2
169724, 169729, 2
169724, 169725, 4
169724, 169723, 2
169724, 169731, 2
169724, 169741, 2
169724, 169722, 2
169724, 169728, 1
169724, 169727, 2
169747, 169740, 2
169747, 169750, 2
169747, 169745, 2
169747, 169749, 2
169747, 169741, 2
169747, 169743, 2
169747, 169748, 2
169747, 169738, 2
169747, 169746, 2
169754, 169752, 2
169754, 169757, 2
169754, 169743, 2
169754, 169764, 2
169754, 169755, 2
169754, 169762, 2
169754, 169758, 2
169754, 169748, 2
169754, 169766, 2
169731, 169726, 2
169731, 169721, 2
169731, 169719, 2
169731, 169729, 2
169731, 169728, 2
169731, 169730, 4
169731, 169720, 2
169731, 169732, 1
169731, 169722, 2
169731, 169724, 2
169741, 169750, 2
169741, 169729, 2
169741, 169747, 2
169741, 169728, 2
169741, 169733, 2
169741, 169748, 2
169741, 169742, 2
169741, 169732, 2
169741, 169740, 2
169741, 169734, 2
169741, 169738, 2
169741, 169745, 1
169741, 169737, 2
169741, 169743, 2
169741, 169739, 2
169741, 169724, 2
169742, 169736, 2
169742, 169735, 2
169742, 169730, 2
169742, 169755, 2
169742, 169741, 2
169742, 169748, 2
169742, 169732, 2
169742, 169740, 2
169742, 169734, 2
169742, 169738, 2
169742, 169744, 1
169742, 169749, 2
169742, 169746, 2
169742, 169743, 2
169742, 169739, 2
169712, 169714, 1
169712, 169711, 2
169712, 169713, 3
169712, 169723, 2
169734, 169736, 1
169734, 169735, 3
169734, 169733, 2
169734, 169737, 2
169734, 169741, 2
169734, 169750, 2
169734, 169742, 2
169734, 169732, 2
169738, 169740, 1
169738, 169735, 2
169738, 169743, 2
169738, 169742, 2
169738, 169747, 2
169738, 169737, 2
169738, 169745, 2
169738, 169741, 2
169738, 169750, 2
169738, 169739, 3
169738, 169746, 2
169745, 169740, 2
169745, 169738, 2
169745, 169743, 2
169745, 169747, 1
169745, 169749, 2
169745, 169748, 2
169745, 169741, 2
169745, 169750, 2
169719, 169718, 2
169719, 169726, 2
169719, 169722, 2
169719, 169731, 2
169719, 169720, 2
169746, 169752, 2
169746, 169735, 2
169746, 169747, 2
169746, 169748, 2
169746, 169750, 2
169746, 169742, 2
169746, 169740, 2
169746, 169738, 2
169746, 169743, 2
169746, 169749, 2
169746, 169744, 2
169746, 169739, 2
169722, 169721, 2
169722, 169729, 2
169722, 169723, 6
169722, 169730, 2
169722, 169731, 1
169722, 169728, 2
169722, 169727, 2
169722, 169726, 4
169722, 169719, 2
169722, 169720, 2
169722, 169732, 2
169722, 169725, 2
169722, 169724, 2
169710, 169711, 1
169763, 169762, 2
169763, 169757, 2
169763, 169764, 3
169763, 169766, 1
169763, 169765, 0
169763, 169761, 2
169721, 169723, 2
169721, 169726, 2
169721, 169724, 2
169721, 169720, 2
169721, 169731, 2
169721, 169722, 1
169721, 169728, 2
169755, 169752, 2
169755, 169750, 2
169755, 169757, 3
169755, 169759, 2
169755, 169754, 2
169755, 169762, 1
169755, 169758, 2
169755, 169748, 2
169755, 169742, 2
169755, 169761, 2
169755, 169756, 0
169755, 169753, 2
169755, 169749, 2
169755, 169751, 2
169755, 169743, 2
169762, 169763, 1
169762, 169757, 2
169762, 169756, 2
169762, 169759, 2
169762, 169764, 2
169762, 169755, 2
169762, 169760, 2
169762, 169754, 2
169762, 169765, 2
169762, 169766, 2
169762, 169761, 2
169758, 169757, 2
169758, 169756, 2
169758, 169759, 1
169758, 169754, 2
169758, 169755, 2
169758, 169753, 2
169748, 169752, 2
169748, 169750, 6
169748, 169757, 2
169748, 169747, 2
169748, 169754, 2
169748, 169755, 1
169748, 169741, 2
169748, 169742, 2
169748, 169756, 2
169748, 169753, 2
169748, 169749, 4
169748, 169744, 2
169748, 169745, 2
169748, 169743, 2
169748, 169751, 2
169748, 169746, 2
169717, 169714, 2
169717, 169716, 2
169717, 169718, 1
169717, 169723, 2
169732, 169733, 1
169732, 169736, 2
169732, 169735, 2
169732, 169729, 2
169732, 169728, 2
169732, 169730, 2
169732, 169731, 2
169732, 169741, 2
169732, 169750, 2
169732, 169742, 2
169732, 169734, 2
169732, 169726, 2
169732, 169749, 2
169732, 169737, 2
169732, 169722, 2
169711, 169712, 1
169711, 169710, 2
169711, 169723, 2
169718, 169723, 2
169718, 169719, 3
169718, 169717, 2
169718, 169720, 1
169751, 169750, 2
169751, 169743, 2
169751, 169753, 1
169751, 169755, 2
169751, 169744, 2
169751, 169756, 2
169751, 169748, 2
169725, 169724, 2
169725, 169722, 2
169725, 169727, 1
169737, 169736, 2
169737, 169735, 2
169737, 169734, 2
169737, 169741, 2
169737, 169738, 1
169737, 169750, 2
169737, 169732, 2
169743, 169752, 2
169743, 169750, 2
169743, 169757, 2
169743, 169759, 2
169743, 169747, 2
169743, 169754, 2
169743, 169755, 2
169743, 169748, 1
169743, 169741, 6
169743, 169742, 4
169743, 169740, 2
169743, 169738, 2
169743, 169756, 2
169743, 169753, 2
169743, 169749, 2
169743, 169746, 2
169743, 169745, 2
169743, 169744, 2
169743, 169751, 2
169743, 169739, 2
169743, 169766, 2
