333133, 333134, 1
333133, 333131, 2
333133, 333135, 2
333133, 333132, 2
333127, 333128, 1
333127, 333126, 2
333129, 333131, 1
333129, 333128, 2
333129, 333132, 2
333129, 333130, 8
333131, 333133, 1
333131, 333128, 2
333131, 333129, 2
333131, 333132, 0
333131, 333130, 2
333126, 333125, 2
333126, 333127, 1
333125, 333126, 1
333128, 333131, 2
333128, 333127, 2
333128, 333129, 1
333128, 333132, 2
333128, 333130, 2
333135, 333134, 2
333135, 333133, 2
333132, 333133, 2
333132, 333131, 2
333132, 333129, 2
333132, 333128, 2
333134, 333133, 2
333134, 333135, 1
333130, 333131, 2
333130, 333128, 2
333130, 333129, 2
