258694, 258695, 1
258694, 258693, 2
258694, 258696, 2
258691, 258695, 2
258691, 258692, 1
258692, 258693, 1
258692, 258691, 2
258695, 258693, 2
258695, 258694, 2
258695, 258696, 1
258695, 258691, 2
258693, 258695, 2
258693, 258694, 1
258693, 258696, 2
258693, 258692, 2
258696, 258695, 2
258696, 258694, 2
258696, 258693, 2
