123931, 123932, 2
123931, 123930, 2
123931, 123947, 2
123931, 123938, 2
123931, 123935, 2
123931, 123946, 2
123931, 123929, 2
123931, 123933, 2
123931, 123939, 2
123931, 123937, 2
123931, 123944, 2
123931, 123943, 2
123930, 123929, 2
123930, 123931, 3
123930, 123932, 2
123930, 123933, 2
123930, 123939, 2
123930, 123944, 2
123930, 123947, 2
123930, 123935, 2
123930, 123943, 2
123930, 123946, 2
123927, 123929, 1
123927, 123928, 3
123927, 123926, 2
123942, 123947, 2
123942, 123938, 2
123942, 123935, 2
123942, 123934, 2
123942, 123945, 2
123942, 123929, 2
123942, 123940, 2
123942, 123933, 2
123942, 123939, 2
123942, 123944, 2
123942, 123943, 2
123942, 123941, 2
123942, 123946, 2
123935, 123931, 2
123935, 123930, 2
123935, 123933, 2
123935, 123936, 1
123935, 123942, 2
123935, 123937, 2
123935, 123938, 2
123935, 123934, 2
123934, 123942, 2
123934, 123935, 1
123934, 123933, 2
123926, 123929, 2
123926, 123928, 2
123926, 123927, 1
123929, 123931, 2
123929, 123932, 1
123929, 123930, 3
123929, 123928, 2
123929, 123927, 2
123929, 123942, 2
123929, 123933, 2
123929, 123926, 2
123949, 123950, 1
123949, 123951, 2
123949, 123947, 2
123949, 123948, 2
123933, 123929, 2
123933, 123931, 2
123933, 123932, 2
123933, 123930, 2
123933, 123942, 2
123933, 123935, 2
123933, 123934, 1
123936, 123937, 8
123936, 123938, 1
123936, 123935, 2
123950, 123949, 2
123950, 123951, 1
123945, 123942, 2
123945, 123944, 2
123945, 123946, 1
123944, 123931, 2
123944, 123930, 2
123944, 123942, 2
123944, 123943, 2
123944, 123941, 2
123944, 123946, 2
123944, 123945, 1
123948, 123949, 1
123948, 123947, 2
123932, 123929, 2
123932, 123931, 2
123932, 123930, 2
123932, 123933, 1
123928, 123929, 2
123928, 123927, 2
123928, 123926, 2
123941, 123942, 0
123941, 123944, 2
123941, 123940, 2
123941, 123943, 1
123941, 123939, 2
123938, 123931, 2
123938, 123939, 1
123938, 123936, 2
123938, 123942, 2
123938, 123937, 2
123938, 123935, 2
123951, 123950, 2
123951, 123949, 2
123951, 123952, 1
123946, 123931, 2
123946, 123930, 2
123946, 123942, 2
123946, 123947, 1
123946, 123944, 2
123946, 123945, 2
123940, 123942, 2
123940, 123943, 2
123940, 123941, 2
123940, 123939, 2
123939, 123931, 2
123939, 123940, 8
123939, 123930, 2
123939, 123942, 2
123939, 123937, 2
123939, 123938, 2
123939, 123941, 1
123939, 123943, 2
123947, 123931, 2
123947, 123930, 2
123947, 123949, 2
123947, 123942, 2
123947, 123946, 2
123947, 123948, 1
123937, 123931, 2
123937, 123938, 2
123937, 123935, 2
123937, 123939, 2
123937, 123936, 2
123952, 123951, 2
123943, 123931, 2
123943, 123940, 2
123943, 123930, 2
123943, 123939, 2
123943, 123942, 2
123943, 123944, 1
123943, 123941, 2
