217409, 217408, 2
217409, 217413, 2
217409, 217410, 2
217409, 217411, 2
217409, 217407, 2
217414, 217413, 2
217414, 217415, 0
217414, 217411, 2
217414, 217412, 2
217414, 217416, 1
217410, 217409, 2
217410, 217408, 2
217410, 217413, 2
217410, 217411, 2
217406, 217405, 2
217406, 217407, 1
217406, 217403, 2
217406, 217404, 2
217403, 217405, 1
217403, 217406, 2
217403, 217404, 0
217405, 217407, 2
217405, 217406, 1
217405, 217403, 2
217405, 217404, 2
217412, 217415, 2
217412, 217413, 2
217412, 217414, 2
217412, 217411, 2
217412, 217408, 2
217415, 217412, 2
217415, 217414, 2
217415, 217416, 2
217408, 217409, 3
217408, 217412, 2
217408, 217410, 8
217408, 217411, 1
217408, 217407, 2
217411, 217409, 2
217411, 217408, 2
217411, 217410, 2
217411, 217412, 0
217411, 217414, 1
217411, 217413, 8
217411, 217416, 2
217413, 217409, 2
217413, 217410, 2
217413, 217411, 2
217413, 217412, 2
217413, 217414, 2
217413, 217416, 2
217407, 217409, 2
217407, 217408, 1
217407, 217405, 2
217407, 217406, 2
217407, 217404, 2
217404, 217405, 2
217404, 217406, 2
217404, 217407, 2
217404, 217403, 2
217416, 217415, 2
217416, 217413, 2
217416, 217414, 2
217416, 217411, 2
