300332, 300333, 8
300332, 300331, 2
300332, 300334, 1
300332, 300335, 2
300334, 300332, 2
300334, 300333, 2
300334, 300336, 1
300334, 300335, 6
300335, 300332, 2
300335, 300333, 2
300335, 300336, 2
300335, 300334, 2
300335, 300331, 2
300333, 300332, 2
300333, 300334, 2
300333, 300335, 2
300331, 300332, 1
300331, 300335, 2
300336, 300334, 2
300336, 300335, 2
