197242, 197243, 2
197242, 197241, 2
197243, 197244, 1
197243, 197242, 2
197243, 197241, 2
197241, 197242, 3
197241, 197243, 1
197245, 197244, 2
197245, 197246, 1
197245, 197247, 2
197244, 197245, 1
197244, 197243, 2
197246, 197245, 2
197246, 197247, 1
197247, 197245, 2
197247, 197246, 2
