341261, 341260, 2
341257, 341259, 1
341257, 341258, 8
341257, 341256, 2
341254, 341256, 2
341254, 341255, 1
341260, 341258, 2
341260, 341259, 2
341260, 341261, 1
341259, 341260, 1
341259, 341258, 2
341259, 341256, 2
341259, 341257, 2
341258, 341259, 2
341258, 341260, 2
341258, 341256, 2
341258, 341257, 2
341256, 341259, 2
341256, 341255, 2
341256, 341258, 2
341256, 341257, 1
341256, 341254, 2
341255, 341256, 1
341255, 341254, 2
