295545, 295544, 2
295545, 295542, 2
295545, 295546, 3
295535, 295533, 2
295535, 295534, 2
295535, 295538, 2
295535, 295536, 2
295533, 295534, 6
295533, 295542, 2
295533, 295535, 3
295533, 295536, 1
295542, 295544, 2
295542, 295543, 2
295542, 295541, 2
295542, 295539, 2
295542, 295537, 2
295542, 295533, 2
295542, 295540, 2
295542, 295534, 2
295542, 295545, 2
295542, 295536, 2
295536, 295538, 2
295536, 295539, 2
295536, 295535, 2
295536, 295537, 1
295536, 295533, 2
295536, 295534, 2
295536, 295542, 2
295544, 295545, 1
295544, 295541, 2
295544, 295534, 2
295544, 295542, 2
295544, 295546, 2
295544, 295543, 2
295538, 295540, 2
295538, 295536, 2
295538, 295535, 2
295538, 295539, 2
295538, 295537, 2
295543, 295544, 2
295543, 295540, 2
295543, 295542, 2
295543, 295546, 2
295543, 295541, 2
295541, 295544, 1
295541, 295543, 3
295541, 295539, 2
295541, 295537, 2
295541, 295534, 2
295541, 295540, 2
295541, 295542, 6
295539, 295538, 2
295539, 295541, 1
295539, 295537, 2
295539, 295540, 3
295539, 295542, 2
295539, 295536, 2
295537, 295538, 3
295537, 295541, 2
295537, 295539, 1
295537, 295534, 2
295537, 295540, 2
295537, 295542, 2
295537, 295536, 2
295534, 295544, 2
295534, 295541, 2
295534, 295535, 2
295534, 295537, 2
295534, 295533, 2
295534, 295542, 2
295534, 295536, 2
295540, 295538, 2
295540, 295543, 2
295540, 295541, 2
295540, 295539, 2
295540, 295537, 2
295540, 295542, 2
295546, 295544, 2
295546, 295545, 2
295546, 295543, 2
