216700, 216699, 2
216700, 216703, 2
216700, 216702, 2
216700, 216701, 2
216699, 216698, 2
216699, 216700, 0
216699, 216701, 1
216699, 216697, 2
216699, 216702, 2
216699, 216696, 2
216697, 216698, 2
216697, 216699, 2
216697, 216696, 2
216702, 216698, 2
216702, 216700, 2
216702, 216699, 2
216702, 216701, 2
216702, 216703, 1
216703, 216698, 2
216703, 216700, 2
216703, 216702, 2
216703, 216704, 1
216698, 216699, 2
216698, 216701, 2
216698, 216697, 2
216698, 216703, 2
216698, 216702, 2
216698, 216696, 2
216707, 216705, 2
216707, 216706, 2
216706, 216705, 2
216706, 216707, 2
216706, 216704, 2
216701, 216698, 2
216701, 216700, 2
216701, 216699, 2
216701, 216702, 1
216705, 216704, 2
216705, 216707, 1
216705, 216706, 3
216704, 216705, 1
216704, 216706, 2
216704, 216703, 2
216696, 216697, 0
216696, 216698, 8
216696, 216699, 1
