134770, 134772, 2
134770, 134771, 1
134770, 134769, 2
134775, 134772, 2
134775, 134773, 2
134775, 134774, 2
134769, 134770, 1
134773, 134772, 2
134773, 134775, 2
134773, 134774, 1
134772, 134771, 2
134772, 134773, 1
134772, 134775, 2
134772, 134770, 2
134771, 134772, 1
134771, 134770, 2
134774, 134773, 2
134774, 134775, 3
