125042, 125040, 2
125042, 125045, 2
125042, 125043, 8
125042, 125041, 6
125042, 125044, 1
125052, 125050, 2
125052, 125051, 2
125052, 125054, 2
125052, 125053, 1
125068, 125067, 2
125068, 125065, 2
125066, 125067, 1
125066, 125065, 2
125066, 125064, 2
125041, 125040, 2
125041, 125054, 2
125041, 125042, 2
125041, 125044, 2
125041, 125056, 2
125041, 125043, 2
125041, 125045, 2
125045, 125042, 2
125045, 125046, 1
125045, 125043, 2
125045, 125041, 2
125045, 125044, 2
125040, 125042, 1
125040, 125041, 2
125040, 125039, 2
125056, 125054, 2
125056, 125049, 2
125056, 125055, 2
125056, 125058, 2
125056, 125057, 1
125056, 125041, 2
125047, 125046, 2
125047, 125048, 1
125065, 125068, 2
125065, 125066, 2
125065, 125067, 2
125065, 125061, 2
125065, 125064, 2
125065, 125060, 2
125050, 125051, 2
125050, 125054, 2
125050, 125052, 2
125050, 125049, 2
125050, 125048, 2
125058, 125063, 2
125058, 125056, 2
125058, 125062, 2
125058, 125059, 1
125058, 125061, 2
125058, 125055, 2
125058, 125057, 2
125058, 125064, 2
125058, 125060, 2
125058, 125054, 2
125060, 125065, 2
125060, 125058, 2
125060, 125063, 2
125060, 125061, 2
125060, 125064, 2
125060, 125059, 2
125062, 125058, 2
125062, 125064, 2
125062, 125059, 2
125044, 125042, 2
125044, 125043, 2
125044, 125041, 2
125044, 125045, 1
125061, 125059, 2
125061, 125065, 2
125061, 125058, 2
125061, 125063, 3
125061, 125064, 2
125061, 125060, 6
125055, 125058, 2
125055, 125056, 2
125055, 125057, 2
125055, 125054, 2
125064, 125065, 0
125064, 125062, 2
125064, 125066, 1
125064, 125067, 2
125064, 125058, 2
125064, 125059, 2
125064, 125061, 2
125064, 125060, 2
125064, 125063, 2
125049, 125050, 8
125049, 125051, 1
125049, 125054, 2
125049, 125056, 2
125049, 125048, 2
125039, 125040, 1
125054, 125056, 0
125054, 125052, 2
125054, 125041, 2
125054, 125055, 3
125054, 125050, 2
125054, 125058, 1
125054, 125057, 2
125054, 125053, 2
125054, 125049, 2
125043, 125042, 2
125043, 125045, 2
125043, 125041, 2
125043, 125044, 2
125046, 125048, 2
125046, 125047, 1
125046, 125045, 2
125059, 125062, 4
125059, 125058, 2
125059, 125063, 2
125059, 125061, 6
125059, 125064, 1
125059, 125060, 2
125067, 125065, 2
125067, 125064, 2
125067, 125068, 1
125067, 125066, 2
125051, 125050, 2
125051, 125052, 1
125051, 125049, 2
125063, 125058, 2
125063, 125061, 2
125063, 125064, 2
125063, 125060, 2
125063, 125059, 2
125057, 125058, 2
125057, 125056, 2
125057, 125054, 2
125057, 125055, 2
125053, 125054, 1
125053, 125052, 2
125048, 125050, 2
125048, 125047, 2
125048, 125049, 1
125048, 125046, 2
