171924, 171923, 2
171924, 171925, 1
171923, 171924, 1
171923, 171922, 2
171923, 171925, 2
171929, 171927, 2
171929, 171928, 2
171929, 171926, 2
171928, 171927, 2
171928, 171929, 1
171927, 171929, 2
171927, 171928, 1
171927, 171926, 2
171922, 171923, 1
171925, 171924, 2
171925, 171923, 2
171925, 171926, 1
171926, 171927, 1
171926, 171929, 2
171926, 171925, 2
