256149, 256146, 2
256149, 256147, 2
256149, 256150, 8
256149, 256153, 2
256149, 256148, 2
256149, 256151, 1
256147, 256149, 2
256147, 256158, 2
256147, 256163, 2
256147, 256167, 2
256147, 256160, 2
256147, 256151, 2
256147, 256146, 2
256147, 256161, 2
256147, 256152, 4
256147, 256168, 2
256147, 256145, 2
256147, 256150, 2
256147, 256164, 2
256147, 256155, 2
256147, 256154, 2
256147, 256166, 2
256147, 256148, 6
256147, 256156, 2
256147, 256169, 2
256147, 256159, 2
256147, 256165, 2
256147, 256157, 2
256147, 256153, 2
256147, 256162, 2
256158, 256155, 2
256158, 256146, 2
256158, 256147, 2
256158, 256157, 2
256158, 256160, 1
256163, 256147, 2
256163, 256167, 2
256163, 256166, 0
256163, 256160, 2
256144, 256145, 1
256144, 256148, 2
256144, 256143, 2
256157, 256155, 2
256157, 256147, 2
256157, 256158, 2
256145, 256146, 1
256145, 256147, 2
256145, 256150, 2
256145, 256152, 2
256145, 256144, 2
256145, 256148, 2
256151, 256149, 2
256151, 256148, 2
256151, 256147, 2
256151, 256153, 2
256151, 256150, 2
256146, 256149, 2
256146, 256147, 1
256146, 256158, 2
256146, 256150, 2
256146, 256152, 2
256146, 256159, 2
256146, 256153, 2
256146, 256148, 2
256146, 256145, 2
256161, 256159, 2
256161, 256147, 2
256161, 256165, 2
256161, 256164, 2
256161, 256162, 0
256152, 256146, 2
256152, 256147, 2
256152, 256156, 2
256152, 256141, 2
256152, 256154, 1
256152, 256143, 2
256152, 256145, 2
256168, 256166, 2
256168, 256167, 2
256168, 256147, 2
256168, 256169, 1
256139, 256142, 2
256139, 256140, 2
256139, 256138, 2
256139, 256148, 2
256139, 256143, 2
256153, 256149, 2
256153, 256146, 2
256153, 256147, 2
256153, 256150, 2
256153, 256155, 1
256153, 256148, 2
256153, 256151, 2
256142, 256140, 2
256142, 256139, 2
256142, 256141, 2
256142, 256143, 2
256140, 256142, 1
256140, 256141, 8
256140, 256138, 2
256140, 256139, 2
256140, 256143, 2
256150, 256149, 2
256150, 256146, 2
256150, 256147, 2
256150, 256153, 2
256150, 256148, 2
256150, 256145, 2
256150, 256151, 2
256164, 256147, 2
256164, 256161, 2
256164, 256165, 1
256164, 256162, 2
256155, 256147, 2
256155, 256158, 1
256155, 256153, 2
256155, 256157, 0
256143, 256142, 2
256143, 256140, 2
256143, 256148, 2
256143, 256152, 2
256143, 256144, 1
256143, 256141, 2
256143, 256138, 2
256143, 256139, 2
256138, 256140, 3
256138, 256139, 6
256138, 256143, 1
256138, 256141, 2
256154, 256147, 2
256154, 256156, 1
256154, 256152, 2
256166, 256168, 2
256166, 256147, 2
256166, 256167, 1
256166, 256163, 2
256166, 256169, 2
256148, 256149, 3
256148, 256146, 2
256148, 256147, 2
256148, 256150, 2
256148, 256144, 2
256148, 256143, 2
256148, 256139, 2
256148, 256153, 1
256148, 256151, 2
256148, 256145, 2
256156, 256159, 1
256156, 256147, 2
256156, 256154, 2
256156, 256152, 2
256160, 256147, 2
256160, 256158, 2
256160, 256163, 1
256159, 256146, 2
256159, 256147, 2
256159, 256161, 1
256159, 256156, 2
256169, 256147, 2
256169, 256167, 2
256169, 256168, 2
256169, 256166, 2
256141, 256142, 2
256141, 256140, 2
256141, 256138, 2
256141, 256143, 2
256141, 256152, 2
256167, 256168, 1
256167, 256166, 2
256167, 256163, 2
256167, 256147, 2
256167, 256169, 2
256165, 256147, 2
256165, 256161, 2
256165, 256164, 2
256165, 256162, 2
256162, 256147, 2
256162, 256161, 2
256162, 256164, 1
256162, 256165, 2
