258990, 258991, 6
258990, 258988, 2
258990, 258992, 1
258990, 258987, 2
258990, 258989, 2
258987, 258990, 2
258987, 258986, 2
258987, 258988, 2
258987, 258991, 2
258987, 258989, 2
258986, 258987, 6
258986, 258988, 3
258986, 258991, 2
258986, 258989, 1
258989, 258990, 1
258989, 258991, 2
258989, 258988, 2
258989, 258986, 2
258989, 258987, 2
258988, 258990, 2
258988, 258986, 2
258988, 258991, 2
258988, 258987, 2
258988, 258989, 2
258991, 258990, 2
258991, 258987, 2
258991, 258986, 2
258991, 258988, 2
258991, 258992, 2
258991, 258989, 2
258992, 258990, 2
258992, 258991, 2
