184708, 184707, 2
184706, 184705, 2
184706, 184707, 1
184702, 184703, 1
184702, 184704, 2
184705, 184706, 1
184705, 184704, 2
184707, 184708, 1
184707, 184706, 2
184703, 184702, 2
184703, 184704, 1
184704, 184705, 1
184704, 184702, 2
184704, 184703, 2
