332708, 332701, 2
332708, 332707, 2
332708, 332705, 2
332699, 332704, 2
332699, 332702, 1
332699, 332703, 2
332699, 332700, 0
332702, 332699, 2
332702, 332701, 2
332702, 332703, 1
332702, 332700, 2
332700, 332699, 2
332700, 332701, 0
332700, 332703, 2
332700, 332702, 2
332704, 332699, 2
332704, 332706, 2
332704, 332703, 2
332704, 332705, 1
332706, 332704, 2
332706, 332707, 2
332706, 332705, 2
332707, 332708, 1
332707, 332706, 2
332707, 332705, 2
332701, 332708, 2
332701, 332702, 2
332701, 332703, 2
332701, 332700, 2
332703, 332704, 1
332703, 332699, 2
332703, 332702, 2
332703, 332701, 2
332703, 332700, 2
332705, 332708, 2
332705, 332704, 2
332705, 332706, 8
332705, 332707, 1
