340577, 340576, 2
340577, 340578, 0
340571, 340574, 2
340571, 340572, 1
340575, 340576, 1
340575, 340574, 2
340575, 340573, 2
340572, 340573, 1
340572, 340571, 2
340576, 340577, 1
340576, 340575, 2
340573, 340574, 8
340573, 340575, 1
340573, 340572, 2
340574, 340573, 2
340574, 340571, 2
340574, 340575, 2
340578, 340577, 2
