15512, 15511, 2
15512, 15516, 2
15512, 15513, 1
15512, 15514, 2
15511, 15512, 1
15511, 15510, 2
15511, 15516, 2
15513, 15512, 2
15513, 15514, 1
15510, 15511, 1
15510, 15509, 2
15508, 15509, 1
15517, 15515, 2
15517, 15516, 2
15515, 15517, 1
15515, 15516, 6
15515, 15514, 2
15509, 15510, 1
15509, 15508, 2
15509, 15516, 2
15516, 15512, 2
15516, 15517, 2
15516, 15511, 2
15516, 15515, 2
15516, 15509, 2
15516, 15514, 2
15514, 15512, 2
15514, 15515, 1
15514, 15516, 2
15514, 15513, 2
