298003, 298007, 2
298003, 298000, 2
298003, 298004, 2
298003, 297997, 2
298003, 298002, 2
298003, 298006, 2
298003, 298001, 2
298005, 298008, 1
298005, 298004, 2
298005, 298007, 2
298005, 298006, 3
297989, 297990, 1
297989, 297988, 2
298004, 298005, 1
298004, 298007, 2
298004, 298003, 2
298004, 298002, 2
298004, 298006, 2
297985, 297987, 2
297985, 297984, 2
297985, 297986, 1
298008, 298005, 2
298008, 298007, 2
298008, 298006, 2
297986, 297988, 1
297986, 297987, 3
297986, 297985, 2
297999, 298000, 1
297999, 297998, 2
297984, 297987, 2
297984, 297985, 1
297997, 297992, 2
297997, 298003, 2
297997, 297991, 2
297997, 297995, 2
297997, 297994, 2
297997, 297990, 2
297997, 297987, 2
297997, 297996, 2
297997, 297998, 2
297988, 297989, 1
297988, 297990, 2
297988, 297987, 2
297988, 297986, 2
298007, 298005, 2
298007, 298008, 2
298007, 298004, 2
298007, 298003, 2
298007, 298006, 2
298000, 298003, 2
298000, 298001, 1
298000, 297998, 2
298000, 297999, 2
297995, 297994, 2
297995, 297996, 1
297995, 297997, 2
297990, 297988, 2
297990, 297989, 2
297990, 297991, 1
297990, 297997, 2
297987, 297988, 2
297987, 297985, 2
297987, 297984, 2
297987, 297986, 2
297987, 297997, 2
298006, 298005, 2
298006, 298008, 2
298006, 298004, 2
298006, 298003, 2
298006, 298007, 0
297998, 298000, 2
297998, 297997, 2
297998, 297996, 2
297998, 297999, 1
297993, 297992, 2
297993, 297994, 1
297992, 297994, 2
297992, 297993, 1
297992, 297991, 2
297992, 297997, 2
297991, 297992, 1
297991, 297990, 2
297991, 297997, 2
297996, 297995, 2
297996, 297998, 1
297996, 297997, 3
298002, 298004, 1
298002, 298003, 3
298002, 298001, 2
297994, 297992, 2
297994, 297995, 1
297994, 297993, 2
297994, 297997, 2
298001, 298000, 2
298001, 298003, 2
298001, 298002, 1
