168449, 168448, 2
168449, 168450, 1
168449, 168441, 2
168449, 168447, 2
168448, 168449, 1
168448, 168447, 2
168412, 168414, 2
168412, 168411, 2
168412, 168422, 2
168412, 168410, 2
168412, 168408, 2
168412, 168413, 6
168412, 168441, 2
168412, 168415, 2
168412, 168420, 2
168412, 168417, 2
168411, 168412, 1
168411, 168413, 2
168411, 168410, 2
168409, 168408, 2
168409, 168407, 2
168409, 168410, 1
168408, 168407, 2
168408, 168409, 2
168408, 168412, 2
168408, 168410, 2
168436, 168439, 1
168436, 168440, 2
168436, 168432, 2
168436, 168430, 2
168436, 168435, 2
168436, 168437, 4
168436, 168438, 2
168436, 168441, 2
168436, 168421, 2
168436, 168433, 2
168434, 168433, 2
168434, 168435, 1
168439, 168440, 0
168439, 168441, 2
168439, 168437, 2
168439, 168438, 2
168439, 168436, 2
168439, 168442, 1
168418, 168419, 2
168418, 168422, 2
168418, 168420, 1
168418, 168421, 2
168418, 168415, 2
168418, 168416, 2
168418, 168417, 2
168452, 168451, 2
168452, 168450, 2
168452, 168453, 2
168452, 168441, 2
168425, 168424, 2
168425, 168426, 3
168425, 168422, 2
168425, 168427, 1
168425, 168430, 2
168425, 168423, 2
168425, 168421, 2
168424, 168423, 2
168424, 168425, 1
168424, 168421, 2
168424, 168430, 2
168454, 168451, 2
168454, 168453, 2
168454, 168441, 2
168450, 168449, 2
168450, 168451, 1
168450, 168452, 2
168450, 168441, 2
168453, 168451, 2
168453, 168454, 1
168453, 168452, 2
168453, 168441, 2
168407, 168408, 3
168407, 168409, 1
168428, 168421, 2
168428, 168430, 2
168428, 168427, 2
168428, 168429, 1
168410, 168412, 2
168410, 168411, 3
168410, 168409, 2
168410, 168408, 2
168410, 168413, 2
168410, 168414, 1
168442, 168439, 2
168442, 168440, 2
168442, 168444, 2
168442, 168441, 4
168442, 168445, 2
168442, 168443, 1
168433, 168434, 1
168433, 168430, 2
168433, 168436, 2
168433, 168431, 2
168433, 168435, 2
168433, 168432, 2
168435, 168432, 2
168435, 168434, 2
168435, 168436, 1
168435, 168433, 2
168435, 168430, 2
168444, 168446, 2
168444, 168443, 2
168444, 168441, 2
168444, 168442, 2
168444, 168445, 2
168444, 168447, 2
168426, 168431, 2
168426, 168422, 2
168426, 168427, 2
168426, 168441, 2
168426, 168423, 2
168426, 168425, 2
168419, 168421, 2
168419, 168418, 2
168419, 168420, 2
168422, 168426, 2
168422, 168412, 2
168422, 168414, 2
168422, 168418, 2
168422, 168420, 2
168422, 168423, 2
168422, 168425, 2
168422, 168441, 2
168422, 168415, 2
168422, 168421, 2
168422, 168417, 2
168427, 168426, 2
168427, 168428, 1
168427, 168441, 2
168427, 168425, 2
168427, 168430, 2
168427, 168421, 2
168421, 168424, 2
168421, 168419, 2
168421, 168422, 2
168421, 168427, 2
168421, 168420, 2
168421, 168428, 2
168421, 168418, 2
168421, 168436, 2
168421, 168423, 2
168421, 168425, 2
168421, 168430, 2
168421, 168416, 2
168445, 168446, 2
168445, 168443, 2
168445, 168441, 2
168445, 168444, 2
168445, 168442, 2
168445, 168447, 2
168430, 168424, 2
168430, 168428, 2
168430, 168431, 2
168430, 168427, 2
168430, 168436, 2
168430, 168423, 2
168430, 168425, 2
168430, 168429, 2
168430, 168421, 2
168430, 168435, 2
168430, 168433, 2
168423, 168424, 1
168423, 168426, 2
168423, 168422, 2
168423, 168420, 2
168423, 168421, 2
168423, 168430, 2
168423, 168425, 2
168414, 168412, 2
168414, 168422, 2
168414, 168410, 2
168414, 168413, 2
168414, 168415, 1
168414, 168416, 2
168447, 168449, 2
168447, 168448, 1
168447, 168444, 2
168447, 168441, 2
168447, 168446, 2
168447, 168445, 2
168447, 168443, 2
168420, 168412, 2
168420, 168422, 8
168420, 168418, 2
168420, 168423, 1
168420, 168421, 0
168420, 168419, 6
168446, 168445, 2
168446, 168441, 2
168446, 168444, 2
168446, 168443, 2
168446, 168447, 2
168413, 168412, 2
168413, 168411, 2
168413, 168414, 2
168413, 168410, 2
168416, 168414, 2
168416, 168415, 2
168416, 168421, 2
168416, 168418, 2
168416, 168417, 2
168451, 168454, 2
168451, 168450, 2
168451, 168452, 8
168451, 168453, 1
168440, 168439, 2
168440, 168441, 2
168440, 168442, 2
168440, 168436, 2
168429, 168431, 1
168429, 168428, 2
168429, 168430, 6
168431, 168426, 2
168431, 168441, 2
168431, 168430, 2
168431, 168429, 2
168431, 168433, 1
168431, 168432, 8
168432, 168431, 2
168432, 168436, 2
168432, 168435, 2
168432, 168433, 2
168432, 168441, 2
168443, 168446, 8
168443, 168444, 0
168443, 168441, 2
168443, 168442, 2
168443, 168445, 3
168443, 168447, 1
168441, 168426, 2
168441, 168446, 2
168441, 168412, 2
168441, 168422, 2
168441, 168453, 2
168441, 168427, 2
168441, 168454, 2
168441, 168431, 2
168441, 168445, 2
168441, 168447, 2
168441, 168450, 2
168441, 168439, 2
168441, 168444, 2
168441, 168449, 2
168441, 168437, 2
168441, 168440, 2
168441, 168436, 2
168441, 168442, 2
168441, 168452, 2
168441, 168432, 2
168441, 168443, 2
168437, 168438, 1
168437, 168441, 2
168437, 168439, 2
168437, 168436, 2
168417, 168415, 2
168417, 168412, 2
168417, 168422, 2
168417, 168416, 2
168417, 168418, 1
168415, 168412, 2
168415, 168422, 2
168415, 168418, 2
168415, 168414, 2
168415, 168416, 0
168415, 168417, 1
168438, 168437, 2
168438, 168439, 2
168438, 168436, 2
