259135, 259136, 1
259135, 259134, 2
259135, 259133, 2
259139, 259137, 2
259139, 259138, 2
259134, 259135, 1
259134, 259136, 2
259134, 259133, 2
259138, 259139, 2
259138, 259136, 2
259138, 259137, 2
259137, 259139, 1
259137, 259136, 2
259137, 259133, 2
259137, 259138, 8
259136, 259138, 2
259136, 259135, 2
259136, 259137, 1
259136, 259134, 2
259136, 259133, 2
259133, 259135, 2
259133, 259136, 2
259133, 259134, 3
259133, 259137, 2
