302170, 302171, 2
302170, 302172, 2
302170, 302168, 2
302170, 302173, 2
302170, 302174, 2
302170, 302169, 2
302171, 302170, 6
302171, 302173, 1
302171, 302172, 8
302171, 302175, 2
302171, 302174, 2
302171, 302169, 2
302172, 302170, 2
302172, 302171, 2
302172, 302175, 2
302172, 302174, 2
302172, 302173, 2
302172, 302169, 2
302168, 302170, 2
302168, 302174, 2
302168, 302169, 1
302173, 302170, 2
302173, 302171, 2
302173, 302175, 1
302173, 302172, 2
302173, 302174, 6
302174, 302170, 2
302174, 302171, 2
302174, 302172, 2
302174, 302168, 2
302174, 302175, 2
302174, 302169, 2
302174, 302173, 2
302175, 302171, 2
302175, 302172, 2
302175, 302174, 2
302175, 302173, 2
302169, 302170, 2
302169, 302171, 1
302169, 302172, 2
302169, 302168, 2
302169, 302174, 2
