339036, 339035, 2
339036, 339033, 2
339036, 339034, 2
339035, 339036, 1
339035, 339033, 2
339035, 339034, 2
339032, 339033, 1
339032, 339034, 2
339033, 339036, 2
339033, 339035, 1
339033, 339032, 2
339033, 339034, 8
339034, 339036, 2
339034, 339035, 2
339034, 339032, 2
339034, 339033, 2
