259742, 259741, 2
259742, 259743, 1
259744, 259743, 2
259738, 259740, 2
259738, 259739, 1
259738, 259737, 2
259741, 259742, 1
259741, 259740, 2
259743, 259742, 2
259743, 259744, 1
259740, 259738, 2
259740, 259741, 1
259740, 259739, 2
259739, 259738, 2
259739, 259740, 1
259737, 259738, 1
