338378, 338381, 2
338378, 338379, 1
338378, 338380, 2
338379, 338378, 2
338379, 338381, 2
338379, 338380, 1
338381, 338378, 2
338381, 338379, 2
338381, 338380, 2
338380, 338378, 2
338380, 338379, 2
338380, 338381, 3
