217565, 217566, 3
217565, 217567, 8
217565, 217568, 1
217565, 217564, 2
217561, 217560, 2
217561, 217562, 1
217563, 217562, 2
217563, 217564, 1
217567, 217566, 2
217567, 217569, 2
217567, 217565, 2
217567, 217568, 2
217574, 217573, 2
217573, 217572, 2
217573, 217574, 1
217573, 217571, 2
217572, 217570, 2
217572, 217573, 2
217572, 217569, 2
217572, 217571, 2
217560, 217562, 2
217560, 217561, 1
217569, 217572, 2
217569, 217568, 2
217569, 217571, 2
217569, 217570, 2
217569, 217566, 2
217569, 217567, 2
217571, 217570, 2
217571, 217573, 1
217571, 217569, 2
217571, 217568, 2
217571, 217572, 3
217570, 217569, 2
217570, 217572, 2
217570, 217568, 2
217570, 217571, 2
217566, 217569, 2
217566, 217567, 2
217566, 217565, 2
217566, 217564, 2
217566, 217568, 2
217562, 217560, 2
217562, 217561, 2
217562, 217563, 1
217564, 217566, 2
217564, 217565, 1
217564, 217563, 2
217568, 217569, 3
217568, 217571, 1
217568, 217570, 8
217568, 217566, 2
217568, 217567, 2
217568, 217565, 2
