252838, 252836, 2
252838, 252839, 1
252838, 252837, 2
252838, 252840, 2
252838, 252835, 2
252839, 252842, 2
252839, 252837, 2
252839, 252838, 2
252839, 252841, 2
252839, 252840, 2
252828, 252829, 2
252828, 252827, 2
252828, 252831, 2
252828, 252830, 2
252836, 252842, 2
252836, 252840, 2
252836, 252835, 2
252836, 252838, 2
252836, 252837, 2
252836, 252834, 2
252837, 252836, 2
252837, 252839, 2
252837, 252840, 2
252837, 252838, 1
252841, 252842, 2
252841, 252839, 2
252841, 252840, 2
252834, 252836, 2
252834, 252833, 2
252834, 252835, 2
252830, 252829, 2
252830, 252827, 2
252830, 252831, 1
252830, 252828, 2
252842, 252836, 2
252842, 252839, 2
252842, 252841, 2
252842, 252840, 2
252832, 252833, 3
252832, 252835, 1
252832, 252831, 2
252827, 252830, 1
252827, 252829, 3
252827, 252831, 2
252827, 252828, 6
252835, 252832, 2
252835, 252840, 1
252835, 252836, 3
252835, 252833, 2
252835, 252838, 2
252835, 252834, 2
252835, 252831, 2
252833, 252832, 2
252833, 252835, 2
252833, 252834, 2
252831, 252829, 2
252831, 252827, 2
252831, 252840, 2
252831, 252828, 2
252831, 252832, 1
252831, 252835, 2
252831, 252830, 2
252829, 252830, 2
252829, 252831, 2
252829, 252827, 2
252829, 252828, 2
252840, 252842, 1
252840, 252839, 2
252840, 252836, 2
252840, 252837, 2
252840, 252838, 2
252840, 252841, 3
252840, 252835, 2
252840, 252831, 2
