341396, 341394, 2
341396, 341395, 2
341396, 341397, 1
341389, 341390, 1
341389, 341391, 2
341392, 341391, 2
341392, 341393, 1
341395, 341396, 1
341395, 341394, 2
341390, 341389, 2
341390, 341391, 1
341391, 341389, 2
341391, 341392, 1
341391, 341390, 2
341397, 341396, 2
341397, 341394, 2
341394, 341396, 2
341394, 341395, 0
341394, 341397, 2
341394, 341393, 2
341393, 341392, 2
341393, 341394, 1
