162142, 162143, 1
162142, 162141, 2
162155, 162154, 2
162155, 162156, 1
162146, 162147, 1
162146, 162145, 2
162152, 162151, 2
162152, 162153, 1
162148, 162150, 2
162148, 162147, 2
162148, 162149, 1
162154, 162153, 2
162154, 162155, 1
162153, 162154, 1
162153, 162152, 2
162151, 162150, 2
162151, 162152, 1
162144, 162143, 2
162144, 162145, 1
162145, 162144, 2
162145, 162146, 1
162150, 162151, 1
162150, 162148, 2
162150, 162149, 2
162143, 162142, 2
162143, 162144, 1
162143, 162141, 2
162141, 162142, 1
162141, 162143, 2
162149, 162150, 1
162149, 162148, 2
162156, 162155, 2
162147, 162148, 1
162147, 162146, 2
