334039, 334038, 2
334039, 334036, 2
334039, 334040, 1
334039, 334041, 2
334039, 334043, 2
334040, 334039, 2
334040, 334041, 1
334040, 334043, 2
334044, 334043, 2
334044, 334042, 2
334033, 334035, 2
334033, 334032, 2
334033, 334034, 2
334034, 334033, 2
334034, 334032, 2
334034, 334035, 1
334036, 334037, 1
334036, 334038, 2
334036, 334039, 2
334036, 334035, 2
334032, 334035, 2
334032, 334033, 3
334032, 334034, 1
334041, 334039, 2
334041, 334040, 2
334041, 334043, 2
334041, 334042, 1
334037, 334036, 2
334037, 334038, 1
334037, 334035, 2
334042, 334041, 2
334042, 334044, 1
334042, 334043, 6
334038, 334039, 1
334038, 334036, 2
334038, 334037, 2
334043, 334041, 2
334043, 334040, 2
334043, 334044, 2
334043, 334039, 2
334043, 334042, 2
334035, 334033, 2
334035, 334036, 1
334035, 334037, 2
334035, 334032, 2
334035, 334034, 2
