130737, 130734, 2
130737, 130736, 2
130733, 130734, 3
130733, 130736, 2
130733, 130735, 1
130734, 130737, 2
130734, 130733, 2
130734, 130736, 2
130734, 130735, 2
130736, 130737, 3
130736, 130733, 2
130736, 130734, 2
130736, 130735, 2
130735, 130733, 2
130735, 130734, 2
130735, 130736, 1
