341187, 341185, 2
341187, 341188, 1
341187, 341186, 2
341183, 341184, 1
341183, 341182, 2
341190, 341189, 2
341185, 341187, 2
341185, 341184, 2
341185, 341188, 2
341185, 341186, 1
341184, 341183, 2
341184, 341185, 1
341188, 341187, 2
341188, 341185, 2
341188, 341189, 1
341186, 341187, 1
341186, 341185, 2
341182, 341183, 1
341189, 341190, 0
341189, 341188, 2
