296319, 296318, 2
296319, 296321, 2
296319, 296320, 1
296327, 296328, 2
296327, 296326, 2
296327, 296329, 2
296327, 296322, 2
296327, 296320, 2
296327, 296330, 2
296327, 296321, 2
296327, 296324, 2
296328, 296327, 2
296328, 296326, 2
296328, 296329, 1
296329, 296327, 2
296329, 296330, 1
296329, 296328, 2
296329, 296331, 2
296332, 296333, 1
296332, 296331, 2
296318, 296319, 1
296318, 296317, 2
296322, 296327, 2
296322, 296323, 2
296322, 296326, 2
296322, 296324, 2
296322, 296325, 2
296322, 296321, 2
296322, 296320, 2
296330, 296327, 2
296330, 296331, 1
296330, 296329, 2
296321, 296327, 2
296321, 296319, 2
296321, 296322, 2
296321, 296323, 1
296321, 296324, 2
296321, 296320, 2
296324, 296327, 2
296324, 296322, 2
296324, 296325, 1
296324, 296323, 2
296324, 296321, 2
296333, 296332, 2
296317, 296318, 1
296331, 296330, 2
296331, 296329, 2
296331, 296332, 1
296326, 296327, 0
296326, 296322, 2
296326, 296325, 2
296326, 296328, 1
296323, 296322, 6
296323, 296321, 2
296323, 296324, 1
296325, 296322, 2
296325, 296326, 1
296325, 296324, 2
296320, 296319, 2
296320, 296327, 2
296320, 296321, 1
296320, 296322, 2
