21706, 21707, 1
21710, 21709, 2
21710, 21711, 1
21710, 21708, 2
21711, 21710, 2
21711, 21712, 0
21711, 21713, 1
21713, 21711, 2
21713, 21712, 2
21707, 21706, 2
21707, 21708, 1
21709, 21710, 2
21709, 21708, 2
21712, 21713, 2
21712, 21711, 2
21708, 21710, 1
21708, 21707, 2
21708, 21709, 0
