297652, 297653, 1
297652, 297650, 2
297652, 297651, 2
297647, 297648, 2
297647, 297646, 2
297647, 297641, 2
297647, 297645, 2
297647, 297644, 2
297645, 297644, 2
297645, 297646, 1
297645, 297647, 2
297640, 297648, 2
297640, 297650, 2
297640, 297641, 2
297640, 297636, 2
297640, 297653, 2
297640, 297644, 2
297640, 297638, 2
297640, 297639, 2
297640, 297646, 2
297640, 297642, 2
297640, 297635, 2
297646, 297647, 3
297646, 297644, 2
297646, 297645, 2
297646, 297640, 2
297646, 297648, 1
297648, 297647, 2
297648, 297650, 2
297648, 297649, 1
297648, 297640, 2
297648, 297646, 2
297649, 297648, 2
297649, 297650, 1
297655, 297654, 2
297655, 297657, 2
297655, 297653, 2
297655, 297656, 1
297654, 297655, 2
297654, 297653, 2
297654, 297650, 2
297637, 297642, 2
297637, 297641, 2
297637, 297636, 2
297637, 297638, 1
297637, 297639, 2
297637, 297635, 2
297642, 297641, 2
297642, 297640, 2
297642, 297636, 2
297642, 297644, 2
297642, 297639, 2
297642, 297635, 2
297642, 297637, 2
297642, 297643, 1
297639, 297635, 2
297639, 297641, 1
297639, 297640, 2
297639, 297636, 2
297639, 297638, 2
297639, 297637, 2
297639, 297642, 2
297643, 297644, 1
297643, 297642, 2
297650, 297652, 2
297650, 297648, 2
297650, 297640, 2
297650, 297651, 1
297650, 297654, 2
297650, 297649, 2
297641, 297647, 2
297641, 297635, 2
297641, 297640, 2
297641, 297638, 2
297641, 297637, 2
297641, 297642, 2
297641, 297639, 2
297638, 297641, 2
297638, 297640, 1
297638, 297636, 2
297638, 297637, 2
297638, 297635, 2
297638, 297639, 2
297644, 297647, 2
297644, 297642, 2
297644, 297645, 1
297644, 297640, 2
297644, 297646, 2
297644, 297643, 2
297653, 297652, 2
297653, 297655, 1
297653, 297651, 2
297653, 297640, 2
297653, 297654, 3
297657, 297655, 2
297657, 297656, 2
297636, 297635, 2
297636, 297640, 2
297636, 297638, 2
297636, 297637, 2
297636, 297642, 2
297636, 297639, 1
297651, 297652, 1
297651, 297653, 2
297651, 297650, 2
297635, 297641, 2
297635, 297640, 2
297635, 297636, 3
297635, 297638, 2
297635, 297637, 0
297635, 297642, 1
297635, 297639, 2
297656, 297655, 2
297656, 297657, 1
