339724, 339723, 2
339724, 339726, 1
339724, 339725, 0
339721, 339722, 1
339723, 339724, 1
339723, 339722, 2
339722, 339723, 1
339722, 339721, 2
339725, 339724, 2
339725, 339726, 2
339726, 339724, 2
339726, 339725, 2
