71958, 71957, 2
71958, 71956, 2
71957, 71958, 3
71957, 71956, 2
71957, 71955, 2
71954, 71953, 2
71954, 71955, 1
71953, 71954, 1
71955, 71954, 2
71955, 71957, 2
71955, 71956, 1
71956, 71958, 2
71956, 71957, 1
71956, 71955, 2
