255397, 255396, 2
255397, 255399, 2
255397, 255398, 1
255397, 255394, 2
255398, 255397, 2
255398, 255399, 1
255386, 255388, 0
255386, 255390, 2
255386, 255391, 1
255386, 255387, 3
255395, 255396, 1
255395, 255391, 2
255395, 255394, 2
255395, 255392, 2
255395, 255393, 2
255395, 255390, 2
255412, 255411, 2
255412, 255406, 2
255412, 255413, 1
255412, 255409, 2
255391, 255396, 2
255391, 255395, 1
255391, 255390, 2
255391, 255386, 2
255391, 255394, 2
255391, 255392, 3
255391, 255393, 2
255391, 255387, 2
255410, 255411, 1
255410, 255409, 2
255390, 255400, 2
255390, 255405, 2
255390, 255401, 2
255390, 255395, 2
255390, 255389, 2
255390, 255386, 2
255390, 255388, 2
255390, 255391, 2
255390, 255387, 2
255400, 255396, 2
255400, 255399, 2
255400, 255401, 1
255400, 255390, 2
255405, 255406, 1
255405, 255403, 2
255405, 255401, 2
255405, 255404, 2
255405, 255390, 2
255405, 255402, 2
255403, 255406, 2
255403, 255405, 1
255403, 255401, 2
255403, 255404, 8
255403, 255402, 2
255406, 255411, 2
255406, 255405, 2
255406, 255403, 2
255406, 255404, 2
255406, 255402, 2
255406, 255412, 1
255406, 255407, 3
255409, 255411, 2
255409, 255408, 2
255409, 255412, 2
255409, 255410, 1
255408, 255411, 2
255408, 255402, 2
255408, 255409, 1
255408, 255404, 2
255408, 255407, 2
255402, 255406, 2
255402, 255405, 2
255402, 255403, 2
255402, 255401, 2
255402, 255404, 2
255402, 255399, 2
255402, 255408, 2
255411, 255406, 2
255411, 255408, 2
255411, 255409, 2
255411, 255412, 2
255411, 255410, 2
255399, 255397, 2
255399, 255398, 2
255399, 255396, 2
255399, 255400, 2
255399, 255402, 2
255399, 255401, 2
255387, 255392, 2
255387, 255393, 2
255387, 255389, 2
255387, 255386, 2
255387, 255388, 2
255387, 255391, 2
255387, 255390, 2
255389, 255390, 1
255389, 255388, 2
255389, 255387, 2
255413, 255412, 2
255388, 255389, 1
255388, 255386, 2
255388, 255390, 2
255388, 255387, 2
255393, 255387, 2
255393, 255394, 1
255393, 255392, 2
255393, 255391, 2
255393, 255395, 2
255396, 255397, 3
255396, 255399, 2
255396, 255400, 1
255396, 255395, 2
255396, 255394, 2
255396, 255391, 2
255407, 255406, 2
255407, 255408, 1
255407, 255404, 2
255404, 255406, 2
255404, 255405, 2
255404, 255403, 2
255404, 255402, 2
255404, 255408, 2
255404, 255407, 2
255394, 255396, 2
255394, 255397, 2
255394, 255391, 2
255394, 255393, 2
255394, 255395, 2
255392, 255395, 2
255392, 255391, 2
255392, 255393, 1
255392, 255387, 2
255401, 255400, 2
255401, 255405, 2
255401, 255403, 1
255401, 255402, 3
255401, 255399, 2
255401, 255390, 2
