185854, 185851, 2
185854, 185857, 2
185854, 185855, 2
185854, 185852, 2
185854, 185853, 2
185857, 185855, 2
185857, 185854, 2
185857, 185858, 1
185857, 185856, 2
185863, 185864, 2
185863, 185862, 2
185861, 185862, 1
185861, 185860, 2
185849, 185850, 2
185849, 185847, 2
185849, 185848, 2
185852, 185854, 2
185852, 185851, 2
185852, 185853, 1
185856, 185855, 2
185856, 185857, 2
185866, 185864, 2
185866, 185868, 2
185866, 185865, 2
185866, 185867, 1
185844, 185847, 1
185844, 185845, 3
185844, 185846, 0
185864, 185862, 2
185864, 185865, 0
185864, 185866, 1
185864, 185863, 2
185848, 185850, 1
185848, 185847, 2
185848, 185849, 8
185848, 185851, 2
185851, 185850, 2
185851, 185848, 2
185851, 185854, 2
185851, 185852, 1
185851, 185853, 2
185859, 185858, 2
185859, 185860, 2
185867, 185868, 1
185867, 185866, 2
185846, 185847, 2
185846, 185845, 2
185846, 185844, 2
185853, 185851, 2
185853, 185855, 1
185853, 185854, 0
185853, 185852, 2
185847, 185850, 2
185847, 185848, 1
185847, 185845, 2
185847, 185849, 2
185847, 185846, 2
185847, 185844, 2
185845, 185847, 2
185845, 185846, 2
185845, 185844, 2
185855, 185854, 2
185855, 185857, 1
185855, 185856, 3
185855, 185853, 2
185850, 185847, 2
185850, 185848, 2
185850, 185851, 1
185850, 185849, 2
185860, 185859, 2
185860, 185861, 1
185860, 185862, 2
185860, 185858, 2
185858, 185859, 0
185858, 185857, 2
185858, 185860, 1
185862, 185864, 1
185862, 185861, 2
185862, 185860, 2
185862, 185863, 8
185869, 185868, 2
185865, 185864, 2
185865, 185866, 2
185868, 185869, 1
185868, 185866, 2
185868, 185867, 2
