184986, 184985, 2
184986, 184987, 1
184986, 184984, 2
184987, 184986, 2
184987, 184988, 1
184993, 184991, 2
184993, 184994, 1
184993, 184992, 2
184988, 184987, 2
184988, 184989, 1
184992, 184991, 2
184992, 184993, 1
184992, 184994, 2
184990, 184991, 1
184990, 184989, 2
184985, 184986, 1
184985, 184984, 2
184991, 184990, 2
184991, 184993, 2
184991, 184992, 1
184994, 184993, 2
184994, 184992, 2
184989, 184990, 1
184989, 184988, 2
184984, 184986, 2
184984, 184985, 1
