168404, 168402, 2
168404, 168403, 2
168404, 168368, 2
168404, 168405, 1
168406, 168388, 2
168406, 168368, 2
168406, 168405, 2
168370, 168371, 1
168370, 168369, 4
168370, 168382, 2
168370, 168367, 2
168370, 168368, 2
168370, 168366, 2
168370, 168365, 2
168382, 168372, 2
168382, 168370, 2
168382, 168371, 2
168382, 168378, 2
168382, 168384, 2
168382, 168379, 2
168382, 168380, 2
168382, 168387, 2
168382, 168369, 2
168382, 168381, 2
168382, 168367, 2
168382, 168386, 2
168382, 168374, 2
168382, 168373, 2
168382, 168385, 1
168382, 168383, 2
168382, 168377, 2
168382, 168389, 2
168358, 168364, 2
168358, 168359, 1
168358, 168362, 2
168358, 168368, 2
168374, 168369, 2
168374, 168382, 2
168374, 168368, 2
168374, 168373, 2
168374, 168375, 1
168374, 168377, 2
168375, 168374, 2
168375, 168376, 1
168375, 168377, 2
168375, 168368, 2
168363, 168364, 1
168363, 168367, 2
168363, 168362, 2
168363, 168361, 2
168387, 168369, 2
168387, 168382, 2
168387, 168389, 1
168387, 168386, 2
168387, 168384, 2
168387, 168385, 2
168387, 168388, 2
168387, 168367, 2
168369, 168372, 2
168369, 168370, 2
168369, 168382, 2
168369, 168386, 2
168369, 168371, 2
168369, 168374, 2
168369, 168379, 2
168369, 168388, 2
168369, 168376, 2
168369, 168394, 2
168369, 168380, 2
168369, 168387, 2
168369, 168367, 2
168369, 168368, 2
168369, 168373, 2
168369, 168385, 2
168369, 168366, 2
168369, 168362, 2
168369, 168377, 2
168369, 168389, 2
168359, 168360, 1
168359, 168358, 2
168359, 168362, 2
168359, 168368, 2
168397, 168396, 2
168397, 168398, 1
168373, 168374, 1
168373, 168369, 2
168373, 168382, 2
168373, 168372, 2
168401, 168402, 1
168401, 168403, 2
168401, 168400, 2
168401, 168368, 2
168371, 168372, 1
168371, 168370, 2
168371, 168382, 2
168371, 168369, 2
168371, 168368, 2
168399, 168368, 2
168399, 168400, 1
168399, 168398, 2
168399, 168388, 2
168405, 168404, 2
168405, 168406, 1
168384, 168387, 1
168384, 168383, 2
168384, 168382, 2
168384, 168385, 2
168384, 168386, 2
168396, 168397, 1
168396, 168398, 2
168396, 168395, 2
168396, 168388, 2
168380, 168369, 2
168380, 168382, 2
168380, 168386, 2
168380, 168368, 2
168380, 168381, 1
168380, 168385, 2
168380, 168379, 2
168367, 168370, 2
168367, 168382, 2
168367, 168389, 2
168367, 168366, 2
168367, 168364, 2
168367, 168363, 2
168367, 168365, 2
168367, 168388, 2
168367, 168387, 2
168367, 168369, 2
168367, 168386, 2
168367, 168362, 2
168367, 168377, 2
168386, 168382, 2
168386, 168389, 2
168386, 168384, 2
168386, 168383, 2
168386, 168393, 2
168386, 168380, 2
168386, 168387, 2
168386, 168369, 2
168386, 168381, 2
168386, 168367, 2
168386, 168385, 2
168386, 168391, 2
168386, 168388, 2
168361, 168360, 2
168361, 168363, 1
168361, 168362, 2
168361, 168368, 2
168390, 168389, 2
168390, 168388, 2
168390, 168391, 1
168385, 168387, 2
168385, 168369, 2
168385, 168382, 2
168385, 168389, 2
168385, 168386, 1
168385, 168384, 2
168385, 168383, 2
168385, 168381, 2
168385, 168380, 2
168403, 168404, 2
168403, 168402, 2
168403, 168400, 2
168403, 168401, 2
168403, 168388, 2
168388, 168406, 2
168388, 168394, 2
168388, 168389, 2
168388, 168399, 2
168388, 168396, 2
168388, 168393, 2
168388, 168391, 2
168388, 168387, 2
168388, 168369, 2
168388, 168367, 2
168388, 168386, 2
168388, 168390, 2
168388, 168403, 2
168388, 168398, 2
168388, 168395, 2
168388, 168400, 2
168395, 168392, 2
168395, 168394, 2
168395, 168396, 1
168395, 168388, 2
168400, 168403, 2
168400, 168368, 2
168400, 168399, 2
168400, 168401, 1
168400, 168388, 2
168377, 168369, 2
168377, 168382, 2
168377, 168367, 2
168377, 168378, 2
168377, 168374, 2
168377, 168375, 2
168377, 168376, 2
168368, 168404, 2
168368, 168406, 2
168368, 168370, 2
168368, 168358, 2
168368, 168378, 2
168368, 168374, 2
168368, 168375, 2
168368, 168364, 2
168368, 168366, 2
168368, 168369, 2
168368, 168359, 2
168368, 168401, 2
168368, 168389, 2
168368, 168399, 2
168368, 168365, 2
168368, 168380, 2
168368, 168376, 2
168368, 168400, 2
168368, 168361, 2
168368, 168360, 2
168368, 168372, 2
168368, 168371, 2
168378, 168379, 1
168378, 168382, 2
168378, 168376, 2
168378, 168377, 2
168378, 168368, 2
168376, 168377, 3
168376, 168378, 1
168376, 168369, 2
168376, 168375, 2
168376, 168368, 2
168379, 168369, 2
168379, 168382, 2
168379, 168378, 2
168379, 168380, 1
168364, 168358, 2
168364, 168367, 2
168364, 168368, 2
168364, 168363, 2
168364, 168362, 2
168364, 168365, 1
168366, 168365, 2
168366, 168370, 1
168366, 168369, 2
168366, 168368, 6
168366, 168367, 4
168393, 168392, 2
168393, 168394, 2
168393, 168388, 2
168393, 168386, 2
168393, 168391, 2
168391, 168392, 1
168391, 168394, 2
168391, 168386, 2
168391, 168390, 2
168391, 168388, 2
168391, 168393, 2
168381, 168385, 2
168381, 168382, 2
168381, 168383, 1
168381, 168386, 2
168381, 168380, 2
168402, 168404, 1
168402, 168403, 3
168402, 168401, 2
168362, 168369, 2
168362, 168358, 2
168362, 168367, 2
168362, 168361, 2
168362, 168359, 2
168362, 168360, 2
168362, 168364, 2
168362, 168363, 2
168362, 168365, 2
168389, 168387, 2
168389, 168369, 2
168389, 168382, 2
168389, 168367, 2
168389, 168386, 2
168389, 168390, 1
168389, 168385, 2
168389, 168368, 2
168389, 168388, 4
168394, 168392, 2
168394, 168369, 2
168394, 168391, 2
168394, 168393, 2
168394, 168395, 1
168394, 168388, 2
168383, 168384, 1
168383, 168385, 2
168383, 168382, 4
168383, 168381, 2
168383, 168386, 2
168365, 168370, 2
168365, 168367, 2
168365, 168368, 2
168365, 168364, 2
168365, 168366, 1
168365, 168362, 2
168392, 168394, 1
168392, 168393, 8
168392, 168395, 2
168392, 168391, 2
168398, 168397, 2
168398, 168396, 2
168398, 168399, 1
168398, 168388, 2
168360, 168359, 2
168360, 168362, 4
168360, 168368, 2
168360, 168361, 1
168372, 168371, 2
168372, 168373, 1
168372, 168382, 2
168372, 168369, 2
168372, 168368, 2
