132832, 132833, 2
132832, 132828, 2
132832, 132831, 2
132832, 132830, 2
132828, 132832, 2
132828, 132830, 1
132828, 132829, 3
132833, 132832, 2
132833, 132831, 2
132830, 132832, 2
132830, 132828, 2
132830, 132831, 1
132830, 132829, 2
132831, 132832, 0
132831, 132833, 1
132831, 132830, 2
132829, 132828, 2
132829, 132830, 2
