296047, 296048, 1
296047, 296046, 2
296051, 296050, 2
296041, 296042, 1
296041, 296037, 2
296041, 296040, 2
296039, 296038, 2
296039, 296037, 2
296039, 296040, 1
296037, 296038, 3
296037, 296039, 2
296037, 296040, 2
296037, 296042, 2
296037, 296041, 1
296045, 296044, 2
296045, 296046, 1
296038, 296039, 1
296038, 296037, 2
296042, 296041, 2
296042, 296037, 2
296042, 296040, 2
296042, 296043, 1
296050, 296049, 2
296050, 296051, 1
296050, 296048, 2
296048, 296047, 2
296048, 296050, 2
296048, 296049, 1
296044, 296045, 1
296044, 296046, 2
296044, 296043, 2
296049, 296050, 1
296049, 296048, 2
296040, 296041, 2
296040, 296039, 2
296040, 296037, 2
296040, 296042, 2
296046, 296044, 2
296046, 296047, 1
296046, 296045, 2
296043, 296042, 2
296043, 296044, 1
