196004, 196003, 2
196004, 195999, 2
196004, 196005, 1
196001, 195995, 2
196001, 195997, 2
196001, 195996, 2
196001, 195999, 2
196001, 196000, 2
196001, 196003, 2
196001, 196002, 2
196005, 196004, 2
196005, 195998, 2
196005, 195999, 2
196002, 196001, 2
196002, 195998, 2
196002, 195999, 2
196002, 196000, 2
196002, 196003, 1
195998, 195996, 2
195998, 196000, 2
195998, 196005, 2
195998, 196003, 2
195998, 196002, 2
195997, 196001, 2
195997, 195996, 2
195997, 195999, 1
195997, 196000, 2
195997, 195995, 2
195996, 196001, 2
195996, 195997, 2
195996, 195998, 6
195996, 195999, 2
195996, 196000, 1
195996, 195995, 4
195999, 196004, 2
195999, 196001, 2
195999, 196005, 2
195999, 196002, 2
195999, 195997, 2
195999, 195996, 2
195999, 196000, 2
195999, 196003, 2
195999, 195995, 2
196000, 196001, 3
196000, 196002, 1
196000, 195998, 2
196000, 195997, 2
196000, 195996, 2
196000, 195999, 2
196000, 196003, 2
196000, 195995, 2
196003, 196004, 1
196003, 196001, 2
196003, 195998, 2
196003, 195999, 2
196003, 196000, 2
196003, 196002, 2
195995, 195997, 1
195995, 195996, 2
195995, 196001, 2
195995, 196000, 2
195995, 195999, 2
