259409, 259408, 2
259409, 259410, 1
259408, 259409, 0
259408, 259407, 2
259408, 259410, 2
259407, 259408, 1
259407, 259406, 2
259410, 259409, 2
259410, 259408, 2
259406, 259404, 2
259406, 259405, 2
259406, 259407, 1
259405, 259404, 2
259405, 259406, 1
259404, 259405, 1
259404, 259403, 2
259404, 259406, 2
259403, 259404, 1
