62930, 62931, 1
62930, 62929, 2
62927, 62929, 2
62927, 62925, 2
62927, 62928, 1
62927, 62926, 2
62926, 62927, 1
62926, 62925, 2
62922, 62921, 2
62922, 62923, 1
62920, 62919, 2
62920, 62921, 1
62924, 62923, 2
62924, 62925, 1
62923, 62922, 2
62923, 62924, 1
62925, 62924, 2
62925, 62927, 2
62925, 62926, 1
62929, 62930, 1
62929, 62928, 2
62929, 62927, 2
62928, 62929, 1
62928, 62927, 2
62919, 62920, 1
62919, 62921, 2
62921, 62919, 2
62921, 62922, 1
62921, 62920, 2
62931, 62930, 2
