339924, 339922, 2
339924, 339923, 2
339924, 339925, 0
339924, 339921, 2
339926, 339927, 1
339926, 339925, 2
339927, 339926, 2
339923, 339924, 1
339923, 339922, 2
339923, 339921, 2
339922, 339924, 2
339922, 339925, 2
339922, 339923, 2
339922, 339921, 2
339925, 339924, 2
339925, 339926, 1
339925, 339922, 2
339921, 339924, 2
339921, 339922, 0
339921, 339923, 1
