222649, 222653, 2
222649, 222651, 3
222649, 222652, 1
222649, 222650, 2
222649, 222648, 2
222649, 222647, 2
222646, 222645, 2
222646, 222647, 1
222651, 222649, 2
222651, 222652, 2
222651, 222653, 2
222651, 222647, 2
222651, 222650, 2
222652, 222649, 2
222652, 222653, 1
222652, 222651, 2
222652, 222650, 2
222645, 222646, 1
222645, 222650, 2
222645, 222647, 2
222653, 222649, 2
222653, 222652, 2
222653, 222651, 2
222653, 222650, 2
222650, 222649, 2
222650, 222653, 2
222650, 222651, 2
222650, 222652, 2
222650, 222645, 2
222650, 222648, 2
222650, 222647, 2
222648, 222649, 1
222648, 222650, 2
222648, 222647, 2
222647, 222649, 2
222647, 222646, 2
222647, 222651, 2
222647, 222645, 2
222647, 222648, 1
222647, 222650, 2
