297218, 297219, 6
297218, 297220, 0
297218, 297221, 1
297218, 297217, 2
297224, 297223, 6
297224, 297220, 2
297224, 297227, 1
297224, 297222, 2
297224, 297225, 0
297224, 297226, 2
297219, 297218, 2
297219, 297220, 2
297219, 297215, 2
297219, 297221, 2
297219, 297217, 2
297225, 297224, 2
297225, 297223, 2
297225, 297220, 2
297225, 297227, 2
297225, 297221, 2
297225, 297226, 1
297234, 297233, 2
297234, 297231, 2
297234, 297235, 1
297227, 297224, 2
297227, 297223, 2
297227, 297228, 1
297227, 297232, 2
297227, 297229, 2
297227, 297225, 2
297227, 297226, 2
297232, 297228, 2
297232, 297227, 2
297232, 297233, 2
297232, 297231, 2
297232, 297226, 2
297232, 297230, 2
297229, 297228, 2
297229, 297227, 2
297229, 297230, 2
297215, 297219, 2
297215, 297216, 3
297215, 297217, 1
297221, 297219, 2
297221, 297220, 2
297221, 297222, 1
297221, 297218, 2
297221, 297223, 2
297221, 297225, 2
297216, 297215, 2
297216, 297217, 2
297228, 297232, 2
297228, 297229, 3
297228, 297226, 2
297228, 297227, 2
297228, 297230, 1
297223, 297224, 2
297223, 297225, 2
297223, 297220, 2
297223, 297227, 2
297223, 297222, 2
297223, 297221, 2
297223, 297226, 2
297220, 297224, 2
297220, 297219, 2
297220, 297221, 2
297220, 297222, 2
297220, 297218, 2
297220, 297223, 2
297220, 297226, 2
297220, 297225, 2
297235, 297233, 2
297235, 297234, 2
297233, 297232, 2
297233, 297226, 2
297233, 297231, 2
297233, 297235, 2
297233, 297234, 2
297222, 297224, 1
297222, 297223, 2
297222, 297220, 2
297222, 297221, 2
297217, 297219, 2
297217, 297215, 2
297217, 297218, 1
297217, 297216, 2
297231, 297233, 0
297231, 297232, 6
297231, 297234, 1
297231, 297226, 2
297231, 297230, 2
297226, 297224, 2
297226, 297223, 2
297226, 297220, 2
297226, 297225, 2
297226, 297227, 2
297226, 297228, 2
297226, 297233, 2
297226, 297232, 2
297226, 297231, 2
297226, 297230, 2
297230, 297228, 2
297230, 297232, 2
297230, 297229, 2
297230, 297231, 1
297230, 297226, 2
