215947, 215949, 2
215947, 215946, 2
215947, 215950, 2
215947, 215945, 2
215947, 215948, 1
215953, 215951, 2
215953, 215952, 2
215953, 215954, 1
215945, 215947, 1
215945, 215949, 2
215945, 215946, 6
215945, 215950, 2
215945, 215948, 2
215952, 215953, 2
215952, 215951, 2
215952, 215950, 2
215954, 215953, 2
215949, 215947, 2
215949, 215946, 2
215949, 215950, 2
215949, 215945, 2
215949, 215948, 2
215951, 215953, 1
215951, 215952, 8
215951, 215950, 2
215950, 215947, 2
215950, 215945, 2
215950, 215952, 2
215950, 215949, 2
215950, 215951, 1
215950, 215946, 2
215950, 215948, 2
215946, 215947, 2
215946, 215949, 2
215946, 215945, 2
215946, 215950, 2
215946, 215948, 2
215948, 215947, 2
215948, 215949, 6
215948, 215945, 2
215948, 215950, 1
215948, 215946, 2
