339369, 339367, 2
339369, 339370, 1
339369, 339368, 2
339370, 339369, 2
339370, 339371, 1
339370, 339368, 2
339370, 339367, 2
339368, 339369, 2
339368, 339370, 2
339368, 339367, 2
339367, 339369, 1
339367, 339370, 2
339367, 339368, 3
339371, 339370, 2
339371, 339372, 1
339372, 339371, 2
