258805, 258806, 3
258805, 258807, 2
258805, 258810, 2
258805, 258809, 2
258809, 258805, 2
258809, 258808, 2
258809, 258807, 2
258809, 258810, 1
258808, 258806, 2
258808, 258807, 2
258808, 258810, 2
258808, 258809, 2
258806, 258805, 2
258806, 258808, 2
258806, 258807, 1
258807, 258805, 2
258807, 258808, 8
258807, 258806, 2
258807, 258809, 1
258810, 258805, 2
258810, 258808, 2
258810, 258809, 2
