218371, 218372, 2
218371, 218373, 1
218371, 218370, 2
218372, 218371, 2
218372, 218377, 2
218372, 218375, 2
218372, 218376, 2
218372, 218387, 2
218372, 218381, 2
218372, 218379, 2
218372, 218373, 2
218372, 218370, 2
218372, 218374, 2
218372, 218385, 2
218372, 218378, 2
218373, 218371, 2
218373, 218372, 6
218373, 218370, 2
218373, 218374, 3
218373, 218375, 1
218373, 218378, 2
218373, 218384, 2
218377, 218379, 1
218377, 218372, 2
218377, 218380, 2
218377, 218375, 2
218377, 218376, 2
218377, 218378, 2
218375, 218379, 2
218375, 218372, 2
218375, 218373, 2
218375, 218377, 1
218375, 218374, 2
218375, 218376, 3
218375, 218384, 2
218375, 218378, 2
218386, 218387, 2
218386, 218385, 2
218386, 218388, 2
218386, 218384, 2
218386, 218382, 2
218376, 218377, 2
218376, 218374, 2
218376, 218375, 2
218376, 218372, 2
218376, 218380, 2
218384, 218387, 2
218384, 218381, 2
218384, 218379, 2
218384, 218373, 2
218384, 218370, 2
218384, 218383, 2
218384, 218375, 2
218384, 218385, 2
218384, 218386, 2
218384, 218378, 2
218384, 218388, 2
218387, 218372, 2
218387, 218384, 2
218387, 218385, 2
218387, 218386, 2
218387, 218378, 2
218387, 218388, 3
218381, 218379, 2
218381, 218372, 2
218381, 218383, 1
218381, 218380, 2
218381, 218385, 2
218381, 218378, 2
218381, 218384, 2
218381, 218382, 3
218379, 218381, 1
218379, 218372, 2
218379, 218380, 3
218379, 218377, 2
218379, 218375, 2
218379, 218378, 6
218379, 218384, 2
218388, 218387, 2
218388, 218386, 2
218388, 218384, 2
218370, 218371, 1
218370, 218372, 2
218370, 218373, 2
218370, 218374, 2
218370, 218378, 2
218370, 218384, 2
218383, 218381, 2
218383, 218385, 1
218383, 218378, 2
218383, 218384, 2
218383, 218382, 2
218380, 218381, 2
218380, 218379, 2
218380, 218377, 2
218380, 218376, 2
218380, 218378, 2
218380, 218382, 2
218374, 218375, 2
218374, 218370, 2
218374, 218372, 2
218374, 218376, 2
218374, 218373, 2
218385, 218387, 1
218385, 218381, 2
218385, 218372, 2
218385, 218383, 2
218385, 218386, 3
218385, 218378, 2
218385, 218384, 6
218378, 218372, 2
218378, 218377, 2
218378, 218375, 2
218378, 218384, 2
218378, 218387, 2
218378, 218381, 2
218378, 218379, 2
218378, 218373, 2
218378, 218370, 2
218378, 218383, 2
218378, 218380, 2
218378, 218385, 2
218378, 218382, 2
218382, 218383, 2
218382, 218380, 2
218382, 218381, 2
218382, 218386, 2
218382, 218378, 2
