168695, 168694, 2
168695, 168693, 2
168695, 168696, 2
168697, 168694, 2
168697, 168696, 2
168693, 168694, 1
168693, 168695, 2
168694, 168697, 2
168694, 168695, 8
168694, 168693, 2
168694, 168696, 1
168696, 168697, 1
168696, 168695, 2
168696, 168694, 2
