341331, 341330, 2
341331, 341332, 1
341329, 341330, 1
341329, 341328, 2
341329, 341327, 2
341329, 341326, 2
341328, 341329, 2
341328, 341326, 2
341328, 341327, 2
341332, 341331, 2
341332, 341330, 2
341332, 341333, 3
341330, 341331, 1
341330, 341329, 2
341330, 341332, 2
341326, 341329, 1
341326, 341328, 3
341326, 341327, 0
341333, 341332, 2
341327, 341329, 2
341327, 341328, 2
341327, 341326, 2
