120651, 120650, 2
120651, 120649, 2
120651, 120654, 1
120651, 120648, 2
120651, 120656, 2
120651, 120652, 3
120650, 120649, 2
120650, 120648, 2
120650, 120646, 2
120650, 120651, 1
120647, 120645, 2
120647, 120649, 2
120647, 120648, 1
120647, 120646, 2
120659, 120658, 2
120659, 120661, 2
120659, 120660, 1
120659, 120655, 2
120646, 120645, 2
120646, 120650, 2
120646, 120647, 2
120646, 120648, 2
120646, 120649, 2
120661, 120653, 2
120661, 120659, 2
120661, 120660, 2
120661, 120655, 2
120661, 120654, 2
120661, 120658, 2
120661, 120656, 2
120661, 120657, 2
120657, 120658, 1
120657, 120656, 2
120657, 120661, 2
120657, 120655, 2
120649, 120653, 2
120649, 120650, 2
120649, 120647, 2
120649, 120646, 2
120649, 120648, 2
120649, 120652, 2
120649, 120651, 2
120654, 120653, 2
120654, 120661, 2
120654, 120651, 2
120654, 120656, 2
120654, 120652, 2
120654, 120655, 1
120655, 120659, 2
120655, 120660, 2
120655, 120661, 1
120655, 120654, 2
120655, 120658, 2
120655, 120656, 0
120655, 120657, 2
120653, 120649, 2
120653, 120654, 2
120653, 120648, 2
120653, 120652, 2
120653, 120661, 2
120658, 120659, 1
120658, 120657, 2
120658, 120661, 2
120658, 120655, 2
120660, 120659, 2
120660, 120661, 2
120660, 120655, 2
120645, 120647, 1
120645, 120646, 3
120648, 120653, 2
120648, 120650, 1
120648, 120647, 2
120648, 120646, 2
120648, 120649, 3
120648, 120656, 2
120648, 120652, 2
120648, 120651, 2
120656, 120651, 2
120656, 120661, 2
120656, 120657, 1
120656, 120654, 2
120656, 120648, 2
120656, 120655, 2
120652, 120653, 3
120652, 120649, 2
120652, 120654, 2
120652, 120648, 2
120652, 120651, 2
