123109, 123117, 2
123109, 123115, 2
123109, 123108, 2
123109, 123104, 2
123109, 123119, 2
123109, 123113, 2
123109, 123114, 2
123109, 123118, 2
123109, 123111, 2
123109, 123103, 2
123109, 123112, 2
123109, 123107, 2
123109, 123110, 2
123109, 123105, 2
123109, 123106, 2
123098, 123097, 2
123098, 123096, 2
123098, 123105, 2
123098, 123100, 2
123098, 123099, 1
123097, 123096, 2
123097, 123107, 2
123097, 123105, 2
123097, 123098, 1
123119, 123118, 2
123119, 123107, 2
123119, 123109, 2
123113, 123114, 1
123113, 123111, 2
123113, 123116, 2
123113, 123112, 2
123113, 123107, 2
123113, 123109, 2
123102, 123105, 2
123102, 123103, 1
123102, 123101, 2
123112, 123114, 2
123112, 123115, 2
123112, 123111, 2
123112, 123106, 2
123112, 123108, 2
123112, 123110, 2
123112, 123107, 2
123112, 123109, 2
123112, 123113, 2
123103, 123102, 2
123103, 123104, 1
123103, 123109, 2
123103, 123105, 2
123103, 123107, 2
123103, 123106, 2
123101, 123107, 2
123101, 123102, 1
123101, 123105, 2
123101, 123100, 2
123107, 123109, 2
123107, 123108, 2
123107, 123097, 2
123107, 123096, 2
123107, 123104, 2
123107, 123119, 2
123107, 123113, 2
123107, 123099, 2
123107, 123114, 2
123107, 123112, 2
123107, 123103, 2
123107, 123101, 2
123107, 123110, 2
123107, 123105, 2
123107, 123100, 2
123107, 123106, 2
123107, 123115, 2
123105, 123098, 2
123105, 123108, 1
123105, 123097, 2
123105, 123096, 2
123105, 123104, 2
123105, 123109, 2
123105, 123103, 2
123105, 123099, 2
123105, 123102, 2
123105, 123100, 2
123105, 123101, 2
123105, 123107, 0
123105, 123106, 2
123106, 123108, 2
123106, 123112, 2
123106, 123110, 1
123106, 123107, 2
123106, 123109, 2
123106, 123105, 4
123106, 123104, 2
123106, 123103, 2
123117, 123118, 1
123117, 123109, 2
123117, 123116, 2
123108, 123114, 2
123108, 123112, 2
123108, 123110, 2
123108, 123111, 2
123108, 123107, 2
123108, 123109, 1
123108, 123105, 2
123108, 123106, 2
123096, 123097, 1
123096, 123107, 2
123096, 123105, 2
123096, 123098, 2
123104, 123107, 2
123104, 123109, 2
123104, 123105, 2
123104, 123106, 1
123104, 123103, 2
123115, 123114, 2
123115, 123107, 2
123115, 123109, 2
123115, 123112, 2
123115, 123116, 2
123100, 123107, 2
123100, 123099, 2
123100, 123105, 2
123100, 123098, 2
123100, 123101, 1
123099, 123107, 2
123099, 123105, 2
123099, 123098, 2
123099, 123100, 1
123114, 123115, 3
123114, 123112, 2
123114, 123116, 1
123114, 123108, 2
123114, 123107, 2
123114, 123109, 2
123114, 123113, 2
123118, 123117, 2
123118, 123119, 1
123118, 123109, 2
123111, 123110, 2
123111, 123109, 2
123111, 123112, 3
123111, 123113, 1
123111, 123108, 2
123116, 123117, 1
123116, 123114, 2
123116, 123115, 2
123116, 123113, 2
123110, 123112, 2
123110, 123108, 2
123110, 123111, 1
123110, 123107, 2
123110, 123109, 2
123110, 123106, 2
