186786, 186789, 2
186786, 186788, 2
186786, 186787, 1
186790, 186789, 2
186790, 186792, 2
186790, 186791, 2
186788, 186786, 2
186788, 186789, 2
186788, 186787, 2
186789, 186786, 2
186789, 186790, 3
186789, 186788, 2
186789, 186791, 1
186789, 186787, 2
186789, 186792, 2
186787, 186786, 2
186787, 186789, 1
186787, 186788, 6
186792, 186791, 2
186792, 186790, 2
186792, 186789, 2
186791, 186789, 2
186791, 186792, 3
186791, 186790, 2
