300079, 300080, 3
300079, 300081, 1
300080, 300079, 2
300080, 300082, 2
300080, 300081, 2
300080, 300083, 2
300082, 300080, 2
300082, 300081, 2
300082, 300083, 3
300083, 300082, 2
300083, 300080, 2
300083, 300081, 2
300081, 300079, 2
300081, 300080, 2
300081, 300082, 1
300081, 300083, 2
