127313, 127315, 2
127313, 127312, 2
127313, 127304, 2
127296, 127294, 2
127296, 127290, 2
127296, 127298, 1
127296, 127301, 2
127296, 127289, 2
127296, 127292, 2
127307, 127309, 1
127307, 127291, 2
127307, 127301, 2
127307, 127302, 2
127307, 127300, 2
127307, 127304, 2
127307, 127303, 2
127307, 127305, 2
127310, 127308, 2
127310, 127306, 2
127310, 127304, 2
127310, 127315, 2
127310, 127312, 1
127310, 127303, 2
127301, 127290, 2
127301, 127299, 2
127301, 127296, 2
127301, 127293, 2
127301, 127302, 1
127301, 127294, 2
127301, 127307, 2
127301, 127306, 2
127301, 127300, 2
127301, 127289, 2
127301, 127295, 2
127301, 127305, 2
127315, 127310, 2
127315, 127309, 2
127315, 127308, 2
127315, 127314, 2
127315, 127311, 2
127315, 127313, 2
127315, 127304, 2
127315, 127303, 2
127315, 127316, 1
127315, 127305, 2
127291, 127297, 2
127291, 127307, 2
127291, 127293, 0
127291, 127289, 2
127291, 127304, 2
127291, 127300, 2
127291, 127305, 2
127291, 127295, 2
127291, 127290, 2
127285, 127286, 1
127285, 127283, 2
127285, 127282, 2
127285, 127284, 2
127311, 127309, 2
127311, 127305, 2
127311, 127315, 2
127311, 127314, 1
127311, 127304, 2
127314, 127309, 2
127314, 127305, 2
127314, 127315, 2
127314, 127311, 2
127314, 127304, 2
127304, 127310, 2
127304, 127306, 6
127304, 127313, 2
127304, 127315, 1
127304, 127312, 2
127304, 127291, 2
127304, 127309, 2
127304, 127307, 2
127304, 127308, 2
127304, 127314, 2
127304, 127300, 2
127304, 127303, 2
127304, 127311, 2
127304, 127305, 4
127281, 127283, 2
127281, 127280, 2
127281, 127284, 2
127281, 127282, 1
127300, 127297, 2
127300, 127307, 2
127300, 127291, 2
127300, 127304, 2
127300, 127301, 2
127300, 127290, 2
127300, 127295, 2
127300, 127303, 2
127300, 127302, 2
127300, 127305, 2
127295, 127297, 1
127295, 127290, 2
127295, 127293, 2
127295, 127301, 2
127295, 127300, 2
127295, 127289, 2
127295, 127291, 2
127303, 127310, 2
127303, 127299, 2
127303, 127307, 2
127303, 127308, 2
127303, 127306, 2
127303, 127304, 1
127303, 127302, 2
127303, 127300, 2
127303, 127315, 2
127303, 127305, 2
127290, 127297, 2
127290, 127299, 2
127290, 127296, 2
127290, 127293, 2
127290, 127301, 1
127290, 127292, 6
127290, 127294, 2
127290, 127305, 2
127290, 127306, 2
127290, 127300, 2
127290, 127298, 2
127290, 127289, 2
127290, 127295, 2
127290, 127291, 4
127287, 127286, 2
127287, 127288, 2
127287, 127289, 2
127299, 127290, 2
127299, 127298, 2
127299, 127302, 2
127299, 127301, 2
127299, 127306, 2
127299, 127303, 2
127299, 127308, 2
127280, 127281, 1
127288, 127286, 2
127288, 127287, 2
127288, 127289, 2
127293, 127291, 2
127293, 127289, 2
127293, 127301, 2
127293, 127305, 2
127293, 127295, 1
127293, 127290, 2
127286, 127287, 3
127286, 127285, 2
127286, 127288, 0
127286, 127289, 1
127286, 127283, 2
127286, 127282, 2
127302, 127299, 2
127302, 127307, 2
127302, 127306, 2
127302, 127301, 2
127302, 127300, 2
127302, 127303, 1
127302, 127305, 2
127292, 127294, 3
127292, 127290, 2
127292, 127289, 2
127292, 127296, 1
127317, 127316, 2
127294, 127290, 2
127294, 127301, 2
127294, 127292, 2
127294, 127289, 2
127294, 127296, 2
127283, 127286, 2
127283, 127281, 2
127283, 127285, 2
127283, 127282, 2
127283, 127284, 1
127309, 127307, 2
127309, 127314, 2
127309, 127311, 1
127309, 127304, 2
127309, 127315, 2
127309, 127305, 2
127282, 127283, 1
127282, 127281, 2
127282, 127286, 2
127282, 127285, 2
127282, 127284, 2
127284, 127283, 2
127284, 127281, 2
127284, 127285, 1
127284, 127282, 2
127298, 127299, 1
127298, 127296, 2
127298, 127290, 2
127297, 127300, 1
127297, 127305, 2
127297, 127295, 2
127297, 127291, 2
127297, 127290, 2
127306, 127310, 1
127306, 127299, 2
127306, 127303, 2
127306, 127290, 2
127306, 127304, 2
127306, 127301, 2
127306, 127302, 2
127306, 127308, 3
127305, 127297, 2
127305, 127291, 2
127305, 127293, 2
127305, 127301, 2
127305, 127315, 2
127305, 127303, 2
127305, 127309, 2
127305, 127307, 0
127305, 127311, 2
127305, 127314, 2
127305, 127304, 2
127305, 127300, 2
127305, 127302, 2
127305, 127290, 2
127289, 127287, 2
127289, 127294, 2
127289, 127291, 2
127289, 127288, 2
127289, 127293, 2
127289, 127286, 2
127289, 127301, 2
127289, 127290, 1
127289, 127295, 2
127289, 127292, 2
127289, 127296, 2
127312, 127313, 1
127312, 127304, 2
127312, 127310, 2
127316, 127315, 2
127316, 127317, 1
127308, 127310, 2
127308, 127299, 2
127308, 127306, 2
127308, 127304, 2
127308, 127315, 2
127308, 127303, 2
