222700, 222702, 2
222700, 222704, 2
222700, 222701, 2
222700, 222699, 2
222700, 222703, 2
222704, 222700, 2
222704, 222707, 2
222704, 222705, 2
222704, 222706, 2
222704, 222702, 2
222704, 222699, 2
222704, 222703, 2
222707, 222706, 2
222707, 222704, 2
222705, 222706, 2
222705, 222704, 2
222705, 222701, 2
222705, 222703, 2
222706, 222703, 2
222706, 222704, 2
222706, 222707, 1
222706, 222705, 2
222702, 222700, 2
222702, 222704, 2
222702, 222701, 2
222702, 222699, 2
222702, 222703, 1
222699, 222702, 1
222699, 222700, 6
222699, 222704, 2
222699, 222701, 3
222701, 222702, 2
222701, 222700, 2
222701, 222699, 2
222701, 222705, 2
222703, 222706, 1
222703, 222702, 2
222703, 222700, 2
222703, 222704, 2
222703, 222705, 3
