259210, 259209, 2
259210, 259208, 2
259208, 259210, 2
259208, 259207, 2
259208, 259209, 1
259208, 259206, 2
259204, 259203, 2
259204, 259205, 2
259204, 259206, 2
259205, 259207, 2
259205, 259204, 2
259205, 259206, 2
259203, 259204, 3
259203, 259206, 1
259209, 259210, 3
259209, 259208, 2
259207, 259205, 2
259207, 259208, 2
259207, 259206, 2
259206, 259205, 2
259206, 259203, 2
259206, 259207, 3
259206, 259208, 1
259206, 259204, 2
