170961, 170965, 2
170961, 170960, 2
170961, 170962, 1
170963, 170964, 1
170963, 170965, 2
170963, 170962, 2
170962, 170964, 2
170962, 170961, 2
170962, 170965, 2
170962, 170963, 1
170964, 170963, 2
170964, 170965, 3
170964, 170962, 2
170965, 170964, 2
170965, 170961, 2
170965, 170963, 2
170965, 170960, 2
170965, 170962, 2
170960, 170961, 1
170960, 170965, 2
