125769, 125765, 2
125769, 125771, 2
125769, 125761, 2
125769, 125766, 2
125769, 125770, 1
125769, 125768, 2
125762, 125764, 2
125762, 125759, 2
125762, 125763, 1
125762, 125760, 2
125762, 125761, 2
125762, 125766, 2
125762, 125747, 2
125746, 125747, 1
125746, 125745, 2
125765, 125769, 2
125765, 125764, 2
125765, 125759, 2
125765, 125763, 2
125765, 125761, 2
125765, 125766, 2
125765, 125770, 2
125765, 125768, 2
125771, 125769, 2
125771, 125761, 2
125771, 125770, 2
125771, 125768, 2
125771, 125760, 2
125740, 125742, 2
125740, 125741, 1
125740, 125739, 2
125740, 125743, 2
125758, 125757, 2
125758, 125759, 1
125758, 125760, 2
125770, 125769, 2
125770, 125765, 2
125770, 125771, 2
125770, 125761, 2
125770, 125766, 2
125770, 125768, 2
125748, 125747, 2
125748, 125760, 2
125748, 125767, 2
125748, 125761, 2
125748, 125749, 3
125748, 125750, 1
125756, 125757, 2
125756, 125755, 2
125756, 125754, 2
125745, 125742, 2
125745, 125746, 1
125745, 125744, 2
125741, 125742, 3
125741, 125740, 2
125741, 125743, 1
125750, 125748, 2
125750, 125760, 2
125750, 125767, 2
125750, 125751, 1
125750, 125747, 2
125750, 125749, 2
125750, 125761, 2
125749, 125748, 2
125749, 125750, 2
125752, 125767, 2
125752, 125751, 2
125752, 125747, 2
125752, 125760, 2
125752, 125753, 1
125768, 125769, 3
125768, 125765, 2
125768, 125760, 2
125768, 125771, 1
125768, 125761, 2
125768, 125766, 2
125768, 125770, 2
125751, 125750, 2
125751, 125747, 2
125751, 125752, 1
125743, 125742, 2
125743, 125741, 2
125743, 125740, 2
125743, 125744, 1
125763, 125762, 2
125763, 125764, 3
125763, 125766, 1
125763, 125761, 2
125763, 125765, 2
125742, 125743, 2
125742, 125745, 2
125742, 125741, 2
125742, 125739, 2
125742, 125740, 2
125742, 125747, 2
125742, 125744, 2
125761, 125769, 2
125761, 125762, 4
125761, 125765, 2
125761, 125763, 2
125761, 125771, 2
125761, 125770, 2
125761, 125748, 2
125761, 125764, 2
125761, 125759, 2
125761, 125760, 2
125761, 125767, 6
125761, 125750, 2
125761, 125766, 2
125761, 125747, 2
125761, 125768, 2
125755, 125756, 1
125755, 125757, 2
125755, 125754, 2
125744, 125742, 2
125744, 125743, 2
125744, 125745, 1
125760, 125762, 2
125760, 125771, 2
125760, 125747, 2
125760, 125761, 1
125760, 125758, 2
125760, 125754, 2
125760, 125748, 2
125760, 125759, 2
125760, 125767, 2
125760, 125750, 2
125760, 125757, 2
125760, 125766, 2
125760, 125752, 2
125760, 125768, 2
125754, 125760, 2
125754, 125756, 2
125754, 125753, 2
125754, 125747, 2
125754, 125757, 1
125754, 125755, 3
125747, 125762, 2
125747, 125746, 2
125747, 125742, 2
125747, 125761, 2
125747, 125753, 2
125747, 125754, 2
125747, 125748, 3
125747, 125759, 2
125747, 125760, 1
125747, 125767, 2
125747, 125751, 2
125747, 125750, 2
125747, 125757, 2
125747, 125752, 2
125764, 125761, 2
125764, 125766, 2
125764, 125762, 2
125764, 125763, 2
125764, 125765, 1
125759, 125762, 2
125759, 125765, 2
125759, 125760, 2
125759, 125761, 2
125759, 125758, 2
125759, 125747, 2
125753, 125747, 2
125753, 125752, 2
125753, 125754, 1
125767, 125748, 2
125767, 125747, 2
125767, 125760, 2
125767, 125750, 2
125767, 125761, 2
125767, 125752, 2
125739, 125742, 2
125739, 125740, 1
125757, 125756, 2
125757, 125760, 2
125757, 125758, 1
125757, 125747, 2
125757, 125755, 2
125757, 125754, 2
125766, 125769, 2
125766, 125762, 2
125766, 125764, 2
125766, 125765, 2
125766, 125763, 2
125766, 125760, 2
125766, 125761, 2
125766, 125770, 2
125766, 125768, 1
