218101, 218098, 2
218101, 218099, 2
218101, 218100, 2
218101, 218102, 2
218090, 218092, 2
218090, 218091, 2
218090, 218087, 2
218090, 218085, 2
218090, 218086, 2
218090, 218088, 2
218090, 218089, 2
218085, 218094, 2
218085, 218090, 2
218085, 218088, 2
218085, 218095, 2
218085, 218100, 2
218085, 218093, 2
218085, 218092, 2
218085, 218102, 2
218085, 218086, 2
218085, 218089, 2
218085, 218087, 2
218085, 218091, 2
218085, 218097, 2
218088, 218090, 2
218088, 218091, 2
218088, 218087, 2
218088, 218085, 2
218088, 218086, 2
218088, 218093, 2
218088, 218089, 2
218096, 218098, 2
218096, 218092, 2
218096, 218094, 2
218096, 218095, 2
218096, 218097, 1
218095, 218092, 2
218095, 218096, 1
218095, 218094, 2
218095, 218093, 2
218095, 218085, 2
218100, 218101, 3
218100, 218102, 1
218100, 218085, 2
218100, 218098, 2
218100, 218099, 2
218100, 218097, 2
218093, 218092, 2
218093, 218091, 2
218093, 218085, 2
218093, 218095, 2
218093, 218094, 2
218093, 218088, 2
218103, 218102, 2
218092, 218091, 2
218092, 218085, 2
218092, 218096, 2
218092, 218094, 2
218092, 218095, 2
218092, 218093, 2
218092, 218090, 2
218089, 218090, 1
218089, 218087, 2
218089, 218085, 2
218089, 218086, 2
218089, 218088, 2
218089, 218091, 2
218102, 218101, 2
218102, 218103, 1
218102, 218100, 2
218102, 218085, 2
218098, 218101, 2
218098, 218099, 2
218098, 218100, 2
218098, 218096, 2
218098, 218097, 2
218086, 218090, 2
218086, 218087, 3
218086, 218085, 6
218086, 218089, 2
218086, 218088, 0
218086, 218091, 1
218099, 218101, 2
218099, 218097, 2
218099, 218100, 2
218099, 218098, 2
218094, 218092, 2
218094, 218091, 2
218094, 218085, 2
218094, 218096, 2
218094, 218095, 1
218094, 218093, 2
218087, 218090, 2
218087, 218091, 2
218087, 218085, 2
218087, 218086, 2
218087, 218088, 2
218087, 218089, 1
218091, 218092, 3
218091, 218090, 2
218091, 218087, 2
218091, 218085, 2
218091, 218086, 2
218091, 218094, 1
218091, 218088, 2
218091, 218093, 0
218091, 218089, 2
218097, 218098, 3
218097, 218096, 2
218097, 218099, 8
218097, 218100, 1
218097, 218085, 2
