217689, 217690, 3
217689, 217691, 8
217689, 217688, 2
217689, 217692, 1
217690, 217689, 2
217690, 217692, 2
217690, 217693, 2
217690, 217691, 2
217690, 217688, 2
217681, 217683, 8
217681, 217682, 3
217681, 217684, 1
217681, 217680, 2
217680, 217682, 2
217680, 217681, 1
217694, 217692, 2
217694, 217693, 2
217684, 217686, 1
217684, 217683, 2
217684, 217682, 2
217684, 217681, 2
217684, 217685, 3
217685, 217686, 2
217685, 217683, 2
217685, 217682, 2
217685, 217684, 2
217692, 217689, 2
217692, 217690, 2
217692, 217693, 3
217692, 217691, 2
217692, 217694, 1
217682, 217683, 2
217682, 217685, 2
217682, 217684, 2
217682, 217680, 2
217682, 217681, 2
217687, 217686, 2
217687, 217688, 2
217688, 217689, 1
217688, 217690, 2
217688, 217687, 2
217688, 217686, 2
217686, 217685, 2
217686, 217687, 8
217686, 217688, 1
217686, 217684, 2
217683, 217682, 2
217683, 217684, 2
217683, 217685, 2
217683, 217681, 2
217693, 217690, 2
217693, 217694, 2
217693, 217691, 2
217693, 217692, 2
217691, 217689, 2
217691, 217690, 2
217691, 217693, 2
217691, 217692, 2
