185106, 185105, 2
185106, 185107, 1
185107, 185106, 2
185107, 185108, 1
185103, 185102, 2
185103, 185104, 1
185105, 185106, 1
185105, 185104, 2
185109, 185111, 2
185109, 185108, 2
185109, 185110, 1
185108, 185109, 1
185108, 185107, 2
185102, 185101, 2
185102, 185103, 1
185111, 185109, 2
185111, 185110, 2
185101, 185099, 2
185101, 185102, 1
185101, 185100, 2
185104, 185105, 1
185104, 185103, 2
185110, 185109, 2
185110, 185111, 1
185099, 185100, 1
185099, 185101, 2
185100, 185099, 2
185100, 185101, 1
