253313, 253312, 2
253313, 253314, 2
253313, 253311, 2
253313, 253315, 2
253313, 253310, 2
253305, 253307, 2
253305, 253304, 2
253305, 253306, 1
253305, 253308, 2
253302, 253304, 2
253302, 253303, 1
253302, 253301, 2
253301, 253302, 1
253301, 253300, 2
253314, 253313, 2
253314, 253312, 2
253314, 253315, 1
253314, 253311, 2
253314, 253310, 2
253311, 253313, 8
253311, 253312, 0
253311, 253314, 1
253311, 253315, 2
253311, 253310, 2
253315, 253313, 2
253315, 253312, 2
253315, 253314, 2
253315, 253311, 2
253300, 253301, 1
253310, 253313, 2
253310, 253314, 2
253310, 253311, 1
253310, 253309, 2
253312, 253313, 2
253312, 253314, 2
253312, 253311, 2
253312, 253315, 2
253304, 253308, 1
253304, 253302, 2
253304, 253306, 2
253304, 253307, 2
253304, 253303, 2
253304, 253305, 0
253308, 253304, 2
253308, 253306, 2
253308, 253307, 2
253308, 253309, 1
253308, 253305, 2
253306, 253308, 2
253306, 253304, 2
253306, 253307, 1
253306, 253305, 2
253307, 253304, 2
253307, 253306, 2
253307, 253308, 2
253307, 253305, 2
253303, 253304, 1
253303, 253302, 2
253309, 253308, 2
253309, 253310, 1
