121844, 121842, 2
121844, 121839, 2
121844, 121845, 2
121844, 121843, 2
121835, 121836, 1
121835, 121834, 2
121835, 121837, 2
121847, 121842, 2
121847, 121850, 2
121847, 121848, 3
121847, 121849, 2
121847, 121851, 2
121847, 121846, 2
121847, 121845, 2
121847, 121852, 1
121843, 121844, 8
121843, 121842, 2
121843, 121839, 2
121843, 121841, 2
121843, 121846, 2
121843, 121845, 1
121851, 121850, 2
121851, 121847, 2
121851, 121852, 2
121851, 121849, 2
121846, 121842, 2
121846, 121845, 2
121846, 121847, 1
121846, 121843, 2
121834, 121836, 2
121834, 121840, 2
121834, 121835, 3
121834, 121837, 1
121834, 121839, 2
121845, 121844, 2
121845, 121842, 2
121845, 121847, 2
121845, 121843, 2
121845, 121848, 2
121845, 121846, 2
121845, 121849, 2
121838, 121840, 6
121838, 121841, 1
121838, 121837, 2
121838, 121839, 4
121838, 121836, 2
121842, 121844, 2
121842, 121847, 2
121842, 121841, 2
121842, 121846, 1
121842, 121843, 3
121842, 121845, 2
121840, 121841, 2
121840, 121834, 2
121840, 121837, 2
121840, 121838, 2
121850, 121851, 2
121850, 121849, 2
121850, 121847, 2
121837, 121836, 2
121837, 121838, 1
121837, 121839, 2
121837, 121840, 2
121837, 121841, 2
121837, 121834, 2
121837, 121835, 2
121839, 121844, 2
121839, 121838, 2
121839, 121837, 2
121839, 121843, 2
121839, 121836, 2
121839, 121841, 2
121839, 121834, 2
121848, 121845, 2
121848, 121847, 2
121848, 121852, 2
121848, 121849, 1
121836, 121835, 2
121836, 121837, 2
121836, 121839, 2
121836, 121841, 2
121836, 121834, 2
121836, 121838, 2
121841, 121842, 1
121841, 121836, 2
121841, 121838, 2
121841, 121837, 2
121841, 121839, 2
121841, 121843, 2
121841, 121840, 2
121852, 121851, 2
121852, 121849, 2
121852, 121847, 2
121852, 121848, 2
121849, 121847, 2
121849, 121848, 2
121849, 121851, 1
121849, 121850, 8
121849, 121845, 2
121849, 121852, 2
