165826, 165825, 2
165808, 165798, 2
165808, 165799, 2
165808, 165805, 2
165808, 165807, 2
165808, 165811, 2
165808, 165810, 2
165806, 165798, 2
165806, 165809, 3
165806, 165801, 2
165806, 165803, 2
165806, 165799, 2
165806, 165811, 2
165818, 165820, 2
165818, 165819, 1
165818, 165810, 2
165818, 165817, 2
165799, 165808, 2
165799, 165798, 2
165799, 165794, 2
165799, 165806, 2
165799, 165811, 1
165799, 165804, 2
165799, 165810, 2
165799, 165801, 6
165799, 165797, 2
165799, 165805, 2
165799, 165809, 2
165799, 165802, 2
165799, 165800, 4
165799, 165807, 2
165799, 165803, 2
165792, 165794, 2
165792, 165791, 2
165792, 165793, 1
165796, 165801, 2
165796, 165798, 2
165796, 165794, 2
165796, 165797, 1
165796, 165795, 2
165815, 165813, 2
165815, 165814, 2
165815, 165816, 1
165824, 165823, 2
165824, 165822, 2
165824, 165821, 2
165824, 165825, 1
165824, 165819, 2
165822, 165820, 2
165822, 165824, 2
165822, 165821, 2
165822, 165825, 2
165822, 165823, 1
165809, 165806, 2
165809, 165811, 2
165809, 165798, 2
165809, 165799, 2
165801, 165794, 2
165801, 165796, 2
165801, 165799, 2
165801, 165803, 0
165801, 165806, 1
165801, 165795, 2
165801, 165798, 2
165820, 165822, 2
165820, 165818, 2
165820, 165817, 2
165820, 165819, 2
165820, 165821, 1
165820, 165816, 2
165805, 165808, 2
165805, 165798, 2
165805, 165799, 2
165805, 165802, 2
165805, 165800, 2
165805, 165807, 1
165805, 165811, 2
165805, 165804, 2
165805, 165810, 2
165800, 165804, 2
165800, 165797, 2
165800, 165799, 2
165800, 165802, 1
165800, 165805, 2
165800, 165794, 2
165800, 165811, 2
165800, 165795, 2
165800, 165798, 2
165795, 165801, 2
165795, 165800, 2
165795, 165794, 2
165795, 165796, 3
165795, 165798, 1
165813, 165811, 2
165813, 165812, 2
165813, 165815, 2
165813, 165814, 1
165813, 165810, 2
165804, 165807, 2
165804, 165799, 2
165804, 165802, 2
165804, 165805, 2
165804, 165794, 2
165804, 165800, 2
165804, 165810, 2
165798, 165808, 2
165798, 165806, 2
165798, 165799, 1
165798, 165796, 2
165798, 165811, 2
165798, 165797, 2
165798, 165809, 2
165798, 165801, 2
165798, 165805, 2
165798, 165794, 2
165798, 165800, 2
165798, 165795, 2
165814, 165813, 2
165814, 165815, 1
165816, 165820, 2
165816, 165815, 2
165816, 165817, 1
165797, 165796, 2
165797, 165799, 2
165797, 165800, 2
165797, 165794, 2
165797, 165811, 2
165797, 165798, 2
165803, 165801, 2
165803, 165806, 2
165803, 165799, 2
165794, 165804, 2
165794, 165798, 2
165794, 165797, 2
165794, 165799, 2
165794, 165792, 2
165794, 165796, 2
165794, 165811, 2
165794, 165793, 2
165794, 165791, 2
165794, 165801, 2
165794, 165800, 2
165794, 165795, 1
165812, 165813, 1
165812, 165811, 2
165811, 165808, 2
165811, 165798, 2
165811, 165799, 2
165811, 165794, 2
165811, 165813, 2
165811, 165806, 2
165811, 165810, 2
165811, 165800, 2
165811, 165797, 2
165811, 165809, 2
165811, 165805, 2
165811, 165807, 2
165811, 165812, 1
165825, 165826, 3
165825, 165821, 2
165825, 165824, 2
165825, 165822, 2
165810, 165804, 2
165810, 165819, 2
165810, 165818, 2
165810, 165813, 2
165810, 165799, 2
165810, 165805, 2
165810, 165807, 2
165810, 165811, 2
165810, 165808, 2
165823, 165821, 2
165823, 165824, 1
165823, 165822, 2
165793, 165792, 2
165793, 165794, 1
165791, 165792, 1
165791, 165794, 2
165802, 165800, 2
165802, 165805, 1
165802, 165804, 3
165802, 165799, 2
165821, 165823, 2
165821, 165824, 2
165821, 165822, 0
165821, 165819, 2
165821, 165820, 2
165821, 165825, 2
165819, 165824, 2
165819, 165818, 2
165819, 165817, 2
165819, 165821, 2
165819, 165820, 2
165819, 165810, 2
165807, 165804, 2
165807, 165799, 2
165807, 165805, 2
165807, 165811, 2
165807, 165808, 6
165807, 165810, 3
165817, 165820, 1
165817, 165819, 2
165817, 165818, 3
165817, 165816, 2
