217660, 217662, 2
217660, 217658, 2
217660, 217659, 2
217660, 217661, 2
217653, 217652, 2
217653, 217651, 2
217653, 217654, 2
217653, 217656, 2
217657, 217658, 2
217657, 217656, 2
217654, 217655, 0
217654, 217653, 2
217654, 217652, 2
217654, 217651, 2
217654, 217656, 1
217661, 217660, 2
217661, 217662, 2
217661, 217664, 2
217661, 217659, 2
217662, 217660, 2
217662, 217663, 0
217662, 217664, 1
217662, 217659, 2
217662, 217661, 2
217658, 217660, 2
217658, 217657, 2
217658, 217659, 1
217658, 217656, 2
217659, 217660, 3
217659, 217662, 1
217659, 217658, 2
217659, 217661, 8
217655, 217651, 2
217655, 217654, 2
217655, 217656, 2
217663, 217662, 2
217663, 217664, 2
217650, 217652, 2
217650, 217651, 1
217652, 217653, 2
217652, 217654, 2
217652, 217650, 2
217652, 217651, 2
217651, 217652, 3
217651, 217653, 8
217651, 217654, 1
217651, 217655, 2
217651, 217650, 2
217664, 217662, 2
217664, 217663, 2
217664, 217661, 2
217656, 217655, 2
217656, 217653, 2
217656, 217657, 8
217656, 217658, 1
217656, 217654, 2
