17052, 17053, 1
17052, 17055, 2
17052, 17054, 2
17056, 17055, 2
17056, 17057, 2
17056, 17059, 2
17056, 17054, 2
17060, 17062, 2
17060, 17058, 2
17060, 17059, 2
17060, 17061, 2
17055, 17053, 2
17055, 17052, 2
17055, 17058, 2
17055, 17057, 2
17055, 17056, 2
17055, 17059, 2
17055, 17054, 2
17054, 17053, 2
17054, 17052, 2
17054, 17058, 2
17054, 17057, 2
17054, 17056, 2
17054, 17055, 2
17053, 17052, 2
17053, 17058, 2
17053, 17054, 0
17053, 17057, 1
17053, 17055, 3
17058, 17053, 2
17058, 17057, 2
17058, 17059, 2
17058, 17054, 2
17058, 17063, 2
17058, 17064, 2
17058, 17060, 2
17058, 17055, 2
17058, 17061, 2
17057, 17053, 2
17057, 17058, 0
17057, 17059, 3
17057, 17056, 2
17057, 17063, 2
17057, 17055, 2
17057, 17054, 2
17057, 17061, 1
17063, 17058, 2
17063, 17057, 2
17063, 17059, 2
17063, 17062, 2
17063, 17064, 2
17063, 17061, 2
17062, 17063, 2
17062, 17059, 2
17062, 17064, 2
17062, 17061, 2
17062, 17060, 2
17064, 17062, 2
17064, 17063, 2
17064, 17058, 2
17064, 17061, 2
17059, 17058, 2
17059, 17057, 2
17059, 17056, 2
17059, 17060, 2
17059, 17062, 2
17059, 17063, 2
17059, 17055, 2
17059, 17061, 2
17061, 17064, 1
17061, 17058, 2
17061, 17057, 2
17061, 17059, 2
17061, 17060, 2
17061, 17062, 3
17061, 17063, 0
