302022, 302021, 2
302022, 302019, 2
302022, 302020, 2
302017, 302018, 1
302017, 302016, 2
302017, 302015, 2
302016, 302021, 2
302016, 302018, 2
302016, 302017, 2
302016, 302019, 2
302016, 302015, 2
302021, 302022, 3
302021, 302016, 2
302021, 302020, 2
302018, 302017, 2
302018, 302019, 1
302018, 302016, 2
302020, 302021, 1
302020, 302022, 2
302020, 302019, 2
302019, 302022, 2
302019, 302020, 1
302019, 302016, 2
302019, 302018, 2
302015, 302017, 1
302015, 302016, 6
