300360, 300358, 2
300360, 300359, 2
300356, 300358, 1
300356, 300359, 2
300356, 300357, 8
300356, 300355, 2
300358, 300359, 6
300358, 300360, 1
300358, 300357, 2
300358, 300355, 2
300358, 300356, 2
300355, 300358, 2
300355, 300359, 2
300355, 300356, 1
300357, 300358, 2
300357, 300359, 2
300357, 300356, 2
300359, 300358, 2
300359, 300360, 2
300359, 300357, 2
300359, 300355, 2
300359, 300356, 2
