222179, 222180, 2
222179, 222178, 2
222179, 222181, 2
222177, 222176, 2
222177, 222178, 2
222177, 222175, 2
222176, 222177, 2
222176, 222178, 2
222176, 222175, 2
222181, 222179, 2
222181, 222180, 2
222181, 222178, 2
222181, 222182, 1
222178, 222179, 0
222178, 222177, 2
222178, 222176, 2
222178, 222180, 1
222178, 222181, 2
222178, 222175, 2
222182, 222181, 2
222180, 222179, 2
222180, 222181, 1
222180, 222178, 2
222175, 222177, 8
222175, 222176, 0
222175, 222178, 1
