128439, 128423, 2
128439, 128436, 2
128439, 128438, 2
128439, 128440, 2
128438, 128437, 2
128438, 128420, 2
128438, 128421, 2
128438, 128436, 2
128438, 128439, 3
128438, 128440, 1
128430, 128429, 2
128430, 128427, 2
128430, 128431, 2
128430, 128436, 2
128430, 128423, 2
128405, 128401, 2
128405, 128408, 1
128405, 128398, 2
128405, 128413, 2
128405, 128407, 3
128405, 128403, 2
128429, 128421, 2
128429, 128427, 2
128429, 128431, 1
128429, 128430, 3
128429, 128428, 2
128407, 128424, 2
128407, 128401, 2
128407, 128413, 2
128407, 128408, 2
128407, 128398, 2
128407, 128412, 2
128407, 128405, 2
128407, 128417, 2
128407, 128414, 2
128432, 128433, 1
128432, 128434, 2
128432, 128431, 2
128426, 128423, 2
128426, 128420, 2
128426, 128421, 2
128426, 128425, 2
128426, 128427, 3
128426, 128428, 1
128402, 128413, 2
128402, 128406, 2
128402, 128404, 1
128402, 128398, 2
128433, 128434, 1
128433, 128432, 2
128415, 128424, 2
128415, 128410, 2
128415, 128408, 2
128415, 128398, 2
128415, 128413, 2
128415, 128416, 1
128415, 128411, 2
128415, 128419, 2
128415, 128414, 2
128431, 128429, 2
128431, 128432, 1
128431, 128430, 2
128431, 128421, 2
128431, 128420, 2
128410, 128415, 2
128410, 128409, 2
128410, 128414, 2
128410, 128398, 2
128410, 128413, 2
128410, 128417, 2
128410, 128406, 2
128428, 128429, 1
128428, 128427, 2
128428, 128426, 2
128428, 128421, 2
128421, 128420, 2
128421, 128417, 2
128421, 128425, 2
128421, 128434, 2
128421, 128426, 2
128421, 128428, 2
128421, 128418, 2
128421, 128424, 2
128421, 128431, 2
128421, 128414, 2
128421, 128438, 2
128421, 128429, 2
128421, 128412, 2
128421, 128403, 2
128421, 128435, 2
128421, 128408, 2
128425, 128424, 2
128425, 128423, 2
128425, 128426, 1
128425, 128421, 2
128416, 128424, 2
128416, 128415, 2
128416, 128419, 1
128416, 128414, 2
128422, 128413, 2
128422, 128423, 1
128422, 128414, 2
128422, 128419, 2
128427, 128429, 2
128427, 128423, 2
128427, 128426, 2
128427, 128428, 2
128427, 128430, 2
128406, 128410, 2
128406, 128402, 2
128406, 128409, 1
128406, 128404, 2
128406, 128398, 2
128411, 128412, 1
128411, 128413, 2
128411, 128408, 2
128411, 128398, 2
128411, 128415, 2
128424, 128423, 2
128424, 128413, 2
128424, 128414, 2
128424, 128421, 2
128424, 128415, 2
128424, 128425, 1
128424, 128416, 2
128424, 128419, 2
128424, 128407, 2
128424, 128420, 2
128420, 128424, 2
128420, 128431, 2
128420, 128414, 2
128420, 128421, 0
128420, 128435, 2
128420, 128413, 2
128420, 128434, 2
128420, 128438, 2
128420, 128426, 2
128420, 128418, 2
128404, 128406, 1
128404, 128398, 2
128404, 128402, 2
128437, 128434, 2
128437, 128436, 2
128437, 128435, 2
128437, 128438, 1
128413, 128420, 2
128413, 128423, 2
128413, 128405, 2
128413, 128407, 2
128413, 128411, 2
128413, 128402, 2
128413, 128424, 2
128413, 128415, 2
128413, 128410, 2
128413, 128414, 1
128413, 128398, 2
128413, 128412, 2
128413, 128422, 2
128413, 128417, 2
128413, 128419, 2
128413, 128408, 2
128434, 128433, 2
128434, 128437, 2
128434, 128432, 2
128434, 128420, 2
128434, 128421, 2
128434, 128435, 1
128434, 128436, 2
128403, 128401, 2
128403, 128421, 2
128403, 128398, 2
128403, 128405, 2
128403, 128408, 2
128403, 128417, 2
128403, 128399, 2
128418, 128417, 2
128418, 128420, 1
128418, 128421, 2
128418, 128414, 2
128440, 128439, 2
128440, 128438, 2
128399, 128400, 1
128399, 128403, 2
128399, 128398, 2
128400, 128401, 1
128400, 128398, 2
128400, 128399, 2
128401, 128400, 2
128401, 128405, 1
128401, 128407, 2
128401, 128403, 0
128401, 128398, 2
128435, 128437, 1
128435, 128436, 3
128435, 128420, 2
128435, 128421, 2
128435, 128434, 2
128436, 128437, 2
128436, 128435, 2
128436, 128430, 2
128436, 128438, 2
128436, 128423, 2
128436, 128434, 2
128436, 128439, 2
128414, 128420, 2
128414, 128423, 2
128414, 128413, 2
128414, 128407, 2
128414, 128418, 2
128414, 128424, 1
128414, 128415, 4
128414, 128410, 2
128414, 128408, 2
128414, 128421, 2
128414, 128412, 2
128414, 128416, 2
128414, 128422, 2
128414, 128417, 6
128414, 128419, 2
128398, 128404, 2
128398, 128415, 2
128398, 128413, 1
128398, 128403, 2
128398, 128407, 2
128398, 128402, 4
128398, 128399, 6
128398, 128400, 2
128398, 128401, 2
128398, 128409, 2
128398, 128410, 2
128398, 128408, 2
128398, 128412, 2
128398, 128405, 2
128398, 128417, 2
128398, 128406, 2
128398, 128411, 2
128412, 128414, 2
128412, 128408, 2
128412, 128398, 2
128412, 128413, 2
128412, 128407, 2
128412, 128421, 2
128412, 128417, 2
128412, 128419, 2
128412, 128411, 2
128409, 128410, 1
128409, 128406, 2
128409, 128398, 2
128417, 128412, 2
128417, 128410, 2
128417, 128414, 2
128417, 128398, 2
128417, 128413, 2
128417, 128407, 2
128417, 128421, 2
128417, 128403, 2
128417, 128418, 1
128417, 128408, 2
128419, 128424, 2
128419, 128415, 2
128419, 128412, 2
128419, 128414, 2
128419, 128423, 2
128419, 128413, 2
128419, 128416, 2
128419, 128422, 1
128423, 128424, 2
128423, 128413, 2
128423, 128439, 2
128423, 128436, 2
128423, 128414, 2
128423, 128425, 2
128423, 128427, 2
128423, 128422, 2
128423, 128419, 2
128423, 128430, 2
128423, 128426, 2
128408, 128415, 2
128408, 128413, 2
128408, 128411, 1
128408, 128414, 2
128408, 128398, 2
128408, 128412, 2
128408, 128405, 2
128408, 128407, 2
128408, 128421, 2
128408, 128417, 2
128408, 128403, 2
