72753, 72751, 2
72753, 72752, 2
72753, 72754, 2
72753, 72750, 2
72748, 72749, 1
72748, 72747, 2
72754, 72753, 2
72754, 72752, 2
72750, 72749, 2
72750, 72751, 1
72750, 72753, 2
72752, 72753, 3
72752, 72754, 0
72752, 72751, 2
72749, 72748, 2
72749, 72750, 1
72751, 72753, 2
72751, 72752, 1
72751, 72750, 2
72747, 72748, 1
