69782, 69781, 2
69782, 69779, 2
69782, 69780, 2
69782, 69784, 2
69782, 69778, 2
69782, 69783, 1
69808, 69807, 2
69808, 69809, 1
69808, 69806, 2
69794, 69798, 2
69794, 69793, 2
69794, 69792, 2
69794, 69791, 2
69794, 69795, 1
69779, 69781, 2
69779, 69778, 2
69779, 69782, 2
69779, 69780, 2
69811, 69810, 2
69811, 69812, 1
69810, 69813, 2
69810, 69814, 2
69810, 69811, 1
69810, 69809, 2
69810, 69806, 2
69810, 69812, 2
69780, 69781, 2
69780, 69778, 2
69780, 69782, 2
69780, 69779, 2
69797, 69799, 1
69797, 69796, 2
69797, 69795, 2
69797, 69792, 2
69797, 69802, 2
69797, 69798, 8
69789, 69790, 1
69789, 69788, 2
69818, 69816, 2
69818, 69817, 2
69818, 69819, 1
69787, 69786, 2
69787, 69788, 1
69783, 69782, 2
69783, 69785, 1
69783, 69784, 3
69781, 69780, 2
69781, 69782, 1
69781, 69779, 2
69781, 69778, 2
69807, 69806, 2
69807, 69804, 2
69807, 69805, 2
69807, 69808, 1
69814, 69813, 2
69814, 69815, 8
69814, 69816, 1
69814, 69810, 2
69814, 69812, 2
69805, 69813, 2
69805, 69807, 2
69805, 69800, 2
69805, 69806, 2
69805, 69804, 2
69805, 69802, 2
69805, 69798, 2
69800, 69801, 1
69800, 69805, 2
69800, 69799, 2
69800, 69798, 2
69809, 69808, 2
69809, 69810, 1
69784, 69782, 2
69784, 69785, 2
69784, 69783, 2
69798, 69790, 2
69798, 69805, 2
69798, 69794, 2
69798, 69799, 2
69798, 69804, 2
69798, 69792, 2
69798, 69797, 2
69798, 69802, 2
69798, 69800, 2
69817, 69815, 2
69817, 69816, 2
69817, 69819, 2
69817, 69818, 1
69802, 69805, 2
69802, 69803, 1
69802, 69801, 2
69802, 69804, 2
69802, 69797, 2
69802, 69798, 2
69813, 69806, 2
69813, 69814, 2
69813, 69805, 2
69813, 69810, 2
69813, 69812, 2
69790, 69789, 2
69790, 69792, 2
69790, 69791, 1
69790, 69798, 2
69796, 69797, 1
69796, 69792, 2
69796, 69795, 2
69795, 69791, 2
69795, 69797, 2
69795, 69794, 2
69795, 69793, 2
69795, 69796, 1
69806, 69813, 2
69806, 69807, 2
69806, 69805, 2
69806, 69804, 2
69806, 69810, 2
69806, 69808, 2
69792, 69793, 2
69792, 69794, 2
69792, 69796, 2
69792, 69797, 2
69792, 69791, 2
69792, 69790, 2
69792, 69798, 2
69791, 69790, 2
69791, 69792, 8
69791, 69794, 2
69791, 69793, 1
69791, 69795, 2
69793, 69791, 2
69793, 69792, 2
69793, 69794, 1
69793, 69795, 2
69801, 69800, 2
69801, 69802, 1
69816, 69819, 2
69816, 69815, 2
69816, 69814, 2
69816, 69817, 1
69816, 69818, 2
69819, 69815, 2
69819, 69816, 2
69819, 69817, 2
69819, 69818, 2
69785, 69786, 1
69785, 69784, 2
69785, 69783, 2
69812, 69813, 3
69812, 69814, 1
69812, 69810, 2
69812, 69811, 2
69778, 69781, 1
69778, 69780, 0
69778, 69782, 2
69778, 69779, 3
69799, 69797, 2
69799, 69800, 1
69799, 69798, 2
69786, 69787, 1
69786, 69785, 2
69815, 69814, 2
69815, 69817, 2
69815, 69819, 2
69815, 69816, 2
69804, 69807, 1
69804, 69805, 3
69804, 69806, 8
69804, 69803, 2
69804, 69802, 2
69804, 69798, 2
69788, 69787, 2
69788, 69789, 1
69803, 69804, 1
69803, 69802, 2
