72958, 72957, 2
72958, 72959, 1
72958, 72956, 2
72960, 72959, 2
72960, 72961, 2
72956, 72958, 1
72956, 72957, 0
72956, 72959, 2
72959, 72958, 2
72959, 72960, 0
72959, 72956, 2
72959, 72957, 2
72959, 72961, 1
72964, 72962, 2
72964, 72963, 2
72964, 72961, 2
72963, 72962, 2
72963, 72964, 2
72957, 72958, 2
72957, 72956, 2
72957, 72959, 2
72962, 72963, 0
72962, 72964, 1
72962, 72961, 2
72961, 72964, 2
72961, 72959, 2
72961, 72960, 2
72961, 72962, 1
