72947, 72948, 0
72947, 72950, 2
72947, 72949, 1
72948, 72947, 2
72948, 72950, 2
72948, 72949, 2
72954, 72953, 2
72954, 72951, 2
72954, 72952, 2
72954, 72955, 0
72953, 72951, 2
72953, 72952, 2
72953, 72954, 1
72952, 72953, 2
72952, 72951, 2
72952, 72954, 2
72952, 72955, 2
72951, 72953, 1
72951, 72952, 0
72951, 72950, 2
72951, 72954, 2
72950, 72947, 2
72950, 72948, 2
72950, 72951, 1
72950, 72949, 2
72949, 72947, 2
72949, 72948, 2
72949, 72950, 1
72955, 72952, 2
72955, 72954, 2
