294745, 294748, 2
294745, 294746, 1
294749, 294751, 1
294749, 294750, 3
294749, 294748, 2
294749, 294747, 2
294754, 294755, 1
294754, 294753, 2
294750, 294751, 2
294750, 294749, 2
294750, 294748, 2
294751, 294749, 2
294751, 294750, 2
294751, 294747, 2
294751, 294752, 1
294751, 294753, 2
294753, 294754, 1
294753, 294751, 2
294753, 294755, 2
294753, 294752, 2
294752, 294751, 2
294752, 294753, 1
294755, 294754, 2
294755, 294753, 2
294747, 294751, 2
294747, 294749, 1
294747, 294748, 3
294747, 294746, 2
294746, 294745, 2
294746, 294748, 2
294746, 294747, 1
294748, 294745, 2
294748, 294749, 2
294748, 294750, 2
294748, 294747, 2
294748, 294746, 2
