132925, 132927, 2
132925, 132926, 1
132925, 132924, 2
132926, 132925, 2
132926, 132927, 3
132926, 132928, 1
132926, 132929, 2
132924, 132925, 1
132924, 132927, 2
132924, 132928, 2
132927, 132925, 2
132927, 132926, 2
132927, 132929, 2
132927, 132928, 2
132927, 132924, 2
132928, 132927, 2
132928, 132926, 2
132928, 132924, 2
132928, 132929, 1
132929, 132927, 2
132929, 132926, 2
132929, 132928, 2
