21494, 21495, 1
21494, 21496, 2
21494, 21497, 2
21496, 21495, 2
21496, 21494, 2
21496, 21497, 1
21500, 21499, 2
21500, 21498, 2
21499, 21500, 1
21499, 21498, 2
21495, 21494, 2
21495, 21496, 1
21495, 21497, 2
21497, 21494, 2
21497, 21495, 2
21497, 21496, 2
21497, 21498, 1
21498, 21497, 2
21498, 21499, 1
21498, 21500, 2
