302120, 302119, 2
302120, 302117, 2
302120, 302115, 2
302120, 302121, 1
302120, 302122, 2
302114, 302116, 1
302114, 302115, 6
302115, 302119, 2
302115, 302116, 2
302115, 302114, 2
302115, 302120, 2
302121, 302120, 2
302121, 302122, 1
302122, 302120, 2
302122, 302121, 2
302119, 302120, 1
302119, 302116, 2
302119, 302117, 2
302119, 302115, 2
302119, 302118, 2
302116, 302119, 2
302116, 302114, 2
302116, 302115, 2
302116, 302118, 2
302116, 302117, 1
302117, 302119, 1
302117, 302116, 2
302117, 302118, 8
302117, 302120, 2
302118, 302119, 2
302118, 302116, 2
302118, 302117, 2
