257869, 257867, 2
257869, 257868, 2
257869, 257870, 1
257867, 257869, 1
257867, 257866, 2
257867, 257868, 8
257866, 257867, 1
257866, 257868, 2
257868, 257869, 2
257868, 257867, 2
257868, 257866, 2
257868, 257870, 2
257870, 257869, 2
257870, 257868, 2
