300659, 300657, 2
300659, 300658, 2
300659, 300660, 2
300659, 300655, 2
300657, 300659, 2
300657, 300658, 1
300657, 300656, 2
300657, 300655, 2
300658, 300659, 6
300658, 300657, 2
300658, 300660, 1
300655, 300659, 2
300655, 300657, 1
300655, 300656, 3
300656, 300657, 2
300656, 300655, 2
300660, 300659, 2
300660, 300658, 2
