65317, 65316, 2
65317, 65318, 1
65317, 65315, 2
65331, 65330, 2
65331, 65332, 1
65331, 65333, 2
65315, 65317, 1
65315, 65316, 3
65315, 65318, 2
65316, 65317, 2
65316, 65318, 2
65316, 65315, 2
65330, 65329, 2
65330, 65331, 1
65330, 65332, 2
65330, 65326, 2
65330, 65328, 2
65330, 65333, 2
65330, 65327, 2
65319, 65318, 2
65319, 65320, 1
65327, 65325, 2
65327, 65326, 2
65327, 65328, 2
65327, 65330, 2
65333, 65330, 2
65333, 65331, 2
65333, 65332, 2
65329, 65328, 2
65329, 65326, 2
65329, 65330, 2
65329, 65325, 2
65324, 65322, 2
65324, 65323, 2
65324, 65325, 1
65323, 65321, 2
65323, 65324, 1
65323, 65322, 2
65332, 65331, 2
65332, 65333, 1
65332, 65330, 2
65322, 65321, 2
65322, 65324, 2
65322, 65318, 2
65322, 65323, 2
65322, 65325, 2
65321, 65325, 2
65321, 65320, 2
65321, 65323, 1
65321, 65318, 2
65321, 65322, 3
65320, 65321, 1
65320, 65318, 2
65320, 65319, 2
65328, 65329, 6
65328, 65326, 2
65328, 65330, 1
65328, 65325, 2
65328, 65327, 2
65326, 65329, 2
65326, 65325, 2
65326, 65328, 1
65326, 65327, 8
65326, 65330, 2
65318, 65317, 2
65318, 65315, 2
65318, 65322, 2
65318, 65321, 2
65318, 65316, 2
65318, 65319, 1
65318, 65320, 2
65325, 65329, 2
65325, 65324, 2
65325, 65322, 2
65325, 65321, 2
65325, 65326, 1
65325, 65328, 2
65325, 65327, 2
