216782, 216781, 2
216782, 216776, 2
216782, 216780, 2
216782, 216779, 2
216771, 216772, 1
216771, 216774, 2
216771, 216770, 2
216771, 216776, 2
216771, 216773, 2
216780, 216782, 2
216780, 216781, 2
216780, 216776, 2
216780, 216778, 2
216780, 216779, 2
216770, 216771, 1
216776, 216772, 2
216776, 216782, 2
216776, 216774, 2
216776, 216771, 2
216776, 216780, 2
216776, 216777, 2
216776, 216781, 2
216776, 216775, 2
216776, 216779, 2
216776, 216778, 2
216775, 216777, 0
216775, 216774, 2
216775, 216776, 6
216775, 216778, 3
216775, 216779, 1
216779, 216782, 1
216779, 216780, 3
216779, 216777, 2
216779, 216781, 0
216779, 216776, 2
216779, 216775, 2
216779, 216778, 2
216772, 216776, 2
216772, 216774, 1
216772, 216771, 2
216772, 216773, 3
216774, 216772, 2
216774, 216771, 2
216774, 216778, 2
216774, 216776, 2
216774, 216775, 1
216774, 216773, 2
216778, 216774, 2
216778, 216780, 2
216778, 216777, 2
216778, 216776, 2
216778, 216775, 2
216778, 216779, 2
216778, 216773, 2
216777, 216781, 2
216777, 216776, 2
216777, 216775, 2
216777, 216779, 2
216777, 216778, 2
216781, 216777, 2
216781, 216782, 2
216781, 216776, 2
216781, 216780, 2
216781, 216779, 2
216773, 216772, 2
216773, 216774, 2
216773, 216771, 2
216773, 216778, 2
