19227, 19229, 2
19227, 19228, 1
19227, 19226, 2
19217, 19216, 2
19217, 19218, 1
19220, 19221, 1
19220, 19219, 2
19220, 19223, 2
19220, 19218, 2
19225, 19226, 1
19225, 19224, 2
19219, 19220, 1
19219, 19218, 2
19222, 19221, 2
19222, 19223, 1
19229, 19231, 2
19229, 19227, 2
19229, 19228, 2
19229, 19230, 1
19223, 19222, 2
19223, 19220, 2
19223, 19224, 1
19226, 19227, 1
19226, 19225, 2
19235, 19238, 2
19235, 19236, 2
19235, 19237, 1
19235, 19234, 2
19218, 19219, 1
19218, 19217, 2
19218, 19220, 2
19218, 19216, 2
19215, 19213, 2
19215, 19216, 1
19215, 19214, 2
19221, 19222, 1
19221, 19220, 2
19237, 19238, 1
19237, 19235, 2
19237, 19236, 6
19237, 19234, 2
19214, 19213, 2
19214, 19215, 1
19230, 19231, 1
19230, 19229, 2
19232, 19231, 2
19232, 19233, 1
19234, 19235, 1
19234, 19238, 2
19234, 19236, 2
19234, 19237, 2
19234, 19233, 2
19228, 19227, 2
19228, 19229, 1
19238, 19235, 2
19238, 19236, 2
19238, 19237, 2
19238, 19239, 1
19238, 19234, 2
19216, 19217, 1
19216, 19218, 2
19216, 19215, 2
19240, 19239, 2
19213, 19214, 1
19213, 19215, 2
19239, 19238, 2
19239, 19240, 1
19233, 19231, 2
19233, 19232, 2
19233, 19234, 1
19224, 19223, 2
19224, 19225, 1
19231, 19232, 1
19231, 19230, 2
19231, 19233, 2
19231, 19229, 2
19236, 19238, 2
19236, 19235, 2
19236, 19237, 2
19236, 19234, 2
