259364, 259363, 2
259364, 259365, 2
259369, 259368, 2
259366, 259368, 2
259366, 259367, 1
259366, 259365, 2
259363, 259364, 3
259363, 259365, 1
259368, 259369, 0
259368, 259367, 2
259368, 259366, 2
259367, 259368, 1
259367, 259366, 2
259365, 259364, 2
259365, 259363, 2
259365, 259366, 1
