301444, 301445, 3
301444, 301446, 8
301444, 301447, 1
301444, 301443, 2
301446, 301444, 2
301446, 301445, 2
301446, 301447, 2
301442, 301443, 1
301442, 301441, 2
301443, 301444, 1
301443, 301445, 2
301443, 301442, 2
301448, 301447, 2
301447, 301444, 2
301447, 301446, 2
301447, 301445, 2
301447, 301448, 1
301445, 301444, 2
301445, 301446, 2
301445, 301443, 2
301445, 301447, 2
301441, 301442, 1
