221206, 221207, 0
221206, 221209, 1
221206, 221208, 8
221207, 221206, 2
221207, 221209, 2
221207, 221208, 2
221210, 221209, 2
221209, 221206, 2
221209, 221207, 2
221209, 221210, 0
221209, 221208, 2
221208, 221206, 2
221208, 221207, 2
221208, 221209, 2
