125638, 125632, 2
125638, 125637, 2
125638, 125636, 2
125638, 125635, 2
125623, 125626, 2
125623, 125635, 2
125623, 125629, 2
125623, 125627, 2
125623, 125622, 2
125623, 125628, 2
125623, 125625, 2
125623, 125624, 2
125606, 125607, 3
125606, 125611, 2
125606, 125608, 0
125606, 125613, 2
125606, 125612, 1
125626, 125627, 2
125626, 125623, 2
125626, 125625, 2
125626, 125630, 2
125607, 125608, 2
125607, 125612, 2
125607, 125606, 2
125607, 125613, 2
125607, 125609, 1
125631, 125632, 2
125631, 125633, 1
125631, 125608, 2
125631, 125635, 2
125631, 125629, 2
125631, 125628, 2
125631, 125630, 2
125622, 125623, 2
125622, 125608, 2
125622, 125635, 2
125622, 125621, 2
125622, 125628, 2
125622, 125620, 2
125622, 125624, 1
125636, 125638, 1
125636, 125632, 2
125636, 125637, 8
125636, 125634, 2
125636, 125635, 2
125633, 125631, 2
125633, 125634, 3
125633, 125635, 0
125633, 125632, 6
125616, 125613, 2
125616, 125615, 2
125616, 125618, 1
125616, 125617, 8
125616, 125619, 2
125635, 125638, 2
125635, 125623, 2
125635, 125637, 2
125635, 125613, 2
125635, 125629, 2
125635, 125631, 2
125635, 125622, 2
125635, 125636, 2
125635, 125632, 2
125635, 125633, 2
125635, 125608, 2
125635, 125634, 2
125635, 125628, 2
125634, 125632, 2
125634, 125633, 2
125634, 125636, 1
125634, 125635, 2
125634, 125630, 2
125625, 125627, 2
125625, 125623, 2
125625, 125621, 2
125625, 125626, 1
125625, 125624, 2
125618, 125620, 2
125618, 125621, 2
125618, 125616, 2
125618, 125613, 2
125618, 125617, 2
125618, 125619, 2
125620, 125621, 3
125620, 125608, 2
125620, 125613, 2
125620, 125622, 1
125620, 125628, 2
125620, 125618, 2
125620, 125619, 2
125624, 125627, 1
125624, 125623, 6
125624, 125622, 2
125624, 125628, 2
125624, 125625, 3
125621, 125617, 2
125621, 125622, 2
125621, 125625, 2
125621, 125618, 2
125621, 125620, 2
125621, 125619, 2
125637, 125638, 2
125637, 125636, 2
125637, 125635, 2
125628, 125623, 2
125628, 125608, 2
125628, 125635, 2
125628, 125629, 2
125628, 125627, 2
125628, 125631, 2
125628, 125622, 2
125628, 125632, 2
125628, 125630, 2
125628, 125620, 2
125628, 125624, 2
125613, 125606, 2
125613, 125614, 2
125613, 125607, 2
125613, 125609, 2
125613, 125608, 2
125613, 125616, 2
125613, 125635, 2
125613, 125615, 2
125613, 125612, 2
125613, 125618, 2
125613, 125620, 2
125613, 125619, 2
125629, 125623, 2
125629, 125635, 2
125629, 125627, 2
125629, 125631, 1
125629, 125628, 6
125629, 125630, 3
125610, 125611, 2
125610, 125608, 2
125610, 125609, 2
125611, 125615, 2
125611, 125614, 2
125611, 125610, 2
125611, 125608, 2
125611, 125612, 2
125611, 125606, 2
125611, 125617, 2
125611, 125609, 2
125630, 125626, 2
125630, 125634, 2
125630, 125629, 2
125630, 125627, 2
125630, 125631, 2
125630, 125628, 2
125632, 125638, 2
125632, 125633, 2
125632, 125634, 2
125632, 125635, 2
125632, 125631, 2
125632, 125628, 2
125632, 125636, 2
125609, 125608, 2
125609, 125614, 2
125609, 125613, 2
125609, 125607, 2
125609, 125610, 8
125609, 125611, 1
125609, 125612, 2
125627, 125623, 2
125627, 125626, 2
125627, 125629, 1
125627, 125628, 2
125627, 125625, 2
125627, 125630, 2
125627, 125624, 2
125608, 125612, 2
125608, 125606, 2
125608, 125635, 2
125608, 125613, 2
125608, 125607, 2
125608, 125610, 2
125608, 125622, 2
125608, 125611, 2
125608, 125609, 2
125608, 125614, 2
125608, 125631, 2
125608, 125628, 2
125608, 125620, 2
125608, 125619, 2
125614, 125612, 2
125614, 125615, 3
125614, 125613, 6
125614, 125609, 2
125614, 125608, 2
125614, 125611, 2
125614, 125619, 1
125615, 125611, 2
125615, 125614, 2
125615, 125616, 1
125615, 125613, 2
125615, 125619, 2
125612, 125606, 2
125612, 125613, 2
125612, 125614, 1
125612, 125607, 2
125612, 125608, 2
125612, 125611, 2
125612, 125609, 2
125617, 125621, 2
125617, 125611, 2
125617, 125616, 2
125617, 125618, 2
125619, 125621, 2
125619, 125608, 2
125619, 125616, 2
125619, 125614, 2
125619, 125615, 2
125619, 125613, 2
125619, 125620, 1
125619, 125618, 2
