170624, 170621, 2
170624, 170626, 1
170624, 170619, 2
170624, 170625, 3
170624, 170622, 2
170624, 170620, 2
170624, 170623, 2
170601, 170603, 1
170601, 170597, 2
170601, 170595, 2
170601, 170596, 2
170601, 170600, 2
170601, 170602, 3
170615, 170617, 2
170615, 170597, 2
170615, 170618, 1
170615, 170616, 2
170615, 170612, 2
170615, 170613, 2
170615, 170596, 2
170615, 170614, 2
170615, 170620, 2
170615, 170619, 2
170630, 170621, 2
170630, 170629, 2
170630, 170619, 2
170630, 170625, 2
170630, 170631, 3
170630, 170632, 2
170630, 170620, 2
170652, 170640, 2
170652, 170651, 2
170652, 170653, 2
170652, 170641, 2
170652, 170654, 2
170652, 170642, 2
170652, 170646, 2
170652, 170638, 2
170611, 170610, 2
170611, 170597, 2
170611, 170616, 2
170611, 170605, 2
170611, 170619, 2
170611, 170642, 2
170611, 170638, 2
170611, 170612, 1
170599, 170597, 2
170599, 170596, 2
170599, 170600, 1
170599, 170598, 2
170626, 170621, 2
170626, 170624, 2
170626, 170627, 1
170626, 170625, 2
170626, 170638, 2
170626, 170642, 2
170626, 170620, 2
170626, 170623, 2
170626, 170619, 2
170616, 170610, 2
170616, 170618, 2
170616, 170596, 2
170616, 170615, 2
170616, 170622, 2
170616, 170605, 2
170616, 170595, 2
170616, 170597, 2
170616, 170611, 2
170616, 170617, 1
170616, 170594, 2
170616, 170613, 2
170616, 170612, 2
170616, 170606, 2
170616, 170608, 2
170616, 170614, 2
170616, 170598, 2
170625, 170623, 2
170625, 170621, 2
170625, 170624, 2
170625, 170630, 2
170625, 170640, 2
170625, 170626, 2
170625, 170618, 2
170625, 170622, 2
170625, 170642, 2
170625, 170595, 2
170625, 170620, 2
170625, 170596, 2
170625, 170629, 2
170625, 170627, 2
170625, 170605, 2
170625, 170631, 2
170625, 170638, 2
170625, 170641, 2
170625, 170597, 2
170625, 170628, 2
170625, 170619, 2
170614, 170617, 2
170614, 170615, 1
170614, 170613, 2
170614, 170616, 2
170614, 170619, 2
170623, 170624, 1
170623, 170621, 2
170623, 170626, 2
170623, 170625, 2
170623, 170622, 2
170623, 170620, 2
170598, 170592, 2
170598, 170597, 2
170598, 170616, 2
170598, 170596, 2
170598, 170599, 1
170598, 170594, 2
170598, 170595, 2
170598, 170593, 2
170598, 170600, 2
170598, 170602, 2
170621, 170628, 2
170621, 170624, 2
170621, 170626, 2
170621, 170622, 2
170621, 170630, 2
170621, 170620, 2
170621, 170596, 2
170621, 170629, 2
170621, 170625, 2
170621, 170631, 2
170621, 170623, 2
170621, 170640, 2
170621, 170618, 2
170621, 170642, 2
170621, 170635, 2
170621, 170597, 2
170621, 170639, 2
170621, 170636, 2
170621, 170638, 2
170621, 170605, 2
170621, 170641, 2
170621, 170627, 2
170644, 170647, 2
170644, 170641, 2
170644, 170643, 2
170644, 170642, 2
170644, 170646, 2
170644, 170645, 1
170633, 170634, 1
170633, 170640, 2
170633, 170631, 2
170633, 170638, 2
170633, 170632, 2
170632, 170640, 2
170632, 170629, 2
170632, 170633, 1
170632, 170631, 2
170632, 170630, 2
170632, 170638, 2
170655, 170654, 2
170655, 170656, 1
170639, 170640, 2
170639, 170637, 2
170639, 170619, 2
170639, 170621, 2
170639, 170646, 2
170639, 170643, 1
170639, 170642, 2
170639, 170595, 2
170639, 170620, 2
170639, 170638, 4
170617, 170597, 2
170617, 170613, 2
170617, 170618, 2
170617, 170616, 2
170617, 170605, 2
170617, 170615, 2
170617, 170622, 2
170617, 170614, 2
170617, 170596, 2
170617, 170619, 1
170619, 170624, 2
170619, 170615, 2
170619, 170622, 2
170619, 170630, 2
170619, 170620, 3
170619, 170611, 2
170619, 170596, 2
170619, 170626, 2
170619, 170612, 2
170619, 170625, 2
170619, 170631, 2
170619, 170614, 2
170619, 170640, 2
170619, 170618, 2
170619, 170642, 2
170619, 170595, 2
170619, 170639, 2
170619, 170617, 2
170619, 170613, 2
170619, 170629, 2
170619, 170605, 2
170619, 170597, 2
170619, 170638, 2
170636, 170640, 2
170636, 170637, 1
170636, 170621, 2
170636, 170635, 2
170636, 170620, 2
170636, 170638, 2
170638, 170626, 2
170638, 170621, 2
170638, 170652, 2
170638, 170608, 2
170638, 170646, 2
170638, 170620, 2
170638, 170611, 2
170638, 170647, 2
170638, 170636, 2
170638, 170637, 2
170638, 170651, 2
170638, 170606, 2
170638, 170625, 2
170638, 170631, 2
170638, 170650, 2
170638, 170645, 2
170638, 170610, 2
170638, 170640, 0
170638, 170618, 2
170638, 170633, 2
170638, 170632, 2
170638, 170642, 2
170638, 170635, 2
170638, 170639, 2
170638, 170619, 2
170638, 170605, 2
170638, 170643, 2
170638, 170641, 3
170648, 170649, 1
170648, 170647, 2
170648, 170642, 2
170648, 170646, 2
170593, 170592, 2
170593, 170594, 2
170593, 170595, 1
170593, 170598, 2
170627, 170642, 2
170627, 170621, 2
170627, 170626, 2
170627, 170628, 1
170627, 170625, 2
170602, 170603, 2
170602, 170597, 2
170602, 170601, 2
170602, 170605, 2
170602, 170594, 2
170602, 170595, 2
170602, 170596, 2
170602, 170600, 2
170602, 170598, 2
170603, 170596, 2
170603, 170604, 3
170603, 170601, 2
170603, 170606, 1
170603, 170595, 2
170603, 170597, 2
170603, 170602, 2
170654, 170653, 2
170654, 170652, 2
170654, 170655, 1
170656, 170642, 2
170656, 170655, 2
170640, 170621, 2
170640, 170633, 2
170640, 170595, 2
170640, 170652, 2
170640, 170632, 2
170640, 170646, 2
170640, 170642, 2
170640, 170635, 2
170640, 170620, 2
170640, 170645, 2
170640, 170631, 2
170640, 170647, 2
170640, 170639, 2
170640, 170637, 2
170640, 170619, 2
170640, 170625, 2
170640, 170605, 2
170640, 170643, 2
170640, 170636, 2
170640, 170641, 2
170640, 170638, 2
170635, 170634, 2
170635, 170640, 2
170635, 170636, 1
170635, 170638, 2
170635, 170621, 2
170622, 170617, 2
170622, 170621, 2
170622, 170597, 2
170622, 170624, 2
170622, 170616, 2
170622, 170625, 2
170622, 170618, 2
170622, 170620, 2
170622, 170623, 1
170622, 170619, 2
170608, 170610, 2
170608, 170609, 2
170608, 170616, 2
170608, 170606, 2
170608, 170605, 2
170608, 170607, 2
170608, 170642, 2
170608, 170638, 2
170646, 170640, 2
170646, 170650, 2
170646, 170641, 2
170646, 170642, 2
170646, 170652, 2
170646, 170639, 2
170646, 170649, 2
170646, 170647, 2
170646, 170638, 2
170646, 170643, 2
170646, 170648, 2
170646, 170645, 2
170646, 170644, 2
170646, 170651, 2
170604, 170603, 2
170604, 170597, 2
170604, 170606, 2
170604, 170605, 3
170604, 170595, 2
170604, 170596, 2
170620, 170640, 2
170620, 170624, 2
170620, 170628, 2
170620, 170621, 3
170620, 170597, 2
170620, 170615, 2
170620, 170622, 2
170620, 170642, 2
170620, 170630, 2
170620, 170596, 2
170620, 170629, 2
170620, 170639, 2
170620, 170626, 2
170620, 170638, 2
170620, 170625, 2
170620, 170631, 2
170620, 170618, 2
170620, 170636, 2
170620, 170641, 2
170620, 170623, 2
170620, 170619, 2
170592, 170594, 2
170592, 170593, 1
170592, 170598, 2
170649, 170646, 2
170649, 170642, 2
170649, 170650, 1
170649, 170641, 2
170649, 170648, 2
170596, 170603, 2
170596, 170621, 2
170596, 170618, 2
170596, 170601, 2
170596, 170615, 2
170596, 170625, 2
170596, 170595, 2
170596, 170604, 2
170596, 170620, 2
170596, 170617, 2
170596, 170597, 3
170596, 170616, 2
170596, 170605, 2
170596, 170599, 2
170596, 170619, 2
170596, 170598, 2
170596, 170594, 2
170596, 170600, 2
170596, 170602, 2
170637, 170640, 2
170637, 170639, 1
170637, 170636, 2
170637, 170638, 2
170651, 170650, 2
170651, 170653, 2
170651, 170646, 2
170651, 170642, 2
170651, 170652, 3
170651, 170641, 2
170651, 170638, 2
170606, 170603, 2
170606, 170638, 2
170606, 170616, 2
170606, 170605, 2
170606, 170607, 1
170606, 170608, 2
170606, 170604, 2
170606, 170609, 2
170631, 170640, 2
170631, 170630, 2
170631, 170633, 2
170631, 170619, 2
170631, 170625, 2
170631, 170621, 2
170631, 170642, 2
170631, 170595, 2
170631, 170632, 2
170631, 170638, 2
170631, 170620, 2
170650, 170649, 2
170650, 170651, 3
170650, 170653, 1
170650, 170641, 2
170650, 170642, 2
170650, 170646, 2
170650, 170638, 2
170645, 170640, 2
170645, 170647, 1
170645, 170638, 2
170645, 170641, 2
170645, 170643, 2
170645, 170642, 2
170645, 170646, 3
170645, 170644, 2
170610, 170597, 2
170610, 170608, 2
170610, 170638, 2
170610, 170616, 2
170610, 170605, 2
170610, 170611, 1
170610, 170642, 2
170610, 170607, 2
170610, 170609, 2
170597, 170603, 2
170597, 170610, 2
170597, 170618, 2
170597, 170601, 2
170597, 170621, 2
170597, 170615, 2
170597, 170622, 2
170597, 170605, 2
170597, 170604, 2
170597, 170611, 2
170597, 170620, 2
170597, 170617, 2
170597, 170596, 2
170597, 170616, 2
170597, 170625, 2
170597, 170599, 2
170597, 170619, 2
170597, 170598, 2
170597, 170594, 2
170597, 170600, 2
170597, 170602, 2
170609, 170610, 1
170609, 170607, 2
170609, 170606, 2
170609, 170608, 2
170618, 170621, 2
170618, 170605, 2
170618, 170615, 2
170618, 170622, 1
170618, 170642, 2
170618, 170595, 2
170618, 170596, 2
170618, 170620, 2
170618, 170617, 2
170618, 170613, 2
170618, 170616, 4
170618, 170625, 2
170618, 170597, 2
170618, 170638, 2
170618, 170619, 2
170641, 170640, 2
170641, 170650, 2
170641, 170621, 2
170641, 170652, 2
170641, 170642, 3
170641, 170646, 2
170641, 170620, 2
170641, 170649, 2
170641, 170647, 2
170641, 170638, 2
170641, 170625, 2
170641, 170643, 2
170641, 170645, 2
170641, 170644, 2
170641, 170651, 2
170607, 170610, 2
170607, 170609, 1
170607, 170606, 2
170607, 170608, 8
170642, 170626, 2
170642, 170656, 2
170642, 170621, 2
170642, 170652, 2
170642, 170646, 2
170642, 170620, 2
170642, 170611, 2
170642, 170649, 2
170642, 170647, 2
170642, 170651, 2
170642, 170625, 2
170642, 170631, 2
170642, 170645, 2
170642, 170610, 2
170642, 170640, 2
170642, 170618, 2
170642, 170650, 2
170642, 170641, 2
170642, 170639, 2
170642, 170644, 2
170642, 170608, 2
170642, 170643, 2
170642, 170638, 2
170642, 170648, 2
170642, 170627, 2
170642, 170619, 2
170595, 170603, 2
170595, 170640, 2
170595, 170618, 2
170595, 170601, 2
170595, 170639, 2
170595, 170616, 2
170595, 170625, 2
170595, 170604, 2
170595, 170596, 3
170595, 170619, 2
170595, 170605, 2
170595, 170631, 2
170595, 170598, 2
170595, 170594, 2
170595, 170593, 2
170595, 170600, 2
170595, 170602, 2
170647, 170640, 2
170647, 170638, 2
170647, 170646, 2
170647, 170642, 2
170647, 170648, 1
170647, 170641, 2
170647, 170644, 2
170647, 170645, 2
170613, 170617, 2
170613, 170618, 2
170613, 170612, 2
170613, 170615, 2
170613, 170619, 2
170613, 170614, 1
170613, 170616, 2
170629, 170625, 2
170629, 170621, 2
170629, 170619, 2
170629, 170632, 1
170629, 170630, 3
170629, 170620, 2
170629, 170628, 2
170600, 170597, 2
170600, 170601, 1
170600, 170599, 2
170600, 170602, 2
170600, 170595, 2
170600, 170596, 2
170600, 170598, 2
170605, 170610, 2
170605, 170640, 2
170605, 170618, 2
170605, 170621, 2
170605, 170616, 2
170605, 170608, 2
170605, 170595, 2
170605, 170604, 2
170605, 170611, 2
170605, 170617, 2
170605, 170596, 2
170605, 170619, 2
170605, 170606, 2
170605, 170625, 2
170605, 170597, 2
170605, 170638, 2
170605, 170602, 2
170634, 170635, 1
170634, 170633, 2
170653, 170650, 2
170653, 170654, 1
170653, 170652, 2
170653, 170651, 2
170643, 170640, 2
170643, 170639, 2
170643, 170638, 2
170643, 170646, 2
170643, 170642, 2
170643, 170641, 2
170643, 170645, 2
170643, 170644, 1
170594, 170592, 4
170594, 170597, 2
170594, 170616, 2
170594, 170596, 2
170594, 170598, 1
170594, 170595, 2
170594, 170593, 2
170594, 170602, 2
170628, 170621, 2
170628, 170629, 1
170628, 170620, 2
170628, 170627, 2
170628, 170625, 2
170612, 170615, 2
170612, 170613, 1
170612, 170616, 2
170612, 170611, 2
170612, 170619, 2
