166466, 166469, 2
166466, 166467, 3
166466, 166468, 1
166469, 166467, 2
166469, 166466, 2
166469, 166468, 2
166467, 166469, 2
166467, 166466, 2
166467, 166468, 2
166468, 166467, 2
166468, 166466, 2
166468, 166469, 1
