254267, 254271, 2
254267, 254272, 2
254267, 254275, 2
254267, 254268, 3
254267, 254269, 0
254267, 254274, 1
254272, 254267, 2
254272, 254270, 2
254272, 254273, 1
254272, 254271, 2
254272, 254269, 2
254272, 254268, 2
254279, 254276, 2
254279, 254280, 2
254279, 254275, 2
254279, 254278, 2
254279, 254281, 2
254279, 254277, 2
254279, 254274, 2
254280, 254279, 2
254280, 254281, 1
254280, 254273, 2
254280, 254277, 2
254280, 254274, 2
254268, 254267, 2
254268, 254270, 2
254268, 254272, 2
254268, 254273, 2
254268, 254275, 2
254268, 254276, 2
254268, 254271, 2
254268, 254269, 2
254268, 254274, 2
254269, 254267, 2
254269, 254271, 2
254269, 254272, 2
254269, 254270, 1
254269, 254268, 2
254269, 254274, 2
254285, 254284, 2
254285, 254286, 1
254276, 254268, 2
254276, 254277, 1
254276, 254279, 2
254276, 254275, 2
254276, 254274, 2
254270, 254271, 1
254270, 254272, 2
254270, 254273, 2
254270, 254268, 2
254270, 254269, 2
254270, 254274, 2
254283, 254282, 2
254283, 254284, 1
254283, 254286, 2
254273, 254268, 2
254273, 254270, 2
254273, 254272, 2
254273, 254280, 2
254273, 254274, 2
254275, 254267, 2
254275, 254268, 2
254275, 254279, 2
254275, 254276, 1
254275, 254274, 2
254278, 254277, 2
254278, 254279, 1
254278, 254274, 2
254271, 254267, 2
254271, 254270, 2
254271, 254272, 1
254271, 254268, 2
254271, 254269, 2
254271, 254274, 2
254281, 254280, 2
254281, 254279, 2
254281, 254282, 3
254281, 254286, 2
254274, 254267, 2
254274, 254279, 2
254274, 254280, 1
254274, 254268, 2
254274, 254269, 2
254274, 254276, 2
254274, 254270, 2
254274, 254273, 2
254274, 254275, 3
254274, 254278, 2
254274, 254271, 2
254274, 254277, 2
254286, 254281, 2
254286, 254283, 2
254286, 254284, 2
254286, 254285, 2
254277, 254276, 2
254277, 254274, 2
254277, 254279, 2
254277, 254280, 2
254277, 254278, 1
254282, 254281, 2
254282, 254283, 1
254284, 254285, 1
254284, 254283, 2
254284, 254286, 2
