294060, 294057, 2
294060, 294059, 2
294060, 294058, 2
294052, 294057, 2
294052, 294053, 2
294052, 294056, 2
294052, 294051, 2
294052, 294054, 2
294051, 294052, 2
294051, 294053, 1
294059, 294060, 3
294059, 294057, 2
294059, 294058, 2
294059, 294056, 2
294058, 294060, 2
294058, 294056, 2
294058, 294059, 2
294058, 294057, 2
294054, 294052, 2
294054, 294056, 2
294054, 294055, 1
294054, 294053, 2
294057, 294060, 2
294057, 294052, 2
294057, 294056, 2
294057, 294059, 2
294057, 294058, 2
294055, 294056, 1
294055, 294054, 2
294056, 294052, 2
294056, 294059, 1
294056, 294058, 3
294056, 294054, 2
294056, 294057, 0
294056, 294055, 2
294053, 294052, 6
294053, 294051, 2
294053, 294054, 1
