167102, 167106, 2
167102, 167120, 2
167102, 167107, 2
167102, 167118, 2
167102, 167098, 2
167124, 167126, 1
167124, 167125, 3
167124, 167119, 2
167124, 167121, 2
167124, 167123, 2
167116, 167120, 2
167116, 167104, 2
167116, 167105, 2
167116, 167106, 2
167116, 167113, 2
167116, 167119, 2
167116, 167118, 2
167116, 167115, 2
167116, 167123, 2
167116, 167117, 1
167116, 167114, 2
167116, 167121, 2
167116, 167122, 2
167100, 167119, 2
167100, 167105, 2
167100, 167101, 4
167100, 167104, 1
167100, 167107, 2
167100, 167099, 2
167100, 167122, 2
167100, 167103, 2
167100, 167114, 2
167100, 167110, 2
167100, 167098, 2
167134, 167133, 2
167134, 167135, 1
167128, 167127, 2
167128, 167130, 2
167128, 167119, 2
167128, 167126, 2
167128, 167121, 2
167128, 167129, 1
167123, 167119, 2
167123, 167124, 1
167123, 167116, 2
167123, 167117, 2
167123, 167121, 2
167123, 167122, 2
167137, 167119, 2
167137, 167136, 2
167137, 167139, 1
167137, 167138, 3
167110, 167106, 2
167110, 167104, 2
167110, 167119, 2
167110, 167105, 2
167110, 167100, 2
167110, 167112, 1
167110, 167109, 2
167110, 167111, 3
167110, 167108, 2
167105, 167116, 2
167105, 167100, 2
167105, 167110, 2
167105, 167108, 2
167105, 167106, 2
167105, 167119, 2
167105, 167122, 2
167105, 167104, 2
167105, 167107, 2
167105, 167112, 2
167105, 167098, 2
167105, 167114, 2
167127, 167128, 1
167127, 167126, 2
167125, 167126, 2
167125, 167124, 2
167125, 167121, 2
167138, 167139, 2
167138, 167137, 2
167138, 167121, 2
167115, 167106, 2
167115, 167113, 2
167115, 167116, 2
167115, 167112, 2
167115, 167114, 2
167115, 167111, 2
167115, 167118, 2
167107, 167106, 4
167107, 167102, 2
167107, 167119, 2
167107, 167118, 2
167107, 167100, 2
167107, 167108, 1
167107, 167104, 2
167107, 167105, 2
167107, 167098, 2
167140, 167119, 2
167140, 167139, 2
167108, 167106, 2
167108, 167119, 2
167108, 167118, 2
167108, 167107, 2
167108, 167109, 1
167108, 167105, 2
167108, 167110, 2
167126, 167127, 1
167126, 167128, 2
167126, 167125, 2
167126, 167124, 2
167126, 167119, 2
167129, 167130, 1
167129, 167128, 2
167135, 167119, 2
167135, 167136, 1
167135, 167133, 2
167135, 167134, 2
167130, 167128, 2
167130, 167131, 1
167130, 167121, 2
167130, 167129, 2
167130, 167119, 2
167122, 167106, 2
167122, 167119, 2
167122, 167120, 2
167122, 167100, 2
167122, 167116, 2
167122, 167104, 2
167122, 167123, 1
167122, 167117, 2
167122, 167121, 2
167122, 167118, 2
167122, 167105, 2
167120, 167106, 2
167120, 167102, 2
167120, 167118, 2
167120, 167117, 2
167120, 167122, 2
167120, 167121, 1
167120, 167116, 2
167112, 167113, 1
167112, 167119, 2
167112, 167105, 2
167112, 167104, 2
167112, 167115, 2
167112, 167118, 2
167112, 167114, 2
167112, 167110, 2
167112, 167111, 2
167099, 167100, 1
167099, 167098, 2
167103, 167104, 2
167103, 167101, 2
167103, 167100, 2
167103, 167098, 2
167133, 167119, 2
167133, 167136, 2
167133, 167135, 2
167133, 167134, 1
167133, 167131, 2
167133, 167132, 2
167111, 167106, 2
167111, 167112, 2
167111, 167110, 2
167111, 167115, 2
167111, 167118, 2
167098, 167106, 2
167098, 167102, 4
167098, 167104, 2
167098, 167101, 2
167098, 167100, 2
167098, 167107, 1
167098, 167099, 6
167098, 167103, 2
167098, 167105, 2
167106, 167102, 2
167106, 167120, 2
167106, 167116, 2
167106, 167108, 2
167106, 167109, 2
167106, 167105, 2
167106, 167111, 2
167106, 167110, 2
167106, 167118, 2
167106, 167115, 2
167106, 167107, 2
167106, 167098, 2
167106, 167121, 2
167106, 167122, 2
167113, 167112, 2
167113, 167114, 0
167113, 167116, 1
167113, 167115, 3
167119, 167124, 2
167119, 167116, 2
167119, 167100, 2
167119, 167128, 2
167119, 167137, 2
167119, 167110, 2
167119, 167105, 2
167119, 167139, 2
167119, 167122, 2
167119, 167107, 2
167119, 167140, 2
167119, 167108, 2
167119, 167117, 2
167119, 167135, 2
167119, 167130, 2
167119, 167112, 2
167119, 167133, 2
167119, 167136, 2
167119, 167104, 2
167119, 167123, 2
167119, 167126, 2
167119, 167114, 2
167119, 167131, 2
167136, 167133, 2
167136, 167119, 2
167136, 167137, 1
167136, 167135, 2
167109, 167106, 2
167109, 167110, 1
167109, 167108, 2
167104, 167110, 2
167104, 167119, 2
167104, 167116, 2
167104, 167112, 2
167104, 167100, 2
167104, 167107, 2
167104, 167122, 2
167104, 167103, 2
167104, 167114, 2
167104, 167105, 0
167104, 167098, 2
167118, 167106, 2
167118, 167102, 2
167118, 167120, 1
167118, 167116, 2
167118, 167115, 2
167118, 167107, 2
167118, 167112, 2
167118, 167117, 2
167118, 167122, 2
167118, 167111, 2
167118, 167108, 2
167139, 167140, 1
167139, 167119, 2
167139, 167137, 2
167139, 167138, 2
167117, 167119, 6
167117, 167120, 2
167117, 167116, 2
167117, 167123, 2
167117, 167121, 2
167117, 167118, 4
167117, 167122, 1
167132, 167133, 2
167132, 167121, 2
167132, 167131, 2
167114, 167113, 2
167114, 167104, 2
167114, 167115, 2
167114, 167100, 2
167114, 167112, 2
167114, 167119, 2
167114, 167105, 2
167114, 167116, 2
167121, 167130, 2
167121, 167120, 2
167121, 167124, 2
167121, 167116, 2
167121, 167128, 2
167121, 167106, 2
167121, 167125, 2
167121, 167138, 2
167121, 167123, 2
167121, 167117, 2
167121, 167122, 2
167121, 167131, 2
167121, 167132, 2
167131, 167130, 2
167131, 167119, 2
167131, 167133, 1
167131, 167121, 2
167131, 167132, 3
167101, 167103, 1
167101, 167100, 2
167101, 167098, 2
