257776, 257777, 1
257776, 257778, 2
257780, 257778, 2
257780, 257779, 2
257778, 257777, 2
257778, 257780, 2
257778, 257779, 2
257778, 257776, 2
257779, 257777, 2
257779, 257780, 1
257779, 257778, 2
257777, 257776, 2
257777, 257778, 8
257777, 257779, 1
