339652, 339653, 1
339652, 339651, 2
339653, 339652, 2
339653, 339654, 0
339650, 339651, 2
339650, 339649, 2
339654, 339653, 2
339649, 339651, 1
339649, 339650, 8
339651, 339652, 1
339651, 339650, 2
339651, 339649, 2
