258559, 258561, 2
258559, 258560, 1
258561, 258560, 2
258561, 258563, 2
258561, 258562, 2
258561, 258559, 2
258563, 258561, 2
258563, 258562, 2
258560, 258561, 8
258560, 258559, 2
258560, 258562, 1
258562, 258561, 2
258562, 258563, 1
258562, 258560, 2
