197039, 197040, 1
197039, 197042, 2
197039, 197041, 2
197040, 197039, 2
197040, 197042, 2
197040, 197041, 1
197043, 197042, 2
197043, 197041, 2
197042, 197039, 2
197042, 197040, 2
197042, 197043, 2
197042, 197041, 2
197041, 197039, 2
197041, 197040, 2
197041, 197042, 8
197041, 197043, 1
