341077, 341079, 2
341077, 341076, 2
341077, 341078, 1
341081, 341082, 1
341081, 341080, 2
341080, 341081, 1
341080, 341079, 2
341080, 341078, 2
341079, 341077, 2
341079, 341080, 1
341079, 341078, 2
341078, 341077, 2
341078, 341080, 2
341078, 341079, 1
341074, 341075, 1
341082, 341081, 2
341076, 341077, 1
341076, 341075, 2
341075, 341074, 2
341075, 341076, 1
