161096, 161097, 1
161096, 161095, 2
161096, 161102, 2
161103, 161098, 2
161103, 161101, 2
161103, 161099, 2
161094, 161095, 1
161099, 161101, 2
161099, 161100, 4
161099, 161097, 2
161099, 161098, 2
161099, 161102, 6
161099, 161103, 2
161102, 161097, 2
161102, 161096, 2
161102, 161098, 2
161102, 161095, 2
161102, 161099, 2
161097, 161096, 2
161097, 161098, 1
161097, 161099, 2
161097, 161100, 2
161097, 161102, 2
161098, 161103, 2
161098, 161101, 2
161098, 161099, 1
161098, 161097, 2
161098, 161102, 2
161098, 161100, 2
161095, 161096, 1
161095, 161094, 2
161095, 161100, 2
161095, 161102, 2
161100, 161097, 2
161100, 161098, 2
161100, 161101, 1
161100, 161099, 2
161100, 161095, 2
161101, 161099, 2
161101, 161098, 2
161101, 161103, 1
161101, 161100, 2
