216811, 216813, 2
216811, 216821, 2
216811, 216809, 2
216811, 216812, 2
216811, 216817, 2
216811, 216814, 2
216811, 216815, 2
216811, 216810, 2
216816, 216821, 2
216816, 216819, 1
216816, 216817, 6
216816, 216818, 8
216816, 216820, 2
216816, 216815, 2
216821, 216819, 2
216821, 216811, 2
216821, 216816, 2
216821, 216820, 2
216821, 216817, 2
216819, 216821, 1
216819, 216816, 2
216819, 216820, 6
216819, 216818, 2
216819, 216817, 2
216820, 216821, 2
216820, 216816, 2
216820, 216819, 2
216820, 216817, 2
216820, 216818, 2
216820, 216815, 2
216815, 216813, 2
216815, 216811, 2
216815, 216816, 1
216815, 216817, 2
216815, 216814, 2
216815, 216820, 2
216815, 216818, 2
216813, 216811, 2
216813, 216812, 2
216813, 216817, 2
216813, 216814, 1
216813, 216815, 2
216813, 216810, 2
216809, 216811, 2
216809, 216810, 1
216812, 216813, 1
216812, 216811, 6
216812, 216810, 2
216817, 216813, 2
216817, 216811, 2
216817, 216816, 2
216817, 216821, 2
216817, 216819, 2
216817, 216818, 2
216817, 216820, 2
216817, 216815, 2
216818, 216819, 2
216818, 216817, 2
216818, 216816, 2
216818, 216820, 2
216818, 216815, 2
216814, 216813, 2
216814, 216811, 2
216814, 216815, 1
216810, 216813, 2
216810, 216811, 2
216810, 216809, 2
216810, 216812, 1
