171003, 171004, 2
171003, 171007, 2
171003, 171005, 2
171003, 171002, 2
171003, 171006, 2
171006, 171004, 2
171006, 171005, 2
171006, 171003, 2
171006, 171002, 2
171004, 171005, 1
171004, 171007, 2
171004, 171003, 2
171004, 171002, 2
171004, 171006, 2
171005, 171004, 2
171005, 171007, 6
171005, 171003, 2
171005, 171002, 2
171005, 171006, 4
171002, 171004, 1
171002, 171005, 2
171002, 171007, 2
171002, 171003, 3
171002, 171006, 2
171007, 171004, 2
171007, 171003, 2
171007, 171005, 2
171007, 171002, 2
