197320, 197318, 2
197320, 197319, 2
197320, 197322, 2
197320, 197323, 2
197320, 197321, 1
197321, 197320, 2
197321, 197322, 8
197321, 197323, 1
197321, 197324, 2
197323, 197320, 2
197323, 197324, 1
197323, 197321, 2
197323, 197319, 2
197323, 197322, 2
197318, 197320, 1
197318, 197319, 6
197319, 197318, 2
197319, 197320, 2
197319, 197324, 2
197319, 197323, 2
197322, 197320, 2
197322, 197321, 2
197322, 197323, 2
197322, 197324, 2
197324, 197322, 2
197324, 197321, 2
197324, 197323, 2
197324, 197319, 2
