171079, 171081, 8
171079, 171080, 3
171079, 171083, 2
171079, 171084, 1
171079, 171082, 2
171084, 171079, 2
171084, 171083, 2
171084, 171080, 2
171084, 171081, 2
171084, 171082, 2
171084, 171085, 3
171083, 171079, 2
171083, 171084, 2
171083, 171080, 2
171083, 171081, 2
171083, 171082, 2
171083, 171085, 2
171082, 171079, 2
171082, 171084, 2
171082, 171083, 1
171082, 171081, 2
171082, 171080, 2
171081, 171079, 2
171081, 171084, 2
171081, 171083, 2
171081, 171080, 2
171081, 171082, 1
171081, 171085, 2
171080, 171079, 2
171080, 171084, 2
171080, 171083, 2
171080, 171081, 2
171080, 171082, 2
171085, 171084, 2
171085, 171081, 2
171085, 171083, 2
