119022, 119021, 2
119022, 119023, 1
119021, 119022, 1
119021, 119020, 2
119012, 119014, 2
119012, 119015, 2
119012, 119013, 1
119023, 119022, 2
119020, 119021, 1
119020, 119019, 2
119015, 119016, 1
119015, 119012, 2
119015, 119014, 2
119013, 119012, 2
119013, 119014, 1
119018, 119017, 2
119018, 119019, 1
119014, 119012, 2
119014, 119015, 1
119014, 119013, 2
119017, 119016, 2
119017, 119018, 1
119016, 119017, 1
119016, 119015, 2
119019, 119020, 1
119019, 119018, 2
