118632, 118631, 2
118632, 118630, 2
118625, 118628, 2
118625, 118627, 2
118625, 118623, 2
118625, 118626, 2
118625, 118624, 2
118628, 118625, 2
118628, 118629, 1
118628, 118627, 2
118623, 118625, 2
118623, 118624, 1
118626, 118625, 6
118626, 118627, 1
118626, 118624, 2
118624, 118625, 2
118624, 118623, 2
118624, 118626, 1
118631, 118632, 1
118631, 118629, 2
118631, 118630, 6
118630, 118632, 2
118630, 118631, 2
118630, 118629, 2
118627, 118625, 2
118627, 118628, 1
118627, 118626, 2
118629, 118628, 2
118629, 118630, 2
118629, 118631, 1
