70355, 70354, 2
70352, 70351, 2
70352, 70354, 2
70352, 70353, 2
70354, 70355, 0
70354, 70352, 2
70354, 70353, 2
70354, 70351, 2
70353, 70351, 2
70353, 70352, 2
70353, 70354, 1
70351, 70352, 0
70351, 70354, 2
70351, 70353, 1
