257974, 257973, 2
257974, 257972, 2
257974, 257975, 1
257972, 257974, 2
257972, 257973, 1
257972, 257971, 2
257975, 257974, 2
257975, 257973, 2
257971, 257973, 2
257971, 257972, 1
257973, 257974, 1
257973, 257971, 2
257973, 257972, 2
257973, 257975, 2
