251562, 251563, 0
251562, 251564, 1
251572, 251571, 2
251572, 251570, 2
251569, 251570, 1
251569, 251568, 2
251568, 251569, 1
251568, 251567, 2
251571, 251572, 1
251571, 251570, 2
251563, 251562, 2
251563, 251564, 2
251565, 251567, 1
251565, 251564, 2
251565, 251566, 3
251567, 251565, 2
251567, 251568, 1
251567, 251566, 2
251564, 251562, 2
251564, 251563, 2
251564, 251565, 1
251564, 251566, 2
251570, 251572, 2
251570, 251569, 2
251570, 251571, 1
251566, 251567, 2
251566, 251564, 2
251566, 251565, 2
