171477, 171471, 2
171477, 171475, 2
171477, 171476, 2
171473, 171472, 2
171473, 171471, 2
171473, 171474, 2
171471, 171477, 2
171471, 171473, 2
171471, 171476, 2
171471, 171472, 4
171471, 171475, 2
171471, 171474, 1
171472, 171473, 1
171472, 171471, 2
171476, 171477, 1
171476, 171471, 2
171476, 171475, 2
171476, 171474, 2
171475, 171477, 2
171475, 171474, 2
171475, 171476, 2
171475, 171471, 2
171474, 171471, 2
171474, 171475, 3
171474, 171473, 2
171474, 171476, 1
