259587, 259586, 2
259587, 259588, 3
259586, 259587, 1
259586, 259585, 2
259586, 259584, 2
259590, 259589, 2
259590, 259591, 3
259591, 259590, 2
259588, 259587, 2
259588, 259589, 1
259589, 259590, 1
259589, 259588, 2
259585, 259586, 2
259585, 259584, 2
259584, 259585, 3
259584, 259586, 1
