132694, 132695, 1
132694, 132693, 2
132698, 132699, 1
132698, 132679, 2
132698, 132700, 2
132698, 132697, 2
132672, 132676, 2
132672, 132669, 4
132672, 132680, 1
132672, 132678, 2
132672, 132674, 2
132672, 132668, 2
132672, 132671, 6
132672, 132679, 2
132672, 132667, 2
132672, 132666, 2
132672, 132677, 2
132672, 132673, 2
132672, 132675, 2
132672, 132670, 2
132678, 132676, 2
132678, 132679, 1
132678, 132682, 2
132678, 132680, 2
132678, 132672, 2
132678, 132677, 2
132678, 132681, 2
132686, 132685, 2
132686, 132679, 2
132686, 132688, 2
132686, 132684, 2
132686, 132683, 2
132686, 132687, 1
132658, 132659, 1
132658, 132657, 2
132659, 132658, 2
132659, 132660, 3
132659, 132661, 1
132701, 132703, 2
132701, 132702, 1
132701, 132700, 2
132693, 132690, 2
132693, 132692, 2
132693, 132691, 2
132693, 132694, 1
132677, 132703, 2
132677, 132688, 2
132677, 132690, 2
132677, 132680, 2
132677, 132684, 2
132677, 132671, 2
132677, 132706, 2
132677, 132685, 2
132677, 132681, 2
132677, 132679, 2
132677, 132672, 2
132677, 132666, 2
132677, 132678, 2
132677, 132675, 2
132677, 132689, 2
132664, 132663, 2
132664, 132666, 2
132664, 132665, 1
132702, 132701, 2
132702, 132703, 1
132688, 132685, 2
132688, 132677, 2
132688, 132675, 2
132688, 132687, 2
132688, 132686, 2
132688, 132689, 1
132668, 132669, 2
132668, 132672, 2
132668, 132667, 2
132668, 132666, 2
132668, 132671, 2
132656, 132657, 1
132656, 132655, 2
132669, 132668, 2
132669, 132667, 2
132669, 132666, 2
132669, 132680, 2
132669, 132673, 2
132669, 132672, 2
132669, 132682, 2
132669, 132671, 2
132669, 132660, 2
132669, 132670, 1
132680, 132676, 2
132680, 132669, 2
132680, 132672, 2
132680, 132677, 2
132680, 132671, 2
132680, 132681, 1
132680, 132679, 2
132680, 132682, 2
132680, 132684, 2
132680, 132673, 2
132680, 132675, 2
132680, 132678, 2
132657, 132658, 1
132657, 132655, 2
132657, 132656, 2
132671, 132675, 8
132671, 132668, 2
132671, 132667, 2
132671, 132666, 2
132671, 132680, 2
132671, 132669, 2
132671, 132672, 2
132671, 132650, 2
132671, 132677, 1
132671, 132670, 2
132662, 132661, 2
132662, 132660, 2
132662, 132666, 2
132662, 132663, 2
132667, 132668, 3
132667, 132703, 2
132667, 132669, 2
132667, 132683, 2
132667, 132687, 2
132667, 132676, 2
132667, 132671, 2
132667, 132690, 2
132667, 132679, 2
132667, 132682, 2
132667, 132666, 2
132667, 132672, 2
132667, 132673, 2
132684, 132685, 1
132684, 132681, 2
132684, 132682, 2
132684, 132677, 2
132684, 132675, 2
132684, 132687, 2
132684, 132686, 2
132684, 132680, 2
132684, 132683, 2
132673, 132676, 1
132673, 132667, 2
132673, 132666, 2
132673, 132680, 2
132673, 132669, 2
132673, 132672, 2
132673, 132682, 2
132673, 132674, 8
132673, 132670, 2
132675, 132685, 2
132675, 132688, 2
132675, 132666, 2
132675, 132684, 2
132675, 132672, 2
132675, 132677, 2
132675, 132680, 2
132675, 132671, 2
132691, 132690, 2
132691, 132692, 3
132691, 132693, 1
132696, 132695, 2
132696, 132697, 1
132692, 132690, 2
132692, 132691, 2
132692, 132693, 2
132703, 132707, 2
132703, 132679, 2
132703, 132667, 2
132703, 132704, 1
132703, 132701, 2
132703, 132699, 2
132703, 132705, 2
132703, 132677, 2
132703, 132702, 2
132703, 132700, 2
132703, 132706, 2
132652, 132650, 2
132652, 132651, 2
132652, 132653, 1
132695, 132694, 2
132695, 132696, 1
132687, 132685, 2
132687, 132679, 2
132687, 132688, 2
132687, 132684, 2
132687, 132683, 2
132687, 132686, 2
132687, 132667, 2
132674, 132673, 2
132674, 132672, 2
132674, 132676, 2
132674, 132666, 2
132660, 132659, 2
132660, 132666, 2
132660, 132663, 2
132660, 132669, 2
132660, 132661, 2
132660, 132662, 2
132653, 132652, 2
132653, 132654, 1
132704, 132703, 2
132704, 132706, 2
132704, 132705, 1
132679, 132676, 2
132679, 132703, 2
132679, 132698, 2
132679, 132690, 2
132679, 132680, 2
132679, 132687, 2
132679, 132677, 2
132679, 132686, 2
132679, 132683, 2
132679, 132685, 2
132679, 132681, 2
132679, 132667, 2
132679, 132678, 2
132679, 132672, 2
132679, 132699, 2
132679, 132682, 2
132682, 132669, 2
132682, 132681, 2
132682, 132679, 2
132682, 132667, 2
132682, 132684, 2
132682, 132673, 2
132682, 132680, 2
132682, 132678, 2
132682, 132676, 2
132682, 132683, 1
132665, 132664, 2
132665, 132666, 1
132705, 132704, 2
132705, 132703, 2
132705, 132706, 0
132705, 132707, 1
132689, 132690, 1
132689, 132688, 2
132689, 132677, 2
132697, 132699, 2
132697, 132696, 2
132697, 132700, 1
132697, 132698, 3
132676, 132681, 2
132676, 132679, 2
132676, 132667, 2
132676, 132666, 2
132676, 132680, 2
132676, 132673, 2
132676, 132672, 2
132676, 132678, 1
132676, 132674, 2
132676, 132682, 2
132655, 132657, 2
132655, 132654, 2
132655, 132656, 1
132661, 132659, 2
132661, 132660, 2
132661, 132662, 3
132661, 132663, 1
132690, 132692, 2
132690, 132679, 2
132690, 132667, 2
132690, 132693, 2
132690, 132677, 2
132690, 132689, 2
132690, 132691, 1
132683, 132685, 2
132683, 132681, 2
132683, 132679, 2
132683, 132682, 2
132683, 132684, 2
132683, 132687, 2
132683, 132686, 2
132683, 132667, 2
132663, 132664, 1
132663, 132660, 2
132663, 132662, 2
132663, 132661, 2
132699, 132703, 2
132699, 132679, 2
132699, 132697, 2
132699, 132700, 2
132699, 132698, 2
132700, 132701, 1
132700, 132699, 2
132700, 132703, 2
132700, 132697, 2
132700, 132698, 2
132670, 132669, 2
132670, 132672, 2
132670, 132671, 2
132670, 132666, 2
132670, 132673, 1
132685, 132679, 2
132685, 132688, 1
132685, 132684, 2
132685, 132675, 2
132685, 132687, 2
132685, 132677, 2
132685, 132686, 3
132685, 132683, 2
132707, 132703, 2
132707, 132706, 2
132707, 132705, 2
132681, 132676, 2
132681, 132679, 2
132681, 132682, 3
132681, 132684, 1
132681, 132680, 2
132681, 132677, 2
132681, 132678, 2
132681, 132683, 2
132666, 132668, 2
132666, 132669, 2
132666, 132672, 1
132666, 132677, 2
132666, 132674, 2
132666, 132660, 2
132666, 132662, 2
132666, 132671, 2
132666, 132664, 2
132666, 132667, 3
132666, 132676, 2
132666, 132665, 2
132666, 132673, 2
132666, 132675, 2
132666, 132670, 2
132654, 132653, 2
132654, 132655, 1
132650, 132651, 1
132650, 132652, 2
132650, 132671, 2
132651, 132650, 2
132651, 132652, 1
132706, 132704, 2
132706, 132707, 2
132706, 132703, 2
132706, 132705, 2
132706, 132677, 2
