221794, 221795, 8
221794, 221796, 1
221797, 221795, 2
221797, 221796, 2
221797, 221798, 1
221796, 221794, 2
221796, 221797, 1
221796, 221795, 2
221795, 221794, 2
221795, 221799, 2
221795, 221797, 2
221795, 221798, 2
221795, 221796, 2
221799, 221795, 2
221799, 221798, 2
221798, 221799, 1
221798, 221797, 2
221798, 221795, 2
