219202, 219201, 2
219202, 219205, 1
219202, 219200, 2
219202, 219204, 8
219202, 219203, 3
219198, 219199, 1
219198, 219196, 2
219198, 219197, 2
219198, 219200, 2
219216, 219215, 2
219216, 219217, 1
219196, 219199, 2
219196, 219198, 1
219196, 219197, 3
219196, 219200, 2
219210, 219209, 2
219210, 219211, 1
219201, 219202, 1
219201, 219200, 2
219212, 219213, 1
219212, 219211, 2
219211, 219212, 1
219211, 219205, 2
219211, 219214, 2
219211, 219206, 2
219211, 219213, 2
219211, 219210, 2
219215, 219216, 1
219215, 219214, 2
219215, 219217, 2
219206, 219203, 2
219206, 219205, 2
219206, 219211, 2
219206, 219204, 2
219206, 219207, 2
219206, 219209, 2
219206, 219208, 2
219213, 219212, 2
219213, 219214, 1
219213, 219211, 2
219218, 219217, 2
219208, 219206, 2
219208, 219205, 2
219208, 219209, 1
219208, 219207, 2
219203, 219206, 2
219203, 219202, 2
219203, 219205, 2
219203, 219204, 2
219203, 219197, 2
219197, 219199, 2
219197, 219196, 2
219197, 219198, 2
219197, 219203, 2
219209, 219206, 2
219209, 219208, 2
219209, 219210, 1
219217, 219216, 2
219217, 219218, 1
219217, 219215, 2
219205, 219203, 2
219205, 219202, 2
219205, 219211, 2
219205, 219206, 3
219205, 219207, 1
219205, 219204, 2
219205, 219208, 2
219200, 219199, 2
219200, 219196, 2
219200, 219202, 2
219200, 219198, 2
219200, 219201, 1
219199, 219196, 2
219199, 219198, 2
219199, 219197, 2
219199, 219200, 1
219204, 219206, 2
219204, 219205, 2
219204, 219203, 2
219204, 219202, 2
219207, 219206, 2
219207, 219205, 2
219207, 219208, 1
219214, 219213, 2
219214, 219211, 2
219214, 219215, 1
