259551, 259548, 2
259551, 259549, 2
259551, 259550, 2
259551, 259552, 2
259551, 259553, 2
259549, 259551, 2
259549, 259550, 1
259549, 259552, 2
259549, 259548, 2
259550, 259551, 1
259550, 259549, 2
259550, 259548, 2
259552, 259553, 1
259552, 259549, 2
259552, 259548, 2
259552, 259551, 2
259553, 259551, 2
259553, 259555, 2
259553, 259554, 1
259553, 259552, 2
259548, 259551, 2
259548, 259549, 3
259548, 259550, 2
259548, 259555, 2
259548, 259552, 1
259554, 259553, 2
259554, 259555, 1
259555, 259553, 2
259555, 259554, 2
259555, 259548, 2
