255122, 255121, 2
255122, 255120, 2
255122, 255123, 2
255122, 255117, 2
255122, 255127, 2
255122, 255126, 2
255122, 255125, 2
255122, 255118, 2
255122, 255111, 2
255122, 255124, 2
255122, 255115, 2
255122, 255128, 2
255122, 255116, 2
255121, 255122, 6
255121, 255120, 2
255121, 255123, 3
255121, 255112, 2
255121, 255127, 1
255121, 255126, 2
255121, 255125, 2
255121, 255119, 2
255121, 255116, 2
255121, 255118, 2
255136, 255137, 1
255136, 255130, 2
255136, 255131, 2
255136, 255128, 2
255136, 255135, 2
255112, 255111, 2
255112, 255120, 2
255112, 255121, 2
255112, 255115, 2
255112, 255113, 2
255112, 255114, 2
255112, 255116, 2
255112, 255118, 2
255134, 255135, 1
255134, 255130, 2
255134, 255132, 2
255134, 255133, 2
255134, 255131, 2
255127, 255122, 2
255127, 255129, 2
255127, 255121, 2
255127, 255126, 2
255127, 255128, 1
255127, 255116, 2
255126, 255122, 2
255126, 255121, 2
255126, 255123, 2
255126, 255124, 2
255126, 255127, 2
255126, 255125, 2
255126, 255129, 2
255126, 255128, 2
255125, 255122, 2
255125, 255126, 1
255125, 255123, 2
255125, 255124, 2
255125, 255121, 2
255114, 255111, 2
255114, 255112, 2
255114, 255113, 2
255114, 255115, 1
255114, 255117, 2
255114, 255116, 2
255118, 255122, 2
255118, 255120, 1
255118, 255123, 2
255118, 255112, 2
255118, 255121, 2
255118, 255115, 2
255118, 255119, 8
255118, 255117, 2
255118, 255128, 2
255118, 255116, 2
255130, 255129, 2
255130, 255135, 2
255130, 255136, 1
255130, 255132, 3
255130, 255134, 2
255130, 255128, 2
255130, 255131, 6
255113, 255111, 2
255113, 255112, 2
255113, 255117, 2
255113, 255115, 2
255113, 255114, 2
255113, 255116, 2
255137, 255135, 2
255137, 255136, 2
255137, 255131, 2
255128, 255122, 2
255128, 255129, 8
255128, 255136, 2
255128, 255118, 2
255128, 255132, 2
255128, 255127, 2
255128, 255126, 2
255128, 255131, 2
255128, 255116, 2
255128, 255130, 1
255119, 255121, 2
255119, 255120, 2
255119, 255123, 2
255119, 255118, 2
255119, 255117, 2
255111, 255122, 2
255111, 255112, 6
255111, 255114, 1
255111, 255116, 2
255111, 255113, 3
255120, 255122, 2
255120, 255121, 1
255120, 255123, 2
255120, 255112, 2
255120, 255117, 2
255120, 255119, 2
255120, 255118, 2
255120, 255116, 2
255123, 255122, 2
255123, 255121, 2
255123, 255124, 1
255123, 255120, 2
255123, 255126, 2
255123, 255125, 2
255123, 255117, 2
255123, 255119, 2
255123, 255116, 2
255123, 255118, 2
255133, 255135, 2
255133, 255131, 2
255133, 255132, 2
255133, 255134, 1
255132, 255129, 2
255132, 255135, 2
255132, 255130, 2
255132, 255133, 1
255132, 255134, 2
255132, 255128, 2
255132, 255131, 2
255117, 255122, 2
255117, 255120, 2
255117, 255123, 2
255117, 255113, 2
255117, 255119, 2
255117, 255115, 2
255117, 255114, 2
255117, 255116, 2
255117, 255118, 2
255131, 255129, 2
255131, 255135, 2
255131, 255136, 2
255131, 255132, 2
255131, 255133, 2
255131, 255134, 2
255131, 255137, 2
255131, 255128, 2
255131, 255130, 2
255135, 255136, 2
255135, 255133, 2
255135, 255132, 2
255135, 255134, 2
255135, 255137, 2
255135, 255131, 2
255135, 255130, 2
255124, 255122, 2
255124, 255126, 2
255124, 255125, 1
255124, 255123, 2
255115, 255122, 2
255115, 255112, 2
255115, 255113, 2
255115, 255117, 3
255115, 255114, 2
255115, 255116, 6
255115, 255118, 1
255129, 255130, 2
255129, 255132, 2
255129, 255127, 2
255129, 255126, 2
255129, 255128, 2
255129, 255131, 2
255116, 255122, 2
255116, 255120, 2
255116, 255123, 2
255116, 255112, 2
255116, 255118, 2
255116, 255117, 2
255116, 255127, 2
255116, 255115, 2
255116, 255114, 2
255116, 255111, 2
255116, 255121, 2
255116, 255113, 2
255116, 255128, 2
