119957, 119953, 2
119957, 119956, 2
119957, 119952, 2
119957, 119958, 1
119957, 119955, 2
119957, 119959, 2
119961, 119959, 2
119961, 119952, 2
119961, 119955, 2
119961, 119960, 2
119959, 119961, 2
119959, 119957, 2
119959, 119958, 2
119959, 119955, 2
119959, 119960, 1
119948, 119952, 1
119948, 119950, 6
119948, 119949, 4
119948, 119951, 2
119958, 119957, 2
119958, 119959, 1
119950, 119948, 2
119950, 119952, 2
119955, 119957, 2
119955, 119961, 2
119955, 119953, 2
119955, 119956, 2
119955, 119952, 2
119955, 119954, 2
119955, 119959, 2
119960, 119961, 1
119960, 119959, 2
119953, 119957, 2
119953, 119954, 1
119953, 119956, 2
119953, 119952, 2
119953, 119955, 2
119956, 119957, 1
119956, 119953, 2
119956, 119952, 2
119956, 119954, 2
119956, 119955, 2
119952, 119961, 2
119952, 119957, 2
119952, 119953, 3
119952, 119956, 1
119952, 119948, 2
119952, 119951, 2
119952, 119954, 2
119952, 119950, 2
119952, 119949, 2
119952, 119955, 2
119951, 119948, 2
119951, 119949, 2
119951, 119952, 2
119949, 119948, 2
119949, 119951, 1
119949, 119952, 2
119954, 119953, 2
119954, 119956, 2
119954, 119952, 2
119954, 119955, 1
