20767, 20766, 2
20767, 20765, 2
20764, 20763, 2
20764, 20766, 2
20764, 20765, 2
20763, 20764, 3
20763, 20766, 1
20763, 20765, 8
20766, 20767, 3
20766, 20764, 2
20766, 20763, 2
20766, 20765, 2
20765, 20767, 2
20765, 20764, 2
20765, 20763, 2
20765, 20766, 2
