301144, 301143, 2
301144, 301142, 2
301143, 301144, 1
301143, 301142, 2
301139, 301140, 1
301139, 301138, 2
301138, 301139, 1
301140, 301142, 2
301140, 301139, 2
301140, 301141, 1
301142, 301144, 2
301142, 301140, 2
301142, 301143, 1
301142, 301141, 2
301141, 301140, 2
301141, 301142, 1
