219068, 219070, 1
219068, 219067, 2
219068, 219069, 2
219068, 219072, 2
219068, 219071, 2
219068, 219073, 2
219066, 219063, 2
219066, 219065, 2
219066, 219067, 2
219066, 219064, 2
219066, 219072, 2
219066, 219062, 2
219075, 219070, 2
219075, 219069, 2
219075, 219079, 1
219075, 219077, 2
219075, 219072, 2
219075, 219078, 2
219075, 219074, 6
219075, 219076, 3
219075, 219071, 2
219075, 219073, 2
219074, 219060, 2
219074, 219080, 2
219074, 219076, 2
219074, 219075, 2
219074, 219072, 2
219074, 219077, 2
219074, 219070, 2
219074, 219079, 2
219074, 219071, 2
219074, 219078, 2
219074, 219069, 2
219074, 219062, 2
219074, 219073, 2
219070, 219073, 2
219070, 219074, 2
219070, 219067, 2
219070, 219068, 2
219070, 219072, 6
219070, 219075, 1
219070, 219069, 4
219070, 219071, 2
219070, 219076, 2
219065, 219066, 6
219065, 219064, 2
219065, 219063, 2
219065, 219062, 2
219065, 219067, 1
219067, 219070, 2
219067, 219063, 2
219067, 219065, 2
219067, 219068, 1
219067, 219072, 2
219067, 219066, 2
219067, 219064, 2
219067, 219069, 2
219067, 219071, 2
219067, 219073, 2
219059, 219060, 1
219059, 219058, 2
219076, 219070, 2
219076, 219079, 2
219076, 219073, 2
219076, 219074, 2
219076, 219075, 2
219076, 219069, 2
219076, 219078, 2
219076, 219071, 2
219076, 219077, 1
219071, 219070, 2
219071, 219078, 2
219071, 219067, 2
219071, 219068, 2
219071, 219076, 2
219071, 219075, 2
219071, 219069, 2
219071, 219077, 2
219071, 219074, 2
219071, 219073, 1
219061, 219060, 2
219061, 219062, 1
219064, 219063, 2
219064, 219065, 1
219064, 219067, 2
219064, 219066, 2
219064, 219069, 2
219064, 219062, 2
219060, 219059, 2
219060, 219072, 2
219060, 219069, 2
219060, 219058, 2
219060, 219074, 2
219060, 219062, 2
219060, 219061, 1
219080, 219079, 2
219080, 219074, 2
219080, 219078, 2
219080, 219073, 2
219069, 219078, 2
219069, 219060, 2
219069, 219068, 2
219069, 219075, 2
219069, 219074, 2
219069, 219073, 2
219069, 219070, 2
219069, 219063, 2
219069, 219071, 1
219069, 219067, 2
219069, 219064, 2
219069, 219076, 2
219069, 219062, 2
219069, 219058, 2
219072, 219070, 2
219072, 219079, 2
219072, 219060, 2
219072, 219067, 2
219072, 219068, 2
219072, 219066, 2
219072, 219075, 2
219072, 219074, 2
219072, 219078, 2
219072, 219062, 2
219077, 219079, 2
219077, 219074, 2
219077, 219075, 2
219077, 219076, 2
219077, 219078, 1
219077, 219071, 2
219077, 219073, 2
219063, 219065, 2
219063, 219067, 2
219063, 219066, 2
219063, 219064, 1
219063, 219069, 2
219063, 219062, 2
219079, 219078, 2
219079, 219080, 3
219079, 219072, 2
219079, 219075, 2
219079, 219074, 2
219079, 219076, 2
219079, 219077, 2
219062, 219063, 1
219062, 219060, 2
219062, 219065, 2
219062, 219072, 2
219062, 219066, 2
219062, 219064, 2
219062, 219069, 2
219062, 219074, 2
219062, 219061, 2
219058, 219059, 1
219058, 219060, 2
219058, 219069, 2
219078, 219069, 2
219078, 219079, 2
219078, 219080, 2
219078, 219077, 2
219078, 219074, 2
219078, 219075, 2
219078, 219072, 2
219078, 219076, 2
219078, 219071, 2
219078, 219073, 2
219073, 219070, 2
219073, 219078, 2
219073, 219077, 2
219073, 219067, 2
219073, 219068, 2
219073, 219074, 2
219073, 219075, 2
219073, 219069, 2
219073, 219080, 2
219073, 219071, 2
219073, 219076, 2
