300701, 300698, 2
300701, 300697, 2
300701, 300699, 2
300701, 300700, 6
300698, 300701, 2
300698, 300699, 1
300698, 300697, 6
300698, 300700, 2
300699, 300701, 1
300699, 300698, 2
300699, 300697, 2
300699, 300700, 2
300697, 300701, 2
300697, 300698, 2
300697, 300699, 2
300697, 300700, 2
300700, 300701, 2
300700, 300698, 2
300700, 300699, 2
300700, 300697, 2
