118923, 118925, 2
118923, 118919, 2
118923, 118920, 2
118923, 118922, 2
118923, 118918, 2
118923, 118921, 2
118923, 118924, 1
118922, 118923, 2
118922, 118925, 2
118922, 118919, 2
118922, 118920, 2
118922, 118918, 2
118922, 118921, 2
118922, 118924, 2
118927, 118926, 2
118927, 118924, 2
118921, 118923, 2
118921, 118922, 1
118921, 118919, 2
118921, 118920, 2
118921, 118918, 2
118921, 118924, 2
118926, 118924, 2
118926, 118925, 2
118926, 118927, 1
118916, 118917, 1
118916, 118918, 2
118916, 118919, 2
118916, 118920, 2
118919, 118923, 2
118919, 118916, 2
118919, 118922, 2
118919, 118920, 2
118919, 118918, 2
118919, 118921, 1
118920, 118923, 2
118920, 118916, 2
118920, 118922, 2
118920, 118919, 2
118920, 118917, 2
118920, 118925, 2
118920, 118918, 2
118920, 118921, 2
118920, 118924, 2
118917, 118916, 2
118917, 118918, 1
118917, 118920, 2
118925, 118923, 2
118925, 118926, 1
118925, 118922, 2
118925, 118920, 2
118925, 118918, 2
118925, 118924, 2
118918, 118923, 1
118918, 118916, 2
118918, 118925, 2
118918, 118919, 0
118918, 118920, 3
118918, 118917, 2
118918, 118922, 2
118918, 118921, 2
118918, 118924, 2
118924, 118923, 2
118924, 118926, 2
118924, 118922, 2
118924, 118920, 2
118924, 118927, 2
118924, 118925, 0
118924, 118918, 2
118924, 118921, 2
