252320, 252322, 2
252320, 252319, 2
252320, 252321, 1
252329, 252327, 2
252329, 252328, 2
252328, 252329, 2
252328, 252327, 2
252328, 252325, 2
252328, 252326, 2
252327, 252329, 1
252327, 252326, 2
252327, 252328, 3
252322, 252320, 2
252322, 252321, 2
252322, 252323, 2
252322, 252325, 2
252325, 252326, 2
252325, 252322, 2
252325, 252323, 2
252325, 252328, 2
252325, 252324, 2
252318, 252319, 1
252318, 252317, 2
252317, 252318, 1
252317, 252319, 2
252326, 252327, 1
252326, 252325, 2
252326, 252328, 2
252326, 252324, 2
252324, 252325, 3
252324, 252326, 1
252324, 252323, 2
252319, 252320, 1
252319, 252318, 2
252319, 252317, 2
252321, 252320, 2
252321, 252322, 3
252321, 252323, 1
252323, 252321, 2
252323, 252322, 2
252323, 252325, 2
252323, 252324, 1
