17329, 17330, 1
17329, 17328, 2
17322, 17320, 2
17322, 17323, 1
17322, 17321, 2
17333, 17332, 2
17328, 17329, 1
17328, 17327, 2
17324, 17325, 1
17324, 17323, 2
17323, 17322, 2
17323, 17320, 2
17323, 17324, 1
17323, 17321, 2
17320, 17322, 1
17320, 17323, 2
17320, 17321, 3
17326, 17325, 2
17326, 17327, 1
17331, 17332, 1
17331, 17330, 2
17321, 17322, 2
17321, 17327, 2
17321, 17323, 2
17321, 17320, 2
17332, 17333, 1
17332, 17331, 2
17325, 17326, 1
17325, 17327, 2
17325, 17324, 2
17330, 17329, 2
17330, 17331, 1
17327, 17326, 2
17327, 17325, 2
17327, 17328, 1
17327, 17321, 2
