18476, 18477, 2
18476, 18478, 2
18476, 18475, 2
18476, 18470, 2
18476, 18474, 2
18476, 18479, 2
18464, 18465, 2
18464, 18470, 2
18464, 18463, 2
18464, 18466, 2
18478, 18476, 2
18478, 18477, 2
18478, 18479, 1
18478, 18475, 2
18475, 18476, 0
18475, 18474, 2
18475, 18478, 2
18475, 18477, 1
18475, 18479, 2
18466, 18465, 2
18466, 18467, 1
18466, 18463, 2
18466, 18464, 2
18473, 18470, 2
18473, 18469, 2
18473, 18472, 2
18473, 18471, 2
18473, 18474, 1
18474, 18476, 2
18474, 18473, 2
18474, 18470, 2
18474, 18477, 2
18474, 18475, 1
18481, 18480, 2
18480, 18479, 2
18480, 18481, 1
18469, 18473, 2
18469, 18467, 2
18469, 18468, 2
18469, 18470, 1
18469, 18472, 2
18469, 18471, 2
18467, 18469, 2
18467, 18470, 2
18467, 18468, 1
18467, 18466, 2
18467, 18472, 2
18467, 18471, 2
18463, 18465, 1
18463, 18466, 2
18463, 18464, 0
18477, 18476, 2
18477, 18474, 2
18477, 18479, 2
18477, 18478, 1
18477, 18475, 2
18470, 18476, 2
18470, 18469, 2
18470, 18467, 2
18470, 18464, 2
18470, 18473, 2
18470, 18468, 2
18470, 18474, 2
18470, 18472, 2
18470, 18471, 2
18468, 18470, 2
18468, 18469, 0
18468, 18472, 1
18468, 18467, 2
18468, 18471, 8
18465, 18463, 2
18465, 18466, 1
18465, 18464, 2
18472, 18469, 2
18472, 18467, 2
18472, 18473, 1
18472, 18468, 2
18472, 18470, 2
18472, 18471, 2
18471, 18469, 2
18471, 18467, 2
18471, 18473, 2
18471, 18468, 2
18471, 18472, 2
18471, 18470, 2
18479, 18476, 2
18479, 18480, 1
18479, 18477, 2
18479, 18478, 2
18479, 18475, 2
