334327, 334325, 2
334327, 334328, 1
334327, 334326, 2
334330, 334329, 2
334330, 334328, 2
334330, 334331, 1
334325, 334327, 2
334325, 334326, 1
334331, 334330, 2
334331, 334332, 1
334332, 334335, 2
334332, 334333, 8
334332, 334331, 2
334332, 334334, 1
334336, 334335, 2
334336, 334337, 1
334335, 334332, 2
334335, 334334, 2
334335, 334336, 1
334338, 334337, 2
334333, 334332, 2
334333, 334334, 2
334326, 334327, 1
334326, 334325, 2
334329, 334330, 2
334329, 334328, 2
334337, 334336, 2
334337, 334338, 3
334334, 334332, 2
334334, 334335, 1
334334, 334333, 2
334328, 334327, 2
334328, 334330, 1
334328, 334329, 3
