222838, 222835, 2
222838, 222840, 2
222838, 222839, 2
222838, 222837, 2
222838, 222836, 2
222835, 222838, 2
222835, 222837, 2
222835, 222834, 2
222835, 222836, 2
222842, 222841, 2
222842, 222836, 2
222840, 222838, 2
222840, 222841, 2
222840, 222839, 2
222840, 222836, 2
222841, 222842, 1
222841, 222840, 2
222841, 222839, 2
222841, 222836, 2
222839, 222838, 2
222839, 222840, 3
222839, 222841, 1
222839, 222836, 2
222839, 222837, 2
222836, 222838, 2
222836, 222835, 2
222836, 222842, 2
222836, 222840, 2
222836, 222841, 2
222836, 222839, 2
222836, 222837, 2
222836, 222834, 2
222834, 222835, 8
222834, 222836, 2
222834, 222837, 1
222837, 222838, 3
222837, 222839, 1
222837, 222836, 6
222837, 222834, 2
222837, 222835, 2
