21015, 21014, 2
21015, 21013, 2
21015, 21011, 2
21014, 21015, 1
21014, 21013, 2
21014, 21011, 2
21012, 21013, 1
21012, 21011, 2
21013, 21015, 2
21013, 21014, 2
21013, 21011, 2
21013, 21012, 2
21011, 21015, 2
21011, 21014, 1
21011, 21013, 2
21011, 21012, 3
