300172, 300173, 1
300172, 300170, 2
300172, 300171, 2
300169, 300173, 2
300169, 300170, 3
300169, 300171, 0
300171, 300172, 1
300171, 300169, 2
300171, 300170, 2
300170, 300172, 2
300170, 300169, 2
300170, 300171, 2
300170, 300173, 2
300173, 300172, 2
300173, 300169, 2
300173, 300170, 2
