252541, 252540, 2
252541, 252542, 2
252541, 252543, 2
252544, 252545, 3
252544, 252547, 2
252544, 252549, 2
252544, 252546, 2
252544, 252543, 2
252544, 252548, 1
252545, 252544, 2
252545, 252543, 2
252545, 252546, 1
252549, 252544, 2
252549, 252547, 2
252549, 252548, 2
252549, 252551, 1
252549, 252550, 3
252546, 252544, 2
252546, 252545, 2
252546, 252547, 1
252553, 252552, 2
252542, 252541, 2
252542, 252540, 2
252542, 252543, 1
252552, 252551, 2
252552, 252553, 1
252548, 252549, 1
252548, 252544, 2
252548, 252547, 2
252551, 252549, 2
252551, 252550, 2
252551, 252552, 1
252551, 252547, 2
252547, 252544, 2
252547, 252551, 2
252547, 252550, 2
252547, 252549, 2
252547, 252546, 2
252547, 252548, 2
252540, 252541, 3
252540, 252542, 1
252540, 252543, 2
252543, 252541, 2
252543, 252544, 1
252543, 252540, 2
252543, 252545, 2
252543, 252542, 2
252550, 252549, 2
252550, 252551, 2
252550, 252547, 2
