15877, 15878, 8
15877, 15879, 1
15877, 15876, 2
15879, 15877, 2
15879, 15878, 2
15879, 15880, 1
15871, 15873, 2
15871, 15876, 2
15871, 15872, 2
15871, 15874, 2
15871, 15875, 2
15878, 15877, 2
15878, 15879, 2
15875, 15876, 1
15875, 15871, 2
15875, 15874, 2
15876, 15877, 1
15876, 15871, 2
15876, 15874, 2
15876, 15875, 2
15880, 15879, 2
15872, 15873, 3
15872, 15871, 6
15872, 15874, 1
15874, 15875, 1
15874, 15871, 2
15874, 15872, 2
15874, 15876, 2
15874, 15873, 2
15873, 15871, 2
15873, 15874, 2
15873, 15872, 2
