184629, 184631, 2
184629, 184630, 0
184629, 184634, 1
184633, 184632, 2
184633, 184634, 2
184630, 184629, 2
184630, 184631, 1
184634, 184629, 2
184634, 184633, 2
184634, 184636, 2
184634, 184635, 1
184635, 184636, 1
184635, 184634, 2
184637, 184638, 1
184637, 184636, 2
184631, 184629, 2
184631, 184632, 1
184631, 184630, 2
184638, 184637, 2
184638, 184636, 2
184636, 184635, 2
184636, 184637, 1
184636, 184638, 2
184636, 184634, 2
184632, 184633, 1
184632, 184631, 2
