300614, 300616, 2
300614, 300617, 2
300614, 300615, 2
300614, 300613, 2
300616, 300614, 2
300616, 300617, 3
300616, 300615, 2
300617, 300614, 2
300617, 300615, 2
300617, 300616, 2
300615, 300614, 2
300615, 300616, 1
300615, 300617, 2
300615, 300613, 2
300613, 300614, 3
300613, 300615, 1
