197113, 197112, 2
197113, 197111, 2
197109, 197110, 1
197109, 197112, 2
197109, 197111, 2
197110, 197109, 2
197110, 197112, 2
197110, 197111, 1
197112, 197113, 2
197112, 197109, 2
197112, 197110, 2
197112, 197111, 2
197111, 197113, 1
197111, 197109, 2
197111, 197110, 2
197111, 197112, 8
