65918, 65905, 2
65918, 65915, 2
65918, 65922, 2
65918, 65907, 2
65918, 65909, 2
65918, 65916, 2
65918, 65921, 2
65918, 65913, 2
65918, 65919, 3
65918, 65910, 2
65905, 65918, 2
65905, 65913, 2
65905, 65914, 2
65905, 65908, 2
65905, 65910, 2
65905, 65906, 6
65905, 65904, 2
65905, 65911, 2
65905, 65912, 1
65905, 65907, 4
65905, 65919, 2
65905, 65909, 2
65905, 65917, 2
65908, 65912, 2
65908, 65905, 2
65908, 65914, 2
65908, 65906, 2
65908, 65904, 2
65908, 65911, 3
65908, 65917, 2
65910, 65918, 2
65910, 65905, 2
65910, 65921, 2
65910, 65922, 2
65910, 65916, 2
65910, 65913, 2
65910, 65912, 2
65910, 65907, 2
65910, 65915, 2
65910, 65909, 2
65910, 65919, 2
65910, 65917, 2
65916, 65918, 4
65916, 65917, 6
65916, 65915, 2
65916, 65910, 2
65916, 65920, 2
65916, 65919, 2
65916, 65921, 1
65916, 65923, 2
65916, 65922, 2
65920, 65925, 2
65920, 65917, 2
65920, 65916, 2
65920, 65921, 2
65920, 65924, 2
65920, 65923, 2
65907, 65918, 2
65907, 65905, 2
65907, 65910, 3
65907, 65912, 2
65907, 65909, 0
65907, 65904, 2
65907, 65921, 2
65907, 65913, 2
65907, 65922, 2
65909, 65918, 2
65909, 65905, 2
65909, 65919, 2
65909, 65910, 2
65909, 65912, 2
65909, 65904, 2
65909, 65913, 2
65909, 65907, 2
65921, 65923, 0
65921, 65918, 2
65921, 65913, 2
65921, 65910, 2
65921, 65916, 2
65921, 65907, 2
65921, 65920, 2
65921, 65925, 2
65921, 65915, 2
65921, 65919, 2
65921, 65917, 2
65921, 65924, 1
65921, 65922, 3
65924, 65920, 2
65924, 65925, 1
65924, 65921, 2
65924, 65923, 2
65924, 65922, 2
65913, 65918, 2
65913, 65905, 2
65913, 65921, 2
65913, 65915, 2
65913, 65910, 2
65913, 65907, 2
65913, 65912, 2
65913, 65914, 2
65913, 65909, 2
65913, 65917, 2
65913, 65922, 2
65914, 65912, 2
65914, 65905, 2
65914, 65915, 2
65914, 65904, 2
65914, 65911, 2
65914, 65908, 2
65914, 65917, 2
65914, 65913, 2
65922, 65923, 2
65922, 65918, 2
65922, 65925, 2
65922, 65915, 2
65922, 65910, 2
65922, 65907, 2
65922, 65916, 2
65922, 65921, 2
65922, 65924, 2
65922, 65913, 2
65922, 65919, 2
65906, 65904, 2
65906, 65912, 2
65906, 65905, 2
65906, 65917, 2
65906, 65908, 1
65912, 65913, 3
65912, 65914, 0
65912, 65908, 2
65912, 65910, 2
65912, 65906, 2
65912, 65904, 2
65912, 65911, 2
65912, 65905, 2
65912, 65907, 2
65912, 65915, 1
65912, 65909, 2
65912, 65917, 2
65904, 65912, 2
65904, 65905, 1
65904, 65908, 2
65904, 65906, 2
65904, 65909, 2
65904, 65911, 2
65904, 65914, 2
65904, 65907, 2
65911, 65912, 2
65911, 65905, 2
65911, 65917, 2
65911, 65908, 2
65911, 65904, 2
65911, 65914, 2
65925, 65920, 2
65925, 65917, 2
65925, 65919, 2
65925, 65922, 2
65925, 65924, 2
65925, 65921, 2
65925, 65923, 2
65915, 65918, 2
65915, 65913, 2
65915, 65921, 2
65915, 65910, 2
65915, 65912, 2
65915, 65916, 1
65915, 65914, 2
65915, 65923, 2
65915, 65917, 2
65915, 65922, 2
65919, 65918, 2
65919, 65905, 2
65919, 65910, 2
65919, 65909, 2
65919, 65916, 2
65919, 65921, 2
65919, 65925, 2
65919, 65922, 2
65917, 65905, 2
65917, 65914, 2
65917, 65908, 2
65917, 65910, 2
65917, 65906, 2
65917, 65920, 4
65917, 65916, 2
65917, 65913, 2
65917, 65912, 2
65917, 65925, 2
65917, 65915, 2
65917, 65911, 2
65917, 65921, 2
65917, 65923, 2
65923, 65920, 2
65923, 65925, 2
65923, 65917, 2
65923, 65915, 2
65923, 65922, 2
65923, 65916, 2
65923, 65921, 2
65923, 65924, 2
