130620, 130618, 2
130620, 130621, 2
130620, 130619, 2
130622, 130618, 2
130622, 130621, 2
130622, 130619, 2
130618, 130620, 0
130618, 130622, 2
130618, 130621, 1
130618, 130619, 3
130621, 130620, 2
130621, 130622, 3
130621, 130618, 2
130621, 130619, 2
130619, 130620, 2
130619, 130622, 2
130619, 130618, 2
130619, 130621, 2
