216991, 216992, 1
216991, 216993, 2
216998, 216997, 2
216998, 216996, 2
216998, 216999, 2
216998, 217000, 2
216999, 216997, 2
216999, 216998, 2
216999, 217001, 1
216999, 217000, 3
216995, 216996, 1
216995, 216994, 2
216995, 216993, 2
217002, 217003, 1
217002, 217001, 2
216996, 216997, 1
216996, 216998, 2
216996, 216994, 2
216996, 216995, 2
217000, 216997, 2
217000, 216998, 2
217000, 216999, 2
217000, 217001, 2
216997, 216996, 2
216997, 216998, 8
216997, 217001, 2
216997, 216999, 1
216997, 217000, 2
217001, 216997, 2
217001, 217000, 2
217001, 217003, 2
217001, 216999, 2
217001, 217002, 1
216992, 216991, 2
216992, 216993, 1
216993, 216991, 2
216993, 216994, 1
216993, 216992, 2
216993, 216995, 2
216994, 216993, 2
216994, 216996, 2
216994, 216995, 1
217003, 217001, 2
217003, 217002, 2
