165300, 165294, 2
165300, 165301, 8
165300, 165304, 2
165300, 165299, 2
165300, 165302, 1
165300, 165307, 2
165314, 165319, 2
165314, 165321, 1
165314, 165317, 2
165314, 165316, 2
165314, 165312, 2
165314, 165315, 3
165314, 165313, 2
165294, 165298, 2
165294, 165300, 2
165294, 165306, 2
165294, 165313, 2
165294, 165293, 2
165294, 165315, 2
165294, 165304, 2
165294, 165299, 2
165294, 165305, 2
165294, 165296, 2
165294, 165295, 2
165294, 165301, 2
165294, 165292, 2
165299, 165300, 1
165299, 165294, 2
165299, 165298, 2
165293, 165295, 1
165293, 165292, 2
165293, 165294, 2
165315, 165319, 2
165315, 165317, 1
165315, 165314, 2
165315, 165294, 2
165315, 165312, 2
165315, 165310, 2
165315, 165313, 2
165315, 165307, 2
165315, 165316, 2
165298, 165296, 2
165298, 165297, 2
165298, 165304, 2
165298, 165294, 2
165298, 165299, 1
165307, 165300, 2
165307, 165306, 2
165307, 165315, 2
165307, 165304, 2
165307, 165309, 2
165307, 165305, 2
165307, 165308, 2
165307, 165310, 1
165307, 165311, 2
165307, 165301, 2
165307, 165313, 2
165307, 165302, 2
165305, 165310, 2
165305, 165294, 2
165305, 165303, 2
165305, 165301, 2
165305, 165306, 1
165305, 165304, 2
165305, 165307, 2
165321, 165319, 2
165321, 165317, 2
165321, 165314, 2
165321, 165316, 2
165321, 165320, 2
165321, 165322, 1
165317, 165319, 2
165317, 165321, 2
165317, 165314, 2
165317, 165316, 6
165317, 165312, 2
165317, 165315, 2
165317, 165318, 1
165303, 165301, 2
165303, 165304, 2
165303, 165302, 2
165303, 165305, 1
165297, 165296, 2
165297, 165298, 1
165301, 165300, 2
165301, 165310, 2
165301, 165294, 2
165301, 165303, 2
165301, 165304, 2
165301, 165307, 2
165301, 165302, 2
165301, 165305, 2
165313, 165310, 2
165313, 165311, 2
165313, 165312, 2
165313, 165315, 2
165313, 165314, 1
165313, 165304, 2
165313, 165307, 2
165313, 165294, 2
165302, 165304, 4
165302, 165300, 2
165302, 165301, 2
165302, 165307, 2
165302, 165303, 1
165319, 165321, 2
165319, 165317, 2
165319, 165314, 2
165319, 165316, 2
165319, 165320, 2
165319, 165315, 2
165319, 165318, 2
165306, 165308, 1
165306, 165310, 2
165306, 165294, 2
165306, 165312, 2
165306, 165304, 2
165306, 165307, 2
165306, 165305, 2
165316, 165319, 2
165316, 165321, 2
165316, 165317, 2
165316, 165314, 2
165316, 165320, 2
165316, 165315, 2
165316, 165318, 2
165312, 165317, 2
165312, 165306, 2
165312, 165315, 2
165312, 165309, 2
165312, 165308, 2
165312, 165322, 2
165312, 165310, 2
165312, 165311, 2
165312, 165320, 2
165312, 165326, 2
165312, 165314, 2
165312, 165318, 2
165312, 165313, 2
165318, 165319, 2
165318, 165317, 2
165318, 165316, 2
165318, 165320, 1
165318, 165312, 2
165304, 165298, 2
165304, 165300, 2
165304, 165306, 2
165304, 165294, 2
165304, 165309, 2
165304, 165307, 2
165304, 165295, 2
165304, 165296, 2
165304, 165311, 2
165304, 165303, 2
165304, 165305, 2
165304, 165301, 2
165304, 165313, 2
165304, 165302, 2
165309, 165308, 2
165309, 165310, 2
165309, 165311, 1
165309, 165312, 2
165309, 165304, 2
165309, 165307, 2
165295, 165293, 2
165295, 165296, 1
165295, 165304, 2
165295, 165294, 2
165296, 165295, 2
165296, 165304, 2
165296, 165298, 2
165296, 165294, 2
165296, 165297, 1
165323, 165322, 2
165323, 165324, 2
165322, 165323, 8
165322, 165321, 2
165322, 165324, 1
165322, 165312, 2
165310, 165308, 2
165310, 165306, 2
165310, 165311, 2
165310, 165312, 1
165310, 165315, 2
165310, 165305, 2
165310, 165301, 2
165310, 165313, 2
165310, 165307, 2
165310, 165309, 2
165311, 165308, 2
165311, 165310, 2
165311, 165312, 2
165311, 165309, 2
165311, 165304, 2
165311, 165313, 1
165311, 165307, 2
165320, 165319, 6
165320, 165321, 2
165320, 165316, 2
165320, 165312, 2
165320, 165318, 2
165326, 165325, 2
165326, 165324, 2
165326, 165312, 2
165324, 165323, 2
165324, 165322, 2
165324, 165325, 1
165324, 165326, 2
165325, 165324, 2
165325, 165326, 1
165308, 165310, 2
165308, 165311, 2
165308, 165312, 2
165308, 165306, 2
165308, 165307, 4
165308, 165309, 1
165292, 165293, 1
165292, 165294, 4
