297177, 297178, 3
297177, 297175, 2
297177, 297179, 2
297177, 297176, 2
297176, 297177, 3
297176, 297175, 2
297176, 297179, 1
297176, 297181, 2
297185, 297187, 2
297185, 297188, 2
297185, 297183, 2
297185, 297191, 2
297185, 297179, 2
297185, 297180, 2
297185, 297193, 2
297185, 297184, 2
297185, 297192, 2
297185, 297186, 2
297185, 297181, 2
297179, 297177, 2
297179, 297176, 2
297179, 297185, 2
297179, 297180, 1
297179, 297193, 2
297179, 297178, 2
297179, 297182, 2
297179, 297181, 2
297180, 297183, 1
297180, 297185, 2
297180, 297179, 2
297180, 297193, 2
297180, 297184, 2
297180, 297182, 3
297180, 297181, 6
297175, 297178, 2
297175, 297176, 1
297175, 297177, 2
297175, 297181, 2
297189, 297187, 2
297189, 297191, 2
297189, 297190, 3
297189, 297188, 2
297189, 297184, 2
297189, 297186, 2
297193, 297192, 2
297193, 297191, 2
297193, 297194, 2
297193, 297179, 2
297193, 297180, 2
297193, 297188, 2
297193, 297185, 2
297193, 297184, 2
297193, 297181, 2
297192, 297193, 6
297192, 297185, 2
297192, 297191, 2
297192, 297194, 1
297192, 297181, 2
297182, 297183, 2
297182, 297180, 2
297182, 297179, 2
297182, 297178, 2
297182, 297184, 2
297182, 297190, 2
297182, 297186, 2
297182, 297181, 2
297181, 297184, 2
297181, 297191, 2
297181, 297185, 2
297181, 297179, 2
297181, 297180, 2
297181, 297193, 2
297181, 297192, 2
297181, 297182, 2
297181, 297183, 2
297181, 297176, 2
297181, 297188, 2
297181, 297175, 2
297187, 297185, 2
297187, 297190, 2
297187, 297188, 1
297187, 297189, 2
297187, 297184, 2
297187, 297186, 2
297183, 297185, 2
297183, 297180, 2
297183, 297178, 2
297183, 297184, 1
297183, 297182, 2
297183, 297186, 2
297183, 297181, 2
297191, 297192, 1
297191, 297185, 2
297191, 297190, 2
297191, 297188, 2
297191, 297189, 2
297191, 297193, 2
297191, 297186, 2
297191, 297181, 2
297190, 297187, 2
297190, 297191, 2
297190, 297194, 2
297190, 297178, 2
297190, 297189, 2
297190, 297184, 2
297190, 297182, 2
297190, 297186, 2
297188, 297187, 2
297188, 297181, 2
297188, 297191, 1
297188, 297185, 2
297188, 297193, 2
297188, 297189, 3
297188, 297184, 2
297188, 297186, 2
297194, 297192, 2
297194, 297190, 2
297194, 297193, 2
297184, 297187, 1
297184, 297183, 2
297184, 297185, 6
297184, 297180, 2
297184, 297190, 2
297184, 297188, 2
297184, 297189, 2
297184, 297193, 2
297184, 297182, 2
297184, 297186, 3
297184, 297181, 2
297178, 297177, 2
297178, 297183, 2
297178, 297190, 2
297178, 297179, 2
297178, 297175, 2
297178, 297182, 2
297178, 297186, 2
297186, 297187, 2
297186, 297183, 2
297186, 297191, 2
297186, 297185, 2
297186, 297190, 2
297186, 297188, 2
297186, 297178, 2
297186, 297184, 2
297186, 297182, 2
297186, 297189, 2
