67980, 67981, 1
67980, 67979, 2
67980, 67978, 2
67996, 67995, 2
67996, 67997, 2
67976, 67978, 2
67976, 67975, 2
67976, 67989, 2
67976, 67981, 2
67976, 67974, 2
67976, 67977, 2
68002, 68001, 2
68002, 68003, 1
67995, 67997, 1
67995, 67994, 2
67995, 67996, 0
67995, 67989, 2
67983, 67981, 2
67983, 67984, 1
67983, 67982, 2
67974, 67978, 2
67974, 67975, 3
67974, 67989, 2
67974, 67979, 2
67974, 67976, 0
67974, 67977, 1
68003, 68001, 2
68003, 68002, 2
68003, 67989, 2
67998, 67999, 1
67998, 67997, 2
67978, 67980, 1
67978, 67979, 3
67978, 67975, 2
67978, 67974, 2
67978, 67981, 2
67978, 67976, 2
67978, 67977, 2
67975, 67977, 2
67975, 67979, 2
67975, 67978, 2
67975, 67976, 2
67975, 67974, 2
68000, 68001, 2
68000, 67999, 2
68000, 67997, 2
68001, 67999, 2
68001, 68002, 1
68001, 67989, 2
68001, 68000, 2
68001, 68003, 2
67987, 67988, 1
67987, 67985, 2
67987, 67989, 2
67987, 67986, 2
67985, 67984, 2
67985, 67988, 2
67985, 67986, 3
67985, 67989, 2
67985, 67987, 1
67991, 67992, 1
67991, 67989, 2
67991, 67990, 2
67994, 67992, 2
67994, 67997, 2
67994, 67993, 2
67994, 67989, 2
67994, 67995, 1
67988, 67990, 1
67988, 67985, 2
67988, 67989, 6
67988, 67987, 2
67992, 67994, 1
67992, 67993, 0
67992, 67991, 2
67992, 67989, 2
67984, 67983, 2
67984, 67981, 2
67984, 67982, 2
67984, 67985, 1
67984, 67989, 2
67984, 67986, 2
67982, 67981, 2
67982, 67983, 2
67982, 67984, 2
67982, 67989, 2
67989, 67994, 2
67989, 67988, 2
67989, 67976, 2
67989, 67990, 2
67989, 67985, 2
67989, 67992, 2
67989, 67984, 2
67989, 67982, 2
67989, 67974, 2
67989, 68003, 2
67989, 67999, 2
67989, 68001, 2
67989, 67981, 2
67989, 67987, 2
67989, 67995, 2
67989, 67993, 2
67989, 67991, 2
67990, 67988, 2
67990, 67989, 2
67990, 67991, 1
67990, 67986, 2
67979, 67980, 2
67979, 67978, 2
67979, 67975, 2
67979, 67977, 2
67979, 67981, 2
67979, 67974, 2
67977, 67978, 1
67977, 67979, 2
67977, 67975, 2
67977, 67976, 2
67977, 67974, 2
67999, 68001, 1
67999, 67998, 2
67999, 67997, 2
67999, 67989, 2
67999, 68000, 3
67981, 67980, 2
67981, 67979, 2
67981, 67978, 2
67981, 67984, 2
67981, 67982, 0
67981, 67983, 1
67981, 67989, 2
67981, 67976, 2
67997, 67998, 1
67997, 67999, 2
67997, 67996, 2
67997, 68000, 2
67997, 67995, 2
67997, 67994, 2
67993, 67992, 2
67993, 67994, 2
67993, 67989, 2
67986, 67990, 2
67986, 67984, 2
67986, 67985, 2
67986, 67987, 2
