21558, 21559, 2
21558, 21557, 2
21562, 21561, 2
21562, 21560, 2
21560, 21559, 2
21560, 21561, 1
21560, 21562, 2
21557, 21559, 1
21557, 21558, 3
21559, 21558, 2
21559, 21560, 1
21559, 21557, 2
21561, 21560, 2
21561, 21562, 1
