300341, 300337, 2
300341, 300340, 2
300341, 300342, 2
300341, 300339, 2
300342, 300341, 2
300342, 300340, 2
300339, 300338, 2
300339, 300337, 2
300339, 300341, 2
300339, 300340, 1
300338, 300337, 2
300338, 300339, 2
300337, 300338, 3
300337, 300341, 2
300337, 300339, 1
300340, 300341, 6
300340, 300342, 1
300340, 300339, 2
