338018, 338020, 2
338018, 338019, 1
338018, 338017, 2
338026, 338025, 2
338026, 338024, 2
338026, 338027, 1
338038, 338037, 2
338038, 338040, 2
338038, 338035, 2
338038, 338039, 1
338045, 338046, 2
338045, 338044, 2
338043, 338042, 2
338043, 338044, 1
338041, 338040, 2
338041, 338042, 1
338030, 338028, 2
338030, 338031, 1
338030, 338029, 2
338020, 338021, 1
338020, 338019, 2
338020, 338018, 2
338017, 338014, 2
338017, 338016, 2
338017, 338019, 2
338017, 338015, 2
338017, 338018, 1
338029, 338028, 2
338029, 338027, 2
338029, 338030, 2
338027, 338028, 1
338027, 338026, 2
338027, 338029, 2
338042, 338041, 2
338042, 338043, 1
338014, 338013, 2
338014, 338017, 2
338014, 338015, 1
338013, 338014, 1
338016, 338015, 2
338016, 338017, 1
338039, 338040, 1
338039, 338038, 2
338031, 338028, 2
338031, 338030, 2
338031, 338033, 2
338031, 338032, 1
338033, 338034, 1
338033, 338031, 2
338033, 338032, 2
338034, 338035, 1
338034, 338033, 2
338034, 338036, 2
338044, 338043, 2
338044, 338046, 1
338044, 338045, 8
338044, 338047, 2
338047, 338046, 2
338047, 338044, 2
338024, 338025, 1
338024, 338021, 2
338024, 338026, 2
338024, 338023, 2
338022, 338021, 2
338022, 338023, 2
338019, 338020, 1
338019, 338017, 2
338019, 338018, 2
338036, 338035, 2
338036, 338037, 2
338036, 338034, 2
338035, 338037, 1
338035, 338034, 2
338035, 338038, 2
338035, 338036, 8
338037, 338035, 2
338037, 338038, 1
338037, 338036, 2
338021, 338024, 2
338021, 338022, 8
338021, 338020, 2
338021, 338023, 1
338015, 338014, 2
338015, 338017, 2
338015, 338016, 1
338032, 338031, 2
338032, 338033, 1
338025, 338024, 2
338025, 338026, 1
338040, 338041, 1
338040, 338039, 2
338040, 338038, 2
338046, 338045, 2
338046, 338047, 1
338046, 338044, 2
338023, 338024, 1
338023, 338021, 2
338023, 338022, 2
338028, 338027, 2
338028, 338031, 2
338028, 338030, 1
338028, 338029, 8
