126133, 126127, 2
126133, 126136, 2
126133, 126134, 1
126133, 126131, 2
126133, 126132, 2
126142, 126141, 2
126142, 126143, 2
126142, 126148, 2
126142, 126137, 2
126142, 126144, 2
126118, 126116, 2
126118, 126119, 2
126118, 126117, 2
126137, 126141, 2
126137, 126142, 2
126137, 126139, 2
126137, 126135, 2
126137, 126138, 0
126137, 126143, 1
126137, 126136, 2
126137, 126144, 2
126137, 126140, 2
126121, 126122, 1
126121, 126129, 2
126121, 126120, 2
126136, 126133, 2
126136, 126144, 2
126136, 126137, 2
126136, 126138, 2
126136, 126130, 2
126136, 126135, 2
126136, 126129, 2
126136, 126139, 2
126136, 126127, 2
126136, 126143, 2
126136, 126134, 2
126136, 126131, 2
126127, 126133, 2
126127, 126129, 2
126127, 126136, 2
126127, 126128, 0
126127, 126130, 2
126127, 126126, 2
126127, 126132, 1
126127, 126131, 2
126144, 126142, 2
126144, 126137, 2
126144, 126136, 2
126144, 126143, 2
126144, 126148, 2
126144, 126145, 1
126146, 126148, 2
126146, 126147, 1
126146, 126145, 2
126129, 126116, 2
126129, 126128, 2
126129, 126132, 2
126129, 126121, 2
126129, 126130, 1
126129, 126126, 2
126129, 126127, 2
126129, 126136, 2
126129, 126123, 2
126145, 126144, 2
126145, 126148, 2
126145, 126146, 1
126128, 126126, 2
126128, 126127, 2
126128, 126129, 1
126119, 126116, 2
126119, 126117, 2
126119, 126118, 2
126119, 126120, 1
126117, 126116, 2
126117, 126119, 2
126117, 126118, 1
126117, 126115, 2
126131, 126133, 2
126131, 126136, 2
126131, 126130, 2
126131, 126127, 2
126131, 126132, 2
126131, 126134, 2
126138, 126135, 2
126138, 126137, 2
126138, 126139, 1
126138, 126136, 2
126120, 126119, 2
126120, 126121, 1
126116, 126119, 1
126116, 126129, 2
126116, 126117, 3
126116, 126118, 2
126116, 126115, 2
126122, 126123, 1
126122, 126121, 2
126147, 126146, 2
126147, 126148, 0
126147, 126149, 1
126115, 126116, 1
126115, 126117, 2
126124, 126125, 1
126124, 126123, 2
126132, 126133, 1
126132, 126129, 2
126132, 126130, 2
126132, 126126, 2
126132, 126127, 2
126132, 126131, 2
126126, 126129, 2
126126, 126128, 2
126126, 126132, 2
126126, 126127, 1
126126, 126130, 2
126126, 126125, 2
126135, 126137, 1
126135, 126139, 2
126135, 126136, 0
126135, 126138, 2
126135, 126143, 2
126135, 126134, 2
126148, 126142, 2
126148, 126145, 2
126148, 126147, 2
126148, 126146, 2
126148, 126144, 2
126148, 126141, 2
126148, 126149, 2
126125, 126126, 1
126125, 126124, 2
126123, 126129, 2
126123, 126122, 2
126123, 126124, 1
126141, 126142, 1
126141, 126143, 2
126141, 126148, 2
126141, 126137, 2
126141, 126140, 2
126139, 126137, 2
126139, 126138, 2
126139, 126135, 2
126139, 126143, 2
126139, 126136, 2
126139, 126140, 1
126130, 126129, 2
126130, 126132, 2
126130, 126126, 2
126130, 126127, 2
126130, 126136, 2
126130, 126131, 1
126143, 126142, 2
126143, 126144, 1
126143, 126137, 2
126143, 126139, 2
126143, 126141, 2
126143, 126135, 2
126143, 126136, 2
126143, 126140, 2
126149, 126148, 2
126149, 126147, 2
126134, 126133, 2
126134, 126135, 1
126134, 126131, 2
126134, 126136, 2
126140, 126141, 1
126140, 126143, 2
126140, 126137, 2
126140, 126139, 2
