167658, 167656, 2
167658, 167638, 2
167658, 167659, 1
167658, 167657, 2
167658, 167655, 2
167658, 167654, 2
167625, 167626, 2
167625, 167624, 2
167625, 167622, 2
167625, 167627, 2
167625, 167623, 2
167662, 167661, 2
167662, 167665, 2
167662, 167660, 2
167662, 167663, 3
167645, 167644, 2
167645, 167643, 2
167645, 167638, 2
167645, 167642, 2
167645, 167646, 2
167645, 167647, 2
167636, 167635, 2
167636, 167629, 2
167636, 167638, 2
167636, 167633, 2
167636, 167637, 1
167636, 167630, 2
167649, 167638, 2
167649, 167648, 2
167649, 167646, 2
167649, 167650, 2
167649, 167651, 2
167649, 167647, 2
167649, 167653, 2
167627, 167629, 2
167627, 167625, 2
167627, 167634, 2
167627, 167631, 2
167627, 167633, 2
167627, 167626, 2
167627, 167622, 2
167627, 167628, 2
167627, 167630, 1
167627, 167632, 2
167627, 167623, 2
167624, 167625, 2
167624, 167623, 2
167628, 167629, 2
167628, 167635, 2
167628, 167630, 2
167628, 167627, 2
167628, 167632, 1
167654, 167656, 2
167654, 167658, 1
167654, 167652, 2
167654, 167659, 2
167654, 167650, 2
167654, 167651, 2
167654, 167657, 2
167654, 167653, 2
167654, 167655, 3
167664, 167665, 2
167664, 167663, 2
167652, 167650, 2
167652, 167651, 2
167652, 167653, 1
167652, 167654, 2
167659, 167656, 2
167659, 167658, 2
167659, 167660, 1
167659, 167650, 2
167659, 167657, 2
167659, 167655, 2
167659, 167654, 2
167642, 167641, 2
167642, 167644, 1
167642, 167643, 8
167642, 167645, 2
167657, 167656, 2
167657, 167658, 2
167657, 167659, 2
167657, 167663, 2
167657, 167654, 2
167623, 167626, 2
167623, 167624, 8
167623, 167625, 1
167623, 167622, 2
167623, 167627, 2
167646, 167647, 8
167646, 167649, 2
167646, 167645, 2
167646, 167648, 1
167646, 167644, 2
167644, 167642, 2
167644, 167646, 1
167644, 167643, 2
167644, 167645, 3
167644, 167641, 2
167638, 167635, 2
167638, 167658, 2
167638, 167640, 2
167638, 167639, 1
167638, 167637, 2
167638, 167630, 2
167638, 167645, 2
167638, 167636, 2
167638, 167649, 2
167638, 167655, 2
167638, 167633, 2
167638, 167634, 2
167638, 167663, 2
167660, 167661, 1
167660, 167650, 2
167660, 167662, 2
167660, 167663, 2
167660, 167659, 2
167633, 167635, 2
167633, 167636, 2
167633, 167630, 2
167633, 167638, 2
167633, 167631, 2
167633, 167629, 2
167633, 167627, 2
167633, 167634, 2
167633, 167637, 2
167641, 167642, 1
167641, 167644, 2
167641, 167640, 2
167641, 167643, 2
167647, 167646, 2
167647, 167649, 2
167647, 167645, 2
167647, 167648, 2
167651, 167650, 2
167651, 167649, 2
167651, 167653, 2
167651, 167652, 1
167651, 167654, 2
167632, 167635, 2
167632, 167628, 2
167632, 167634, 1
167632, 167627, 2
167632, 167630, 2
167639, 167640, 1
167639, 167638, 2
167640, 167641, 1
167640, 167639, 2
167640, 167638, 2
167637, 167635, 2
167637, 167636, 2
167637, 167638, 2
167637, 167633, 2
167630, 167629, 4
167630, 167636, 2
167630, 167638, 2
167630, 167635, 1
167630, 167627, 2
167630, 167633, 2
167630, 167631, 2
167630, 167628, 6
167630, 167634, 2
167630, 167632, 2
167650, 167652, 2
167650, 167649, 2
167650, 167648, 2
167650, 167660, 2
167650, 167659, 2
167650, 167651, 8
167650, 167653, 2
167650, 167654, 1
167629, 167635, 2
167629, 167636, 2
167629, 167627, 2
167629, 167633, 2
167629, 167631, 1
167629, 167628, 2
167629, 167630, 2
167631, 167629, 2
167631, 167635, 2
167631, 167630, 2
167631, 167627, 2
167631, 167633, 1
167648, 167646, 2
167648, 167649, 3
167648, 167647, 2
167648, 167650, 1
167626, 167622, 2
167626, 167625, 2
167626, 167627, 1
167626, 167623, 2
167634, 167635, 2
167634, 167627, 2
167634, 167633, 2
167634, 167638, 2
167634, 167630, 2
167634, 167632, 2
167653, 167649, 2
167653, 167652, 2
167653, 167650, 2
167653, 167651, 2
167653, 167655, 2
167653, 167654, 2
167663, 167661, 2
167663, 167665, 1
167663, 167638, 2
167663, 167662, 2
167663, 167660, 2
167663, 167664, 8
167663, 167657, 2
167663, 167656, 2
167635, 167629, 2
167635, 167636, 3
167635, 167630, 2
167635, 167638, 1
167635, 167633, 2
167635, 167637, 2
167635, 167631, 2
167635, 167628, 2
167635, 167634, 2
167635, 167632, 2
167661, 167662, 1
167661, 167663, 2
167661, 167660, 2
167622, 167626, 1
167622, 167625, 2
167622, 167627, 2
167622, 167623, 3
167665, 167664, 2
167665, 167662, 2
167665, 167663, 2
167656, 167658, 2
167656, 167663, 2
167656, 167659, 2
167656, 167657, 1
167656, 167655, 2
167656, 167654, 2
167643, 167642, 2
167643, 167644, 2
167643, 167645, 2
167643, 167641, 2
167655, 167656, 1
167655, 167658, 2
167655, 167638, 2
167655, 167659, 2
167655, 167653, 2
167655, 167654, 2
