186642, 186641, 2
186642, 186640, 2
186642, 186643, 3
186640, 186639, 2
186640, 186642, 1
186640, 186641, 3
186640, 186638, 2
186639, 186640, 1
186639, 186638, 2
186641, 186642, 2
186641, 186640, 2
186638, 186639, 1
186638, 186640, 2
186643, 186642, 2
