197305, 197304, 2
197305, 197306, 1
197304, 197306, 2
197304, 197305, 1
197308, 197309, 1
197308, 197307, 2
197308, 197310, 2
197310, 197309, 2
197310, 197308, 2
197307, 197308, 1
197307, 197306, 2
197309, 197308, 2
197309, 197310, 1
197306, 197307, 1
197306, 197304, 2
197306, 197305, 2
