22430, 22431, 1
22430, 22429, 2
22431, 22430, 2
22431, 22432, 1
22429, 22430, 1
22429, 22425, 2
22429, 22428, 2
22429, 22427, 2
22426, 22424, 2
22426, 22425, 2
22426, 22427, 1
22428, 22425, 2
22428, 22429, 1
22428, 22427, 2
22424, 22425, 0
22424, 22426, 1
22424, 22427, 2
22425, 22427, 2
22425, 22429, 2
22425, 22428, 2
22425, 22426, 2
22425, 22424, 2
22432, 22431, 2
22427, 22425, 2
22427, 22429, 2
22427, 22428, 1
22427, 22426, 2
22427, 22424, 2
