126747, 126746, 2
126747, 126749, 2
126747, 126750, 2
126747, 126751, 1
126747, 126748, 0
126747, 126745, 2
126747, 126744, 2
126747, 126743, 2
126746, 126747, 2
126746, 126743, 2
126746, 126741, 2
126746, 126748, 2
126746, 126745, 2
126746, 126739, 2
126743, 126747, 2
126743, 126746, 2
126743, 126741, 2
126743, 126739, 2
126743, 126742, 2
126743, 126745, 1
126743, 126744, 3
126729, 126730, 2
126729, 126732, 2
126729, 126727, 2
126729, 126725, 2
126729, 126735, 2
126729, 126740, 2
126729, 126731, 2
126729, 126718, 2
126729, 126721, 2
126741, 126746, 2
126741, 126743, 1
126741, 126742, 3
126741, 126740, 2
126741, 126739, 2
126741, 126744, 2
126741, 126738, 2
126739, 126730, 2
126739, 126746, 2
126739, 126743, 2
126739, 126741, 2
126739, 126740, 2
126739, 126737, 2
126739, 126731, 2
126736, 126733, 2
126736, 126738, 1
126736, 126731, 2
126736, 126734, 2
126731, 126730, 2
126731, 126729, 2
126731, 126735, 2
126731, 126739, 2
126731, 126742, 2
126731, 126736, 2
126731, 126732, 6
126731, 126723, 2
126731, 126738, 2
126731, 126733, 4
126731, 126740, 1
126731, 126737, 2
126731, 126734, 2
126753, 126752, 2
126753, 126751, 2
126753, 126733, 2
126749, 126747, 2
126749, 126750, 1
126749, 126751, 2
126749, 126748, 2
126719, 126723, 2
126719, 126721, 2
126719, 126720, 2
126719, 126718, 2
126719, 126724, 2
126719, 126722, 2
126748, 126747, 2
126748, 126746, 2
126748, 126749, 1
126748, 126751, 2
126740, 126730, 2
126740, 126738, 2
126740, 126729, 2
126740, 126735, 2
126740, 126741, 1
126740, 126739, 2
126740, 126742, 2
126740, 126731, 2
126740, 126734, 2
126728, 126730, 2
126728, 126723, 2
126728, 126726, 2
126728, 126733, 2
126728, 126732, 2
126728, 126734, 2
126728, 126718, 2
126728, 126724, 2
126728, 126721, 2
126720, 126723, 2
126720, 126721, 2
126720, 126718, 2
126720, 126719, 2
126720, 126722, 2
126752, 126753, 1
126752, 126751, 2
126745, 126747, 1
126745, 126746, 0
126745, 126743, 2
126745, 126744, 2
126724, 126730, 2
126724, 126723, 2
126724, 126719, 2
126724, 126733, 2
126724, 126728, 2
126724, 126726, 1
126724, 126718, 2
126724, 126721, 2
126751, 126747, 2
126751, 126733, 2
126751, 126749, 2
126751, 126750, 2
126751, 126748, 2
126751, 126753, 2
126751, 126744, 2
126751, 126752, 1
126730, 126729, 2
126730, 126725, 2
126730, 126735, 2
126730, 126739, 2
126730, 126731, 1
126730, 126721, 2
126730, 126732, 2
126730, 126738, 2
126730, 126733, 2
126730, 126740, 2
126730, 126728, 2
126730, 126718, 2
126730, 126724, 2
126730, 126734, 2
126722, 126725, 1
126722, 126720, 2
126722, 126718, 2
126722, 126719, 2
126722, 126721, 2
126725, 126730, 2
126725, 126729, 2
126725, 126722, 2
126725, 126727, 1
126725, 126718, 2
126725, 126721, 2
126735, 126730, 2
126735, 126732, 2
126735, 126729, 2
126735, 126740, 2
126735, 126737, 1
126735, 126731, 2
126742, 126743, 2
126742, 126744, 2
126742, 126741, 2
126742, 126733, 2
126742, 126740, 2
126742, 126731, 2
126742, 126738, 2
126737, 126731, 2
126737, 126735, 2
126737, 126739, 1
126727, 126729, 1
126727, 126725, 2
126727, 126721, 2
126721, 126730, 1
126721, 126729, 2
126721, 126725, 2
126721, 126727, 2
126721, 126722, 6
126721, 126732, 2
126721, 126723, 4
126721, 126726, 2
126721, 126733, 2
126721, 126728, 2
126721, 126720, 2
126721, 126718, 2
126721, 126724, 2
126721, 126719, 2
126732, 126730, 2
126732, 126729, 2
126732, 126735, 1
126732, 126728, 2
126732, 126731, 2
126732, 126721, 2
126723, 126734, 2
126723, 126719, 2
126723, 126720, 2
126723, 126733, 2
126723, 126721, 2
126723, 126728, 2
126723, 126731, 2
126723, 126718, 2
126723, 126724, 0
126723, 126726, 2
126738, 126730, 2
126738, 126733, 2
126738, 126741, 2
126738, 126742, 2
126738, 126740, 2
126738, 126736, 2
126738, 126731, 2
126738, 126734, 2
126750, 126747, 2
126750, 126749, 2
126750, 126751, 2
126726, 126723, 2
126726, 126728, 1
126726, 126724, 2
126726, 126721, 2
126733, 126730, 2
126733, 126742, 2
126733, 126736, 2
126733, 126731, 2
126733, 126721, 2
126733, 126723, 2
126733, 126738, 2
126733, 126751, 2
126733, 126728, 2
126733, 126744, 2
126733, 126753, 2
126733, 126724, 2
126733, 126734, 0
126744, 126747, 2
126744, 126743, 2
126744, 126751, 2
126744, 126741, 2
126744, 126733, 2
126744, 126742, 2
126744, 126745, 2
126718, 126730, 2
126718, 126723, 2
126718, 126729, 2
126718, 126725, 2
126718, 126719, 3
126718, 126722, 2
126718, 126728, 2
126718, 126720, 0
126718, 126724, 2
126718, 126721, 1
126734, 126730, 2
126734, 126723, 2
126734, 126738, 2
126734, 126733, 2
126734, 126740, 2
126734, 126736, 1
126734, 126731, 2
126734, 126728, 2
