294477, 294478, 1
294477, 294476, 2
294477, 294474, 2
294477, 294475, 2
294477, 294473, 2
294476, 294477, 1
294476, 294473, 2
294476, 294474, 2
294476, 294475, 2
294474, 294477, 2
294474, 294476, 1
294474, 294475, 3
294474, 294472, 2
294474, 294473, 6
294470, 294473, 2
294470, 294471, 1
294470, 294469, 2
294469, 294473, 2
294469, 294468, 2
294469, 294470, 1
294469, 294471, 2
294473, 294477, 2
294473, 294476, 2
294473, 294474, 2
294473, 294470, 2
294473, 294469, 2
294473, 294478, 2
294473, 294475, 2
294473, 294468, 2
294473, 294471, 2
294473, 294472, 2
294478, 294477, 2
294478, 294473, 2
294478, 294475, 2
294475, 294477, 2
294475, 294476, 2
294475, 294474, 2
294475, 294472, 2
294475, 294473, 2
294475, 294478, 2
294468, 294473, 2
294468, 294469, 1
294471, 294473, 2
294471, 294470, 2
294471, 294469, 2
294471, 294472, 1
294472, 294473, 2
294472, 294474, 1
294472, 294475, 2
294472, 294471, 2
