332829, 332831, 2
332829, 332830, 1
332832, 332834, 1
332832, 332831, 2
332832, 332833, 8
332832, 332835, 2
332830, 332829, 2
332830, 332831, 1
332837, 332836, 2
332837, 332838, 1
332834, 332832, 2
332834, 332833, 2
332834, 332831, 2
332834, 332835, 1
332831, 332829, 2
332831, 332832, 1
332831, 332834, 2
332831, 332830, 2
332831, 332833, 2
332836, 332837, 1
332836, 332835, 2
332833, 332832, 2
332833, 332834, 2
332833, 332831, 2
332833, 332835, 2
332838, 332837, 2
332835, 332833, 2
332835, 332832, 2
332835, 332836, 1
332835, 332834, 2
