19647, 19648, 3
19647, 19649, 1
19648, 19647, 2
19648, 19649, 2
19675, 19674, 2
19649, 19647, 2
19649, 19648, 2
19649, 19650, 1
19649, 19651, 2
19649, 19653, 2
19660, 19661, 2
19660, 19659, 2
19668, 19666, 2
19668, 19664, 2
19668, 19669, 2
19668, 19667, 2
19662, 19661, 2
19662, 19665, 2
19662, 19663, 1
19662, 19667, 2
19656, 19655, 2
19656, 19658, 2
19656, 19657, 1
19671, 19673, 1
19671, 19670, 2
19671, 19669, 2
19671, 19672, 3
19657, 19656, 2
19657, 19659, 2
19657, 19658, 1
19673, 19674, 1
19673, 19671, 2
19673, 19670, 2
19673, 19669, 2
19673, 19672, 2
19654, 19650, 2
19654, 19655, 1
19654, 19653, 2
19654, 19652, 2
19669, 19668, 2
19669, 19671, 2
19669, 19667, 2
19669, 19673, 2
19669, 19666, 2
19669, 19670, 1
19665, 19666, 1
19665, 19663, 2
19665, 19662, 2
19665, 19664, 2
19665, 19667, 2
19658, 19656, 2
19658, 19659, 1
19658, 19657, 2
19664, 19668, 2
19664, 19663, 2
19664, 19666, 2
19664, 19665, 2
19667, 19665, 2
19667, 19662, 2
19667, 19666, 2
19667, 19663, 2
19667, 19668, 2
19667, 19669, 2
19666, 19665, 2
19666, 19664, 2
19666, 19667, 3
19666, 19663, 2
19666, 19668, 0
19666, 19669, 1
19661, 19659, 2
19661, 19660, 2
19661, 19662, 1
19652, 19651, 2
19652, 19654, 2
19652, 19655, 2
19652, 19653, 2
19651, 19653, 2
19651, 19649, 2
19651, 19650, 2
19651, 19652, 3
19663, 19664, 0
19663, 19665, 1
19663, 19666, 2
19663, 19662, 2
19663, 19667, 2
19655, 19656, 1
19655, 19652, 2
19655, 19654, 2
19650, 19651, 3
19650, 19654, 2
19650, 19649, 2
19650, 19653, 1
19672, 19673, 2
19672, 19671, 2
19672, 19670, 2
19653, 19651, 2
19653, 19654, 1
19653, 19649, 2
19653, 19650, 2
19653, 19652, 2
19659, 19661, 1
19659, 19660, 0
19659, 19658, 2
19659, 19657, 2
19670, 19673, 2
19670, 19671, 3
19670, 19669, 2
19670, 19672, 2
19674, 19673, 2
19674, 19675, 3
