123086, 123083, 2
123086, 123084, 2
123086, 123089, 2
123086, 123085, 2
123086, 123087, 1
123086, 123081, 2
123088, 123087, 2
123088, 123090, 1
123088, 123089, 3
123087, 123086, 2
123087, 123088, 1
123087, 123089, 2
123079, 123078, 2
123079, 123080, 1
123079, 123081, 2
123079, 123077, 2
123078, 123081, 2
123078, 123076, 2
123078, 123077, 2
123078, 123080, 2
123078, 123079, 1
123092, 123093, 2
123092, 123091, 2
123092, 123094, 2
123092, 123090, 2
123092, 123089, 2
123089, 123082, 2
123089, 123086, 2
123089, 123088, 2
123089, 123092, 2
123089, 123094, 2
123089, 123087, 2
123089, 123090, 2
123089, 123081, 2
123076, 123078, 1
123076, 123075, 2
123076, 123077, 3
123076, 123073, 2
123076, 123074, 2
123081, 123078, 2
123081, 123082, 2
123081, 123086, 2
123081, 123084, 2
123081, 123089, 2
123081, 123077, 2
123081, 123080, 2
123081, 123079, 2
123093, 123092, 2
123093, 123091, 2
123093, 123094, 1
123093, 123090, 2
123091, 123092, 8
123091, 123093, 1
123091, 123094, 2
123091, 123090, 2
123075, 123076, 2
123075, 123077, 2
123075, 123074, 2
123080, 123078, 2
123080, 123082, 1
123080, 123077, 2
123080, 123081, 3
123080, 123079, 2
123074, 123076, 1
123074, 123075, 8
123074, 123077, 2
123074, 123073, 2
123072, 123073, 1
123094, 123092, 2
123094, 123093, 2
123094, 123091, 2
123094, 123089, 2
123073, 123076, 2
123073, 123077, 2
123073, 123072, 2
123073, 123074, 1
123082, 123085, 2
123082, 123084, 2
123082, 123089, 2
123082, 123083, 1
123082, 123080, 2
123082, 123081, 2
123084, 123085, 2
123084, 123083, 2
123084, 123086, 2
123084, 123081, 2
123084, 123082, 2
123085, 123083, 2
123085, 123082, 2
123085, 123086, 1
123085, 123084, 2
123077, 123078, 2
123077, 123075, 2
123077, 123074, 2
123077, 123079, 2
123077, 123076, 2
123077, 123080, 2
123077, 123073, 2
123077, 123081, 2
123083, 123085, 1
123083, 123082, 2
123083, 123086, 2
123083, 123084, 8
123090, 123092, 2
123090, 123093, 2
123090, 123091, 1
123090, 123088, 2
123090, 123089, 2
