163246, 163248, 0
163246, 163250, 1
163246, 163245, 2
163246, 163249, 2
163246, 163247, 3
163250, 163246, 2
163250, 163242, 2
163250, 163251, 1
163250, 163248, 2
163250, 163247, 2
163250, 163249, 2
163252, 163254, 2
163252, 163253, 1
163252, 163255, 2
163252, 163251, 2
163251, 163248, 2
163251, 163250, 2
163251, 163252, 1
163251, 163249, 2
163251, 163255, 2
163240, 163241, 2
163240, 163239, 2
163240, 163242, 3
163240, 163238, 2
163240, 163243, 2
163240, 163237, 2
163255, 163256, 2
163255, 163253, 2
163255, 163252, 2
163255, 163251, 2
163255, 163254, 2
163255, 163249, 2
163254, 163256, 1
163254, 163253, 2
163254, 163252, 2
163254, 163255, 3
163243, 163241, 2
163243, 163239, 2
163243, 163242, 2
163243, 163240, 2
163243, 163238, 2
163243, 163247, 2
163243, 163244, 1
163253, 163254, 1
163253, 163252, 2
163253, 163255, 2
163245, 163246, 1
163245, 163247, 2
163245, 163249, 2
163245, 163244, 2
163256, 163254, 2
163256, 163257, 1
163256, 163255, 2
163238, 163239, 2
163238, 163242, 2
163238, 163240, 2
163238, 163243, 2
163238, 163237, 2
163238, 163236, 2
163242, 163241, 2
163242, 163250, 2
163242, 163238, 2
163242, 163239, 2
163242, 163240, 2
163242, 163247, 2
163242, 163243, 2
163242, 163237, 2
163242, 163249, 2
163239, 163241, 0
163239, 163238, 2
163239, 163242, 2
163239, 163240, 3
163239, 163243, 1
163239, 163237, 2
163239, 163236, 2
163247, 163246, 2
163247, 163250, 2
163247, 163242, 2
163247, 163248, 2
163247, 163243, 2
163247, 163249, 3
163247, 163245, 2
163247, 163244, 2
163237, 163239, 1
163237, 163238, 3
163237, 163240, 2
163237, 163242, 2
163237, 163236, 2
163244, 163247, 2
163244, 163243, 2
163244, 163245, 1
163236, 163239, 2
163236, 163237, 1
163236, 163238, 2
163241, 163239, 2
163241, 163243, 2
163241, 163240, 2
163241, 163242, 2
163257, 163256, 2
163248, 163246, 2
163248, 163247, 2
163248, 163250, 2
163248, 163249, 2
163248, 163251, 2
163249, 163246, 2
163249, 163250, 2
163249, 163255, 2
163249, 163242, 2
163249, 163248, 2
163249, 163247, 2
163249, 163251, 2
163249, 163245, 2
