297334, 297333, 2
297334, 297335, 1
297336, 297337, 8
297336, 297335, 2
297336, 297339, 2
297336, 297332, 2
297336, 297338, 1
297328, 297329, 1
297328, 297327, 2
297335, 297334, 2
297335, 297336, 3
297335, 297339, 1
297335, 297338, 2
297332, 297329, 2
297332, 297337, 2
297332, 297336, 2
297332, 297331, 2
297332, 297333, 2
297332, 297330, 2
297337, 297338, 2
297337, 297336, 2
297337, 297339, 2
297337, 297332, 2
297339, 297337, 2
297339, 297336, 2
297339, 297335, 2
297339, 297338, 2
297333, 297329, 2
297333, 297334, 1
297333, 297327, 2
297333, 297330, 2
297333, 297332, 2
297331, 297330, 2
297331, 297332, 2
297321, 297320, 2
297321, 297326, 2
297321, 297325, 2
297321, 297324, 2
297321, 297323, 2
297321, 297322, 2
297329, 297333, 1
297329, 297328, 2
297329, 297330, 3
297329, 297332, 2
297338, 297337, 2
297338, 297336, 2
297338, 297339, 2
297338, 297335, 2
297327, 297333, 2
297327, 297328, 1
297327, 297326, 2
297320, 297325, 1
297320, 297322, 0
297320, 297321, 3
297326, 297325, 2
297326, 297327, 1
297326, 297324, 2
297326, 297321, 2
297325, 297324, 2
297325, 297322, 2
297325, 297320, 2
297325, 297326, 1
297325, 297321, 2
297324, 297325, 2
297324, 297321, 2
297324, 297326, 2
297324, 297323, 2
297323, 297324, 1
297323, 297321, 2
297323, 297322, 2
297330, 297329, 2
297330, 297333, 2
297330, 297331, 8
297330, 297332, 1
297322, 297325, 2
297322, 297321, 2
297322, 297320, 2
297322, 297323, 1
