253603, 253602, 2
253603, 253604, 1
253608, 253615, 2
253608, 253610, 2
253608, 253612, 2
253608, 253611, 2
253608, 253614, 2
253608, 253606, 2
253608, 253602, 2
253608, 253605, 2
253608, 253609, 2
253608, 253604, 2
253610, 253608, 2
253610, 253613, 2
253610, 253612, 6
253610, 253611, 4
253610, 253607, 2
253610, 253614, 2
253610, 253617, 2
253610, 253609, 2
253610, 253615, 1
253612, 253613, 0
253612, 253608, 2
253612, 253610, 2
253612, 253606, 2
253612, 253607, 2
253612, 253616, 2
253612, 253617, 2
253612, 253605, 2
253612, 253609, 2
253612, 253615, 2
253602, 253603, 1
253602, 253608, 2
253602, 253607, 2
253602, 253601, 2
253602, 253600, 2
253602, 253604, 2
253606, 253608, 4
253606, 253613, 2
253606, 253612, 2
253606, 253611, 2
253606, 253614, 2
253606, 253607, 6
253606, 253605, 2
253606, 253609, 1
253606, 253604, 2
253601, 253607, 2
253601, 253604, 2
253601, 253609, 2
253601, 253600, 2
253601, 253602, 2
253617, 253616, 2
253617, 253613, 2
253617, 253610, 2
253617, 253612, 2
253617, 253607, 2
253617, 253604, 2
253617, 253605, 2
253617, 253609, 2
253617, 253615, 2
253605, 253608, 2
253605, 253614, 2
253605, 253612, 2
253605, 253611, 2
253605, 253607, 2
253605, 253606, 1
253605, 253617, 2
253605, 253609, 2
253605, 253604, 2
253609, 253608, 2
253609, 253610, 1
253609, 253612, 2
253609, 253607, 2
253609, 253601, 2
253609, 253617, 2
253609, 253605, 2
253609, 253615, 2
253609, 253616, 2
253609, 253611, 2
253609, 253606, 2
253609, 253614, 2
253609, 253604, 2
253615, 253608, 2
253615, 253616, 1
253615, 253610, 2
253615, 253612, 2
253615, 253613, 2
253615, 253614, 2
253615, 253617, 2
253615, 253607, 2
253615, 253609, 2
253615, 253604, 2
253613, 253616, 2
253613, 253610, 2
253613, 253612, 2
253613, 253607, 2
253613, 253606, 2
253613, 253617, 2
253613, 253615, 2
253611, 253608, 2
253611, 253616, 2
253611, 253610, 2
253611, 253606, 2
253611, 253614, 0
253611, 253607, 2
253611, 253605, 2
253611, 253609, 2
253607, 253616, 2
253607, 253610, 2
253607, 253612, 2
253607, 253602, 2
253607, 253606, 2
253607, 253601, 2
253607, 253617, 2
253607, 253605, 2
253607, 253609, 2
253607, 253615, 2
253607, 253613, 2
253607, 253611, 2
253607, 253614, 2
253607, 253604, 2
253614, 253608, 2
253614, 253616, 2
253614, 253610, 2
253614, 253611, 2
253614, 253607, 2
253614, 253606, 2
253614, 253605, 2
253614, 253609, 2
253614, 253615, 2
253616, 253613, 2
253616, 253612, 2
253616, 253611, 2
253616, 253614, 2
253616, 253607, 2
253616, 253617, 0
253616, 253609, 2
253616, 253615, 2
253600, 253601, 6
253600, 253602, 1
253604, 253603, 2
253604, 253608, 2
253604, 253607, 2
253604, 253606, 2
253604, 253601, 2
253604, 253617, 2
253604, 253602, 2
253604, 253605, 1
253604, 253609, 2
253604, 253615, 2
