118211, 118207, 2
118211, 118209, 2
118211, 118212, 1
118211, 118210, 2
118211, 118208, 2
118204, 118207, 2
118204, 118205, 1
118204, 118208, 2
118209, 118211, 2
118209, 118205, 2
118209, 118207, 2
118209, 118206, 2
118209, 118210, 2
118209, 118208, 2
118205, 118207, 2
118205, 118204, 2
118205, 118206, 1
118205, 118209, 2
118205, 118208, 2
118207, 118204, 2
118207, 118209, 2
118207, 118205, 2
118207, 118211, 2
118207, 118206, 2
118207, 118208, 2
118207, 118210, 2
118206, 118207, 3
118206, 118205, 2
118206, 118209, 8
118206, 118208, 0
118206, 118210, 1
118212, 118211, 2
118212, 118208, 2
118208, 118211, 2
118208, 118204, 2
118208, 118209, 2
118208, 118205, 2
118208, 118207, 2
118208, 118206, 2
118208, 118210, 2
118208, 118212, 2
118210, 118207, 2
118210, 118211, 1
118210, 118206, 2
118210, 118209, 2
118210, 118208, 2
