62211, 62213, 2
62211, 62209, 2
62211, 62208, 2
62211, 62210, 2
62211, 62212, 1
62209, 62208, 2
62209, 62210, 2
62209, 62211, 2
62208, 62207, 2
62208, 62209, 8
62208, 62210, 1
62208, 62211, 2
62210, 62209, 2
62210, 62208, 2
62210, 62211, 1
62212, 62213, 1
62212, 62211, 2
62204, 62203, 2
62204, 62205, 1
62203, 62204, 1
62207, 62208, 1
62207, 62206, 2
62213, 62212, 2
62213, 62211, 2
62205, 62204, 2
62205, 62206, 1
62206, 62207, 1
62206, 62205, 2
