17371, 17370, 2
17371, 17372, 2
17376, 17375, 2
17376, 17377, 1
17376, 17378, 2
17372, 17371, 2
17372, 17373, 1
17372, 17370, 2
17369, 17370, 1
17369, 17367, 2
17369, 17368, 2
17380, 17379, 2
17380, 17381, 2
17368, 17367, 2
17368, 17369, 1
17368, 17366, 2
17378, 17379, 1
17378, 17376, 2
17378, 17375, 2
17378, 17377, 2
17378, 17381, 2
17375, 17374, 2
17375, 17373, 2
17375, 17376, 1
17375, 17378, 2
17366, 17367, 3
17366, 17368, 1
17379, 17381, 1
17379, 17380, 3
17379, 17378, 2
17374, 17375, 1
17374, 17373, 2
17373, 17374, 1
17373, 17375, 2
17373, 17372, 2
17370, 17371, 3
17370, 17372, 1
17370, 17369, 2
17367, 17369, 2
17367, 17366, 2
17367, 17368, 2
17381, 17379, 2
17381, 17380, 2
17381, 17378, 2
17377, 17376, 2
17377, 17378, 1
