220490, 220491, 1
220490, 220493, 2
220490, 220492, 2
220491, 220490, 2
220491, 220492, 1
220491, 220493, 2
220493, 220490, 2
220493, 220491, 2
220493, 220492, 2
220492, 220491, 2
220492, 220493, 3
220492, 220490, 2
