218146, 218147, 8
218146, 218145, 2
218146, 218148, 1
218147, 218146, 2
218147, 218145, 2
218147, 218148, 2
218147, 218149, 2
218144, 218145, 1
218144, 218142, 2
218144, 218143, 2
218152, 218154, 1
218152, 218151, 2
218152, 218153, 8
218159, 218158, 2
218159, 218160, 1
218150, 218151, 1
218150, 218149, 2
218154, 218152, 2
218154, 218151, 2
218154, 218153, 2
218154, 218155, 1
218149, 218147, 2
218149, 218150, 1
218149, 218148, 2
218153, 218152, 2
218153, 218154, 2
218153, 218151, 2
218153, 218155, 2
218143, 218142, 2
218143, 218144, 1
218158, 218159, 1
218158, 218157, 2
218160, 218159, 2
218148, 218146, 2
218148, 218147, 2
218148, 218145, 2
218148, 218149, 1
218157, 218156, 2
218157, 218158, 1
218156, 218155, 2
218156, 218157, 1
218155, 218156, 1
218155, 218154, 2
218155, 218153, 2
218142, 218144, 2
218142, 218143, 1
218151, 218152, 1
218151, 218150, 2
218151, 218154, 2
218151, 218153, 2
218145, 218146, 1
218145, 218147, 2
218145, 218148, 2
218145, 218144, 2
