119381, 119382, 1
119381, 119380, 2
119386, 119387, 1
119386, 119385, 2
119386, 119389, 2
119378, 119379, 1
119378, 119380, 2
119383, 119385, 2
119383, 119382, 2
119383, 119384, 1
119388, 119387, 2
119388, 119389, 0
119389, 119387, 2
119389, 119385, 2
119389, 119388, 2
119389, 119386, 2
119385, 119389, 2
119385, 119383, 2
119385, 119382, 2
119385, 119384, 2
119385, 119386, 1
119382, 119385, 2
119382, 119381, 2
119382, 119383, 1
119382, 119384, 2
119382, 119380, 2
119380, 119381, 1
119380, 119379, 2
119380, 119382, 2
119380, 119378, 2
119387, 119389, 2
119387, 119386, 2
119387, 119388, 1
119379, 119378, 2
119379, 119380, 1
119384, 119385, 1
119384, 119382, 2
119384, 119383, 2
