161546, 161547, 1
161546, 161545, 2
161546, 161544, 2
161547, 161546, 2
161547, 161548, 1
161555, 161554, 2
161555, 161551, 2
161555, 161553, 2
161554, 161552, 2
161554, 161551, 2
161554, 161553, 2
161554, 161555, 1
161552, 161554, 2
161552, 161551, 2
161552, 161553, 2
161545, 161546, 1
161545, 161544, 2
161550, 161549, 2
161550, 161551, 1
161549, 161550, 1
161549, 161548, 2
161549, 161551, 2
161544, 161546, 2
161544, 161545, 1
161551, 161550, 2
161551, 161554, 1
161551, 161555, 2
161551, 161549, 2
161551, 161552, 3
161551, 161553, 8
161548, 161547, 2
161548, 161549, 1
161553, 161552, 2
161553, 161554, 2
161553, 161551, 2
161553, 161555, 2
