161899, 161900, 1
161899, 161897, 2
161899, 161898, 2
161899, 161895, 2
161899, 161901, 2
161894, 161893, 2
161894, 161896, 1
161894, 161895, 2
161891, 161893, 1
161891, 161892, 0
161891, 161890, 2
161902, 161903, 1
161902, 161901, 2
161902, 161895, 2
161896, 161897, 1
161896, 161892, 2
161896, 161894, 2
161896, 161895, 6
161895, 161893, 2
161895, 161899, 2
161895, 161892, 2
161895, 161894, 2
161895, 161902, 2
161895, 161897, 2
161895, 161896, 2
161895, 161903, 2
161895, 161901, 2
161895, 161898, 2
161901, 161902, 1
161901, 161900, 2
161901, 161903, 2
161901, 161899, 2
161901, 161895, 2
161893, 161895, 2
161893, 161892, 2
161893, 161894, 1
161893, 161891, 2
161892, 161893, 2
161892, 161896, 2
161892, 161895, 2
161892, 161891, 2
161892, 161898, 2
161890, 161891, 1
161900, 161899, 2
161900, 161901, 1
161897, 161899, 1
161897, 161896, 2
161897, 161898, 0
161897, 161895, 2
161903, 161902, 2
161903, 161901, 2
161903, 161895, 2
161898, 161899, 2
161898, 161897, 2
161898, 161892, 2
161898, 161895, 2
