130739, 130740, 2
130739, 130738, 2
130739, 130741, 2
130740, 130739, 2
130740, 130741, 2
130740, 130738, 2
130738, 130739, 3
130738, 130741, 1
130738, 130740, 8
130741, 130739, 2
130741, 130740, 2
130741, 130738, 2
