71344, 71343, 2
71344, 71341, 2
71344, 71342, 2
71344, 71345, 1
71341, 71344, 2
71341, 71343, 2
71341, 71340, 2
71341, 71342, 1
71343, 71345, 2
71343, 71344, 2
71343, 71342, 2
71343, 71341, 2
71345, 71344, 2
71345, 71343, 2
71345, 71342, 2
71340, 71341, 1
71342, 71344, 1
71342, 71343, 8
71342, 71345, 2
71342, 71341, 2
