301790, 301788, 2
301790, 301787, 2
301790, 301792, 1
301790, 301789, 2
301790, 301791, 6
301792, 301790, 2
301792, 301788, 2
301792, 301791, 2
301792, 301789, 2
301791, 301790, 2
301791, 301785, 2
301791, 301788, 2
301791, 301786, 2
301791, 301787, 2
301791, 301792, 2
301791, 301789, 2
301788, 301790, 1
301788, 301791, 2
301788, 301786, 2
301788, 301787, 6
301788, 301792, 2
301788, 301789, 8
301786, 301787, 2
301786, 301785, 2
301786, 301788, 1
301786, 301791, 2
301786, 301789, 2
301787, 301790, 2
301787, 301791, 2
301787, 301788, 2
301787, 301786, 2
301787, 301785, 2
301787, 301789, 2
301785, 301786, 1
301785, 301787, 2
301785, 301791, 2
301789, 301790, 2
301789, 301791, 2
301789, 301788, 2
301789, 301786, 2
301789, 301787, 2
301789, 301792, 2
