132919, 132922, 2
132919, 132920, 1
132919, 132918, 2
132923, 132922, 2
132923, 132921, 2
132922, 132919, 2
132922, 132923, 2
132922, 132920, 2
132922, 132921, 2
132921, 132920, 2
132921, 132923, 0
132921, 132922, 3
132920, 132919, 2
132920, 132922, 2
132920, 132921, 1
132918, 132919, 1
