298664, 298663, 2
298664, 298666, 2
298664, 298665, 1
298664, 298653, 2
298647, 298649, 2
298647, 298653, 2
298647, 298648, 1
298675, 298674, 2
298675, 298673, 2
298675, 298672, 2
298675, 298676, 1
298670, 298671, 8
298670, 298673, 2
298670, 298672, 1
298670, 298669, 6
298670, 298668, 2
298672, 298674, 8
298672, 298671, 2
298672, 298665, 2
298672, 298669, 2
298672, 298675, 1
298672, 298670, 2
298672, 298673, 6
298672, 298676, 2
298668, 298671, 2
298668, 298667, 2
298668, 298669, 2
298668, 298666, 2
298668, 298670, 1
298668, 298673, 2
298656, 298654, 2
298656, 298653, 2
298656, 298649, 2
298656, 298652, 2
298656, 298657, 1
298656, 298655, 2
298677, 298673, 2
298677, 298669, 2
298677, 298676, 2
298653, 298664, 2
298653, 298647, 2
298653, 298651, 2
298653, 298652, 2
298653, 298657, 2
298653, 298659, 2
298653, 298654, 2
298653, 298663, 2
298653, 298650, 2
298653, 298665, 2
298653, 298649, 2
298653, 298656, 2
298653, 298648, 2
298653, 298655, 2
298665, 298663, 2
298665, 298664, 2
298665, 298666, 2
298665, 298672, 2
298665, 298657, 2
298665, 298652, 2
298665, 298659, 2
298665, 298653, 2
298665, 298673, 2
298665, 298667, 2
298665, 298669, 2
298665, 298649, 2
298660, 298663, 1
298660, 298662, 2
298660, 298659, 2
298660, 298661, 3
298662, 298663, 2
298662, 298661, 2
298662, 298660, 2
298649, 298653, 2
298649, 298650, 2
298649, 298665, 2
298649, 298647, 2
298649, 298656, 2
298649, 298663, 2
298649, 298651, 2
298649, 298659, 2
298649, 298657, 2
298649, 298652, 2
298649, 298648, 2
298661, 298662, 1
298661, 298663, 2
298661, 298659, 2
298661, 298660, 2
298674, 298671, 2
298674, 298673, 2
298674, 298672, 2
298674, 298676, 2
298674, 298675, 2
298659, 298653, 2
298659, 298665, 2
298659, 298660, 1
298659, 298663, 2
298659, 298649, 2
298659, 298657, 2
298659, 298661, 2
298659, 298658, 2
298673, 298674, 2
298673, 298671, 2
298673, 298667, 2
298673, 298669, 2
298673, 298665, 2
298673, 298675, 2
298673, 298677, 2
298673, 298670, 2
298673, 298672, 2
298673, 298668, 2
298673, 298676, 2
298671, 298674, 2
298671, 298673, 2
298671, 298669, 2
298671, 298670, 2
298671, 298672, 2
298671, 298668, 2
298663, 298653, 2
298663, 298664, 0
298663, 298660, 2
298663, 298665, 2
298663, 298662, 2
298663, 298649, 2
298663, 298666, 1
298663, 298661, 2
298663, 298659, 2
298666, 298664, 2
298666, 298669, 2
298666, 298665, 2
298666, 298667, 1
298666, 298663, 2
298666, 298668, 2
298657, 298653, 2
298657, 298656, 2
298657, 298659, 2
298657, 298665, 2
298657, 298649, 2
298657, 298652, 2
298657, 298658, 1
298657, 298655, 2
298658, 298659, 1
298658, 298657, 2
298652, 298654, 3
298652, 298653, 6
298652, 298650, 2
298652, 298665, 2
298652, 298651, 2
298652, 298649, 2
298652, 298655, 8
298652, 298657, 2
298652, 298656, 1
298648, 298654, 2
298648, 298653, 2
298648, 298650, 1
298648, 298647, 2
298648, 298651, 2
298648, 298649, 2
298654, 298653, 2
298654, 298650, 2
298654, 298648, 2
298654, 298656, 2
298654, 298651, 2
298654, 298652, 2
298654, 298655, 2
298651, 298654, 2
298651, 298653, 2
298651, 298650, 2
298651, 298649, 2
298651, 298652, 2
298651, 298648, 2
298650, 298654, 2
298650, 298653, 2
298650, 298651, 8
298650, 298649, 6
298650, 298652, 1
298650, 298648, 2
298667, 298666, 2
298667, 298673, 2
298667, 298668, 1
298667, 298665, 2
298667, 298669, 2
298669, 298677, 2
298669, 298671, 2
298669, 298673, 2
298669, 298665, 2
298669, 298667, 2
298669, 298666, 2
298669, 298670, 2
298669, 298672, 2
298669, 298668, 2
298669, 298676, 2
298676, 298674, 2
298676, 298672, 2
298676, 298669, 2
298676, 298675, 2
298676, 298677, 1
298676, 298673, 2
298655, 298654, 2
298655, 298653, 2
298655, 298652, 2
298655, 298657, 2
298655, 298656, 2
