301325, 301324, 6
301325, 301328, 2
301325, 301326, 1
301325, 301327, 2
301325, 301323, 2
301325, 301321, 2
301325, 301322, 2
301328, 301326, 2
301328, 301327, 6
301328, 301325, 2
301328, 301324, 2
301328, 301322, 2
301324, 301325, 2
301324, 301328, 2
301324, 301326, 2
301324, 301327, 2
301324, 301323, 2
301324, 301321, 2
301324, 301322, 2
301326, 301327, 2
301326, 301325, 2
301326, 301328, 1
301326, 301324, 2
301327, 301326, 2
301327, 301328, 2
301327, 301325, 2
301327, 301321, 2
301327, 301324, 2
301323, 301325, 1
301323, 301321, 2
301323, 301322, 2
301323, 301324, 2
301321, 301327, 2
301321, 301325, 2
301321, 301323, 1
301321, 301324, 2
301321, 301322, 6
301322, 301325, 2
301322, 301323, 2
301322, 301321, 2
301322, 301324, 2
301322, 301328, 2
