118397, 118398, 1
118397, 118396, 2
118403, 118402, 2
118403, 118401, 2
118394, 118395, 1
118396, 118397, 1
118396, 118395, 2
118395, 118394, 2
118395, 118396, 1
118402, 118403, 1
118402, 118401, 2
118401, 118402, 1
118401, 118403, 2
118401, 118399, 2
118401, 118400, 2
118398, 118397, 2
118398, 118399, 1
118399, 118401, 2
118399, 118398, 2
118399, 118400, 1
118400, 118401, 1
118400, 118399, 2
