197128, 197129, 2
197128, 197127, 2
197130, 197131, 1
197130, 197129, 2
197131, 197129, 2
197131, 197130, 2
197129, 197128, 2
197129, 197131, 2
197129, 197130, 1
197129, 197127, 2
197127, 197128, 3
197127, 197129, 1
