197533, 197531, 2
197533, 197532, 2
197533, 197534, 2
197530, 197531, 1
197530, 197529, 2
197532, 197533, 3
197532, 197531, 2
197532, 197534, 1
197534, 197533, 2
197534, 197532, 2
197527, 197528, 1
197531, 197533, 2
197531, 197532, 1
197531, 197530, 2
197528, 197527, 2
197528, 197529, 1
197529, 197528, 2
197529, 197530, 1
