302197, 302196, 2
302197, 302195, 2
302197, 302201, 2
302197, 302199, 2
302197, 302198, 2
302197, 302200, 2
302196, 302197, 2
302196, 302198, 1
302196, 302195, 2
302196, 302201, 2
302196, 302199, 2
302195, 302197, 2
302195, 302196, 1
302195, 302201, 2
302201, 302197, 2
302201, 302196, 2
302201, 302195, 2
302201, 302199, 2
302201, 302198, 2
302201, 302202, 2
302201, 302200, 2
302199, 302197, 2
302199, 302196, 2
302199, 302201, 2
302199, 302198, 2
302199, 302202, 2
302199, 302200, 2
302198, 302197, 6
302198, 302196, 2
302198, 302201, 2
302198, 302199, 8
302198, 302202, 2
302198, 302200, 1
302202, 302198, 2
302202, 302201, 2
302202, 302200, 2
302202, 302199, 2
302200, 302197, 2
302200, 302198, 2
302200, 302201, 6
302200, 302202, 1
302200, 302199, 2
