64567, 64566, 2
64567, 64568, 1
64561, 64560, 2
64561, 64559, 2
64561, 64562, 1
64565, 64566, 1
64565, 64564, 2
64576, 64574, 2
64576, 64575, 2
64570, 64571, 1
64570, 64569, 2
64570, 64568, 2
64572, 64571, 2
64572, 64573, 0
64572, 64574, 1
64559, 64560, 1
64559, 64561, 2
64568, 64567, 2
64568, 64569, 0
64568, 64570, 1
64562, 64561, 2
64562, 64563, 1
64560, 64561, 1
64560, 64559, 2
64569, 64571, 2
64569, 64568, 2
64569, 64570, 2
64575, 64576, 1
64575, 64574, 2
64573, 64572, 2
64573, 64574, 2
64566, 64567, 1
64566, 64565, 2
64566, 64564, 2
64571, 64572, 1
64571, 64569, 2
64571, 64570, 2
64563, 64564, 1
64563, 64562, 2
64564, 64566, 2
64564, 64565, 1
64564, 64563, 2
64574, 64573, 2
64574, 64572, 2
64574, 64576, 2
64574, 64575, 1
