21752, 21751, 2
21752, 21753, 1
21752, 21748, 2
21752, 21749, 2
21747, 21748, 1
21747, 21746, 2
21749, 21751, 2
21749, 21752, 2
21749, 21750, 1
21749, 21748, 2
21749, 21746, 2
21746, 21747, 3
21746, 21749, 1
21751, 21752, 1
21751, 21750, 2
21751, 21749, 2
21751, 21748, 2
21753, 21752, 2
21750, 21751, 3
21750, 21748, 2
21750, 21749, 2
21748, 21751, 2
21748, 21752, 2
21748, 21750, 2
21748, 21747, 2
21748, 21749, 2
