258433, 258434, 1
258433, 258432, 2
258433, 258437, 2
258433, 258431, 2
258462, 258466, 2
258462, 258471, 2
258462, 258451, 2
258462, 258458, 2
258462, 258449, 2
258462, 258463, 1
258462, 258465, 2
258462, 258468, 2
258462, 258469, 2
258462, 258460, 2
258462, 258467, 2
258462, 258470, 2
258462, 258443, 2
258462, 258459, 2
258462, 258464, 2
258462, 258473, 2
258462, 258457, 2
258462, 258436, 2
258462, 258461, 2
258437, 258433, 2
258437, 258440, 1
258437, 258434, 2
258437, 258430, 2
258437, 258447, 2
258437, 258444, 2
258437, 258431, 2
258437, 258435, 2
258437, 258452, 2
258437, 258439, 0
258437, 258436, 2
258437, 258443, 2
258465, 258469, 2
258465, 258471, 2
258465, 258464, 2
258465, 258467, 1
258465, 258463, 2
258465, 258462, 2
258465, 258473, 2
258465, 258468, 2
258468, 258466, 2
258468, 258475, 2
258468, 258462, 2
258468, 258463, 2
258468, 258465, 2
258468, 258470, 2
258468, 258477, 2
258468, 258469, 1
258468, 258467, 2
258468, 258464, 2
258468, 258471, 2
258468, 258473, 2
258431, 258433, 1
258431, 258437, 2
258431, 258430, 2
258431, 258432, 8
258450, 258446, 2
258450, 258454, 2
258450, 258451, 0
258450, 258444, 2
258450, 258448, 2
258450, 258457, 2
258450, 258458, 2
258450, 258435, 2
258450, 258456, 2
258450, 258441, 2
258450, 258452, 2
258450, 258453, 2
258450, 258436, 2
258450, 258443, 2
258458, 258450, 2
258458, 258460, 2
258458, 258462, 2
258458, 258451, 2
258458, 258459, 2
258458, 258457, 2
258458, 258454, 2
258458, 258461, 2
258442, 258440, 2
258442, 258445, 2
258442, 258447, 2
258442, 258444, 2
258442, 258448, 2
258442, 258436, 2
258442, 258443, 2
258479, 258478, 2
258479, 258471, 2
258479, 258474, 2
258479, 258476, 2
258479, 258475, 2
258479, 258470, 2
258479, 258473, 2
258479, 258477, 2
258453, 258454, 1
258453, 258440, 2
258453, 258451, 2
258453, 258447, 2
258453, 258449, 2
258453, 258444, 2
258453, 258450, 2
258453, 258445, 2
258453, 258456, 2
258453, 258441, 2
258453, 258452, 2
258453, 258446, 2
258453, 258436, 2
258453, 258443, 2
258455, 258454, 2
258455, 258456, 1
258438, 258428, 2
258438, 258435, 2
258438, 258434, 2
258438, 258430, 2
258438, 258441, 1
258438, 258444, 2
258438, 258432, 2
258438, 258443, 2
258438, 258436, 2
258454, 258450, 2
258454, 258458, 2
258454, 258451, 2
258454, 258456, 2
258454, 258453, 2
258454, 258457, 2
258454, 258455, 1
258471, 258466, 2
258471, 258465, 2
258471, 258462, 2
258471, 258474, 2
258471, 258463, 2
258471, 258475, 2
258471, 258468, 2
258471, 258477, 2
258471, 258479, 2
258471, 258469, 2
258471, 258467, 2
258471, 258473, 2
258428, 258427, 2
258428, 258438, 2
258428, 258426, 2
258428, 258430, 2
258428, 258429, 2
258474, 258478, 2
258474, 258471, 2
258474, 258477, 4
258474, 258472, 2
258474, 258476, 2
258474, 258475, 6
258474, 258470, 2
258474, 258473, 2
258474, 258479, 1
258447, 258441, 2
258447, 258435, 2
258447, 258440, 2
258447, 258452, 2
258447, 258442, 2
258447, 258449, 1
258447, 258444, 2
258447, 258453, 2
258447, 258436, 2
258447, 258443, 2
258447, 258437, 2
258463, 258465, 2
258463, 258470, 2
258463, 258471, 2
258463, 258462, 2
258463, 258467, 2
258463, 258466, 4
258463, 258464, 6
258463, 258475, 2
258463, 258468, 1
258463, 258473, 2
258463, 258477, 2
258435, 258450, 2
258435, 258438, 2
258435, 258440, 2
258435, 258434, 2
258435, 258445, 2
258435, 258447, 2
258435, 258441, 2
258435, 258444, 2
258435, 258446, 2
258435, 258436, 1
258435, 258437, 2
258436, 258438, 4
258436, 258440, 2
258436, 258434, 2
258436, 258442, 2
258436, 258447, 2
258436, 258449, 2
258436, 258453, 2
258436, 258439, 2
258436, 258450, 2
258436, 258435, 2
258436, 258445, 2
258436, 258441, 2
258436, 258462, 2
258436, 258446, 2
258436, 258437, 6
258436, 258443, 1
258460, 258458, 2
258460, 258459, 2
258460, 258462, 2
258460, 258461, 1
258445, 258446, 1
258445, 258435, 2
258445, 258440, 2
258445, 258452, 2
258445, 258442, 2
258445, 258441, 2
258445, 258444, 2
258445, 258453, 2
258445, 258436, 2
258445, 258443, 2
258456, 258450, 2
258456, 258454, 2
258456, 258451, 2
258456, 258457, 1
258456, 258453, 2
258456, 258455, 2
258441, 258450, 2
258441, 258438, 2
258441, 258435, 2
258441, 258452, 2
258441, 258445, 2
258441, 258447, 2
258441, 258444, 2
258441, 258453, 2
258441, 258436, 2
258441, 258443, 2
258473, 258468, 2
258473, 258471, 2
258473, 258462, 2
258473, 258474, 1
258473, 258466, 2
258473, 258472, 2
258473, 258465, 2
258473, 258470, 2
258473, 258477, 2
258473, 258479, 2
258473, 258469, 2
258473, 258475, 2
258473, 258467, 2
258473, 258464, 2
258473, 258463, 2
258473, 258476, 2
258461, 258458, 2
258461, 258460, 2
258461, 258462, 1
258475, 258469, 2
258475, 258471, 2
258475, 258470, 2
258475, 258474, 2
258475, 258472, 2
258475, 258466, 2
258475, 258463, 2
258475, 258476, 1
258475, 258473, 2
258475, 258468, 2
258475, 258479, 2
258434, 258438, 2
258434, 258433, 2
258434, 258435, 1
258434, 258444, 2
258434, 258432, 2
258434, 258436, 2
258434, 258443, 2
258434, 258437, 2
258430, 258438, 2
258430, 258426, 2
258430, 258428, 2
258430, 258429, 2
258430, 258427, 2
258430, 258437, 2
258430, 258432, 2
258430, 258431, 1
258449, 258457, 2
258449, 258452, 2
258449, 258443, 2
258449, 258447, 2
258449, 258444, 2
258449, 258453, 2
258449, 258436, 2
258449, 258462, 2
258472, 258469, 2
258472, 258478, 2
258472, 258474, 2
258472, 258475, 2
258472, 258470, 2
258472, 258473, 2
258472, 258477, 2
258459, 258458, 2
258459, 258460, 1
258459, 258457, 2
258459, 258462, 2
258426, 258427, 3
258426, 258428, 2
258426, 258430, 1
258439, 258440, 2
258439, 258436, 2
258439, 258437, 2
258440, 258435, 2
258440, 258452, 2
258440, 258445, 2
258440, 258442, 0
258440, 258447, 2
258440, 258444, 2
258440, 258436, 2
258440, 258453, 2
258440, 258437, 2
258440, 258443, 2
258440, 258439, 2
258427, 258426, 2
258427, 258428, 8
258427, 258430, 2
258427, 258429, 1
258451, 258450, 2
258451, 258458, 2
258451, 258454, 2
258451, 258452, 2
258451, 258456, 2
258451, 258444, 2
258451, 258453, 2
258451, 258457, 2
258451, 258462, 2
258476, 258478, 0
258476, 258475, 2
258476, 258473, 2
258476, 258474, 2
258476, 258479, 2
258457, 258450, 2
258457, 258458, 0
258457, 258454, 2
258457, 258451, 2
258457, 258456, 2
258457, 258449, 2
258457, 258462, 2
258457, 258459, 1
258452, 258450, 2
258452, 258449, 2
258452, 258440, 2
258452, 258451, 2
258452, 258446, 2
258452, 258445, 2
258452, 258447, 2
258452, 258441, 2
258452, 258444, 2
258452, 258453, 1
258452, 258437, 2
258478, 258472, 2
258478, 258476, 2
258478, 258474, 2
258478, 258479, 2
258429, 258427, 2
258429, 258428, 2
258429, 258430, 2
258466, 258469, 2
258466, 258471, 2
258466, 258462, 2
258466, 258463, 2
258466, 258470, 2
258466, 258475, 2
258466, 258468, 2
258466, 258473, 2
258444, 258438, 2
258444, 258440, 2
258444, 258451, 2
258444, 258445, 6
258444, 258447, 4
258444, 258449, 2
258444, 258453, 2
258444, 258448, 2
258444, 258434, 2
258444, 258450, 2
258444, 258435, 2
258444, 258442, 2
258444, 258441, 2
258444, 258452, 1
258444, 258446, 2
258444, 258437, 2
258444, 258443, 2
258448, 258450, 2
258448, 258444, 2
258448, 258446, 2
258448, 258442, 2
258470, 258469, 2
258470, 258467, 2
258470, 258462, 2
258470, 258466, 2
258470, 258474, 2
258470, 258463, 2
258470, 258472, 0
258470, 258475, 2
258470, 258468, 2
258470, 258473, 2
258470, 258479, 2
258477, 258469, 2
258477, 258471, 2
258477, 258474, 2
258477, 258463, 2
258477, 258472, 2
258477, 258473, 2
258477, 258468, 2
258477, 258479, 2
258469, 258468, 2
258469, 258471, 4
258469, 258462, 2
258469, 258466, 2
258469, 258472, 2
258469, 258465, 2
258469, 258470, 6
258469, 258477, 2
258469, 258475, 2
258469, 258467, 2
258469, 258464, 2
258469, 258473, 1
258432, 258438, 2
258432, 258433, 2
258432, 258434, 2
258432, 258430, 2
258432, 258431, 2
258467, 258469, 2
258467, 258471, 2
258467, 258462, 2
258467, 258463, 2
258467, 258470, 2
258467, 258465, 2
258467, 258468, 2
258467, 258473, 2
258464, 258469, 2
258464, 258473, 2
258464, 258462, 2
258464, 258463, 2
258464, 258465, 1
258464, 258468, 2
258446, 258450, 1
258446, 258435, 2
258446, 258452, 2
258446, 258445, 2
258446, 258444, 2
258446, 258448, 0
258446, 258453, 2
258446, 258436, 2
258446, 258443, 2
258443, 258438, 2
258443, 258453, 2
258443, 258440, 2
258443, 258434, 2
258443, 258442, 2
258443, 258447, 2
258443, 258449, 2
258443, 258444, 1
258443, 258437, 2
258443, 258450, 2
258443, 258445, 2
258443, 258441, 2
258443, 258462, 2
258443, 258446, 2
258443, 258436, 2
