170032, 170028, 2
170032, 170030, 2
170032, 170031, 2
170032, 170029, 2
170028, 170032, 2
170028, 170031, 2
170028, 170029, 1
170031, 170032, 3
170031, 170028, 2
170031, 170030, 2
170030, 170032, 2
170030, 170031, 1
170030, 170029, 2
170029, 170032, 2
170029, 170028, 2
170029, 170030, 1
