169499, 169513, 2
169499, 169495, 2
169499, 169500, 1
169499, 169498, 2
169499, 169497, 2
169524, 169525, 3
169524, 169523, 2
169524, 169522, 2
169524, 169530, 2
169524, 169526, 1
169508, 169517, 1
169508, 169514, 2
169508, 169505, 2
169508, 169523, 2
169508, 169515, 2
169508, 169509, 0
169508, 169530, 2
169508, 169546, 2
169508, 169511, 2
169508, 169506, 2
169508, 169527, 2
169508, 169507, 2
169508, 169512, 2
169508, 169510, 2
169501, 169495, 2
169501, 169502, 2
169501, 169504, 2
169501, 169500, 2
169501, 169497, 2
169528, 169529, 2
169528, 169526, 2
169528, 169513, 2
169528, 169523, 2
169528, 169530, 2
169528, 169509, 2
169495, 169499, 2
169495, 169504, 2
169495, 169501, 2
169495, 169503, 2
169495, 169530, 2
169495, 169539, 2
169495, 169529, 2
169495, 169502, 2
169495, 169520, 2
169495, 169531, 2
169495, 169507, 2
169495, 169518, 2
169495, 169517, 2
169495, 169494, 2
169495, 169505, 2
169495, 169496, 2
169495, 169521, 2
169495, 169540, 2
169495, 169506, 2
169495, 169500, 2
169495, 169497, 2
169495, 169498, 2
169503, 169504, 2
169503, 169502, 2
169503, 169495, 2
169503, 169527, 2
169503, 169513, 2
169503, 169542, 2
169503, 169523, 2
169503, 169509, 2
169530, 169524, 2
169530, 169508, 2
169530, 169536, 2
169530, 169528, 2
169530, 169495, 2
169530, 169497, 2
169530, 169522, 2
169530, 169539, 2
169530, 169535, 2
169530, 169529, 2
169530, 169537, 2
169530, 169525, 2
169530, 169531, 2
169530, 169507, 2
169530, 169518, 2
169530, 169517, 2
169530, 169521, 2
169530, 169496, 2
169530, 169523, 2
169530, 169533, 2
169530, 169538, 2
169530, 169540, 2
169530, 169526, 2
169530, 169534, 2
169530, 169520, 2
169530, 169532, 2
169539, 169541, 2
169539, 169495, 2
169539, 169531, 2
169539, 169532, 2
169539, 169538, 2
169539, 169530, 2
169539, 169540, 3
169539, 169537, 2
169497, 169499, 2
169497, 169504, 1
169497, 169501, 2
169497, 169495, 2
169497, 169496, 2
169497, 169530, 2
169497, 169506, 2
169497, 169500, 2
169497, 169513, 2
169497, 169527, 2
169497, 169507, 2
169497, 169498, 0
169514, 169517, 2
169514, 169508, 2
169514, 169507, 2
169514, 169515, 2
169514, 169509, 2
169514, 169512, 2
169537, 169539, 2
169537, 169535, 2
169537, 169533, 2
169537, 169536, 2
169537, 169546, 2
169537, 169532, 2
169537, 169542, 2
169537, 169538, 1
169537, 169530, 2
169537, 169534, 2
169513, 169499, 2
169513, 169504, 2
169513, 169519, 2
169513, 169536, 2
169513, 169528, 2
169513, 169503, 2
169513, 169522, 2
169513, 169535, 2
169513, 169529, 2
169513, 169502, 2
169513, 169547, 2
169513, 169518, 2
169513, 169517, 2
169513, 169505, 2
169513, 169496, 2
169513, 169523, 2
169513, 169497, 2
169513, 169509, 2
169513, 169542, 2
169513, 169526, 2
169513, 169527, 2
169513, 169498, 2
169520, 169519, 2
169520, 169521, 3
169520, 169527, 2
169520, 169495, 2
169520, 169522, 1
169520, 169530, 2
169520, 169518, 2
169519, 169513, 2
169519, 169520, 1
169519, 169527, 2
169519, 169518, 2
169519, 169522, 2
169519, 169523, 2
169519, 169509, 2
169507, 169517, 2
169507, 169506, 2
169507, 169508, 2
169507, 169514, 2
169507, 169505, 2
169507, 169497, 2
169507, 169495, 2
169507, 169530, 2
169507, 169512, 2
169507, 169511, 2
169531, 169539, 2
169531, 169546, 2
169531, 169529, 2
169531, 169532, 1
169531, 169523, 2
169531, 169495, 2
169531, 169525, 2
169531, 169527, 2
169531, 169542, 2
169531, 169509, 2
169531, 169530, 4
169536, 169530, 2
169536, 169535, 2
169536, 169542, 2
169536, 169546, 2
169536, 169527, 2
169536, 169513, 2
169536, 169523, 2
169536, 169537, 2
169541, 169539, 2
169541, 169544, 2
169541, 169543, 2
169541, 169527, 2
169541, 169542, 0
169541, 169538, 2
169541, 169545, 2
169541, 169540, 2
169521, 169520, 2
169521, 169529, 2
169521, 169522, 2
169521, 169530, 2
169521, 169495, 2
169515, 169517, 2
169515, 169514, 2
169515, 169508, 2
169515, 169527, 2
169515, 169516, 1
169515, 169509, 2
169509, 169514, 2
169509, 169508, 2
169509, 169528, 2
169509, 169503, 2
169509, 169522, 2
169509, 169511, 2
169509, 169546, 2
169509, 169529, 2
169509, 169504, 2
169509, 169513, 6
169509, 169519, 2
169509, 169531, 2
169509, 169516, 2
169509, 169518, 2
169509, 169517, 2
169509, 169505, 2
169509, 169496, 2
169509, 169523, 2
169509, 169515, 2
169509, 169527, 2
169509, 169512, 2
169509, 169510, 4
169506, 169504, 2
169506, 169508, 2
169506, 169497, 2
169506, 169496, 2
169506, 169505, 2
169506, 169507, 3
169506, 169495, 2
169542, 169503, 2
169542, 169544, 2
169542, 169536, 2
169542, 169541, 2
169542, 169523, 2
169542, 169543, 4
169542, 169538, 2
169542, 169545, 2
169542, 169546, 6
169542, 169547, 2
169542, 169513, 2
169542, 169531, 2
169542, 169527, 2
169542, 169537, 2
169526, 169529, 2
169526, 169528, 1
169526, 169513, 2
169526, 169525, 2
169526, 169523, 2
169526, 169522, 2
169526, 169524, 2
169526, 169530, 2
169543, 169542, 2
169543, 169544, 3
169543, 169545, 1
169543, 169541, 2
169532, 169539, 2
169532, 169546, 2
169532, 169530, 2
169532, 169534, 2
169532, 169527, 2
169532, 169533, 0
169532, 169531, 2
169532, 169540, 2
169532, 169537, 1
169512, 169507, 2
169512, 169508, 2
169512, 169509, 2
169512, 169514, 1
169512, 169511, 2
169504, 169506, 2
169504, 169502, 2
169504, 169501, 2
169504, 169513, 2
169504, 169497, 2
169504, 169496, 2
169504, 169523, 2
169504, 169505, 1
169504, 169503, 2
169504, 169509, 2
169504, 169495, 2
169544, 169542, 2
169544, 169543, 2
169544, 169545, 2
169544, 169541, 2
169544, 169540, 2
169522, 169524, 2
169522, 169519, 2
169522, 169521, 2
169522, 169523, 0
169522, 169530, 2
169522, 169509, 2
169522, 169546, 2
169522, 169529, 1
169522, 169526, 2
169522, 169513, 2
169522, 169525, 2
169522, 169520, 2
169545, 169543, 2
169545, 169542, 2
169545, 169544, 2
169545, 169541, 2
169545, 169547, 1
169511, 169508, 2
169511, 169527, 2
169511, 169507, 2
169511, 169509, 2
169511, 169512, 1
169511, 169510, 2
169535, 169546, 2
169535, 169533, 2
169535, 169536, 1
169535, 169534, 2
169535, 169527, 2
169535, 169513, 2
169535, 169530, 2
169535, 169537, 2
169529, 169531, 1
169529, 169526, 2
169529, 169528, 2
169529, 169513, 2
169529, 169525, 2
169529, 169523, 2
169529, 169495, 2
169529, 169522, 2
169529, 169530, 2
169529, 169521, 2
169529, 169509, 2
169502, 169503, 1
169502, 169513, 2
169502, 169501, 2
169502, 169504, 2
169502, 169495, 2
169525, 169529, 2
169525, 169531, 2
169525, 169526, 2
169525, 169523, 2
169525, 169522, 2
169525, 169524, 2
169525, 169530, 2
169516, 169517, 2
169516, 169527, 2
169516, 169515, 2
169516, 169523, 2
169516, 169509, 2
169518, 169517, 2
169518, 169523, 2
169518, 169519, 1
169518, 169513, 2
169518, 169520, 2
169518, 169527, 2
169518, 169495, 2
169518, 169509, 2
169518, 169530, 2
169505, 169506, 3
169505, 169508, 1
169505, 169513, 2
169505, 169495, 2
169505, 169523, 2
169505, 169507, 2
169505, 169509, 2
169505, 169504, 2
169517, 169516, 2
169517, 169518, 1
169517, 169514, 2
169517, 169508, 2
169517, 169513, 2
169517, 169507, 2
169517, 169527, 2
169517, 169495, 2
169517, 169515, 2
169517, 169530, 2
169517, 169509, 2
169494, 169496, 1
169494, 169495, 2
169546, 169542, 2
169546, 169508, 2
169546, 169536, 2
169546, 169522, 2
169546, 169523, 2
169546, 169533, 2
169546, 169538, 2
169546, 169509, 2
169546, 169535, 2
169546, 169527, 2
169546, 169532, 2
169546, 169531, 2
169546, 169537, 2
169496, 169497, 1
169496, 169506, 2
169496, 169495, 4
169496, 169504, 2
169496, 169527, 2
169496, 169513, 2
169496, 169530, 2
169496, 169494, 2
169496, 169509, 2
169523, 169524, 4
169523, 169504, 2
169523, 169519, 2
169523, 169536, 2
169523, 169528, 2
169523, 169505, 2
169523, 169527, 6
169523, 169542, 2
169523, 169522, 2
169523, 169530, 2
169523, 169509, 2
169523, 169546, 2
169523, 169529, 2
169523, 169526, 2
169523, 169513, 2
169523, 169525, 2
169523, 169508, 2
169523, 169531, 2
169523, 169503, 2
169523, 169516, 2
169523, 169518, 2
169533, 169535, 1
169533, 169546, 2
169533, 169534, 3
169533, 169527, 2
169533, 169532, 2
169533, 169530, 2
169533, 169537, 2
169538, 169539, 3
169538, 169546, 2
169538, 169541, 1
169538, 169527, 2
169538, 169542, 2
169538, 169530, 2
169538, 169540, 2
169538, 169537, 2
169540, 169539, 2
169540, 169544, 2
169540, 169541, 2
169540, 169547, 2
169540, 169495, 2
169540, 169532, 2
169540, 169538, 2
169540, 169530, 2
169500, 169499, 2
169500, 169497, 2
169500, 169501, 1
169500, 169495, 2
169547, 169527, 2
169547, 169542, 2
169547, 169545, 2
169547, 169540, 2
169547, 169513, 2
169534, 169530, 2
169534, 169535, 2
169534, 169532, 2
169534, 169533, 2
169534, 169537, 2
169527, 169503, 2
169527, 169519, 2
169527, 169536, 2
169527, 169541, 2
169527, 169515, 2
169527, 169542, 2
169527, 169511, 2
169527, 169546, 2
169527, 169513, 2
169527, 169520, 2
169527, 169508, 2
169527, 169531, 2
169527, 169516, 2
169527, 169518, 2
169527, 169517, 2
169527, 169535, 2
169527, 169496, 2
169527, 169523, 2
169527, 169533, 2
169527, 169538, 2
169527, 169509, 2
169527, 169547, 2
169527, 169497, 2
169527, 169532, 2
169527, 169498, 2
169527, 169510, 2
169498, 169499, 3
169498, 169495, 2
169498, 169527, 2
169498, 169497, 2
169498, 169513, 2
169510, 169527, 2
169510, 169508, 2
169510, 169509, 2
169510, 169511, 3
