16073, 16075, 1
16073, 16074, 8
16073, 16071, 2
16073, 16072, 2
16081, 16080, 2
16075, 16076, 1
16075, 16074, 2
16075, 16073, 2
16072, 16071, 2
16072, 16073, 1
16077, 16076, 2
16077, 16080, 2
16077, 16079, 1
16077, 16078, 0
16076, 16077, 1
16076, 16079, 2
16076, 16075, 2
16074, 16075, 2
16074, 16071, 2
16074, 16073, 2
16071, 16072, 1
16071, 16074, 2
16071, 16073, 2
16080, 16077, 2
16080, 16081, 1
16080, 16079, 2
16080, 16078, 2
16078, 16077, 2
16078, 16080, 2
16078, 16079, 2
16079, 16077, 2
16079, 16080, 1
16079, 16078, 2
16079, 16076, 2
