333589, 333590, 1
333589, 333587, 2
333589, 333591, 2
333589, 333588, 2
333581, 333580, 2
333581, 333582, 1
333583, 333585, 2
333583, 333584, 2
333583, 333582, 2
333580, 333581, 1
333585, 333586, 1
333585, 333587, 2
333585, 333584, 2
333585, 333583, 2
333585, 333582, 2
333587, 333586, 2
333587, 333589, 2
333587, 333591, 1
333587, 333585, 2
333587, 333590, 2
333587, 333588, 8
333582, 333585, 1
333582, 333581, 2
333582, 333584, 8
333582, 333583, 3
333586, 333585, 2
333586, 333587, 1
333591, 333589, 2
333591, 333590, 2
333591, 333587, 2
333591, 333588, 2
333590, 333589, 2
333590, 333591, 2
333590, 333587, 2
333590, 333588, 2
333584, 333585, 2
333584, 333583, 2
333584, 333588, 2
333584, 333582, 2
333588, 333589, 1
333588, 333591, 2
333588, 333587, 2
333588, 333590, 2
333588, 333584, 2
