62389, 62390, 1
62389, 62388, 2
62384, 62383, 2
62384, 62385, 1
62386, 62385, 2
62386, 62387, 1
62382, 62383, 1
62382, 62381, 2
62385, 62384, 2
62385, 62386, 1
62385, 62387, 2
62383, 62384, 1
62383, 62382, 2
62381, 62382, 1
62390, 62389, 2
62390, 62391, 0
62391, 62390, 2
62387, 62386, 2
62387, 62385, 2
62387, 62388, 1
62388, 62389, 1
62388, 62387, 2
