339351, 339350, 2
339351, 339352, 0
339351, 339349, 2
339350, 339349, 2
339350, 339351, 1
339353, 339354, 1
339353, 339352, 2
339354, 339353, 2
339352, 339353, 1
339352, 339349, 2
339352, 339351, 2
339349, 339350, 1
339349, 339352, 2
339349, 339351, 2
