161816, 161815, 2
161816, 161818, 2
161816, 161817, 1
161815, 161816, 1
161822, 161820, 2
161822, 161823, 1
161822, 161821, 2
161823, 161825, 2
161823, 161824, 1
161823, 161822, 2
161823, 161821, 2
161821, 161820, 2
161821, 161823, 2
161821, 161822, 1
161828, 161826, 2
161828, 161827, 2
161820, 161817, 2
161820, 161819, 2
161820, 161822, 2
161820, 161821, 1
161818, 161816, 2
161818, 161817, 2
161818, 161819, 2
161826, 161828, 1
161826, 161825, 2
161826, 161824, 2
161826, 161827, 0
161827, 161828, 2
161827, 161824, 2
161827, 161826, 2
161819, 161818, 2
161819, 161820, 1
161819, 161817, 2
161817, 161816, 2
161817, 161820, 2
161817, 161818, 8
161817, 161819, 1
161825, 161823, 2
161825, 161824, 2
161825, 161826, 2
161824, 161825, 8
161824, 161826, 1
161824, 161823, 2
161824, 161827, 2
