301194, 301195, 1
301196, 301195, 2
301196, 301197, 3
301196, 301198, 8
301196, 301199, 1
301200, 301199, 2
301195, 301194, 2
301195, 301197, 2
301195, 301196, 1
301197, 301195, 2
301197, 301199, 2
301197, 301198, 2
301197, 301196, 2
301198, 301197, 2
301198, 301199, 2
301198, 301196, 2
301199, 301200, 1
301199, 301197, 2
301199, 301198, 2
301199, 301196, 2
