71010, 71013, 2
71010, 71012, 1
71010, 71011, 3
71013, 71010, 2
71013, 71014, 0
71013, 71011, 2
71013, 71012, 2
71012, 71010, 2
71012, 71013, 1
71012, 71011, 2
71011, 71010, 2
71011, 71013, 2
71011, 71012, 2
71014, 71013, 2
