196945, 196947, 1
196945, 196948, 2
196945, 196946, 8
196945, 196944, 2
196947, 196945, 2
196947, 196948, 1
196947, 196946, 2
196947, 196944, 2
196946, 196945, 2
196946, 196947, 2
196946, 196948, 2
196946, 196944, 2
196948, 196945, 2
196948, 196947, 2
196948, 196946, 2
196944, 196945, 1
196944, 196947, 2
196944, 196946, 2
