21216, 21220, 2
21216, 21217, 2
21216, 21215, 2
21216, 21218, 2
21217, 21218, 1
21217, 21215, 2
21217, 21216, 2
21215, 21218, 2
21215, 21217, 1
21215, 21216, 6
21219, 21220, 1
21219, 21218, 2
21220, 21218, 2
21220, 21219, 2
21220, 21216, 2
21218, 21220, 2
21218, 21219, 1
21218, 21217, 2
21218, 21215, 2
21218, 21216, 2
