120684, 120682, 2
120684, 120689, 2
120684, 120681, 2
120684, 120685, 2
120684, 120679, 2
120684, 120687, 2
120684, 120683, 2
120684, 120686, 2
120693, 120695, 1
120693, 120689, 2
120693, 120691, 2
120693, 120690, 2
120693, 120694, 8
120693, 120688, 2
120693, 120686, 2
120693, 120692, 2
120689, 120684, 2
120689, 120693, 2
120689, 120688, 2
120689, 120690, 2
120691, 120693, 2
120691, 120681, 2
120691, 120690, 2
120691, 120686, 2
120691, 120688, 2
120691, 120687, 2
120691, 120692, 1
120695, 120693, 2
120695, 120694, 2
120695, 120692, 2
120679, 120684, 2
120679, 120680, 3
120679, 120681, 0
120679, 120685, 1
120688, 120693, 2
120688, 120689, 8
120688, 120691, 2
120688, 120692, 2
120688, 120687, 2
120688, 120690, 1
120686, 120684, 2
120686, 120693, 2
120686, 120681, 2
120686, 120690, 2
120686, 120691, 1
120686, 120682, 2
120686, 120692, 2
120686, 120687, 3
120686, 120685, 2
120682, 120684, 1
120682, 120681, 2
120682, 120685, 2
120682, 120680, 2
120682, 120683, 8
120682, 120686, 2
120681, 120684, 2
120681, 120682, 2
120681, 120685, 2
120681, 120680, 2
120681, 120679, 2
120681, 120686, 2
120681, 120691, 2
120681, 120683, 2
120681, 120692, 2
120685, 120684, 2
120685, 120682, 2
120685, 120681, 2
120685, 120680, 2
120685, 120679, 2
120685, 120687, 2
120685, 120686, 1
120680, 120682, 1
120680, 120679, 2
120680, 120681, 2
120680, 120685, 2
120694, 120693, 2
120694, 120695, 2
120694, 120690, 2
120692, 120693, 3
120692, 120695, 2
120692, 120681, 2
120692, 120690, 2
120692, 120688, 2
120692, 120691, 2
120692, 120686, 2
120687, 120684, 2
120687, 120688, 1
120687, 120691, 2
120687, 120685, 2
120687, 120686, 2
120683, 120684, 2
120683, 120682, 2
120683, 120681, 2
120690, 120693, 2
120690, 120689, 2
120690, 120691, 2
120690, 120692, 2
120690, 120694, 2
120690, 120688, 2
120690, 120686, 2
