19849, 19846, 2
19849, 19841, 2
19849, 19839, 2
19849, 19847, 2
19849, 19850, 2
19849, 19859, 2
19849, 19851, 2
19855, 19856, 1
19855, 19852, 2
19855, 19854, 2
19852, 19846, 2
19852, 19848, 2
19852, 19850, 2
19852, 19855, 2
19852, 19853, 2
19852, 19856, 2
19852, 19851, 2
19852, 19847, 2
19852, 19858, 2
19839, 19849, 2
19839, 19841, 2
19839, 19837, 2
19839, 19836, 2
19839, 19835, 2
19839, 19840, 2
19839, 19834, 2
19837, 19838, 4
19837, 19841, 2
19837, 19839, 6
19837, 19836, 2
19837, 19835, 2
19837, 19840, 1
19837, 19834, 2
19836, 19838, 2
19836, 19841, 2
19836, 19839, 2
19836, 19837, 1
19836, 19834, 2
19836, 19842, 2
19836, 19840, 2
19836, 19835, 2
19843, 19842, 2
19843, 19848, 2
19843, 19844, 1
19843, 19841, 2
19840, 19838, 2
19840, 19841, 1
19840, 19839, 2
19840, 19837, 2
19840, 19836, 2
19840, 19835, 2
19840, 19842, 2
19840, 19834, 2
19851, 19849, 2
19851, 19848, 2
19851, 19852, 8
19851, 19850, 2
19851, 19847, 2
19851, 19853, 1
19851, 19859, 2
19851, 19846, 2
19859, 19849, 2
19859, 19861, 2
19859, 19860, 2
19859, 19857, 2
19859, 19856, 2
19859, 19851, 2
19832, 19831, 2
19832, 19833, 1
19846, 19849, 2
19846, 19842, 2
19846, 19845, 2
19846, 19850, 2
19846, 19847, 1
19846, 19848, 2
19846, 19851, 2
19846, 19852, 2
19848, 19846, 2
19848, 19858, 2
19848, 19852, 2
19848, 19850, 2
19848, 19847, 2
19848, 19842, 2
19848, 19851, 2
19848, 19843, 2
19848, 19838, 2
19845, 19846, 1
19845, 19842, 2
19845, 19844, 2
19844, 19845, 1
19844, 19843, 2
19847, 19849, 6
19847, 19846, 2
19847, 19852, 2
19847, 19850, 1
19847, 19848, 4
19847, 19851, 2
19831, 19832, 1
19854, 19853, 2
19854, 19855, 1
19842, 19846, 2
19842, 19838, 2
19842, 19841, 2
19842, 19836, 2
19842, 19843, 2
19842, 19848, 2
19842, 19840, 2
19842, 19835, 2
19842, 19845, 2
19850, 19849, 2
19850, 19846, 2
19850, 19852, 2
19850, 19847, 2
19850, 19848, 2
19850, 19851, 1
19835, 19838, 2
19835, 19839, 2
19835, 19837, 2
19835, 19836, 2
19835, 19834, 2
19835, 19842, 2
19835, 19840, 2
19835, 19833, 2
19861, 19860, 2
19861, 19859, 2
19834, 19838, 2
19834, 19841, 2
19834, 19839, 2
19834, 19837, 2
19834, 19836, 1
19834, 19835, 0
19834, 19840, 2
19834, 19833, 2
19856, 19855, 2
19856, 19852, 2
19856, 19857, 1
19856, 19860, 2
19856, 19859, 2
19856, 19858, 2
19838, 19842, 2
19838, 19841, 2
19838, 19837, 2
19838, 19836, 2
19838, 19835, 2
19838, 19848, 2
19838, 19840, 2
19838, 19834, 2
19838, 19833, 2
19841, 19849, 2
19841, 19838, 2
19841, 19839, 2
19841, 19837, 2
19841, 19836, 2
19841, 19843, 1
19841, 19842, 8
19841, 19840, 2
19841, 19834, 2
19860, 19861, 1
19860, 19856, 2
19860, 19859, 2
19860, 19858, 2
19860, 19857, 2
19857, 19858, 4
19857, 19856, 2
19857, 19860, 1
19857, 19859, 6
19858, 19853, 2
19858, 19852, 2
19858, 19860, 2
19858, 19857, 2
19858, 19848, 2
19858, 19856, 2
19853, 19858, 2
19853, 19852, 2
19853, 19854, 1
19853, 19851, 2
19833, 19838, 2
19833, 19834, 1
19833, 19832, 2
19833, 19835, 2
