73242, 73241, 2
73242, 73243, 2
73235, 73236, 1
73235, 73237, 2
73238, 73239, 3
73238, 73240, 1
73238, 73237, 2
73237, 73239, 2
73237, 73236, 2
73237, 73238, 1
73237, 73235, 2
73239, 73240, 2
73239, 73238, 2
73239, 73241, 2
73239, 73237, 2
73239, 73243, 2
73236, 73235, 2
73236, 73237, 1
73241, 73239, 2
73241, 73242, 0
73241, 73240, 2
73241, 73243, 1
73240, 73239, 2
73240, 73238, 2
73240, 73241, 1
73243, 73239, 2
73243, 73242, 2
73243, 73241, 2
