221069, 221070, 3
221069, 221066, 2
221069, 221068, 2
221069, 221067, 2
221070, 221067, 2
221070, 221068, 2
221070, 221069, 2
221066, 221069, 1
221066, 221067, 3
221066, 221068, 8
221068, 221070, 2
221068, 221066, 2
221068, 221069, 2
221068, 221067, 2
221067, 221070, 2
221067, 221066, 2
221067, 221068, 2
221067, 221069, 2
