20868, 20869, 1
20868, 20871, 2
20870, 20872, 2
20870, 20869, 2
20870, 20871, 2
20869, 20868, 2
20869, 20870, 8
20869, 20871, 1
20872, 20870, 2
20872, 20871, 2
20871, 20868, 2
20871, 20870, 2
20871, 20869, 2
20871, 20872, 1
