186908, 186907, 2
186908, 186909, 1
186912, 186913, 1
186912, 186910, 2
186912, 186911, 2
186911, 186913, 2
186911, 186909, 2
186911, 186910, 2
186911, 186912, 2
186907, 186908, 1
186913, 186910, 2
186913, 186911, 2
186913, 186912, 2
186909, 186908, 2
186909, 186910, 1
186909, 186911, 2
186910, 186913, 2
186910, 186909, 2
186910, 186911, 8
186910, 186912, 1
