170896, 170894, 2
170896, 170895, 2
170890, 170892, 1
170890, 170891, 3
170895, 170896, 1
170895, 170894, 2
170892, 170890, 2
170892, 170891, 2
170892, 170893, 1
170891, 170890, 2
170891, 170892, 2
170894, 170896, 2
170894, 170893, 2
170894, 170895, 1
170893, 170894, 1
170893, 170892, 2
