16537, 16536, 2
16537, 16527, 2
16526, 16529, 2
16526, 16525, 2
16526, 16528, 2
16526, 16527, 3
16534, 16533, 2
16534, 16535, 1
16534, 16527, 2
16534, 16536, 2
16527, 16529, 2
16527, 16533, 2
16527, 16531, 2
16527, 16528, 2
16527, 16530, 2
16527, 16532, 2
16527, 16537, 2
16527, 16534, 2
16527, 16536, 2
16527, 16535, 2
16527, 16526, 2
16536, 16534, 2
16536, 16537, 1
16536, 16535, 2
16536, 16527, 2
16535, 16534, 2
16535, 16536, 1
16535, 16527, 2
16529, 16527, 2
16529, 16525, 2
16529, 16528, 2
16529, 16530, 1
16529, 16526, 2
16531, 16532, 1
16531, 16527, 2
16531, 16530, 2
16532, 16533, 1
16532, 16531, 2
16532, 16527, 2
16530, 16529, 2
16530, 16531, 1
16530, 16527, 2
16533, 16534, 1
16533, 16532, 2
16533, 16527, 2
16525, 16529, 2
16525, 16528, 1
16525, 16526, 3
16528, 16529, 1
16528, 16525, 2
16528, 16526, 2
16528, 16527, 2
