301922, 301921, 2
301922, 301923, 1
301918, 301917, 2
301918, 301919, 1
301918, 301916, 2
301924, 301923, 2
301917, 301918, 1
301917, 301916, 2
301916, 301917, 1
301916, 301918, 2
301919, 301918, 2
301919, 301920, 1
301923, 301922, 2
301923, 301924, 1
301920, 301921, 1
301920, 301919, 2
301921, 301922, 1
301921, 301920, 2
