20696, 20697, 2
20696, 20695, 2
20696, 20694, 2
20697, 20696, 2
20697, 20695, 2
20697, 20694, 2
20693, 20695, 1
20693, 20694, 3
20695, 20696, 8
20695, 20697, 1
20695, 20693, 2
20695, 20694, 2
20694, 20696, 2
20694, 20697, 2
20694, 20693, 2
20694, 20695, 2
