166827, 166836, 2
166827, 166822, 2
166827, 166829, 1
166827, 166833, 2
166827, 166821, 2
166827, 166831, 2
166827, 166823, 2
166827, 166824, 2
166827, 166830, 2
166841, 166839, 2
166841, 166837, 2
166841, 166842, 1
166841, 166840, 2
166834, 166836, 2
166834, 166830, 2
166834, 166829, 2
166834, 166837, 2
166834, 166833, 2
166834, 166821, 2
166834, 166823, 2
166834, 166824, 2
166834, 166822, 2
166825, 166821, 2
166825, 166832, 2
166825, 166828, 2
166825, 166822, 2
166825, 166826, 1
166816, 166805, 2
166816, 166818, 2
166816, 166815, 2
166816, 166814, 2
166816, 166817, 1
166833, 166827, 2
166833, 166834, 6
166833, 166829, 2
166833, 166821, 2
166833, 166822, 2
166833, 166836, 2
166833, 166824, 2
166833, 166830, 2
166831, 166827, 2
166831, 166836, 2
166831, 166829, 2
166831, 166821, 2
166831, 166823, 2
166831, 166824, 2
166831, 166822, 2
166806, 166818, 2
166806, 166804, 2
166806, 166805, 2
166806, 166810, 2
166806, 166812, 2
166806, 166808, 1
166835, 166837, 2
166835, 166832, 2
166835, 166822, 2
166808, 166818, 2
166808, 166804, 2
166808, 166805, 2
166808, 166806, 2
166808, 166810, 1
166808, 166812, 2
166808, 166814, 2
166812, 166804, 2
166812, 166805, 2
166812, 166806, 2
166812, 166810, 2
166812, 166814, 1
166812, 166808, 2
166813, 166805, 2
166813, 166818, 2
166813, 166815, 2
166813, 166821, 2
166813, 166811, 2
166804, 166807, 2
166804, 166818, 2
166804, 166812, 2
166804, 166805, 1
166804, 166810, 2
166804, 166806, 2
166804, 166814, 2
166804, 166808, 2
166804, 166811, 2
166818, 166807, 2
166818, 166816, 2
166818, 166820, 2
166818, 166804, 2
166818, 166806, 2
166818, 166808, 2
166818, 166813, 2
166818, 166819, 2
166818, 166815, 4
166818, 166817, 2
166818, 166805, 2
166818, 166821, 1
166818, 166814, 2
166818, 166811, 2
166815, 166816, 1
166815, 166813, 2
166815, 166818, 2
166815, 166814, 2
166815, 166805, 2
166824, 166827, 1
166824, 166834, 2
166824, 166830, 2
166824, 166836, 2
166824, 166829, 2
166824, 166833, 2
166824, 166821, 2
166824, 166831, 2
166824, 166823, 2
166824, 166822, 2
166805, 166807, 4
166805, 166809, 2
166805, 166816, 2
166805, 166820, 2
166805, 166817, 2
166805, 166806, 6
166805, 166812, 2
166805, 166808, 2
166805, 166813, 2
166805, 166818, 1
166805, 166815, 2
166805, 166804, 2
166805, 166821, 2
166805, 166810, 2
166805, 166814, 2
166805, 166811, 2
166837, 166839, 2
166837, 166841, 2
166837, 166834, 2
166837, 166838, 0
166837, 166840, 1
166837, 166843, 2
166837, 166835, 2
166837, 166842, 2
166837, 166836, 2
166837, 166822, 2
166821, 166827, 2
166821, 166834, 2
166821, 166825, 2
166821, 166833, 2
166821, 166820, 2
166821, 166832, 2
166821, 166828, 2
166821, 166824, 2
166821, 166822, 1
166821, 166813, 2
166821, 166819, 2
166821, 166818, 2
166821, 166823, 2
166821, 166829, 2
166821, 166817, 2
166821, 166805, 2
166821, 166831, 2
166821, 166814, 2
166821, 166811, 2
166822, 166827, 2
166822, 166834, 2
166822, 166825, 6
166822, 166826, 2
166822, 166833, 2
166822, 166832, 2
166822, 166835, 2
166822, 166824, 2
166822, 166828, 2
166822, 166836, 2
166822, 166823, 4
166822, 166829, 2
166822, 166837, 1
166822, 166821, 2
166822, 166831, 2
166822, 166830, 2
166810, 166805, 2
166810, 166806, 2
166810, 166812, 1
166810, 166808, 2
166810, 166804, 2
166814, 166819, 2
166814, 166818, 2
166814, 166815, 2
166814, 166816, 2
166814, 166817, 2
166814, 166805, 2
166814, 166821, 2
166814, 166804, 2
166814, 166812, 2
166814, 166808, 2
166811, 166813, 1
166811, 166807, 2
166811, 166818, 2
166811, 166809, 2
166811, 166804, 2
166811, 166805, 2
166811, 166821, 2
166807, 166805, 2
166807, 166818, 2
166807, 166811, 2
166807, 166809, 1
166807, 166804, 2
166809, 166805, 2
166809, 166807, 2
166809, 166811, 1
166838, 166839, 1
166838, 166837, 2
166838, 166840, 2
166840, 166839, 2
166840, 166841, 1
166840, 166838, 2
166840, 166837, 2
166828, 166821, 2
166828, 166825, 2
166828, 166832, 1
166828, 166826, 2
166828, 166822, 2
166842, 166839, 2
166842, 166841, 2
166842, 166837, 2
166842, 166843, 1
166820, 166805, 2
166820, 166819, 2
166820, 166818, 2
166820, 166821, 2
166820, 166817, 2
166826, 166825, 2
166826, 166828, 1
166826, 166832, 2
166826, 166822, 2
166836, 166827, 2
166836, 166834, 2
166836, 166830, 2
166836, 166829, 2
166836, 166837, 2
166836, 166833, 2
166836, 166831, 2
166836, 166823, 2
166836, 166824, 2
166836, 166822, 2
166819, 166820, 1
166819, 166814, 2
166819, 166818, 2
166819, 166821, 2
166819, 166817, 2
166832, 166835, 1
166832, 166825, 2
166832, 166826, 2
166832, 166821, 2
166832, 166828, 2
166832, 166822, 2
166823, 166827, 2
166823, 166834, 2
166823, 166822, 2
166823, 166829, 2
166823, 166821, 2
166823, 166831, 2
166823, 166836, 2
166823, 166824, 1
166823, 166830, 2
166839, 166841, 2
166839, 166838, 2
166839, 166840, 2
166839, 166837, 2
166839, 166842, 2
166839, 166843, 2
166829, 166827, 2
166829, 166836, 1
166829, 166834, 2
166829, 166833, 2
166829, 166821, 2
166829, 166831, 4
166829, 166823, 2
166829, 166830, 6
166829, 166824, 2
166829, 166822, 2
166817, 166819, 1
166817, 166818, 2
166817, 166805, 2
166817, 166821, 2
166817, 166820, 2
166817, 166816, 2
166817, 166814, 2
166843, 166839, 2
166843, 166837, 2
166843, 166842, 2
166830, 166827, 2
166830, 166834, 2
166830, 166829, 2
166830, 166833, 1
166830, 166822, 2
166830, 166836, 2
166830, 166824, 2
166830, 166823, 2
