187085, 187084, 2
187085, 187083, 2
187085, 187079, 2
187085, 187082, 2
187080, 187084, 2
187080, 187081, 2
187080, 187082, 2
187080, 187078, 2
187080, 187079, 2
187081, 187084, 2
187081, 187080, 2
187081, 187079, 2
187081, 187082, 2
187084, 187085, 2
187084, 187080, 2
187084, 187081, 2
187084, 187082, 2
187084, 187083, 2
187084, 187078, 2
187084, 187079, 2
187083, 187085, 2
187083, 187084, 2
187083, 187082, 2
187082, 187085, 1
187082, 187080, 2
187082, 187081, 2
187082, 187084, 0
187082, 187083, 3
187082, 187079, 2
187078, 187084, 2
187078, 187080, 2
187078, 187079, 1
187079, 187085, 2
187079, 187080, 3
187079, 187081, 8
187079, 187082, 1
187079, 187084, 2
187079, 187078, 2
