336822, 336823, 1
336822, 336821, 2
336836, 336833, 2
336836, 336835, 2
336836, 336837, 1
336836, 336834, 2
336826, 336825, 2
336826, 336827, 1
336835, 336833, 2
336835, 336832, 2
336835, 336836, 2
336835, 336837, 2
336835, 336834, 2
336830, 336831, 1
336830, 336832, 2
336830, 336834, 2
336830, 336829, 2
336834, 336836, 2
336834, 336832, 2
336834, 336835, 1
336834, 336830, 2
336834, 336833, 2
336832, 336833, 1
336832, 336831, 2
336832, 336835, 2
336832, 336830, 2
336832, 336834, 2
336818, 336817, 2
336818, 336814, 2
336818, 336819, 1
336818, 336815, 2
336833, 336836, 1
336833, 336832, 2
336833, 336835, 2
336833, 336837, 2
336833, 336834, 0
336821, 336822, 1
336821, 336820, 2
336821, 336819, 2
336819, 336820, 1
336819, 336818, 2
336819, 336821, 2
336819, 336815, 2
336819, 336817, 2
336815, 336817, 2
336815, 336814, 2
336815, 336816, 0
336815, 336818, 1
336815, 336819, 2
336831, 336832, 1
336831, 336830, 2
336825, 336826, 1
336825, 336824, 2
336837, 336836, 2
336837, 336835, 2
336837, 336833, 2
336817, 336818, 2
336817, 336816, 2
336817, 336819, 2
336817, 336815, 2
336820, 336821, 1
336820, 336819, 2
336824, 336823, 2
336824, 336825, 1
336827, 336829, 2
336827, 336826, 2
336827, 336828, 1
336814, 336818, 2
336814, 336816, 2
336814, 336815, 1
336814, 336813, 2
336823, 336822, 2
336823, 336824, 1
336829, 336830, 1
336829, 336827, 2
336829, 336828, 2
336816, 336817, 1
336816, 336814, 2
336816, 336815, 2
336828, 336829, 1
336828, 336827, 2
336813, 336814, 1
