72107, 72108, 1
72112, 72111, 2
72108, 72107, 2
72108, 72110, 2
72108, 72109, 1
72111, 72110, 2
72111, 72109, 2
72111, 72112, 1
72110, 72108, 2
72110, 72111, 2
72110, 72109, 2
72109, 72108, 2
72109, 72111, 1
72109, 72110, 3
