340640, 340641, 1
340640, 340639, 2
340642, 340641, 2
340638, 340636, 2
340638, 340639, 2
340638, 340637, 2
340636, 340638, 2
340636, 340637, 1
340636, 340635, 2
340641, 340640, 2
340641, 340642, 3
340641, 340639, 2
340639, 340640, 1
340639, 340641, 2
340639, 340638, 2
340639, 340637, 2
340637, 340638, 3
340637, 340639, 1
340637, 340636, 2
340635, 340636, 1
