119047, 119045, 2
119047, 119037, 2
119047, 119043, 2
119047, 119046, 2
119047, 119038, 2
119040, 119041, 2
119040, 119043, 2
119040, 119039, 2
119040, 119036, 2
119040, 119042, 2
119038, 119041, 2
119038, 119046, 2
119038, 119047, 2
119038, 119044, 2
119038, 119045, 2
119038, 119037, 2
119038, 119039, 2
119038, 119036, 2
119038, 119042, 2
119045, 119043, 2
119045, 119046, 1
119045, 119047, 2
119045, 119038, 2
119045, 119037, 2
119045, 119044, 2
119045, 119042, 2
119043, 119047, 2
119043, 119040, 2
119043, 119045, 2
119043, 119044, 2
119043, 119042, 2
119043, 119036, 2
119043, 119039, 2
119036, 119043, 2
119036, 119037, 3
119036, 119039, 1
119036, 119040, 2
119036, 119038, 2
119042, 119041, 2
119042, 119043, 0
119042, 119040, 2
119042, 119037, 2
119042, 119045, 2
119042, 119044, 1
119042, 119038, 2
119041, 119039, 2
119041, 119037, 2
119041, 119042, 1
119041, 119040, 6
119041, 119038, 2
119046, 119045, 2
119046, 119037, 2
119046, 119047, 1
119046, 119038, 2
119037, 119041, 2
119037, 119046, 2
119037, 119047, 2
119037, 119038, 3
119037, 119045, 2
119037, 119039, 2
119037, 119036, 2
119037, 119042, 2
119044, 119045, 1
119044, 119043, 2
119044, 119042, 2
119044, 119038, 2
119039, 119041, 1
119039, 119043, 2
119039, 119040, 2
119039, 119038, 2
119039, 119037, 2
119039, 119036, 2
