132931, 132932, 8
132931, 132930, 2
132931, 132933, 1
132931, 132934, 2
132932, 132931, 2
132932, 132930, 2
132932, 132933, 2
132932, 132934, 2
132930, 132931, 1
132930, 132932, 2
132930, 132933, 2
132933, 132931, 2
132933, 132932, 2
132933, 132930, 2
132933, 132934, 1
132934, 132931, 2
132934, 132932, 2
132934, 132933, 2
