119654, 119655, 1
119658, 119657, 2
119658, 119659, 1
119665, 119657, 2
119665, 119666, 2
119665, 119663, 2
119665, 119664, 2
119665, 119662, 2
119661, 119662, 1
119661, 119660, 2
119662, 119665, 2
119662, 119663, 1
119662, 119661, 2
119659, 119658, 2
119659, 119657, 2
119659, 119660, 1
119655, 119654, 2
119655, 119656, 1
119655, 119657, 2
119664, 119665, 3
119664, 119666, 1
119664, 119663, 2
119657, 119658, 1
119657, 119655, 2
119657, 119665, 2
119657, 119656, 2
119657, 119659, 2
119666, 119665, 2
119666, 119664, 2
119656, 119655, 2
119656, 119657, 1
119663, 119665, 2
119663, 119662, 2
119663, 119664, 1
119660, 119659, 2
119660, 119661, 1
