73278, 73277, 2
73278, 73276, 2
73278, 73275, 2
73278, 73279, 1
73276, 73278, 1
73276, 73277, 8
73276, 73275, 2
73276, 73279, 2
73275, 73278, 2
73275, 73271, 2
73275, 73274, 2
73275, 73277, 2
73275, 73276, 1
73275, 73272, 2
73272, 73275, 2
73272, 73274, 1
73272, 73273, 8
73272, 73271, 2
73279, 73278, 2
73279, 73277, 2
73279, 73276, 2
73274, 73275, 2
73274, 73273, 2
73274, 73272, 2
73274, 73271, 2
73277, 73278, 2
73277, 73276, 2
73277, 73275, 2
73277, 73279, 2
73271, 73272, 3
73271, 73275, 1
73271, 73274, 2
73273, 73274, 2
73273, 73272, 2
