251852, 251854, 2
251852, 251853, 2
251852, 251851, 2
251852, 251855, 2
251846, 251848, 1
251846, 251847, 3
251846, 251845, 2
251848, 251849, 3
251848, 251846, 2
251848, 251847, 2
251848, 251850, 1
251853, 251852, 2
251853, 251854, 1
251853, 251850, 2
251853, 251851, 2
251851, 251852, 3
251851, 251850, 2
251851, 251853, 2
251854, 251852, 2
251854, 251853, 2
251854, 251855, 3
251849, 251850, 2
251849, 251848, 2
251849, 251847, 2
251847, 251849, 2
251847, 251846, 2
251847, 251848, 2
251847, 251845, 2
251850, 251853, 1
251850, 251849, 2
251850, 251848, 2
251850, 251851, 3
251845, 251846, 1
251845, 251847, 2
251855, 251852, 2
251855, 251854, 2
