301720, 301717, 2
301720, 301718, 2
301720, 301719, 2
301716, 301719, 2
301716, 301717, 1
301716, 301718, 2
301716, 301715, 2
301715, 301713, 2
301715, 301716, 1
301715, 301714, 2
301713, 301714, 1
301713, 301715, 2
301717, 301720, 2
301717, 301716, 2
301717, 301718, 8
301717, 301719, 1
301714, 301713, 2
301714, 301715, 1
301718, 301720, 2
301718, 301716, 2
301718, 301717, 2
301718, 301719, 2
301719, 301720, 1
301719, 301716, 2
301719, 301717, 2
301719, 301718, 2
