131585, 131600, 2
131585, 131583, 2
131585, 131581, 2
131585, 131584, 2
131585, 131555, 2
131585, 131596, 2
131585, 131586, 2
131585, 131587, 2
131585, 131599, 2
131585, 131590, 2
131588, 131589, 0
131588, 131587, 2
131588, 131590, 1
131555, 131585, 2
131555, 131553, 2
131555, 131567, 2
131555, 131563, 2
131555, 131551, 2
131555, 131552, 2
131555, 131600, 2
131555, 131571, 2
131555, 131581, 2
131555, 131549, 2
131555, 131554, 2
131555, 131559, 2
131555, 131550, 2
131555, 131556, 2
131551, 131550, 2
131551, 131552, 1
131551, 131555, 2
131558, 131559, 3
131558, 131556, 2
131558, 131560, 0
131558, 131557, 2
131558, 131561, 1
131567, 131566, 2
131567, 131571, 2
131567, 131563, 2
131567, 131555, 2
131567, 131565, 2
131567, 131569, 2
131567, 131564, 2
131567, 131568, 2
131567, 131572, 2
131570, 131571, 3
131570, 131572, 1
131570, 131569, 2
131595, 131589, 2
131595, 131600, 2
131595, 131592, 2
131595, 131590, 2
131595, 131596, 2
131595, 131593, 2
131595, 131594, 2
131595, 131598, 2
131587, 131585, 2
131587, 131588, 1
131587, 131589, 2
131587, 131590, 2
131587, 131586, 2
131563, 131566, 2
131563, 131562, 2
131563, 131555, 2
131563, 131565, 2
131563, 131559, 2
131563, 131564, 2
131563, 131567, 2
131563, 131561, 2
131572, 131570, 2
131572, 131571, 2
131572, 131568, 2
131572, 131569, 2
131572, 131567, 2
131572, 131573, 1
131575, 131574, 2
131575, 131573, 2
131575, 131582, 2
131575, 131576, 2
131575, 131578, 2
131575, 131568, 2
131583, 131585, 2
131583, 131582, 2
131583, 131581, 2
131583, 131584, 1
131583, 131580, 2
131583, 131586, 2
131590, 131585, 2
131590, 131588, 2
131590, 131592, 2
131590, 131589, 2
131590, 131591, 1
131590, 131595, 2
131590, 131587, 2
131571, 131570, 2
131571, 131567, 2
131571, 131581, 2
131571, 131555, 2
131571, 131576, 2
131571, 131572, 2
131571, 131569, 2
131577, 131576, 2
131577, 131578, 1
131579, 131580, 1
131579, 131578, 2
131579, 131581, 2
131596, 131585, 2
131596, 131594, 2
131596, 131592, 2
131596, 131595, 2
131596, 131597, 1
131576, 131574, 2
131576, 131577, 1
131576, 131581, 2
131576, 131582, 2
131576, 131578, 2
131576, 131575, 2
131576, 131571, 2
131576, 131573, 2
131580, 131582, 0
131580, 131583, 1
131580, 131581, 3
131580, 131579, 2
131593, 131592, 2
131593, 131595, 2
131593, 131594, 1
131557, 131559, 2
131557, 131556, 2
131557, 131560, 2
131557, 131561, 2
131557, 131558, 1
131586, 131585, 2
131586, 131582, 2
131586, 131583, 2
131586, 131581, 2
131586, 131584, 2
131586, 131589, 2
131586, 131587, 1
131589, 131600, 2
131589, 131588, 2
131589, 131592, 2
131589, 131590, 2
131589, 131582, 2
131589, 131587, 2
131589, 131586, 2
131589, 131595, 2
131574, 131576, 1
131574, 131573, 2
131574, 131575, 0
131562, 131564, 1
131562, 131563, 3
131562, 131561, 2
131584, 131585, 3
131584, 131583, 2
131584, 131586, 1
131582, 131589, 2
131582, 131583, 2
131582, 131581, 2
131582, 131576, 2
131582, 131580, 2
131582, 131578, 2
131582, 131575, 2
131582, 131586, 2
131565, 131566, 1
131565, 131567, 2
131565, 131564, 2
131565, 131563, 2
131578, 131582, 2
131578, 131577, 2
131578, 131581, 2
131578, 131579, 1
131578, 131576, 2
131578, 131575, 2
131569, 131570, 1
131569, 131566, 2
131569, 131571, 2
131569, 131572, 2
131569, 131567, 2
131569, 131568, 2
131552, 131553, 1
131552, 131555, 2
131552, 131551, 2
131597, 131596, 2
131597, 131598, 1
131598, 131599, 1
131598, 131597, 2
131598, 131595, 2
131592, 131589, 2
131592, 131600, 2
131592, 131590, 2
131592, 131596, 2
131592, 131593, 1
131592, 131591, 2
131592, 131594, 2
131592, 131595, 2
131559, 131564, 2
131559, 131560, 2
131559, 131563, 2
131559, 131555, 2
131559, 131556, 2
131559, 131558, 2
131559, 131557, 2
131559, 131561, 2
131554, 131553, 2
131554, 131556, 1
131554, 131555, 4
131550, 131549, 2
131550, 131555, 2
131550, 131551, 1
131591, 131592, 1
131591, 131590, 2
131566, 131567, 3
131566, 131563, 2
131566, 131565, 2
131566, 131569, 1
131566, 131564, 2
131566, 131568, 0
131553, 131554, 1
131553, 131552, 2
131553, 131555, 2
131581, 131585, 2
131581, 131582, 2
131581, 131583, 2
131581, 131579, 2
131581, 131555, 2
131581, 131576, 2
131581, 131580, 2
131581, 131578, 2
131581, 131571, 2
131581, 131586, 2
131560, 131564, 2
131560, 131559, 2
131560, 131556, 2
131560, 131558, 2
131560, 131557, 2
131560, 131561, 2
131560, 131568, 2
131568, 131566, 2
131568, 131556, 2
131568, 131567, 2
131568, 131569, 2
131568, 131560, 2
131568, 131572, 2
131568, 131575, 2
131568, 131573, 2
131568, 131564, 2
131561, 131562, 1
131561, 131563, 2
131561, 131560, 2
131561, 131559, 2
131561, 131556, 2
131561, 131558, 2
131561, 131557, 2
131561, 131564, 2
131573, 131576, 2
131573, 131574, 1
131573, 131572, 2
131573, 131575, 2
131573, 131568, 2
131594, 131593, 2
131594, 131596, 1
131594, 131592, 2
131594, 131595, 0
131549, 131550, 1
131549, 131555, 2
131600, 131585, 2
131600, 131589, 2
131600, 131592, 2
131600, 131599, 2
131600, 131555, 2
131600, 131595, 2
131564, 131566, 2
131564, 131562, 2
131564, 131563, 2
131564, 131560, 2
131564, 131559, 2
131564, 131565, 1
131564, 131567, 2
131564, 131561, 2
131564, 131568, 2
131556, 131560, 2
131556, 131555, 2
131556, 131554, 2
131556, 131559, 2
131556, 131558, 2
131556, 131557, 1
131556, 131561, 2
131556, 131568, 2
131599, 131585, 2
131599, 131600, 1
131599, 131598, 2
