335268, 335269, 1
335268, 335267, 2
335268, 335270, 2
335263, 335264, 1
335263, 335262, 2
335269, 335268, 2
335269, 335270, 1
335265, 335264, 2
335265, 335266, 2
335264, 335265, 8
335264, 335266, 1
335264, 335267, 2
335264, 335263, 2
335256, 335258, 1
335256, 335257, 0
335256, 335259, 2
335259, 335258, 2
335259, 335256, 2
335259, 335257, 2
335259, 335260, 1
335266, 335265, 2
335266, 335264, 2
335266, 335267, 1
335270, 335269, 2
335270, 335268, 2
335270, 335271, 1
335271, 335270, 2
335271, 335272, 1
335262, 335261, 2
335262, 335263, 1
335262, 335260, 2
335258, 335256, 2
335258, 335257, 2
335258, 335259, 1
335261, 335262, 1
335261, 335260, 2
335267, 335268, 1
335267, 335264, 2
335267, 335266, 2
335257, 335258, 2
335257, 335256, 2
335257, 335259, 2
335272, 335271, 2
335260, 335262, 2
335260, 335261, 1
335260, 335259, 2
