61846, 61848, 1
61846, 61847, 3
61846, 61849, 2
61851, 61854, 2
61851, 61853, 2
61851, 61852, 2
61851, 61850, 2
61851, 61849, 2
61850, 61851, 2
61850, 61849, 2
61850, 61847, 2
61850, 61852, 1
61854, 61851, 2
61854, 61853, 2
61854, 61849, 2
61848, 61846, 2
61848, 61847, 2
61848, 61849, 1
61853, 61851, 2
61853, 61852, 2
61853, 61854, 1
61852, 61851, 2
61852, 61853, 1
61852, 61850, 2
61847, 61846, 2
61847, 61848, 2
61847, 61850, 2
61847, 61849, 2
61849, 61846, 2
61849, 61851, 0
61849, 61850, 3
61849, 61854, 2
61849, 61848, 2
61849, 61847, 2
