68457, 68459, 2
68457, 68458, 2
68457, 68455, 2
68457, 68456, 2
68439, 68436, 2
68439, 68440, 1
68439, 68438, 2
68439, 68437, 2
68459, 68457, 2
68459, 68460, 2
68459, 68458, 2
68459, 68456, 2
68468, 68467, 2
68468, 68466, 2
68465, 68464, 2
68465, 68466, 2
68447, 68446, 2
68447, 68448, 2
68447, 68445, 2
68466, 68467, 0
68466, 68464, 2
68466, 68468, 1
68466, 68465, 2
68440, 68439, 2
68440, 68441, 1
68440, 68442, 2
68460, 68463, 2
68460, 68459, 2
68460, 68458, 2
68460, 68461, 1
68460, 68462, 2
68444, 68442, 2
68444, 68443, 2
68444, 68445, 2
68451, 68452, 0
68451, 68449, 2
68451, 68450, 2
68451, 68453, 1
68463, 68464, 1
68463, 68460, 2
68463, 68461, 2
68463, 68462, 2
68446, 68447, 8
68446, 68448, 1
68446, 68445, 2
68458, 68457, 2
68458, 68459, 3
68458, 68460, 1
68458, 68455, 2
68458, 68456, 2
68437, 68436, 2
68437, 68439, 1
68437, 68438, 8
68436, 68434, 2
68436, 68439, 2
68436, 68438, 2
68436, 68435, 2
68436, 68437, 1
68434, 68436, 1
68434, 68435, 3
68442, 68440, 2
68442, 68444, 2
68442, 68441, 2
68442, 68443, 1
68441, 68440, 2
68441, 68442, 1
68443, 68445, 1
68443, 68444, 3
68443, 68442, 2
68449, 68450, 8
68449, 68448, 2
68449, 68451, 1
68450, 68449, 2
68450, 68451, 2
68453, 68454, 1
68453, 68452, 2
68453, 68451, 2
68453, 68455, 2
68455, 68457, 2
68455, 68454, 2
68455, 68453, 2
68455, 68458, 2
68455, 68456, 1
68462, 68460, 2
68462, 68461, 2
68462, 68463, 2
68438, 68436, 2
68438, 68439, 2
68438, 68437, 2
68435, 68436, 2
68435, 68434, 2
68445, 68447, 2
68445, 68446, 1
68445, 68444, 2
68445, 68443, 2
68445, 68448, 2
68467, 68466, 2
68467, 68468, 2
68454, 68453, 2
68454, 68455, 1
68452, 68453, 2
68452, 68451, 2
68461, 68463, 1
68461, 68460, 2
68461, 68462, 8
68456, 68457, 8
68456, 68459, 2
68456, 68458, 1
68456, 68455, 2
68464, 68466, 1
68464, 68465, 8
68464, 68463, 2
68448, 68447, 2
68448, 68446, 2
68448, 68449, 1
68448, 68445, 2
