70316, 70318, 2
70316, 70319, 2
70316, 70317, 1
70320, 70319, 2
70320, 70318, 2
70320, 70317, 2
70318, 70316, 2
70318, 70320, 2
70318, 70319, 2
70318, 70317, 2
70319, 70316, 2
70319, 70320, 1
70319, 70318, 2
70319, 70317, 2
70317, 70316, 2
70317, 70320, 2
70317, 70318, 8
70317, 70319, 1
