217915, 217914, 2
217915, 217916, 1
217918, 217919, 1
217918, 217917, 2
217918, 217916, 2
217923, 217920, 2
217923, 217921, 2
217923, 217922, 2
217921, 217920, 2
217921, 217923, 1
217921, 217922, 3
217911, 217910, 2
217911, 217912, 1
217919, 217918, 2
217919, 217920, 1
217912, 217911, 2
217912, 217913, 0
217912, 217914, 1
217907, 217908, 1
217917, 217918, 1
217917, 217916, 2
217913, 217914, 2
217913, 217912, 2
217908, 217907, 2
217908, 217909, 1
217920, 217919, 2
217920, 217923, 2
217920, 217921, 1
217920, 217922, 2
217909, 217910, 1
217909, 217908, 2
217910, 217911, 1
217910, 217909, 2
217914, 217915, 1
217914, 217912, 2
217914, 217913, 2
217922, 217920, 2
217922, 217923, 2
217922, 217921, 2
217916, 217915, 2
217916, 217918, 2
217916, 217917, 1
