184977, 184974, 2
184977, 184976, 2
184977, 184978, 1
184977, 184975, 2
184972, 184973, 1
184976, 184974, 2
184976, 184977, 1
184976, 184975, 2
184973, 184972, 2
184973, 184974, 1
184978, 184979, 1
184978, 184977, 2
184975, 184974, 2
184975, 184976, 2
184975, 184977, 2
184979, 184978, 2
184979, 184980, 1
184980, 184979, 2
184980, 184981, 1
184982, 184981, 2
184981, 184982, 1
184981, 184980, 2
184974, 184976, 1
184974, 184977, 2
184974, 184973, 2
184974, 184975, 8
