16160, 16159, 2
16160, 16161, 2
16160, 16162, 2
16160, 16158, 2
16156, 16157, 1
16156, 16155, 2
16158, 16160, 2
16158, 16157, 2
16158, 16159, 1
16158, 16162, 2
16157, 16156, 2
16157, 16158, 1
16161, 16160, 2
16161, 16162, 2
16161, 16164, 2
16161, 16163, 2
16155, 16156, 1
16163, 16162, 2
16163, 16161, 2
16163, 16164, 2
16159, 16160, 3
16159, 16162, 1
16159, 16164, 2
16159, 16158, 2
16164, 16165, 1
16164, 16159, 2
16164, 16161, 2
16164, 16162, 2
16164, 16163, 2
16164, 16166, 2
16162, 16160, 2
16162, 16164, 1
16162, 16158, 2
16162, 16159, 2
16162, 16161, 2
16162, 16163, 3
16165, 16166, 1
16165, 16164, 2
16166, 16165, 2
16166, 16164, 2
