126380, 126375, 2
126380, 126377, 2
126380, 126381, 1
126380, 126373, 2
126380, 126379, 2
126383, 126376, 2
126383, 126384, 1
126383, 126373, 2
126383, 126382, 2
126383, 126375, 2
126383, 126379, 2
126383, 126381, 2
126383, 126372, 2
126383, 126378, 2
126372, 126371, 2
126372, 126383, 2
126372, 126369, 2
126372, 126373, 1
126372, 126367, 2
126372, 126376, 2
126372, 126381, 2
126372, 126374, 2
126372, 126384, 2
126372, 126366, 2
126372, 126370, 2
126372, 126375, 2
126372, 126379, 2
126372, 126378, 2
126369, 126371, 2
126369, 126372, 2
126369, 126366, 2
126369, 126368, 2
126369, 126370, 2
126369, 126367, 2
126387, 126376, 2
126387, 126388, 1
126387, 126393, 2
126387, 126373, 2
126387, 126381, 2
126387, 126390, 2
126387, 126386, 2
126387, 126378, 2
126387, 126385, 2
126387, 126384, 2
126391, 126390, 2
126391, 126393, 2
126391, 126392, 1
126390, 126389, 2
126390, 126393, 2
126390, 126387, 2
126390, 126391, 1
126385, 126387, 2
126385, 126384, 2
126385, 126386, 1
126385, 126381, 2
126393, 126389, 2
126393, 126388, 2
126393, 126392, 2
126393, 126390, 2
126393, 126387, 2
126393, 126391, 2
126392, 126393, 0
126392, 126391, 2
126368, 126371, 2
126368, 126366, 2
126368, 126369, 1
126368, 126370, 2
126368, 126367, 2
126368, 126362, 2
126364, 126365, 2
126364, 126360, 2
126364, 126366, 1
126364, 126363, 2
126364, 126362, 2
126389, 126390, 1
126389, 126388, 2
126389, 126393, 2
126370, 126371, 0
126370, 126372, 1
126370, 126369, 2
126370, 126368, 2
126370, 126367, 2
126370, 126366, 2
126388, 126389, 1
126388, 126393, 2
126388, 126387, 2
126379, 126380, 2
126379, 126383, 2
126379, 126372, 2
126379, 126373, 2
126379, 126377, 2
126379, 126375, 2
126379, 126381, 2
126361, 126365, 2
126361, 126363, 2
126361, 126360, 4
126361, 126362, 1
126371, 126370, 2
126371, 126372, 2
126371, 126368, 2
126371, 126369, 2
126371, 126366, 2
126377, 126380, 1
126377, 126375, 2
126377, 126379, 8
126377, 126373, 2
126373, 126380, 2
126373, 126383, 1
126373, 126372, 2
126373, 126377, 2
126373, 126387, 2
126373, 126376, 4
126373, 126379, 2
126373, 126374, 6
126373, 126384, 2
126373, 126382, 8
126373, 126375, 2
126373, 126381, 2
126373, 126378, 2
126363, 126361, 2
126363, 126360, 2
126363, 126364, 2
126363, 126365, 1
126363, 126362, 2
126363, 126366, 2
126365, 126362, 2
126365, 126363, 2
126365, 126360, 2
126365, 126364, 2
126365, 126361, 2
126365, 126366, 2
126367, 126370, 2
126367, 126372, 2
126367, 126368, 2
126367, 126369, 2
126367, 126366, 2
126376, 126383, 2
126376, 126372, 2
126376, 126386, 2
126376, 126384, 2
126376, 126373, 2
126376, 126382, 2
126376, 126387, 2
126376, 126378, 0
126374, 126375, 1
126374, 126372, 2
126374, 126373, 2
126384, 126383, 2
126384, 126372, 2
126384, 126386, 2
126384, 126373, 2
126384, 126385, 1
126384, 126378, 2
126384, 126387, 2
126384, 126376, 2
126384, 126381, 2
126386, 126376, 2
126386, 126384, 2
126386, 126387, 1
126386, 126385, 2
126386, 126381, 2
126366, 126363, 2
126366, 126371, 2
126366, 126372, 2
126366, 126369, 2
126366, 126368, 0
126366, 126364, 2
126366, 126370, 1
126366, 126365, 2
126366, 126360, 2
126366, 126367, 3
126366, 126362, 2
126360, 126366, 2
126360, 126363, 1
126360, 126364, 2
126360, 126365, 2
126360, 126361, 2
126360, 126362, 2
126382, 126383, 2
126382, 126378, 2
126382, 126381, 2
126382, 126373, 2
126382, 126376, 2
126375, 126380, 2
126375, 126383, 2
126375, 126372, 2
126375, 126373, 2
126375, 126377, 1
126375, 126374, 2
126375, 126379, 2
126381, 126380, 2
126381, 126383, 2
126381, 126372, 2
126381, 126386, 2
126381, 126373, 2
126381, 126382, 2
126381, 126387, 2
126381, 126385, 2
126381, 126379, 2
126381, 126384, 2
126362, 126363, 2
126362, 126366, 2
126362, 126368, 2
126362, 126364, 1
126362, 126365, 2
126362, 126360, 2
126362, 126361, 2
126378, 126383, 2
126378, 126372, 2
126378, 126373, 2
126378, 126382, 2
126378, 126387, 2
126378, 126376, 2
126378, 126384, 2
