294691, 294687, 2
294691, 294693, 2
294691, 294690, 2
294691, 294692, 1
294691, 294689, 2
294687, 294690, 2
294687, 294691, 2
294687, 294688, 3
294687, 294689, 1
294687, 294686, 2
294694, 294695, 1
294694, 294693, 2
294693, 294695, 2
294693, 294692, 2
294693, 294694, 1
294693, 294691, 2
294689, 294687, 2
294689, 294691, 1
294689, 294688, 2
294689, 294690, 3
294685, 294688, 2
294685, 294686, 1
294695, 294694, 2
294695, 294693, 2
294690, 294687, 2
294690, 294688, 2
294690, 294689, 2
294690, 294691, 2
294688, 294687, 2
294688, 294686, 2
294688, 294690, 2
294688, 294689, 2
294688, 294685, 2
294692, 294693, 1
294692, 294691, 2
294686, 294687, 1
294686, 294688, 2
294686, 294685, 2
