134127, 134123, 2
134127, 134124, 2
134127, 134125, 2
134127, 134126, 2
134127, 134122, 2
134125, 134124, 2
134125, 134126, 1
134125, 134127, 2
134123, 134124, 1
134123, 134127, 2
134123, 134122, 2
134122, 134123, 1
134122, 134127, 2
134126, 134124, 2
134126, 134127, 3
134126, 134125, 2
134124, 134123, 2
134124, 134125, 1
134124, 134126, 2
134124, 134127, 2
