124334, 124328, 2
124334, 124343, 2
124334, 124327, 2
124334, 124335, 1
124334, 124333, 2
124334, 124332, 2
124322, 124326, 2
124322, 124325, 2
124322, 124324, 2
124322, 124328, 2
124322, 124327, 2
124322, 124321, 2
124322, 124323, 1
124328, 124334, 2
124328, 124325, 2
124328, 124322, 2
124328, 124339, 2
124328, 124346, 2
124328, 124333, 2
124328, 124326, 2
124328, 124336, 2
124328, 124330, 2
124328, 124324, 2
124328, 124340, 2
124328, 124338, 2
124328, 124329, 2
124328, 124332, 2
124339, 124340, 1
124339, 124338, 2
124339, 124341, 2
124339, 124328, 2
124320, 124319, 2
124320, 124321, 1
124320, 124325, 2
124320, 124327, 2
124342, 124341, 2
124342, 124345, 2
124342, 124343, 0
124342, 124327, 2
124342, 124346, 1
124342, 124344, 2
124330, 124326, 2
124330, 124325, 2
124330, 124324, 2
124330, 124328, 2
124330, 124331, 2
124330, 124329, 2
124330, 124333, 2
124330, 124332, 2
124324, 124326, 2
124324, 124325, 4
124324, 124322, 2
124324, 124328, 2
124324, 124343, 2
124324, 124327, 6
124324, 124323, 2
124324, 124329, 1
124324, 124330, 2
124340, 124341, 2
124340, 124338, 2
124340, 124339, 2
124340, 124346, 2
124340, 124328, 2
124335, 124334, 2
124335, 124336, 1
124323, 124327, 2
124323, 124325, 2
124323, 124322, 2
124323, 124324, 1
124329, 124326, 2
124329, 124325, 2
124329, 124330, 3
124329, 124324, 2
124329, 124328, 2
124329, 124343, 2
124329, 124327, 2
124329, 124331, 1
124329, 124333, 2
124329, 124332, 2
124332, 124334, 1
124332, 124330, 2
124332, 124328, 2
124332, 124327, 2
124332, 124331, 2
124332, 124329, 2
124332, 124333, 3
124325, 124320, 2
124325, 124326, 1
124325, 124330, 2
124325, 124324, 2
124325, 124328, 2
124325, 124319, 2
124325, 124321, 2
124325, 124323, 2
124325, 124329, 2
124325, 124333, 2
124325, 124322, 2
124346, 124342, 2
124346, 124341, 2
124346, 124345, 2
124346, 124328, 2
124346, 124343, 2
124346, 124340, 2
124346, 124344, 2
124327, 124334, 2
124327, 124322, 2
124327, 124324, 2
124327, 124342, 2
124327, 124320, 2
124327, 124336, 2
124327, 124341, 2
124327, 124345, 2
124327, 124337, 2
124327, 124343, 2
124327, 124319, 2
124327, 124331, 2
124327, 124338, 2
124327, 124323, 2
124327, 124329, 2
124327, 124332, 2
124344, 124343, 2
124344, 124342, 2
124344, 124346, 2
124344, 124345, 1
124333, 124334, 2
124333, 124325, 2
124333, 124330, 2
124333, 124328, 2
124333, 124329, 2
124333, 124332, 2
124326, 124325, 2
124326, 124322, 2
124326, 124324, 2
124326, 124328, 1
124326, 124330, 2
124326, 124329, 2
124336, 124343, 2
124336, 124327, 2
124336, 124335, 2
124336, 124328, 2
124336, 124337, 1
124341, 124342, 1
124341, 124346, 2
124341, 124327, 2
124341, 124343, 2
124341, 124340, 2
124341, 124338, 2
124341, 124339, 2
124345, 124327, 2
124345, 124342, 2
124345, 124346, 2
124345, 124344, 2
124337, 124327, 2
124337, 124336, 2
124337, 124338, 1
124343, 124334, 2
124343, 124342, 2
124343, 124346, 2
124343, 124341, 2
124343, 124324, 2
124343, 124327, 2
124343, 124338, 2
124343, 124344, 1
124343, 124336, 2
124343, 124329, 2
124319, 124320, 1
124319, 124327, 2
124319, 124325, 2
124321, 124320, 2
124321, 124325, 2
124321, 124322, 1
124338, 124341, 1
124338, 124328, 2
124338, 124337, 2
124338, 124327, 2
124338, 124343, 2
124338, 124340, 2
124338, 124339, 3
124331, 124327, 2
124331, 124330, 2
124331, 124329, 2
124331, 124332, 1
