186369, 186370, 1
186369, 186371, 2
186370, 186369, 2
186370, 186372, 1
186370, 186373, 2
186370, 186371, 8
186373, 186370, 2
186373, 186372, 2
186373, 186371, 2
186372, 186370, 2
186372, 186373, 1
186372, 186371, 2
186371, 186369, 2
186371, 186370, 2
186371, 186373, 2
186371, 186372, 2
