301710, 301708, 2
301710, 301712, 2
301710, 301709, 2
301710, 301711, 2
301706, 301707, 1
301706, 301705, 2
301705, 301706, 1
301705, 301707, 2
301708, 301711, 2
301708, 301710, 2
301708, 301707, 2
301708, 301709, 1
301711, 301708, 2
301711, 301710, 2
301711, 301712, 1
301711, 301709, 2
301707, 301708, 1
301707, 301706, 2
301707, 301705, 2
301712, 301710, 2
301712, 301711, 2
301709, 301708, 2
301709, 301710, 8
301709, 301711, 1
