169148, 169149, 1
169148, 169140, 2
169148, 169161, 2
169148, 169135, 2
169148, 169146, 2
169167, 169168, 1
169167, 169169, 2
169167, 169156, 2
169167, 169164, 2
169167, 169165, 2
169167, 169149, 2
169167, 169163, 2
169167, 169172, 2
169167, 169152, 2
169167, 169160, 2
169167, 169173, 2
169167, 169161, 2
169167, 169166, 2
169167, 169171, 2
169167, 169147, 2
169141, 169136, 2
169141, 169133, 2
169141, 169143, 1
169141, 169128, 2
169141, 169126, 2
169141, 169127, 2
169141, 169139, 2
169141, 169135, 2
169141, 169138, 2
169141, 169140, 2
169141, 169130, 2
169141, 169137, 2
169141, 169131, 2
169136, 169141, 2
169136, 169135, 2
169136, 169138, 1
169136, 169143, 2
169136, 169140, 2
169136, 169134, 2
169136, 169131, 2
169136, 169132, 2
169158, 169161, 2
169158, 169157, 2
169158, 169159, 1
169158, 169156, 2
169158, 169152, 2
169172, 169167, 2
169172, 169170, 2
169172, 169174, 1
169172, 169171, 2
169172, 169169, 2
169172, 169173, 3
169124, 169125, 2
169124, 169126, 1
169159, 169160, 1
169159, 169152, 2
169159, 169158, 2
169159, 169161, 2
169145, 169125, 2
169145, 169135, 2
169145, 169138, 2
169145, 169140, 2
169145, 169142, 2
169145, 169147, 1
169132, 169139, 2
169132, 169135, 1
169132, 169136, 2
169132, 169133, 2
169132, 169134, 2
169132, 169137, 2
169132, 169131, 2
169132, 169138, 2
169157, 169150, 2
169157, 169156, 2
169157, 169158, 1
169157, 169151, 2
169157, 169154, 2
169157, 169152, 2
169157, 169147, 2
169157, 169155, 2
169164, 169167, 2
169164, 169161, 2
169164, 169162, 2
169164, 169149, 2
169164, 169163, 2
169164, 169165, 1
169164, 169166, 2
169164, 169160, 2
169129, 169125, 2
169129, 169130, 1
169129, 169134, 2
169129, 169128, 2
169133, 169141, 2
169133, 169134, 2
169133, 169128, 2
169133, 169126, 2
169133, 169127, 2
169133, 169139, 2
169133, 169135, 2
169133, 169140, 2
169133, 169130, 2
169133, 169137, 1
169133, 169142, 2
169133, 169131, 2
169133, 169132, 2
169160, 169167, 2
169160, 169161, 6
169160, 169159, 2
169160, 169164, 2
169160, 169162, 1
169160, 169163, 2
169160, 169152, 2
169160, 169147, 2
169128, 169125, 2
169128, 169141, 2
169128, 169134, 2
169128, 169129, 1
169128, 169133, 2
169128, 169130, 2
169128, 169142, 2
169128, 169127, 2
169152, 169167, 2
169152, 169135, 2
169152, 169156, 2
169152, 169154, 2
169152, 169158, 2
169152, 169150, 2
169152, 169160, 2
169152, 169155, 2
169152, 169153, 2
169152, 169159, 2
169152, 169140, 2
169152, 169151, 2
169152, 169157, 2
169152, 169147, 2
169125, 169131, 2
169125, 169135, 2
169125, 169129, 2
169125, 169127, 2
169125, 169134, 2
169125, 169126, 2
169125, 169145, 2
169125, 169142, 2
169125, 169128, 2
169125, 169130, 2
169125, 169124, 2
169168, 169167, 2
169168, 169169, 1
169162, 169160, 2
169162, 169161, 2
169162, 169164, 2
169162, 169163, 1
169174, 169170, 2
169174, 169172, 2
169174, 169173, 2
169151, 169135, 2
169151, 169149, 2
169151, 169153, 1
169151, 169157, 2
169151, 169140, 2
169151, 169150, 2
169151, 169154, 2
169151, 169152, 2
169154, 169151, 2
169154, 169153, 2
169154, 169157, 2
169154, 169156, 2
169154, 169149, 2
169154, 169150, 2
169154, 169152, 2
169154, 169155, 1
169130, 169125, 2
169130, 169141, 2
169130, 169129, 2
169130, 169133, 2
169130, 169128, 2
169130, 169131, 1
169169, 169167, 2
169169, 169168, 2
169169, 169170, 1
169169, 169171, 2
169169, 169172, 2
169169, 169173, 2
169173, 169167, 2
169173, 169170, 2
169173, 169174, 2
169173, 169171, 2
169173, 169172, 2
169173, 169169, 2
169143, 169141, 2
169143, 169135, 2
169143, 169136, 2
169143, 169144, 1
169143, 169150, 2
169143, 169140, 2
169126, 169125, 4
169126, 169141, 2
169126, 169134, 2
169126, 169133, 2
169126, 169124, 2
169126, 169142, 2
169126, 169127, 1
169155, 169154, 2
169155, 169157, 2
169155, 169156, 1
169155, 169152, 2
169161, 169167, 2
169161, 169148, 2
169161, 169159, 2
169161, 169158, 2
169161, 169164, 2
169161, 169162, 2
169161, 169149, 2
169161, 169163, 2
169161, 169156, 2
169161, 169160, 2
169161, 169166, 2
169138, 169135, 2
169138, 169139, 2
169138, 169141, 2
169138, 169134, 2
169138, 169136, 2
169138, 169140, 2
169138, 169145, 2
169138, 169142, 2
169138, 169131, 2
169138, 169132, 2
169163, 169167, 1
169163, 169161, 2
169163, 169164, 0
169163, 169165, 2
169163, 169166, 2
169163, 169162, 2
169163, 169160, 2
169140, 169148, 2
169140, 169141, 6
169140, 169134, 2
169140, 169136, 2
169140, 169137, 2
169140, 169133, 2
169140, 169149, 2
169140, 169144, 2
169140, 169146, 2
169140, 169152, 2
169140, 169150, 1
169140, 169143, 2
169140, 169135, 2
169140, 169138, 2
169140, 169151, 2
169140, 169145, 2
169140, 169142, 4
169140, 169147, 2
169140, 169139, 2
169134, 169136, 1
169134, 169129, 2
169134, 169133, 2
169134, 169150, 2
169134, 169128, 2
169134, 169131, 2
169134, 169125, 2
169134, 169135, 2
169134, 169138, 2
169134, 169140, 2
169134, 169142, 2
169134, 169126, 2
169134, 169132, 2
169137, 169139, 1
169137, 169141, 2
169137, 169135, 2
169137, 169133, 2
169137, 169140, 2
169137, 169142, 2
169137, 169131, 2
169137, 169132, 2
169142, 169145, 1
169142, 169134, 2
169142, 169133, 2
169142, 169150, 2
169142, 169128, 2
169142, 169131, 2
169142, 169125, 2
169142, 169135, 2
169142, 169138, 2
169142, 169140, 2
169142, 169137, 2
169142, 169126, 2
169142, 169139, 2
169156, 169167, 2
169156, 169161, 2
169156, 169157, 2
169156, 169158, 2
169156, 169149, 2
169156, 169154, 2
169156, 169152, 2
169156, 169150, 2
169156, 169155, 2
169165, 169167, 2
169165, 169166, 1
169165, 169164, 2
169165, 169163, 2
169150, 169157, 1
169150, 169134, 2
169150, 169156, 2
169150, 169146, 2
169150, 169149, 2
169150, 169144, 2
169150, 169152, 3
169150, 169143, 2
169150, 169153, 2
169150, 169135, 2
169150, 169140, 2
169150, 169151, 0
169150, 169154, 2
169150, 169142, 2
169150, 169147, 2
169166, 169167, 2
169166, 169161, 2
169166, 169163, 2
169166, 169164, 2
169166, 169165, 2
169146, 169148, 1
169146, 169144, 2
169146, 169150, 2
169146, 169149, 2
169146, 169140, 2
169131, 169141, 2
169131, 169134, 2
169131, 169136, 2
169131, 169133, 2
169131, 169125, 2
169131, 169135, 2
169131, 169138, 2
169131, 169130, 2
169131, 169137, 2
169131, 169142, 2
169131, 169139, 2
169131, 169132, 1
169149, 169148, 2
169149, 169167, 2
169149, 169156, 2
169149, 169164, 2
169149, 169146, 2
169149, 169150, 2
169149, 169161, 2
169149, 169153, 2
169149, 169135, 2
169149, 169140, 2
169149, 169151, 2
169149, 169154, 2
169153, 169151, 2
169153, 169154, 1
169153, 169152, 2
169153, 169149, 2
169153, 169150, 2
169170, 169171, 1
169170, 169169, 2
169170, 169172, 2
169170, 169174, 2
169170, 169173, 2
169135, 169148, 2
169135, 169141, 2
169135, 169134, 4
169135, 169136, 2
169135, 169133, 6
169135, 169150, 2
169135, 169142, 2
169135, 169138, 2
169135, 169152, 2
169135, 169147, 2
169135, 169149, 2
169135, 169125, 2
169135, 169151, 2
169135, 169140, 1
169135, 169145, 2
169135, 169137, 2
169135, 169143, 2
169135, 169131, 2
169135, 169139, 2
169135, 169132, 2
169144, 169143, 2
169144, 169140, 2
169144, 169150, 2
169144, 169146, 1
169171, 169167, 2
169171, 169170, 2
169171, 169172, 1
169171, 169169, 2
169171, 169173, 2
169127, 169125, 2
169127, 169128, 1
169127, 169141, 2
169127, 169126, 2
169127, 169133, 2
169147, 169167, 2
169147, 169135, 2
169147, 169157, 2
169147, 169160, 2
169147, 169150, 2
169147, 169140, 2
169147, 169145, 2
169147, 169152, 2
169139, 169141, 2
169139, 169135, 2
169139, 169138, 2
169139, 169133, 2
169139, 169140, 2
169139, 169137, 2
169139, 169142, 2
169139, 169131, 2
169139, 169132, 2
