15308, 15309, 1
15308, 15310, 2
15315, 15316, 3
15315, 15311, 2
15315, 15312, 2
15315, 15314, 2
15310, 15309, 2
15310, 15308, 2
15310, 15311, 1
15311, 15313, 2
15311, 15315, 2
15311, 15310, 2
15311, 15312, 1
15314, 15313, 2
15314, 15315, 2
15313, 15311, 2
15313, 15312, 2
15313, 15314, 3
15309, 15308, 2
15309, 15310, 1
15316, 15315, 2
15312, 15313, 3
15312, 15315, 2
15312, 15311, 2
