217881, 217882, 2
217881, 217887, 2
217881, 217880, 2
217878, 217874, 2
217878, 217879, 2
217878, 217876, 2
217878, 217880, 2
217878, 217877, 2
217887, 217881, 2
217887, 217885, 2
217887, 217886, 2
217887, 217884, 2
217887, 217888, 2
217887, 217883, 2
217887, 217889, 2
217876, 217878, 2
217876, 217875, 2
217876, 217877, 1
217876, 217874, 2
217876, 217873, 2
217876, 217880, 2
217877, 217882, 2
217877, 217878, 3
217877, 217876, 2
217877, 217880, 1
217882, 217881, 2
217882, 217883, 1
217882, 217880, 2
217882, 217877, 2
217883, 217885, 2
217883, 217882, 2
217883, 217887, 2
217883, 217886, 2
217883, 217884, 1
217888, 217887, 2
217888, 217886, 2
217888, 217889, 1
217885, 217886, 1
217885, 217887, 2
217885, 217883, 2
217885, 217884, 2
217875, 217874, 2
217875, 217876, 1
217875, 217873, 2
217886, 217885, 2
217886, 217884, 2
217886, 217887, 8
217886, 217883, 2
217886, 217888, 1
217884, 217885, 1
217884, 217887, 2
217884, 217883, 2
217884, 217886, 2
217874, 217878, 2
217874, 217876, 2
217874, 217875, 2
217874, 217873, 2
217879, 217878, 2
217879, 217880, 2
217873, 217875, 1
217873, 217874, 3
217873, 217876, 2
217880, 217881, 3
217880, 217878, 2
217880, 217876, 2
217880, 217877, 2
217880, 217882, 1
217880, 217879, 2
217889, 217887, 2
217889, 217888, 2
