295416, 295415, 2
295416, 295417, 1
295407, 295409, 2
295407, 295408, 1
295407, 295410, 2
295410, 295411, 1
295410, 295409, 2
295410, 295407, 2
295410, 295412, 2
295410, 295408, 2
295414, 295413, 2
295414, 295415, 1
295413, 295414, 1
295413, 295412, 2
295415, 295416, 1
295415, 295414, 2
295412, 295413, 1
295412, 295411, 2
295412, 295410, 2
295419, 295418, 2
295419, 295420, 1
295408, 295409, 1
295408, 295407, 2
295408, 295410, 2
295409, 295408, 2
295409, 295407, 2
295409, 295410, 1
295417, 295416, 2
295417, 295418, 1
295411, 295412, 1
295411, 295410, 2
295420, 295419, 2
295418, 295419, 1
295418, 295417, 2
