336354, 336355, 1
336354, 336353, 2
336358, 336359, 1
336358, 336357, 2
336358, 336356, 2
336343, 336341, 2
336343, 336344, 1
336343, 336345, 2
336343, 336342, 2
336348, 336347, 2
336348, 336350, 1
336348, 336349, 3
336351, 336352, 1
336351, 336350, 2
336351, 336353, 2
336351, 336349, 2
336355, 336354, 2
336355, 336357, 2
336355, 336356, 1
336353, 336354, 1
336353, 336351, 2
336353, 336352, 2
336341, 336343, 2
336341, 336342, 1
336344, 336345, 1
336344, 336343, 2
336342, 336341, 2
336342, 336343, 1
336346, 336347, 1
336346, 336345, 2
336360, 336359, 2
336356, 336355, 2
336356, 336358, 2
336356, 336357, 1
336359, 336358, 2
336359, 336360, 1
336352, 336351, 2
336352, 336353, 1
336357, 336355, 2
336357, 336358, 1
336357, 336356, 2
336347, 336346, 2
336347, 336348, 1
336350, 336351, 1
336350, 336349, 2
336350, 336348, 2
336345, 336344, 2
336345, 336346, 1
336345, 336343, 2
336349, 336351, 2
336349, 336350, 2
336349, 336348, 2
