295529, 295532, 2
295529, 295527, 2
295529, 295530, 2
295529, 295531, 2
295529, 295528, 2
295527, 295529, 2
295527, 295531, 2
295527, 295528, 1
295527, 295525, 2
295527, 295526, 2
295532, 295529, 2
295532, 295528, 2
295532, 295530, 2
295532, 295531, 2
295528, 295529, 3
295528, 295527, 2
295528, 295530, 8
295528, 295531, 1
295528, 295532, 2
295520, 295521, 1
295520, 295519, 2
295519, 295521, 2
295519, 295520, 1
295526, 295527, 1
295526, 295525, 2
295523, 295521, 2
295523, 295525, 2
295523, 295522, 2
295523, 295524, 2
295531, 295529, 2
295531, 295532, 1
295531, 295530, 2
295531, 295528, 2
295531, 295527, 2
295522, 295521, 2
295522, 295523, 8
295522, 295525, 2
295522, 295524, 1
295530, 295529, 2
295530, 295532, 2
295530, 295531, 2
295530, 295528, 2
295524, 295523, 2
295524, 295525, 1
295524, 295522, 2
295521, 295523, 2
295521, 295520, 2
295521, 295519, 2
295521, 295522, 1
295525, 295527, 2
295525, 295523, 2
295525, 295524, 2
295525, 295522, 2
295525, 295526, 1
