166489, 166486, 2
166489, 166488, 2
166489, 166487, 2
166486, 166489, 2
166486, 166488, 2
166486, 166487, 1
166488, 166489, 3
166488, 166486, 2
166488, 166487, 2
166487, 166489, 2
166487, 166486, 2
166487, 166488, 1
