72415, 72414, 2
72415, 72416, 2
72415, 72413, 2
72412, 72413, 2
72412, 72411, 2
72414, 72415, 8
72414, 72413, 2
72414, 72416, 1
72411, 72412, 0
72411, 72413, 1
72413, 72415, 2
72413, 72412, 2
72413, 72414, 1
72413, 72411, 2
72416, 72415, 2
72416, 72418, 1
72416, 72414, 2
72416, 72417, 3
72417, 72418, 2
72417, 72416, 2
72418, 72416, 2
72418, 72417, 2
