334878, 334879, 3
334878, 334883, 2
334878, 334881, 1
334878, 334877, 2
334888, 334889, 1
334888, 334887, 2
334876, 334877, 1
334880, 334881, 2
334880, 334879, 2
334881, 334878, 2
334881, 334882, 3
334881, 334880, 2
334881, 334879, 2
334881, 334883, 1
334881, 334877, 2
334879, 334878, 2
334879, 334880, 2
334879, 334881, 2
334879, 334877, 2
334889, 334890, 1
334889, 334888, 2
334883, 334878, 2
334883, 334882, 2
334883, 334884, 1
334883, 334881, 2
334877, 334878, 1
334877, 334876, 2
334877, 334881, 2
334877, 334879, 2
334882, 334883, 2
334882, 334881, 2
334890, 334889, 2
334886, 334885, 2
334886, 334884, 2
334886, 334887, 1
334885, 334886, 1
334885, 334884, 2
334885, 334887, 2
334884, 334886, 2
334884, 334885, 1
334884, 334883, 2
334884, 334887, 2
334887, 334886, 2
334887, 334885, 2
334887, 334888, 0
334887, 334884, 2
