17041, 17043, 2
17041, 17045, 2
17041, 17040, 2
17041, 17039, 2
17041, 17042, 2
17041, 17044, 2
17047, 17046, 2
17047, 17049, 1
17047, 17050, 2
17047, 17048, 0
17047, 17045, 2
17048, 17045, 2
17048, 17046, 2
17048, 17049, 2
17048, 17047, 2
17048, 17050, 2
17045, 17041, 2
17045, 17047, 2
17045, 17048, 2
17045, 17043, 2
17045, 17042, 2
17045, 17046, 2
17045, 17044, 2
17050, 17049, 2
17050, 17047, 2
17050, 17048, 2
17042, 17043, 1
17042, 17041, 2
17042, 17045, 2
17042, 17040, 2
17042, 17044, 2
17046, 17045, 2
17046, 17047, 1
17046, 17048, 2
17046, 17044, 2
17049, 17047, 2
17049, 17048, 2
17049, 17050, 1
17040, 17041, 0
17040, 17039, 2
17040, 17042, 1
17038, 17039, 1
17043, 17045, 2
17043, 17041, 2
17043, 17042, 2
17043, 17044, 1
17039, 17041, 2
17039, 17040, 1
17039, 17038, 2
17044, 17041, 2
17044, 17042, 2
17044, 17043, 2
17044, 17046, 1
17044, 17045, 0
