15358, 15359, 0
15358, 15361, 2
15358, 15360, 1
15359, 15358, 2
15359, 15361, 2
15359, 15360, 2
15367, 15366, 2
15360, 15358, 2
15360, 15359, 2
15360, 15361, 1
15361, 15358, 2
15361, 15359, 2
15361, 15360, 2
15361, 15362, 1
15362, 15361, 2
15362, 15363, 1
15366, 15365, 2
15366, 15367, 1
15365, 15366, 1
15365, 15364, 2
15363, 15362, 2
15363, 15364, 1
15364, 15365, 1
15364, 15363, 2
