118736, 118737, 1
118736, 118738, 2
118746, 118745, 2
118740, 118741, 1
118740, 118739, 2
118744, 118745, 1
118744, 118743, 2
118738, 118736, 2
118738, 118737, 2
118738, 118739, 1
118745, 118746, 1
118745, 118744, 2
118743, 118744, 1
118743, 118742, 2
118737, 118736, 2
118737, 118738, 1
118741, 118740, 2
118741, 118742, 1
118739, 118740, 1
118739, 118738, 2
118742, 118743, 1
118742, 118741, 2
