160624, 160626, 2
160624, 160625, 1
160624, 160623, 2
160628, 160625, 2
160628, 160627, 2
160623, 160624, 1
160623, 160622, 2
160623, 160621, 2
160626, 160624, 2
160626, 160625, 2
160626, 160627, 2
160622, 160621, 2
160622, 160623, 1
160625, 160626, 8
160625, 160624, 2
160625, 160627, 1
160625, 160628, 2
160627, 160626, 2
160627, 160625, 2
160627, 160628, 1
160621, 160622, 1
160621, 160623, 2
160621, 160620, 2
160620, 160621, 1
