65629, 65623, 2
65629, 65628, 2
65629, 65630, 2
65634, 65635, 1
65634, 65623, 2
65634, 65632, 2
65634, 65633, 2
65630, 65629, 2
65630, 65623, 2
65630, 65628, 2
65630, 65632, 2
65630, 65631, 1
65640, 65639, 2
65640, 65641, 1
65624, 65622, 2
65624, 65625, 1
65624, 65623, 2
65632, 65634, 2
65632, 65623, 2
65632, 65631, 2
65632, 65630, 2
65632, 65633, 1
65636, 65635, 2
65636, 65623, 2
65636, 65637, 1
65637, 65638, 3
65637, 65623, 2
65637, 65636, 2
65637, 65639, 1
65631, 65632, 1
65631, 65630, 2
65635, 65634, 2
65635, 65623, 2
65635, 65636, 1
65628, 65629, 0
65628, 65623, 2
65628, 65627, 2
65628, 65630, 1
65628, 65626, 2
65641, 65640, 2
65641, 65639, 2
65633, 65634, 1
65633, 65632, 2
65638, 65639, 2
65638, 65637, 2
65623, 65629, 2
65623, 65634, 2
65623, 65622, 2
65623, 65637, 2
65623, 65624, 2
65623, 65632, 2
65623, 65636, 2
65623, 65635, 2
65623, 65628, 2
65623, 65630, 2
65623, 65625, 2
65623, 65626, 2
65622, 65624, 1
65622, 65623, 6
65622, 65625, 2
65627, 65628, 1
65627, 65626, 2
65625, 65624, 2
65625, 65623, 2
65625, 65622, 2
65625, 65626, 1
65626, 65623, 2
65626, 65628, 2
65626, 65627, 1
65626, 65625, 2
65639, 65638, 2
65639, 65640, 1
65639, 65641, 2
65639, 65637, 2
