119935, 119936, 2
119935, 119933, 2
119935, 119934, 2
119935, 119939, 2
119935, 119938, 2
119935, 119937, 2
119936, 119935, 2
119936, 119933, 2
119936, 119937, 1
119936, 119934, 2
119936, 119938, 2
119940, 119942, 2
119940, 119939, 2
119940, 119944, 2
119940, 119938, 2
119940, 119943, 2
119940, 119937, 2
119940, 119941, 2
119939, 119935, 2
119939, 119938, 2
119939, 119940, 2
119939, 119937, 2
119938, 119935, 2
119938, 119936, 2
119938, 119940, 1
119938, 119939, 8
119938, 119933, 2
119938, 119937, 2
119938, 119941, 2
119943, 119942, 2
119943, 119940, 2
119943, 119937, 2
119943, 119944, 1
119937, 119935, 2
119937, 119936, 2
119937, 119940, 2
119937, 119938, 3
119937, 119942, 2
119937, 119939, 2
119937, 119944, 2
119937, 119933, 2
119937, 119943, 2
119937, 119941, 1
119942, 119940, 2
119942, 119944, 2
119942, 119943, 3
119942, 119937, 2
119942, 119946, 2
119942, 119941, 2
119934, 119935, 1
119934, 119936, 2
119934, 119933, 2
119945, 119946, 2
119945, 119944, 2
119944, 119942, 2
119944, 119940, 2
119944, 119945, 8
119944, 119943, 2
119944, 119937, 2
119944, 119946, 1
119933, 119936, 1
119933, 119938, 2
119933, 119937, 2
119933, 119935, 2
119933, 119934, 3
119946, 119942, 2
119946, 119945, 2
119946, 119944, 2
119941, 119938, 2
119941, 119942, 1
119941, 119940, 2
119941, 119937, 2
