221292, 221293, 2
221292, 221291, 2
221292, 221294, 2
221294, 221292, 2
221294, 221291, 2
221294, 221295, 3
221294, 221293, 2
221291, 221292, 3
221291, 221294, 1
221291, 221293, 8
221295, 221293, 2
221295, 221294, 2
221293, 221292, 2
221293, 221291, 2
221293, 221295, 2
221293, 221294, 2
