255087, 255086, 2
255087, 255088, 1
255097, 255100, 1
255097, 255093, 2
255097, 255090, 2
255097, 255092, 2
255097, 255094, 2
255097, 255089, 2
255097, 255091, 2
255097, 255099, 0
255097, 255088, 2
255092, 255097, 2
255092, 255093, 2
255092, 255090, 2
255092, 255085, 2
255092, 255094, 2
255092, 255089, 2
255092, 255086, 2
255092, 255095, 2
255092, 255099, 2
255092, 255096, 2
255092, 255088, 2
255105, 255093, 2
255105, 255106, 0
255105, 255094, 2
255105, 255098, 2
255105, 255109, 2
255105, 255096, 2
255105, 255108, 2
255105, 255102, 2
255088, 255087, 2
255088, 255097, 2
255088, 255090, 2
255088, 255092, 2
255088, 255094, 2
255088, 255089, 1
255088, 255086, 2
255088, 255091, 2
255088, 255093, 2
255091, 255097, 2
255091, 255093, 2
255091, 255090, 2
255091, 255088, 2
255091, 255089, 2
255091, 255086, 2
255091, 255095, 2
255091, 255094, 2
255095, 255093, 2
255095, 255090, 2
255095, 255092, 2
255095, 255094, 2
255095, 255089, 2
255095, 255091, 2
255095, 255098, 2
255095, 255096, 1
255095, 255102, 2
255085, 255086, 2
255085, 255092, 2
255085, 255084, 2
255100, 255097, 2
255100, 255093, 2
255100, 255101, 6
255100, 255103, 1
255100, 255094, 2
255100, 255089, 2
255100, 255099, 2
255093, 255097, 2
255093, 255092, 2
255093, 255105, 2
255093, 255094, 1
255093, 255091, 2
255093, 255095, 2
255093, 255102, 2
255093, 255100, 2
255093, 255089, 2
255093, 255090, 2
255093, 255107, 2
255093, 255103, 2
255093, 255099, 2
255093, 255088, 2
255101, 255100, 2
255101, 255103, 2
255101, 255094, 2
255101, 255099, 2
255107, 255104, 2
255107, 255093, 2
255107, 255094, 2
255103, 255100, 2
255103, 255093, 2
255103, 255101, 2
255103, 255094, 2
255103, 255099, 2
255103, 255104, 1
255086, 255087, 1
255086, 255092, 2
255086, 255088, 2
255086, 255091, 2
255086, 255084, 2
255086, 255085, 2
255102, 255093, 2
255102, 255105, 1
255102, 255094, 2
255102, 255095, 2
255102, 255098, 2
255102, 255096, 2
255084, 255086, 1
255084, 255085, 6
255104, 255107, 1
255104, 255103, 2
255104, 255094, 2
255094, 255097, 6
255094, 255092, 2
255094, 255105, 2
255094, 255088, 2
255094, 255091, 2
255094, 255095, 4
255094, 255109, 2
255094, 255096, 2
255094, 255102, 2
255094, 255100, 2
255094, 255093, 2
255094, 255101, 2
255094, 255107, 2
255094, 255103, 2
255094, 255099, 2
255094, 255104, 2
255094, 255106, 2
255094, 255098, 2
255094, 255108, 2
255089, 255097, 2
255089, 255093, 2
255089, 255090, 1
255089, 255092, 2
255089, 255088, 2
255089, 255100, 2
255089, 255099, 2
255089, 255091, 2
255089, 255095, 2
255109, 255106, 2
255109, 255105, 2
255109, 255094, 2
255109, 255108, 2
255096, 255092, 2
255096, 255105, 2
255096, 255094, 2
255096, 255095, 2
255096, 255098, 1
255096, 255102, 2
255090, 255097, 2
255090, 255089, 2
255090, 255092, 6
255090, 255088, 2
255090, 255093, 1
255090, 255091, 4
255090, 255095, 2
255090, 255099, 2
255099, 255097, 2
255099, 255100, 2
255099, 255101, 2
255099, 255092, 2
255099, 255103, 2
255099, 255094, 2
255099, 255089, 2
255099, 255093, 2
255099, 255090, 2
255106, 255109, 2
255106, 255105, 2
255106, 255094, 2
255106, 255108, 1
255098, 255094, 2
255098, 255095, 2
255098, 255105, 2
255098, 255096, 2
255098, 255102, 1
255108, 255105, 2
255108, 255106, 2
255108, 255094, 2
255108, 255109, 1
