130673, 130676, 2
130673, 130674, 1
130673, 130675, 2
130674, 130673, 2
130674, 130676, 2
130674, 130675, 1
130675, 130673, 2
130675, 130674, 2
130675, 130676, 0
130676, 130673, 2
130676, 130674, 2
130676, 130675, 2
