15544, 15545, 2
15544, 15541, 2
15544, 15546, 2
15544, 15543, 2
15539, 15540, 1
15539, 15538, 2
15539, 15541, 2
15538, 15540, 2
15538, 15539, 1
15538, 15541, 2
15541, 15544, 2
15541, 15539, 2
15541, 15542, 2
15541, 15540, 2
15541, 15546, 2
15541, 15538, 2
15541, 15543, 2
15540, 15543, 2
15540, 15539, 2
15540, 15538, 2
15540, 15542, 1
15540, 15541, 6
15545, 15544, 2
15545, 15546, 1
15545, 15543, 2
15546, 15544, 2
15546, 15543, 2
15546, 15545, 2
15546, 15541, 2
15542, 15540, 2
15542, 15541, 2
15542, 15543, 1
15543, 15544, 0
15543, 15541, 2
15543, 15540, 2
15543, 15546, 2
15543, 15545, 1
15543, 15542, 2
