197278, 197279, 2
197278, 197277, 2
197278, 197276, 2
197282, 197280, 2
197282, 197281, 2
197279, 197281, 2
197279, 197278, 2
197279, 197280, 1
197279, 197276, 2
197279, 197277, 2
197277, 197279, 2
197277, 197278, 1
197277, 197276, 2
197280, 197279, 2
197280, 197281, 3
197280, 197282, 1
197276, 197279, 1
197276, 197278, 2
197276, 197277, 0
197281, 197279, 2
197281, 197280, 2
197281, 197282, 2
