119876, 119874, 2
119876, 119884, 2
119876, 119877, 1
119876, 119875, 2
119876, 119873, 2
119886, 119885, 2
119886, 119887, 2
119886, 119883, 2
119884, 119876, 2
119884, 119885, 1
119884, 119882, 2
119884, 119887, 2
119884, 119883, 2
119884, 119880, 2
119884, 119878, 2
119884, 119873, 2
119880, 119874, 2
119880, 119881, 3
119880, 119882, 1
119880, 119884, 2
119880, 119878, 2
119880, 119879, 2
119879, 119880, 1
119879, 119878, 2
119873, 119874, 3
119873, 119884, 2
119873, 119876, 2
119873, 119875, 1
119874, 119876, 2
119874, 119881, 2
119874, 119875, 2
119874, 119877, 2
119874, 119880, 2
119874, 119873, 2
119885, 119884, 2
119885, 119883, 2
119885, 119887, 2
119885, 119886, 1
119881, 119874, 2
119881, 119882, 2
119881, 119887, 2
119881, 119880, 2
119881, 119878, 2
119875, 119874, 2
119875, 119876, 1
119875, 119873, 2
119882, 119884, 2
119882, 119883, 1
119882, 119880, 2
119882, 119881, 2
119882, 119887, 2
119877, 119874, 2
119877, 119876, 2
119877, 119878, 1
119883, 119882, 2
119883, 119884, 0
119883, 119885, 2
119883, 119887, 1
119883, 119886, 2
119887, 119885, 2
119887, 119881, 2
119887, 119886, 2
119887, 119882, 2
119887, 119884, 2
119887, 119883, 2
119878, 119884, 2
119878, 119880, 2
119878, 119881, 2
119878, 119879, 1
119878, 119877, 2
