300254, 300258, 2
300254, 300252, 2
300254, 300259, 1
300254, 300253, 2
300254, 300255, 3
300254, 300256, 0
300245, 300244, 2
300245, 300249, 2
300245, 300250, 1
300245, 300247, 0
300245, 300248, 2
300245, 300246, 3
300292, 300279, 2
300292, 300291, 2
300292, 300290, 2
300292, 300293, 1
300283, 300282, 2
300283, 300284, 1
300283, 300285, 2
300283, 300279, 2
300252, 300249, 2
300252, 300254, 1
300252, 300250, 2
300252, 300256, 2
300252, 300253, 8
300252, 300255, 2
300252, 300251, 2
300290, 300286, 2
300290, 300291, 1
300290, 300288, 2
300290, 300292, 2
300290, 300279, 2
300290, 300289, 2
300273, 300272, 2
300273, 300258, 2
300273, 300274, 1
300273, 300275, 2
300273, 300271, 2
300273, 300278, 2
300272, 300271, 2
300272, 300273, 2
300250, 300252, 2
300250, 300249, 2
300250, 300246, 2
300250, 300248, 2
300250, 300245, 2
300250, 300256, 2
300250, 300247, 2
300250, 300251, 1
300277, 300276, 2
300277, 300280, 2
300277, 300279, 2
300277, 300275, 2
300277, 300278, 2
300289, 300288, 2
300289, 300287, 2
300289, 300290, 2
300281, 300282, 1
300281, 300280, 2
300276, 300279, 2
300276, 300277, 3
300276, 300275, 2
300276, 300280, 1
300276, 300278, 0
300265, 300267, 1
300265, 300266, 3
300265, 300264, 2
300275, 300258, 2
300275, 300274, 2
300275, 300277, 2
300275, 300273, 2
300275, 300278, 2
300275, 300276, 1
300275, 300280, 2
300244, 300247, 2
300244, 300246, 2
300244, 300245, 1
300269, 300270, 8
300269, 300258, 2
300269, 300278, 2
300269, 300271, 1
300269, 300267, 2
300269, 300268, 2
300266, 300267, 2
300266, 300265, 2
300266, 300264, 2
300267, 300258, 2
300267, 300269, 2
300267, 300266, 2
300267, 300278, 2
300267, 300268, 1
300267, 300265, 2
300268, 300269, 1
300268, 300267, 2
300262, 300258, 2
300262, 300261, 2
300262, 300264, 2
300262, 300278, 2
300262, 300279, 2
300262, 300263, 1
300255, 300252, 2
300255, 300254, 2
300255, 300259, 2
300255, 300258, 2
300255, 300257, 2
300255, 300253, 2
300255, 300256, 2
300251, 300252, 1
300251, 300250, 2
300258, 300254, 2
300258, 300279, 2
300258, 300257, 2
300258, 300261, 2
300258, 300267, 2
300258, 300259, 2
300258, 300275, 2
300258, 300269, 2
300258, 300264, 2
300258, 300278, 2
300258, 300273, 2
300258, 300262, 2
300258, 300255, 2
300284, 300285, 1
300284, 300283, 2
300285, 300284, 2
300285, 300279, 2
300285, 300286, 1
300285, 300287, 2
300285, 300283, 2
300259, 300258, 2
300259, 300254, 2
300259, 300261, 2
300259, 300260, 1
300259, 300257, 2
300259, 300249, 2
300259, 300255, 2
300259, 300256, 2
300261, 300258, 2
300261, 300259, 2
300261, 300278, 2
300261, 300260, 2
300261, 300279, 2
300261, 300262, 1
300247, 300244, 2
300247, 300250, 2
300247, 300246, 2
300247, 300248, 1
300247, 300245, 2
300288, 300286, 2
300288, 300289, 3
300288, 300287, 2
300288, 300290, 1
300257, 300258, 1
300257, 300249, 2
300257, 300259, 2
300257, 300278, 2
300257, 300279, 2
300257, 300255, 2
300257, 300256, 2
300249, 300252, 2
300249, 300250, 2
300249, 300257, 2
300249, 300248, 2
300249, 300246, 2
300249, 300245, 2
300249, 300259, 2
300249, 300256, 2
300274, 300273, 2
300274, 300275, 1
300287, 300288, 2
300287, 300285, 2
300287, 300286, 2
300287, 300289, 2
300278, 300258, 2
300278, 300279, 1
300278, 300277, 2
300278, 300275, 2
300278, 300276, 2
300278, 300257, 2
300278, 300261, 2
300278, 300269, 2
300278, 300264, 2
300278, 300273, 2
300278, 300267, 2
300278, 300262, 2
300278, 300280, 2
300282, 300280, 2
300282, 300279, 2
300282, 300281, 2
300282, 300283, 1
300293, 300292, 2
300293, 300279, 2
300280, 300282, 2
300280, 300277, 2
300280, 300275, 2
300280, 300281, 1
300280, 300278, 2
300280, 300276, 2
300280, 300279, 2
300271, 300272, 3
300271, 300269, 2
300271, 300270, 2
300271, 300273, 1
300279, 300258, 2
300279, 300285, 2
300279, 300277, 2
300279, 300261, 2
300279, 300276, 2
300279, 300292, 2
300279, 300257, 2
300279, 300283, 2
300279, 300264, 2
300279, 300290, 2
300279, 300278, 2
300279, 300282, 2
300279, 300262, 2
300279, 300293, 2
300279, 300280, 2
300248, 300249, 1
300248, 300250, 2
300248, 300247, 2
300248, 300246, 2
300248, 300245, 2
300263, 300262, 2
300263, 300264, 1
300270, 300269, 2
300270, 300271, 2
300286, 300288, 1
300286, 300285, 2
300286, 300290, 2
300286, 300287, 8
300264, 300258, 2
300264, 300266, 2
300264, 300278, 2
300264, 300265, 1
300264, 300279, 2
300264, 300263, 2
300264, 300262, 2
300246, 300249, 2
300246, 300244, 2
300246, 300250, 2
300246, 300247, 2
300246, 300248, 2
300246, 300245, 2
300260, 300259, 2
300260, 300261, 1
300256, 300252, 2
300256, 300254, 2
300256, 300250, 2
300256, 300259, 2
300256, 300257, 1
300256, 300253, 2
300256, 300249, 2
300256, 300255, 2
300253, 300252, 2
300253, 300254, 2
300253, 300255, 2
300253, 300256, 2
300291, 300292, 1
300291, 300290, 2
