185178, 185177, 2
185178, 185179, 1
185180, 185181, 1
185180, 185179, 2
185181, 185180, 2
185181, 185182, 1
185187, 185186, 2
185187, 185189, 2
185187, 185188, 1
185184, 185183, 2
185184, 185185, 1
185188, 185189, 1
185188, 185187, 2
185182, 185183, 1
185182, 185181, 2
185183, 185184, 1
185183, 185182, 2
185177, 185178, 1
185177, 185179, 2
185189, 185187, 2
185189, 185188, 2
185185, 185184, 2
185185, 185186, 1
185179, 185178, 2
185179, 185177, 2
185179, 185180, 1
185186, 185185, 2
185186, 185187, 1
