295224, 295227, 1
295224, 295223, 2
295224, 295229, 2
295224, 295225, 3
295227, 295224, 2
295227, 295226, 2
295227, 295225, 2
295227, 295229, 2
295227, 295228, 1
295229, 295224, 2
295229, 295230, 2
295229, 295231, 2
295229, 295228, 2
295229, 295227, 2
295229, 295232, 2
295226, 295222, 2
295226, 295223, 2
295226, 295231, 2
295226, 295227, 2
295226, 295225, 2
295226, 295233, 2
295226, 295230, 2
295228, 295227, 2
295228, 295230, 1
295228, 295229, 6
295225, 295224, 2
295225, 295227, 2
295225, 295223, 2
295225, 295222, 2
295225, 295226, 3
295233, 295226, 2
295233, 295232, 2
295233, 295231, 2
295222, 295226, 2
295222, 295223, 1
295222, 295225, 2
295232, 295231, 2
295232, 295229, 2
295232, 295233, 3
295231, 295226, 2
295231, 295230, 2
295231, 295232, 1
295231, 295229, 2
295231, 295233, 2
295230, 295226, 2
295230, 295231, 1
295230, 295229, 2
295230, 295228, 2
295223, 295224, 1
295223, 295225, 2
295223, 295222, 2
295223, 295226, 2
