16636, 16634, 2
16636, 16632, 2
16636, 16639, 1
16636, 16637, 3
16636, 16633, 2
16636, 16635, 2
16636, 16641, 2
16634, 16636, 2
16634, 16632, 2
16634, 16633, 2
16634, 16635, 2
16640, 16639, 2
16640, 16638, 2
16640, 16641, 2
16639, 16640, 3
16639, 16637, 2
16639, 16636, 2
16639, 16638, 2
16639, 16641, 1
16629, 16631, 2
16629, 16630, 1
16635, 16637, 2
16635, 16636, 2
16635, 16634, 2
16638, 16640, 2
16638, 16639, 2
16638, 16641, 2
16638, 16637, 2
16641, 16640, 2
16641, 16639, 2
16641, 16636, 2
16641, 16638, 2
16641, 16637, 2
16632, 16636, 2
16632, 16634, 2
16632, 16633, 1
16632, 16631, 2
16630, 16629, 2
16630, 16631, 1
16637, 16639, 2
16637, 16636, 2
16637, 16638, 2
16637, 16635, 2
16637, 16641, 2
16633, 16636, 1
16633, 16634, 3
16633, 16632, 2
16631, 16629, 2
16631, 16632, 1
16631, 16630, 2
