196194, 196193, 2
196194, 196195, 2
196194, 196191, 2
196196, 196197, 1
196196, 196195, 2
196195, 196194, 2
196195, 196196, 1
196195, 196193, 2
196200, 196201, 2
196200, 196197, 2
196200, 196199, 2
196200, 196198, 2
196193, 196194, 3
196193, 196192, 2
196193, 196195, 1
196193, 196191, 2
196197, 196198, 1
196197, 196196, 2
196197, 196199, 2
196197, 196200, 2
196202, 196203, 1
196202, 196201, 2
196190, 196192, 1
196190, 196191, 3
196192, 196190, 2
196192, 196193, 1
196192, 196191, 2
196201, 196200, 2
196201, 196202, 1
196201, 196199, 2
196201, 196198, 2
196191, 196190, 2
196191, 196192, 2
196191, 196193, 2
196191, 196194, 2
196198, 196200, 2
196198, 196201, 2
196198, 196197, 2
196198, 196199, 1
196203, 196202, 2
196199, 196200, 3
196199, 196201, 1
196199, 196197, 2
196199, 196198, 2
