164549, 164547, 2
164549, 164546, 2
164549, 164548, 2
164549, 164550, 1
164546, 164552, 2
164546, 164549, 2
164546, 164542, 2
164546, 164532, 2
164546, 164547, 1
164546, 164530, 2
164546, 164536, 2
164546, 164540, 2
164546, 164545, 2
164546, 164538, 2
164546, 164555, 2
164546, 164539, 2
164546, 164551, 2
164546, 164553, 2
164546, 164531, 2
164546, 164548, 2
164532, 164533, 6
164532, 164544, 2
164532, 164538, 2
164532, 164546, 1
164532, 164530, 2
164532, 164536, 4
164532, 164548, 2
164532, 164540, 2
164532, 164537, 2
164532, 164545, 2
164532, 164541, 2
164532, 164542, 2
164532, 164539, 2
164532, 164543, 2
164532, 164531, 2
164532, 164535, 2
164532, 164534, 2
164530, 164538, 2
164530, 164546, 2
164530, 164539, 2
164530, 164532, 2
164530, 164533, 2
164530, 164531, 1
164530, 164536, 2
164530, 164529, 2
164530, 164534, 2
164536, 164552, 2
164536, 164546, 2
164536, 164539, 1
164536, 164532, 2
164536, 164530, 2
164536, 164531, 2
164548, 164545, 2
164548, 164549, 1
164548, 164546, 2
164548, 164547, 2
164548, 164532, 2
164548, 164544, 2
164552, 164536, 2
164552, 164531, 2
164552, 164546, 2
164552, 164539, 2
164552, 164547, 2
164541, 164545, 1
164541, 164542, 3
164541, 164543, 0
164541, 164544, 2
164541, 164532, 2
164541, 164540, 2
164542, 164545, 2
164542, 164541, 2
164542, 164546, 2
164542, 164543, 2
164542, 164532, 2
164542, 164544, 2
164542, 164540, 2
164539, 164552, 2
164539, 164546, 2
164539, 164547, 2
164539, 164532, 2
164539, 164530, 2
164539, 164536, 2
164551, 164547, 2
164551, 164546, 2
164551, 164553, 1
164551, 164550, 2
164553, 164546, 2
164553, 164551, 2
164553, 164547, 2
164553, 164555, 2
164553, 164556, 2
164553, 164554, 1
164557, 164556, 2
164557, 164547, 2
164535, 164538, 2
164535, 164531, 2
164535, 164537, 1
164535, 164532, 2
164535, 164534, 2
164533, 164538, 2
164533, 164532, 2
164533, 164530, 2
164533, 164531, 2
164533, 164529, 2
164533, 164534, 1
164550, 164549, 2
164550, 164551, 1
164550, 164547, 2
164544, 164545, 2
164544, 164541, 2
164544, 164542, 2
164544, 164543, 2
164544, 164532, 2
164544, 164548, 2
164538, 164546, 2
164538, 164532, 2
164538, 164533, 2
164538, 164530, 2
164538, 164531, 2
164538, 164534, 2
164538, 164537, 2
164538, 164540, 2
164538, 164535, 2
164540, 164541, 1
164540, 164546, 2
164540, 164532, 2
164540, 164538, 2
164540, 164537, 2
164540, 164542, 2
164537, 164538, 2
164537, 164532, 2
164537, 164531, 2
164537, 164535, 2
164537, 164540, 1
164537, 164534, 2
164545, 164541, 2
164545, 164546, 2
164545, 164547, 2
164545, 164532, 2
164545, 164544, 2
164545, 164548, 2
164545, 164542, 2
164555, 164556, 1
164555, 164546, 2
164555, 164547, 2
164555, 164553, 2
164555, 164554, 2
164556, 164547, 2
164556, 164557, 1
164556, 164555, 2
164556, 164553, 2
164556, 164554, 2
164543, 164541, 2
164543, 164542, 2
164543, 164532, 2
164543, 164544, 1
164531, 164552, 2
164531, 164538, 2
164531, 164535, 2
164531, 164546, 2
164531, 164532, 1
164531, 164533, 2
164531, 164530, 2
164531, 164536, 2
164531, 164537, 2
164531, 164534, 2
164547, 164545, 2
164547, 164549, 2
164547, 164546, 2
164547, 164553, 2
164547, 164550, 2
164547, 164556, 2
164547, 164552, 4
164547, 164539, 2
164547, 164551, 2
164547, 164555, 2
164547, 164557, 2
164547, 164548, 6
164547, 164554, 2
164529, 164530, 1
164529, 164533, 2
164554, 164556, 2
164554, 164547, 2
164554, 164555, 1
164554, 164553, 2
164534, 164538, 3
164534, 164533, 2
164534, 164532, 2
164534, 164530, 2
164534, 164531, 2
164534, 164537, 2
164534, 164535, 1
