171941, 171942, 2
171941, 171943, 2
171941, 171940, 2
171941, 171944, 2
171941, 171945, 2
171943, 171941, 2
171943, 171944, 1
171943, 171940, 2
171943, 171942, 2
171943, 171945, 2
171940, 171941, 0
171940, 171943, 2
171940, 171944, 2
171940, 171942, 3
171940, 171945, 1
171947, 171946, 2
171942, 171941, 2
171942, 171943, 1
171942, 171940, 2
171942, 171945, 2
171946, 171947, 1
171946, 171945, 2
171944, 171941, 2
171944, 171943, 2
171944, 171940, 2
171944, 171945, 2
171945, 171941, 2
171945, 171943, 2
171945, 171940, 2
171945, 171942, 2
171945, 171946, 1
171945, 171944, 2
