126877, 126878, 1
126877, 126876, 2
126884, 126883, 2
126884, 126885, 1
126884, 126886, 2
126869, 126867, 2
126869, 126870, 1
126869, 126868, 2
126862, 126863, 1
126862, 126864, 2
126874, 126873, 2
126874, 126870, 2
126874, 126875, 1
126874, 126872, 2
126874, 126871, 2
126874, 126868, 2
126891, 126892, 1
126891, 126890, 2
126891, 126889, 2
126891, 126893, 2
126864, 126863, 2
126864, 126868, 2
126864, 126862, 2
126864, 126866, 2
126864, 126865, 1
126864, 126871, 2
126886, 126884, 2
126886, 126887, 2
126886, 126890, 2
126886, 126888, 1
126886, 126885, 2
126881, 126882, 2
126881, 126883, 2
126881, 126880, 2
126897, 126892, 2
126897, 126895, 2
126897, 126894, 2
126897, 126893, 2
126897, 126890, 2
126897, 126896, 2
126872, 126874, 2
126872, 126873, 1
126872, 126870, 2
126872, 126871, 2
126882, 126881, 2
126882, 126883, 1
126882, 126880, 2
126882, 126879, 2
126875, 126874, 2
126875, 126876, 1
126888, 126887, 6
126888, 126889, 1
126888, 126886, 2
126865, 126868, 2
126865, 126864, 2
126865, 126866, 1
126878, 126877, 2
126878, 126879, 1
126892, 126895, 2
126892, 126893, 3
126892, 126897, 1
126892, 126894, 2
126892, 126896, 2
126892, 126890, 2
126892, 126891, 2
126895, 126892, 2
126895, 126897, 2
126895, 126893, 2
126895, 126894, 6
126895, 126896, 1
126863, 126864, 1
126863, 126862, 2
126868, 126870, 2
126868, 126869, 2
126868, 126866, 2
126868, 126893, 2
126868, 126874, 2
126868, 126867, 2
126868, 126865, 2
126868, 126864, 2
126880, 126881, 8
126880, 126882, 1
126880, 126879, 2
126893, 126892, 2
126893, 126895, 1
126893, 126897, 2
126893, 126868, 2
126893, 126894, 2
126893, 126889, 2
126893, 126891, 2
126883, 126884, 1
126883, 126881, 2
126883, 126882, 2
126890, 126892, 2
126890, 126897, 2
126890, 126887, 2
126890, 126889, 2
126890, 126891, 2
126890, 126886, 2
126885, 126884, 2
126885, 126886, 1
126879, 126882, 2
126879, 126878, 2
126879, 126880, 1
126876, 126877, 1
126876, 126875, 2
126894, 126892, 2
126894, 126895, 2
126894, 126897, 2
126894, 126896, 2
126894, 126893, 2
126873, 126874, 2
126873, 126870, 2
126873, 126872, 2
126870, 126873, 2
126870, 126868, 2
126870, 126871, 0
126870, 126872, 2
126870, 126874, 1
126870, 126869, 2
126870, 126867, 2
126866, 126868, 2
126866, 126865, 2
126866, 126867, 1
126866, 126864, 2
126896, 126892, 2
126896, 126895, 2
126896, 126897, 2
126896, 126894, 2
126887, 126889, 2
126887, 126888, 2
126887, 126890, 2
126887, 126886, 2
126889, 126887, 2
126889, 126890, 0
126889, 126891, 1
126889, 126888, 2
126889, 126893, 2
126867, 126868, 3
126867, 126870, 2
126867, 126869, 1
126867, 126871, 2
126867, 126866, 2
126871, 126874, 2
126871, 126870, 2
126871, 126867, 2
126871, 126864, 2
126871, 126872, 1
