258586, 258583, 2
258586, 258588, 2
258586, 258585, 2
258586, 258587, 1
258588, 258583, 2
258588, 258586, 2
258588, 258587, 2
258588, 258585, 2
258585, 258583, 2
258585, 258586, 1
258585, 258588, 2
258585, 258584, 2
258584, 258583, 2
258584, 258585, 1
258583, 258586, 2
258583, 258588, 2
258583, 258587, 2
258583, 258584, 3
258583, 258585, 2
258587, 258583, 2
258587, 258586, 2
258587, 258588, 1
