162819, 162818, 2
162819, 162820, 1
162834, 162836, 2
162834, 162818, 2
162834, 162833, 2
162834, 162835, 2
162820, 162819, 2
162820, 162818, 2
162820, 162821, 1
162821, 162818, 2
162821, 162822, 1
162821, 162820, 2
162826, 162835, 2
162826, 162818, 2
162826, 162828, 1
162818, 162819, 6
162818, 162834, 2
162818, 162820, 2
162818, 162821, 2
162818, 162824, 2
162818, 162826, 4
162818, 162823, 2
162818, 162831, 2
162818, 162822, 2
162818, 162832, 2
162818, 162835, 1
162818, 162829, 2
162818, 162830, 2
162818, 162825, 2
162818, 162833, 2
162818, 162827, 2
162818, 162828, 2
162832, 162831, 2
162832, 162818, 2
162832, 162833, 2
162832, 162835, 2
162836, 162834, 2
162836, 162835, 2
162823, 162822, 2
162823, 162818, 2
162823, 162824, 3
162823, 162825, 1
162831, 162830, 2
162831, 162818, 2
162831, 162833, 1
162831, 162832, 3
162831, 162835, 2
162822, 162823, 1
162822, 162818, 2
162822, 162821, 2
162824, 162823, 2
162824, 162818, 2
162824, 162825, 2
162835, 162834, 2
162835, 162830, 2
162835, 162826, 2
162835, 162831, 2
162835, 162833, 2
162835, 162828, 2
162835, 162825, 2
162835, 162818, 2
162835, 162832, 2
162835, 162836, 1
162829, 162830, 1
162829, 162818, 2
162829, 162827, 2
162829, 162825, 2
162830, 162829, 2
162830, 162831, 1
162830, 162818, 2
162830, 162835, 2
162825, 162823, 2
162825, 162827, 1
162825, 162835, 2
162825, 162829, 2
162825, 162818, 2
162825, 162824, 2
162833, 162831, 2
162833, 162834, 1
162833, 162818, 2
162833, 162832, 2
162833, 162835, 2
162827, 162829, 1
162827, 162818, 2
162827, 162825, 2
162828, 162818, 2
162828, 162826, 2
162828, 162835, 2
