169969, 169968, 2
169969, 169970, 2
169969, 169971, 2
169973, 169971, 2
169973, 169972, 2
169968, 169969, 2
169968, 169970, 2
169968, 169971, 2
169970, 169969, 2
169970, 169968, 2
169970, 169971, 2
169971, 169969, 2
169971, 169968, 2
169971, 169970, 2
169971, 169973, 2
169971, 169972, 2
169972, 169973, 1
169972, 169971, 2
