171413, 171412, 2
171412, 171410, 2
171412, 171411, 2
171412, 171413, 1
171410, 171409, 2
171410, 171411, 1
171410, 171412, 2
171407, 171408, 1
171411, 171410, 2
171411, 171412, 1
171408, 171407, 2
171408, 171409, 1
171409, 171410, 1
171409, 171408, 2
