62174, 62175, 1
62174, 62176, 2
62174, 62173, 2
62174, 62171, 2
62174, 62172, 2
62178, 62176, 2
62178, 62177, 2
62178, 62179, 1
62179, 62177, 2
62179, 62178, 2
62179, 62180, 0
62175, 62174, 2
62175, 62176, 1
62170, 62171, 1
62170, 62173, 2
62170, 62172, 2
62176, 62175, 2
62176, 62174, 2
62176, 62177, 0
62176, 62178, 1
62177, 62176, 2
62177, 62178, 2
62177, 62180, 2
62177, 62179, 2
62173, 62174, 1
62173, 62170, 2
62173, 62171, 2
62173, 62172, 2
62180, 62177, 2
62180, 62179, 2
62171, 62170, 2
62171, 62174, 2
62171, 62173, 1
62171, 62172, 8
62172, 62170, 2
62172, 62171, 2
62172, 62173, 2
62172, 62174, 2
