16274, 16273, 2
16274, 16272, 2
16264, 16265, 2
16264, 16263, 2
16267, 16269, 2
16267, 16266, 2
16267, 16268, 2
16271, 16269, 2
16271, 16270, 2
16271, 16272, 1
16266, 16265, 2
16266, 16267, 0
16266, 16269, 2
16266, 16270, 2
16266, 16268, 1
16263, 16265, 1
16263, 16264, 3
16265, 16269, 2
16265, 16263, 2
16265, 16266, 1
16265, 16268, 2
16265, 16264, 2
16270, 16269, 2
16270, 16271, 2
16270, 16266, 2
16268, 16265, 2
16268, 16267, 2
16268, 16269, 1
16268, 16266, 2
16272, 16274, 1
16272, 16271, 2
16272, 16273, 3
16273, 16274, 2
16273, 16272, 2
16269, 16265, 2
16269, 16270, 3
16269, 16268, 2
16269, 16267, 2
16269, 16271, 1
16269, 16266, 2
