127326, 127325, 2
127326, 127324, 2
127326, 127323, 2
127326, 127328, 2
127326, 127327, 2
127324, 127326, 2
127324, 127323, 2
127324, 127325, 1
127324, 127328, 2
127323, 127326, 0
127323, 127322, 2
127323, 127324, 3
127323, 127328, 1
127323, 127327, 2
127323, 127325, 2
127323, 127319, 2
127323, 127320, 2
127323, 127321, 2
127356, 127355, 2
127356, 127357, 1
127347, 127346, 2
127347, 127344, 2
127347, 127350, 0
127347, 127351, 1
127347, 127343, 2
127347, 127352, 2
127341, 127342, 0
127341, 127335, 2
127341, 127336, 2
127341, 127343, 1
127341, 127353, 2
127341, 127352, 2
127341, 127332, 2
127341, 127344, 2
127341, 127338, 2
127341, 127349, 2
127341, 127348, 2
127341, 127340, 2
127341, 127333, 2
127341, 127337, 2
127341, 127345, 2
127337, 127339, 1
127337, 127333, 2
127337, 127334, 2
127337, 127332, 2
127337, 127341, 2
127332, 127331, 2
127332, 127334, 2
127332, 127329, 2
127332, 127335, 2
127332, 127328, 2
127332, 127341, 2
127332, 127336, 2
127332, 127333, 1
127332, 127340, 2
127332, 127330, 2
127332, 127337, 2
127321, 127319, 2
127321, 127323, 2
127321, 127320, 2
127355, 127351, 2
127355, 127352, 2
127355, 127356, 1
127355, 127348, 2
127355, 127349, 2
127355, 127353, 2
127355, 127344, 2
127355, 127350, 2
127355, 127354, 2
127344, 127342, 2
127344, 127350, 2
127344, 127347, 2
127344, 127341, 2
127344, 127343, 2
127344, 127353, 1
127344, 127355, 2
127344, 127354, 2
127344, 127351, 2
127344, 127352, 2
127344, 127349, 2
127344, 127348, 4
127344, 127345, 6
127344, 127346, 2
127329, 127331, 6
127329, 127328, 2
127329, 127332, 1
127329, 127330, 4
127357, 127356, 2
127349, 127355, 2
127349, 127344, 2
127349, 127348, 2
127349, 127341, 2
127349, 127343, 2
127349, 127353, 2
127325, 127326, 2
127325, 127324, 2
127325, 127323, 2
127325, 127328, 2
127325, 127327, 1
127333, 127339, 2
127333, 127337, 2
127333, 127335, 4
127333, 127334, 6
127333, 127341, 1
127333, 127340, 2
127333, 127338, 2
127333, 127336, 2
127333, 127332, 2
127345, 127346, 1
127345, 127344, 2
127345, 127342, 2
127345, 127350, 2
127345, 127341, 2
127345, 127343, 2
127345, 127352, 2
127320, 127319, 2
127320, 127323, 1
127320, 127322, 6
127320, 127321, 4
127335, 127336, 0
127335, 127333, 2
127335, 127338, 2
127335, 127332, 2
127335, 127341, 2
127331, 127329, 2
127331, 127328, 2
127331, 127332, 2
127342, 127344, 2
127342, 127345, 2
127342, 127343, 2
127342, 127350, 2
127342, 127341, 2
127350, 127351, 2
127350, 127344, 2
127350, 127342, 2
127350, 127328, 2
127350, 127347, 2
127350, 127355, 2
127350, 127345, 2
127350, 127346, 2
127346, 127344, 2
127346, 127347, 1
127346, 127350, 2
127346, 127343, 2
127346, 127345, 2
127346, 127352, 2
127336, 127333, 2
127336, 127338, 1
127336, 127335, 2
127336, 127332, 2
127336, 127341, 2
127343, 127346, 2
127343, 127344, 1
127343, 127342, 2
127343, 127349, 2
127343, 127347, 2
127343, 127351, 2
127343, 127348, 2
127343, 127341, 2
127343, 127345, 2
127343, 127353, 2
127343, 127352, 2
127353, 127355, 1
127353, 127344, 2
127353, 127349, 2
127353, 127348, 2
127353, 127351, 2
127353, 127343, 2
127353, 127341, 2
127353, 127352, 2
127353, 127354, 0
127339, 127333, 2
127339, 127337, 2
127339, 127340, 1
127354, 127355, 2
127354, 127344, 2
127354, 127353, 2
127354, 127352, 2
127354, 127351, 2
127327, 127326, 2
127327, 127325, 2
127327, 127323, 2
127327, 127328, 2
127334, 127333, 2
127334, 127337, 1
127334, 127332, 2
127322, 127319, 2
127322, 127323, 2
127322, 127320, 2
127351, 127355, 2
127351, 127344, 2
127351, 127347, 2
127351, 127350, 2
127351, 127343, 2
127351, 127353, 2
127351, 127352, 3
127351, 127354, 2
127319, 127322, 2
127319, 127323, 2
127319, 127320, 1
127319, 127321, 2
127348, 127355, 2
127348, 127344, 2
127348, 127349, 0
127348, 127341, 2
127348, 127343, 2
127348, 127353, 2
127340, 127339, 2
127340, 127333, 2
127340, 127332, 2
127340, 127341, 2
127352, 127341, 2
127352, 127355, 2
127352, 127344, 2
127352, 127347, 2
127352, 127351, 2
127352, 127343, 2
127352, 127353, 2
127352, 127345, 2
127352, 127346, 2
127352, 127354, 2
127338, 127336, 2
127338, 127333, 2
127338, 127335, 2
127338, 127341, 2
127330, 127329, 2
127330, 127328, 2
127330, 127332, 2
127328, 127326, 2
127328, 127327, 2
127328, 127324, 2
127328, 127323, 2
127328, 127350, 2
127328, 127331, 2
127328, 127325, 2
127328, 127330, 2
127328, 127329, 1
127328, 127332, 2
