184922, 184921, 2
184918, 184916, 2
184918, 184919, 1
184918, 184917, 2
184921, 184922, 1
184921, 184919, 2
184921, 184920, 2
184912, 184914, 2
184912, 184913, 1
184917, 184916, 2
184917, 184918, 1
184915, 184914, 2
184915, 184916, 1
184916, 184915, 2
184916, 184918, 2
184916, 184914, 2
184916, 184917, 1
184920, 184921, 1
184920, 184919, 2
184919, 184921, 2
184919, 184918, 2
184919, 184920, 1
184913, 184914, 1
184913, 184912, 2
184914, 184915, 1
184914, 184916, 2
184914, 184912, 2
184914, 184913, 2
