170263, 170265, 4
170263, 170270, 2
170263, 170260, 2
170263, 170278, 2
170263, 170266, 2
170263, 170259, 2
170263, 170257, 2
170263, 170239, 2
170263, 170267, 1
170263, 170262, 2
170263, 170269, 2
170263, 170268, 2
170263, 170273, 2
170223, 170224, 1
170223, 170220, 2
170223, 170222, 2
170232, 170220, 2
170232, 170230, 2
170232, 170233, 1
170266, 170265, 2
170266, 170263, 2
170266, 170267, 2
170266, 170260, 2
170274, 170277, 2
170274, 170275, 2
170274, 170269, 2
170274, 170273, 2
170224, 170220, 2
170224, 170225, 1
170224, 170223, 2
170250, 170257, 2
170250, 170239, 2
170250, 170231, 2
170250, 170249, 2
170250, 170252, 1
170250, 170251, 3
170267, 170263, 2
170267, 170269, 2
170267, 170260, 2
170267, 170279, 2
170267, 170278, 2
170267, 170270, 2
170267, 170275, 2
170267, 170268, 0
170267, 170266, 2
170267, 170259, 2
170267, 170273, 2
170237, 170220, 2
170237, 170240, 2
170237, 170238, 1
170237, 170235, 2
170237, 170236, 2
170227, 170220, 2
170227, 170228, 3
170227, 170226, 2
170227, 170230, 1
170243, 170257, 2
170243, 170239, 2
170243, 170231, 2
170243, 170241, 2
170243, 170242, 2
170243, 170244, 1
170247, 170246, 2
170247, 170248, 1
170245, 170256, 2
170245, 170244, 2
170245, 170231, 2
170245, 170246, 2
170229, 170220, 2
170229, 170240, 2
170229, 170231, 1
170229, 170241, 2
170229, 170256, 2
170255, 170257, 6
170255, 170258, 2
170255, 170256, 4
170255, 170253, 2
170255, 170254, 2
170255, 170259, 1
170240, 170231, 2
170240, 170241, 1
170240, 170228, 2
170240, 170230, 2
170240, 170234, 2
170240, 170220, 2
170240, 170239, 2
170240, 170236, 2
170240, 170237, 2
170240, 170238, 2
170240, 170235, 2
170240, 170229, 2
170231, 170220, 2
170231, 170241, 2
170231, 170245, 2
170231, 170259, 2
170231, 170240, 2
170231, 170250, 2
170231, 170249, 2
170231, 170256, 2
170231, 170244, 2
170231, 170243, 2
170231, 170251, 2
170231, 170229, 2
170241, 170240, 2
170241, 170239, 2
170241, 170231, 2
170241, 170242, 1
170241, 170220, 2
170241, 170243, 2
170241, 170257, 2
170241, 170229, 2
170242, 170257, 2
170242, 170239, 2
170242, 170243, 1
170242, 170241, 2
170228, 170227, 2
170228, 170240, 2
170228, 170230, 2
170228, 170220, 2
170268, 170263, 2
170268, 170267, 2
170268, 170260, 2
170268, 170279, 2
170268, 170269, 2
170268, 170270, 2
170268, 170275, 2
170268, 170278, 2
170268, 170273, 2
170268, 170271, 2
170260, 170264, 4
170260, 170261, 6
170260, 170263, 2
170260, 170267, 2
170260, 170262, 2
170260, 170269, 2
170260, 170270, 1
170260, 170268, 2
170260, 170265, 2
170260, 170259, 2
170260, 170266, 2
170271, 170268, 2
170271, 170270, 2
170271, 170269, 2
170271, 170273, 2
170271, 170272, 1
170257, 170263, 2
170257, 170241, 2
170257, 170242, 2
170257, 170248, 2
170257, 170253, 2
170257, 170259, 2
170257, 170239, 2
170257, 170250, 2
170257, 170249, 2
170257, 170252, 2
170257, 170244, 2
170257, 170243, 2
170257, 170254, 2
170257, 170246, 2
170257, 170255, 2
170276, 170279, 1
170276, 170277, 3
170276, 170275, 2
170276, 170278, 0
170249, 170257, 2
170249, 170239, 2
170249, 170250, 1
170249, 170231, 2
170249, 170248, 2
170249, 170256, 2
170249, 170246, 2
170277, 170269, 2
170277, 170276, 2
170277, 170279, 2
170277, 170275, 2
170277, 170278, 2
170277, 170274, 2
170262, 170261, 2
170262, 170263, 1
170262, 170259, 2
170262, 170260, 2
170254, 170257, 2
170254, 170256, 2
170254, 170253, 2
170254, 170259, 2
170254, 170255, 1
170273, 170271, 2
170273, 170263, 2
170273, 170269, 2
170273, 170267, 2
170273, 170275, 1
170273, 170268, 2
170273, 170274, 3
170273, 170272, 2
170272, 170269, 2
170272, 170273, 1
170272, 170271, 2
170270, 170264, 2
170270, 170263, 2
170270, 170269, 4
170270, 170260, 2
170270, 170267, 2
170270, 170268, 2
170270, 170259, 2
170270, 170271, 1
170258, 170256, 2
170258, 170259, 2
170258, 170255, 2
170221, 170220, 2
170221, 170222, 1
170279, 170264, 2
170279, 170278, 2
170279, 170269, 2
170279, 170267, 2
170279, 170276, 2
170279, 170277, 2
170279, 170275, 2
170279, 170268, 2
170253, 170257, 2
170253, 170239, 2
170253, 170252, 2
170253, 170256, 2
170253, 170254, 1
170253, 170259, 2
170253, 170255, 2
170226, 170227, 1
170226, 170220, 2
170226, 170225, 2
170233, 170220, 2
170233, 170232, 2
170233, 170230, 2
170233, 170234, 1
170220, 170240, 1
170220, 170221, 6
170220, 170231, 2
170220, 170241, 2
170220, 170223, 2
170220, 170226, 2
170220, 170232, 2
170220, 170230, 2
170220, 170234, 2
170220, 170233, 2
170220, 170224, 2
170220, 170239, 2
170220, 170236, 2
170220, 170237, 2
170220, 170227, 2
170220, 170222, 2
170220, 170238, 2
170220, 170235, 2
170220, 170225, 2
170220, 170229, 4
170220, 170228, 2
170261, 170260, 2
170261, 170259, 2
170261, 170262, 1
170236, 170240, 2
170236, 170220, 2
170236, 170235, 2
170236, 170237, 2
170244, 170257, 2
170244, 170239, 2
170244, 170231, 2
170244, 170243, 2
170244, 170245, 3
170244, 170246, 1
170222, 170220, 2
170222, 170221, 2
170222, 170223, 1
170238, 170240, 2
170238, 170239, 1
170238, 170220, 2
170238, 170237, 2
170235, 170240, 2
170235, 170220, 2
170235, 170234, 2
170235, 170236, 3
170235, 170237, 1
170264, 170279, 2
170264, 170270, 2
170264, 170269, 2
170264, 170259, 2
170264, 170260, 2
170265, 170263, 2
170265, 170266, 1
170265, 170260, 2
170248, 170257, 2
170248, 170239, 2
170248, 170247, 2
170248, 170246, 2
170248, 170249, 1
170251, 170256, 2
170251, 170250, 2
170251, 170231, 2
170251, 170252, 2
170230, 170240, 2
170230, 170220, 2
170230, 170228, 2
170230, 170227, 2
170230, 170232, 1
170230, 170233, 2
170234, 170220, 2
170234, 170240, 2
170234, 170235, 1
170234, 170233, 2
170259, 170264, 2
170259, 170231, 2
170259, 170258, 2
170259, 170260, 1
170259, 170253, 2
170259, 170257, 2
170259, 170239, 2
170259, 170261, 2
170259, 170270, 2
170259, 170267, 2
170259, 170262, 2
170259, 170256, 2
170259, 170269, 2
170259, 170263, 2
170259, 170254, 2
170259, 170255, 2
170239, 170220, 2
170239, 170263, 2
170239, 170241, 2
170239, 170242, 2
170239, 170248, 2
170239, 170253, 2
170239, 170259, 2
170239, 170257, 2
170239, 170250, 2
170239, 170249, 2
170239, 170252, 2
170239, 170244, 2
170239, 170243, 2
170239, 170238, 2
170239, 170246, 2
170239, 170240, 2
170252, 170257, 2
170252, 170239, 2
170252, 170250, 2
170252, 170256, 2
170252, 170253, 1
170252, 170251, 2
170256, 170231, 2
170256, 170258, 1
170256, 170254, 2
170256, 170253, 2
170256, 170251, 2
170256, 170259, 2
170256, 170229, 2
170256, 170249, 2
170256, 170252, 2
170256, 170245, 2
170256, 170246, 2
170256, 170255, 2
170269, 170264, 2
170269, 170270, 2
170269, 170260, 2
170269, 170279, 2
170269, 170274, 2
170269, 170259, 2
170269, 170271, 2
170269, 170263, 2
170269, 170267, 2
170269, 170277, 2
170269, 170268, 2
170269, 170273, 2
170269, 170272, 2
170225, 170224, 2
170225, 170220, 2
170225, 170226, 1
170275, 170278, 2
170275, 170267, 2
170275, 170276, 1
170275, 170279, 2
170275, 170277, 2
170275, 170268, 2
170275, 170273, 2
170275, 170274, 2
170278, 170263, 2
170278, 170267, 2
170278, 170276, 2
170278, 170279, 2
170278, 170277, 2
170278, 170275, 2
170278, 170268, 2
170246, 170257, 2
170246, 170239, 2
170246, 170249, 2
170246, 170248, 2
170246, 170256, 2
170246, 170244, 2
170246, 170247, 1
170246, 170245, 2
