160775, 160778, 2
160775, 160772, 2
160775, 160777, 2
160775, 160776, 2
160775, 160774, 2
160775, 160773, 2
160778, 160775, 2
160778, 160777, 2
160772, 160775, 2
160772, 160777, 2
160772, 160771, 2
160772, 160776, 1
160772, 160774, 2
160772, 160773, 3
160777, 160775, 2
160777, 160776, 2
160777, 160778, 3
160777, 160772, 2
160777, 160773, 2
160771, 160770, 2
160771, 160772, 1
160771, 160773, 2
160770, 160771, 1
160770, 160773, 2
160774, 160775, 1
160774, 160772, 2
160774, 160773, 2
160776, 160775, 2
160776, 160773, 2
160776, 160772, 2
160776, 160777, 1
160773, 160775, 2
160773, 160772, 2
160773, 160777, 2
160773, 160771, 2
160773, 160776, 2
160773, 160774, 1
160773, 160770, 2
