119749, 119750, 1
119749, 119748, 2
119747, 119743, 2
119747, 119746, 2
119747, 119748, 1
119740, 119741, 1
119740, 119739, 2
119750, 119751, 1
119750, 119749, 2
119742, 119743, 1
119742, 119741, 2
119751, 119750, 2
119739, 119740, 1
119739, 119741, 2
119739, 119738, 2
119745, 119743, 2
119745, 119746, 1
119745, 119744, 2
119743, 119747, 2
119743, 119748, 2
119743, 119746, 2
119743, 119742, 2
119743, 119744, 1
119743, 119745, 2
119738, 119739, 1
119746, 119743, 2
119746, 119747, 1
119746, 119745, 2
119746, 119744, 2
119741, 119740, 2
119741, 119742, 1
119741, 119739, 2
119744, 119743, 2
119744, 119746, 2
119744, 119745, 1
119748, 119743, 2
119748, 119749, 1
119748, 119747, 2
