16781, 16778, 2
16781, 16783, 2
16781, 16780, 2
16781, 16782, 2
16781, 16779, 2
16775, 16774, 2
16775, 16778, 2
16775, 16777, 1
16775, 16780, 2
16775, 16776, 8
16775, 16779, 2
16772, 16774, 1
16772, 16773, 3
16783, 16781, 2
16783, 16784, 2
16783, 16780, 2
16783, 16782, 2
16778, 16781, 2
16778, 16775, 2
16778, 16779, 2
16778, 16776, 2
16778, 16777, 2
16785, 16784, 2
16785, 16780, 2
16780, 16781, 8
16780, 16775, 2
16780, 16784, 2
16780, 16783, 2
16780, 16785, 2
16780, 16782, 1
16780, 16779, 2
16784, 16785, 1
16784, 16780, 2
16784, 16783, 2
16784, 16782, 2
16782, 16781, 2
16782, 16784, 1
16782, 16780, 2
16782, 16783, 3
16776, 16775, 2
16776, 16778, 2
16776, 16774, 2
16776, 16773, 2
16776, 16777, 2
16774, 16775, 1
16774, 16772, 2
16774, 16776, 2
16774, 16773, 2
16779, 16781, 2
16779, 16775, 2
16779, 16777, 2
16779, 16780, 1
16779, 16778, 2
16773, 16772, 2
16773, 16776, 2
16773, 16774, 2
16777, 16775, 2
16777, 16779, 1
16777, 16776, 2
16777, 16778, 3
