340149, 340150, 1
340149, 340148, 2
340150, 340151, 1
340150, 340149, 2
340148, 340149, 1
340148, 340147, 2
340147, 340148, 1
340147, 340145, 2
340147, 340146, 2
340151, 340150, 2
340145, 340147, 2
340145, 340146, 1
340146, 340145, 2
340146, 340147, 1
