18483, 18484, 1
18487, 18488, 1
18487, 18485, 2
18487, 18486, 2
18487, 18489, 2
18486, 18487, 1
18486, 18485, 2
18484, 18483, 2
18484, 18485, 1
18491, 18494, 2
18491, 18490, 2
18491, 18498, 1
18491, 18499, 2
18491, 18492, 3
18491, 18496, 2
18495, 18494, 2
18495, 18493, 2
18495, 18496, 2
18497, 18499, 2
18497, 18500, 2
18497, 18498, 2
18497, 18496, 2
18502, 18500, 2
18502, 18499, 2
18502, 18501, 2
18498, 18494, 2
18498, 18490, 2
18498, 18491, 2
18498, 18497, 2
18498, 18499, 1
18498, 18492, 2
18498, 18496, 2
18500, 18499, 2
18500, 18502, 2
18500, 18501, 1
18500, 18497, 2
18488, 18487, 2
18488, 18489, 1
18494, 18490, 2
18494, 18491, 2
18494, 18498, 2
18494, 18495, 3
18494, 18499, 2
18494, 18492, 2
18494, 18493, 2
18490, 18494, 2
18490, 18489, 2
18490, 18491, 1
18490, 18499, 2
18490, 18492, 2
18490, 18498, 2
18490, 18496, 2
18496, 18497, 3
18496, 18490, 2
18496, 18491, 2
18496, 18498, 2
18496, 18495, 2
18501, 18500, 2
18501, 18499, 2
18501, 18502, 1
18499, 18500, 1
18499, 18494, 2
18499, 18490, 2
18499, 18491, 2
18499, 18501, 2
18499, 18497, 2
18499, 18502, 2
18499, 18498, 2
18485, 18487, 2
18485, 18486, 1
18485, 18484, 2
18492, 18494, 1
18492, 18490, 2
18492, 18493, 3
18492, 18498, 2
18492, 18491, 2
18493, 18494, 2
18493, 18492, 2
18493, 18495, 2
18489, 18488, 2
18489, 18487, 2
18489, 18490, 1
