73177, 73178, 2
73177, 73179, 2
73177, 73180, 2
73177, 73175, 2
73177, 73176, 2
73180, 73177, 2
73180, 73179, 2
73179, 73178, 1
73179, 73180, 2
73179, 73177, 2
73176, 73177, 2
73176, 73175, 2
73173, 73172, 2
73173, 73174, 1
73172, 73173, 1
73178, 73177, 2
73178, 73179, 2
73175, 73177, 2
73175, 73176, 1
73175, 73174, 2
73174, 73173, 2
73174, 73175, 1
