332620, 332623, 2
332620, 332621, 1
332620, 332619, 2
332622, 332623, 2
332622, 332624, 2
332622, 332621, 2
332623, 332620, 2
332623, 332622, 2
332623, 332624, 1
332623, 332619, 2
332627, 332628, 1
332627, 332626, 2
332619, 332620, 0
332619, 332625, 2
332619, 332623, 1
332619, 332624, 2
332619, 332621, 2
332626, 332625, 2
332626, 332627, 1
332628, 332627, 2
332624, 332625, 1
332624, 332622, 2
332624, 332623, 2
332624, 332619, 2
332625, 332626, 1
332625, 332624, 2
332625, 332619, 2
332621, 332620, 2
332621, 332622, 1
332621, 332619, 2
