17017, 17015, 2
17017, 17016, 2
17017, 17013, 2
17017, 17018, 1
17017, 17020, 2
17010, 17011, 1
17013, 17017, 2
17013, 17014, 2
17013, 17015, 2
17013, 17012, 2
17013, 17016, 2
17013, 17011, 2
17011, 17012, 1
17011, 17010, 2
17011, 17013, 2
17019, 17020, 1
17019, 17018, 2
17018, 17019, 1
17018, 17017, 2
17022, 17021, 2
17022, 17020, 2
17021, 17022, 1
17021, 17020, 2
17015, 17016, 1
17015, 17017, 2
17015, 17013, 2
17015, 17014, 2
17012, 17011, 2
17012, 17014, 1
17012, 17016, 2
17012, 17013, 8
17016, 17012, 2
17016, 17017, 1
17016, 17013, 2
17016, 17015, 2
17020, 17019, 2
17020, 17017, 2
17020, 17022, 2
17020, 17021, 1
17014, 17012, 2
17014, 17013, 2
17014, 17015, 1
