299910, 299913, 1
299910, 299911, 6
299910, 299912, 3
299910, 299909, 2
299913, 299911, 2
299913, 299909, 2
299913, 299912, 2
299913, 299910, 2
299911, 299913, 2
299911, 299909, 2
299911, 299910, 2
299912, 299913, 2
299912, 299910, 2
299912, 299909, 2
299909, 299913, 2
299909, 299911, 2
299909, 299912, 2
299909, 299910, 1
