215838, 215837, 2
215838, 215839, 8
215838, 215840, 1
215837, 215838, 1
215837, 215836, 2
215837, 215839, 2
215837, 215835, 2
215837, 215840, 2
215836, 215837, 1
215836, 215835, 2
215839, 215838, 2
215839, 215837, 2
215839, 215840, 2
215839, 215841, 2
215844, 215843, 2
215842, 215841, 2
215842, 215843, 1
215841, 215842, 1
215841, 215843, 2
215841, 215839, 2
215841, 215840, 2
215843, 215844, 2
215843, 215842, 2
215843, 215841, 2
215840, 215838, 2
215840, 215841, 1
215840, 215839, 2
215840, 215837, 2
215835, 215837, 2
215835, 215836, 1
