170036, 170037, 1
170036, 170034, 2
170036, 170035, 2
170036, 170038, 2
170037, 170036, 2
170037, 170038, 3
170034, 170036, 1
170034, 170035, 3
170035, 170036, 2
170035, 170034, 2
170038, 170036, 2
170038, 170037, 2
