301737, 301739, 2
301737, 301743, 2
301737, 301738, 1
301739, 301737, 2
301739, 301743, 2
301739, 301741, 2
301739, 301740, 2
301739, 301738, 2
301739, 301742, 2
301743, 301744, 2
301743, 301739, 2
301743, 301737, 2
301743, 301741, 2
301743, 301740, 2
301743, 301738, 2
301743, 301742, 2
301741, 301744, 2
301741, 301739, 2
301741, 301743, 2
301741, 301740, 2
301741, 301738, 2
301741, 301742, 2
301740, 301744, 2
301740, 301739, 6
301740, 301743, 2
301740, 301741, 8
301740, 301738, 2
301740, 301742, 1
301744, 301740, 2
301744, 301743, 2
301744, 301741, 2
301744, 301742, 2
301738, 301737, 2
301738, 301739, 2
301738, 301743, 2
301738, 301741, 2
301738, 301740, 1
301742, 301740, 2
301742, 301739, 2
301742, 301743, 6
301742, 301741, 2
301742, 301744, 1
