72815, 72817, 2
72815, 72814, 2
72815, 72816, 1
72811, 72812, 1
72817, 72814, 2
72817, 72815, 2
72817, 72816, 2
72813, 72814, 1
72813, 72812, 2
72814, 72813, 2
72814, 72815, 1
72814, 72817, 2
72812, 72813, 1
72812, 72811, 2
72816, 72817, 1
72816, 72815, 2
