334987, 334988, 1
334987, 334986, 2
334985, 334983, 2
334985, 334984, 2
334985, 334986, 1
334982, 334981, 2
334982, 334983, 1
334983, 334984, 0
334983, 334985, 1
334983, 334981, 2
334983, 334982, 2
334983, 334986, 2
334986, 334987, 1
334986, 334985, 2
334986, 334984, 2
334986, 334988, 2
334986, 334983, 2
334989, 334990, 1
334989, 334988, 2
334991, 334992, 1
334991, 334990, 2
334995, 334994, 2
334995, 334996, 1
334984, 334983, 2
334984, 334985, 2
334984, 334981, 2
334984, 334986, 2
334981, 334984, 2
334981, 334982, 1
334981, 334983, 2
334994, 334993, 2
334994, 334996, 2
334994, 334995, 1
334992, 334991, 2
334992, 334990, 2
334992, 334993, 1
334990, 334992, 2
334990, 334991, 1
334990, 334989, 2
334993, 334992, 2
334993, 334994, 1
334988, 334987, 2
334988, 334989, 1
334988, 334986, 2
334996, 334994, 2
334996, 334995, 2
