170914, 170912, 2
170914, 170916, 2
170914, 170913, 2
170914, 170915, 1
170911, 170912, 1
170911, 170916, 2
170911, 170913, 2
170912, 170917, 1
170912, 170914, 2
170912, 170911, 2
170912, 170913, 0
170912, 170915, 2
170917, 170912, 2
170917, 170916, 2
170917, 170913, 2
170917, 170915, 2
170916, 170917, 2
170916, 170914, 2
170916, 170911, 2
170916, 170915, 2
170913, 170912, 2
170913, 170917, 2
170913, 170914, 1
170913, 170911, 2
170915, 170912, 2
170915, 170917, 2
170915, 170914, 2
170915, 170916, 6
