197640, 197639, 2
197640, 197641, 2
197644, 197646, 2
197644, 197643, 2
197644, 197642, 2
197644, 197647, 2
197644, 197645, 1
197639, 197640, 3
197639, 197641, 1
197641, 197640, 2
197641, 197639, 2
197641, 197642, 1
197641, 197643, 2
197646, 197644, 2
197646, 197643, 2
197646, 197645, 2
197646, 197647, 3
197642, 197644, 1
197642, 197643, 3
197642, 197641, 2
197643, 197646, 2
197643, 197644, 2
197643, 197642, 2
197643, 197647, 2
197643, 197641, 2
197647, 197646, 2
197647, 197644, 2
197647, 197643, 2
197645, 197646, 1
197645, 197644, 2
