162806, 162813, 2
162806, 162798, 2
162806, 162807, 0
162806, 162805, 2
162806, 162816, 2
162806, 162814, 2
162806, 162802, 2
162806, 162799, 2
162806, 162809, 2
162806, 162800, 2
162811, 162813, 1
162811, 162810, 2
162811, 162807, 2
162811, 162812, 3
162811, 162814, 2
162811, 162808, 2
162803, 162802, 2
162803, 162805, 1
162803, 162800, 2
162815, 162813, 2
162815, 162816, 0
162815, 162814, 2
162805, 162806, 2
162805, 162803, 2
162805, 162799, 2
162805, 162802, 2
162805, 162800, 2
162816, 162806, 2
162816, 162815, 2
162816, 162807, 2
162816, 162814, 2
162816, 162813, 2
162816, 162802, 2
162814, 162806, 2
162814, 162811, 2
162814, 162810, 2
162814, 162815, 2
162814, 162812, 2
162814, 162816, 2
162814, 162807, 2
162814, 162802, 2
162814, 162809, 2
162814, 162813, 2
162808, 162811, 2
162808, 162810, 2
162808, 162807, 2
162808, 162812, 2
162808, 162809, 2
162808, 162804, 2
162808, 162800, 2
162804, 162798, 2
162804, 162812, 2
162804, 162808, 2
162804, 162809, 2
162804, 162799, 2
162804, 162800, 2
162799, 162806, 2
162799, 162798, 2
162799, 162805, 2
162799, 162802, 2
162799, 162801, 2
162799, 162809, 2
162799, 162804, 2
162799, 162800, 1
162798, 162806, 2
162798, 162801, 2
162798, 162809, 2
162798, 162799, 1
162798, 162802, 2
162798, 162804, 2
162798, 162800, 2
162813, 162806, 2
162813, 162811, 2
162813, 162815, 1
162813, 162812, 2
162813, 162816, 2
162813, 162814, 6
162813, 162807, 2
162810, 162811, 1
162810, 162807, 2
162810, 162812, 2
162810, 162814, 2
162810, 162808, 2
162810, 162809, 2
162807, 162806, 2
162807, 162811, 2
162807, 162810, 2
162807, 162816, 2
162807, 162814, 2
162807, 162813, 2
162807, 162802, 2
162807, 162808, 2
162807, 162809, 2
162807, 162800, 2
162812, 162811, 2
162812, 162810, 2
162812, 162814, 2
162812, 162813, 2
162812, 162804, 2
162812, 162808, 2
162812, 162809, 2
162802, 162806, 1
162802, 162803, 4
162802, 162807, 2
162802, 162805, 2
162802, 162816, 2
162802, 162814, 2
162802, 162809, 2
162802, 162799, 2
162802, 162798, 2
162802, 162801, 2
162802, 162800, 2
162809, 162806, 2
162809, 162798, 2
162809, 162807, 2
162809, 162812, 2
162809, 162814, 2
162809, 162808, 4
162809, 162802, 2
162809, 162799, 2
162809, 162810, 1
162809, 162804, 2
162809, 162800, 2
162801, 162798, 2
162801, 162799, 2
162801, 162802, 1
162801, 162800, 2
162800, 162806, 2
162800, 162803, 2
162800, 162807, 2
162800, 162805, 2
162800, 162798, 2
162800, 162808, 2
162800, 162802, 2
162800, 162804, 4
162800, 162799, 2
162800, 162809, 1
162800, 162801, 6
