164436, 164420, 2
164436, 164434, 2
164436, 164421, 2
164436, 164437, 1
164436, 164435, 2
164436, 164417, 2
164440, 164420, 2
164440, 164435, 2
164440, 164419, 2
164440, 164439, 2
164428, 164427, 2
164428, 164431, 1
164428, 164430, 0
164428, 164429, 3
164421, 164420, 2
164421, 164436, 2
164421, 164422, 2
164421, 164413, 2
164421, 164435, 2
164421, 164417, 2
164421, 164425, 2
164421, 164429, 2
164421, 164434, 2
164421, 164426, 2
164421, 164437, 2
164421, 164431, 2
164421, 164424, 2
164421, 164423, 2
164421, 164438, 2
164417, 164436, 2
164417, 164422, 2
164417, 164413, 2
164417, 164421, 2
164417, 164435, 2
164417, 164438, 2
164417, 164429, 2
164423, 164420, 2
164423, 164424, 1
164423, 164422, 2
164423, 164421, 2
164423, 164435, 2
164423, 164425, 2
164415, 164420, 2
164415, 164425, 2
164415, 164422, 2
164415, 164419, 1
164415, 164413, 2
164415, 164430, 2
164415, 164416, 4
164415, 164414, 2
164415, 164418, 2
164434, 164420, 2
164434, 164433, 2
164434, 164435, 2
164434, 164436, 1
164434, 164421, 2
164424, 164423, 2
164424, 164425, 1
164424, 164421, 2
164437, 164420, 2
164437, 164436, 2
164437, 164419, 2
164437, 164439, 1
164437, 164435, 2
164437, 164421, 2
164437, 164438, 3
164414, 164415, 1
164414, 164413, 2
164422, 164420, 2
164422, 164419, 2
164422, 164413, 2
164422, 164421, 4
164422, 164415, 2
164422, 164435, 2
164422, 164417, 2
164422, 164423, 1
164420, 164436, 2
164420, 164440, 2
164420, 164422, 2
164420, 164413, 2
164420, 164421, 2
164420, 164430, 2
164420, 164425, 2
164420, 164423, 2
164420, 164427, 2
164420, 164431, 2
164420, 164434, 2
164420, 164419, 2
164420, 164415, 2
164420, 164437, 2
164418, 164415, 2
164418, 164416, 2
164418, 164419, 2
164418, 164413, 2
164413, 164420, 2
164413, 164422, 1
164413, 164418, 2
164413, 164421, 2
164413, 164415, 2
164413, 164417, 4
164413, 164416, 2
164413, 164414, 6
164413, 164419, 2
164433, 164432, 2
164433, 164434, 1
164433, 164435, 4
164435, 164436, 2
164435, 164440, 2
164435, 164422, 2
164435, 164421, 2
164435, 164433, 2
164435, 164417, 2
164435, 164429, 2
164435, 164427, 2
164435, 164434, 2
164435, 164426, 2
164435, 164432, 2
164435, 164431, 2
164435, 164437, 2
164435, 164423, 2
164435, 164438, 2
164430, 164420, 2
164430, 164427, 2
164430, 164419, 2
164430, 164428, 2
164430, 164415, 2
164430, 164431, 2
164430, 164429, 2
164416, 164415, 2
164416, 164418, 1
164416, 164413, 2
164425, 164420, 2
164425, 164427, 1
164425, 164426, 3
164425, 164419, 2
164425, 164421, 2
164425, 164415, 2
164425, 164424, 2
164425, 164423, 2
164429, 164427, 2
164429, 164430, 2
164429, 164426, 2
164429, 164428, 2
164429, 164421, 2
164429, 164431, 2
164429, 164435, 2
164429, 164417, 2
164427, 164420, 2
164427, 164428, 1
164427, 164426, 2
164427, 164419, 2
164427, 164435, 2
164427, 164430, 2
164427, 164425, 2
164427, 164429, 2
164439, 164437, 2
164439, 164440, 1
164439, 164438, 2
164426, 164427, 2
164426, 164435, 2
164426, 164429, 2
164426, 164425, 2
164426, 164421, 2
164419, 164420, 0
164419, 164427, 2
164419, 164440, 2
164419, 164422, 2
164419, 164413, 2
164419, 164415, 2
164419, 164437, 2
164419, 164430, 2
164419, 164431, 2
164419, 164425, 2
164419, 164418, 2
164431, 164420, 2
164431, 164419, 2
164431, 164421, 2
164431, 164432, 1
164431, 164435, 2
164431, 164430, 2
164431, 164428, 2
164431, 164429, 2
164432, 164431, 2
164432, 164433, 1
164432, 164435, 2
164438, 164439, 2
164438, 164437, 2
164438, 164435, 2
164438, 164417, 2
164438, 164421, 2
