73113, 73114, 1
73113, 73112, 2
73109, 73110, 1
73114, 73112, 2
73114, 73115, 1
73114, 73113, 2
73112, 73114, 2
73112, 73110, 2
73112, 73111, 2
73112, 73113, 1
73110, 73111, 1
73110, 73112, 2
73110, 73109, 2
73115, 73114, 2
73115, 73116, 1
73111, 73112, 1
73111, 73110, 2
73116, 73115, 2
