121785, 121784, 2
121785, 121786, 1
121777, 121776, 2
121777, 121775, 2
121777, 121778, 1
121777, 121774, 2
121792, 121786, 2
121792, 121791, 2
121778, 121777, 2
121778, 121776, 2
121778, 121775, 2
121778, 121779, 1
121791, 121792, 1
121791, 121786, 2
121791, 121790, 2
121776, 121787, 2
121776, 121775, 2
121776, 121778, 2
121776, 121780, 2
121776, 121774, 2
121776, 121777, 2
121776, 121781, 2
121783, 121782, 2
121783, 121784, 1
121781, 121780, 2
121781, 121782, 1
121781, 121787, 2
121781, 121776, 2
121789, 121790, 1
121789, 121787, 2
121789, 121786, 2
121789, 121788, 2
121788, 121789, 1
121788, 121787, 2
121788, 121786, 2
121787, 121786, 2
121787, 121788, 1
121787, 121789, 2
121787, 121776, 2
121787, 121784, 2
121787, 121781, 2
121786, 121785, 2
121786, 121787, 0
121786, 121792, 2
121786, 121788, 2
121786, 121789, 2
121786, 121791, 2
121786, 121790, 2
121779, 121780, 1
121779, 121778, 2
121780, 121776, 2
121780, 121781, 1
121780, 121779, 2
121782, 121784, 2
121782, 121781, 2
121782, 121783, 1
121784, 121785, 1
121784, 121782, 2
121784, 121787, 2
121784, 121783, 2
121774, 121777, 2
121774, 121776, 2
121774, 121775, 1
121775, 121777, 1
121775, 121776, 0
121775, 121774, 2
121775, 121778, 2
121790, 121789, 2
121790, 121786, 2
121790, 121791, 1
