333488, 333489, 1
333488, 333486, 2
333488, 333487, 2
333488, 333490, 2
333494, 333493, 2
333494, 333492, 2
333494, 333495, 2
333494, 333491, 2
333491, 333494, 2
333491, 333492, 2
333491, 333490, 2
333490, 333488, 2
333490, 333492, 1
333490, 333491, 3
333490, 333489, 2
333489, 333488, 2
333489, 333490, 1
333487, 333488, 2
333487, 333486, 2
333487, 333485, 2
333484, 333485, 1
333493, 333494, 3
333493, 333492, 2
333493, 333495, 1
333492, 333493, 1
333492, 333494, 2
333492, 333491, 2
333492, 333490, 2
333486, 333488, 1
333486, 333487, 3
333486, 333485, 2
333485, 333486, 1
333485, 333487, 2
333485, 333484, 2
333495, 333493, 2
333495, 333494, 2
