301043, 301045, 2
301043, 301042, 2
301043, 301044, 1
301043, 301046, 2
301045, 301043, 2
301045, 301044, 2
301045, 301046, 2
301045, 301042, 2
301045, 301041, 2
301045, 301040, 2
301044, 301043, 2
301044, 301045, 6
301044, 301046, 3
301046, 301043, 2
301046, 301045, 2
301046, 301044, 2
301046, 301042, 2
301046, 301041, 2
301046, 301040, 2
301042, 301043, 1
301042, 301045, 2
301042, 301041, 2
301042, 301046, 2
301040, 301045, 2
301040, 301041, 1
301040, 301046, 2
301041, 301045, 2
301041, 301042, 1
301041, 301040, 2
301041, 301046, 2
