254148, 254146, 2
254148, 254150, 2
254148, 254151, 2
254148, 254147, 2
254155, 254152, 2
254155, 254154, 2
254155, 254158, 1
254158, 254151, 2
254158, 254161, 1
254158, 254155, 2
254158, 254154, 2
254158, 254152, 2
254157, 254156, 2
254157, 254159, 2
254157, 254151, 2
254157, 254146, 2
254157, 254150, 2
254157, 254149, 2
254157, 254152, 2
254162, 254151, 2
254162, 254161, 2
254162, 254164, 1
254162, 254152, 2
254162, 254165, 2
254161, 254151, 2
254161, 254158, 2
254161, 254165, 2
254161, 254162, 0
254161, 254154, 2
254161, 254152, 2
254161, 254164, 2
254165, 254162, 2
254165, 254161, 2
254165, 254164, 2
254165, 254152, 2
254147, 254146, 2
254147, 254150, 1
254147, 254148, 0
254153, 254151, 2
254153, 254146, 2
254153, 254150, 2
254153, 254149, 2
254153, 254154, 1
254153, 254152, 2
254154, 254152, 2
254154, 254161, 2
254154, 254155, 1
254154, 254153, 2
254154, 254158, 2
254156, 254159, 1
254156, 254151, 2
254156, 254157, 6
254156, 254146, 2
254156, 254149, 2
254156, 254152, 2
254159, 254156, 2
254159, 254151, 2
254159, 254157, 2
254159, 254146, 2
254159, 254149, 2
254159, 254160, 1
254159, 254152, 2
254151, 254148, 2
254151, 254158, 2
254151, 254157, 2
254151, 254162, 2
254151, 254161, 2
254151, 254159, 2
254151, 254153, 2
254151, 254156, 2
254151, 254152, 1
254151, 254146, 2
254151, 254150, 2
254151, 254149, 2
254152, 254159, 2
254152, 254155, 2
254152, 254158, 2
254152, 254157, 2
254152, 254162, 2
254152, 254161, 2
254152, 254165, 2
254152, 254154, 2
254152, 254153, 4
254152, 254160, 2
254152, 254156, 6
254152, 254151, 2
254152, 254150, 2
254152, 254163, 2
254152, 254149, 2
254152, 254164, 2
254160, 254163, 1
254160, 254159, 2
254160, 254152, 2
254146, 254156, 2
254146, 254159, 2
254146, 254151, 1
254146, 254157, 2
254146, 254150, 2
254146, 254149, 6
254146, 254148, 2
254146, 254153, 2
254146, 254147, 4
254150, 254148, 2
254150, 254151, 2
254150, 254152, 2
254150, 254157, 2
254150, 254146, 2
254150, 254147, 2
254150, 254153, 2
254163, 254160, 2
254163, 254152, 2
254149, 254156, 2
254149, 254159, 2
254149, 254151, 2
254149, 254153, 2
254149, 254157, 2
254149, 254146, 2
254149, 254152, 2
254164, 254162, 2
254164, 254161, 2
254164, 254152, 2
254164, 254165, 1
