162542, 162545, 2
162542, 162543, 1
162553, 162549, 2
162553, 162548, 2
162553, 162550, 2
162553, 162554, 2
162553, 162552, 2
162553, 162551, 2
162554, 162549, 2
162554, 162553, 2
162554, 162552, 2
162554, 162555, 1
162555, 162557, 2
162555, 162554, 2
162555, 162556, 1
162546, 162545, 2
162546, 162548, 2
162546, 162547, 1
162545, 162542, 2
162545, 162546, 1
162545, 162544, 2
162552, 162549, 2
162552, 162553, 8
162552, 162554, 1
162552, 162551, 2
162552, 162547, 2
162543, 162542, 2
162543, 162544, 1
162557, 162556, 2
162557, 162558, 1
162557, 162555, 2
162549, 162553, 2
162549, 162548, 2
162549, 162550, 2
162549, 162554, 2
162549, 162552, 2
162549, 162551, 2
162549, 162547, 2
162550, 162549, 2
162550, 162553, 2
162550, 162548, 2
162550, 162551, 1
162550, 162547, 2
162558, 162557, 2
162558, 162559, 1
162559, 162558, 2
162548, 162549, 2
162548, 162546, 2
162548, 162553, 2
162548, 162550, 2
162548, 162547, 2
162547, 162549, 8
162547, 162546, 2
162547, 162548, 3
162547, 162550, 1
162547, 162552, 2
162556, 162557, 1
162556, 162555, 2
162551, 162549, 2
162551, 162553, 2
162551, 162552, 1
162551, 162550, 2
162544, 162545, 1
162544, 162543, 2
