253395, 253396, 1
253395, 253398, 2
253395, 253394, 2
253395, 253393, 2
253395, 253399, 2
253393, 253395, 2
253393, 253389, 2
253393, 253392, 2
253393, 253388, 2
253393, 253399, 2
253393, 253397, 2
253393, 253398, 1
253393, 253394, 2
253393, 253396, 2
253393, 253391, 2
253393, 253387, 2
253393, 253390, 4
253389, 253397, 2
253389, 253393, 1
253389, 253394, 2
253389, 253392, 2
253389, 253388, 2
253389, 253391, 2
253389, 253390, 2
253389, 253387, 2
253389, 253396, 2
253392, 253394, 1
253392, 253398, 2
253392, 253389, 2
253392, 253393, 2
253392, 253391, 2
253388, 253398, 2
253388, 253389, 2
253388, 253385, 2
253388, 253386, 2
253388, 253401, 2
253388, 253393, 2
253388, 253387, 2
253401, 253397, 2
253401, 253388, 2
253401, 253398, 2
253401, 253400, 2
253399, 253397, 2
253399, 253395, 2
253399, 253398, 2
253399, 253393, 2
253399, 253400, 2
253397, 253398, 2
253397, 253394, 2
253397, 253400, 2
253397, 253396, 2
253397, 253401, 2
253397, 253393, 2
253397, 253399, 2
253397, 253389, 2
253396, 253397, 1
253396, 253395, 2
253396, 253393, 2
253396, 253389, 2
253396, 253398, 2
253398, 253397, 2
253398, 253395, 2
253398, 253393, 2
253398, 253394, 2
253398, 253400, 1
253398, 253396, 2
253398, 253388, 2
253398, 253401, 2
253398, 253392, 2
253398, 253399, 3
253394, 253397, 2
253394, 253395, 1
253394, 253393, 2
253394, 253389, 2
253394, 253392, 2
253394, 253398, 2
253400, 253397, 2
253400, 253401, 1
253400, 253398, 2
253400, 253399, 2
253385, 253386, 1
253385, 253390, 2
253385, 253387, 2
253385, 253388, 2
253386, 253388, 2
253386, 253390, 2
253386, 253387, 1
253386, 253385, 2
253391, 253390, 2
253391, 253393, 2
253391, 253389, 2
253391, 253392, 1
253387, 253393, 2
253387, 253389, 1
253387, 253386, 2
253387, 253388, 6
253387, 253385, 2
253387, 253390, 2
253390, 253393, 2
253390, 253389, 2
253390, 253385, 2
253390, 253386, 2
253390, 253387, 2
253390, 253391, 1
