17695, 17697, 1
17695, 17696, 3
17695, 17694, 2
17707, 17708, 2
17707, 17706, 2
17697, 17695, 2
17697, 17696, 2
17697, 17699, 2
17697, 17698, 1
17708, 17707, 2
17708, 17705, 2
17708, 17706, 2
17698, 17699, 1
17698, 17697, 2
17693, 17691, 2
17693, 17692, 2
17693, 17694, 1
17704, 17703, 2
17704, 17705, 1
17702, 17703, 1
17702, 17701, 2
17702, 17705, 2
17702, 17700, 2
17705, 17702, 2
17705, 17706, 1
17705, 17703, 2
17705, 17704, 2
17705, 17708, 2
17696, 17695, 2
17696, 17697, 2
17692, 17691, 2
17692, 17693, 2
17703, 17702, 2
17703, 17704, 1
17703, 17705, 2
17700, 17702, 2
17700, 17701, 1
17700, 17699, 2
17706, 17707, 3
17706, 17708, 1
17706, 17705, 2
17701, 17702, 1
17701, 17700, 2
17691, 17692, 3
17691, 17693, 1
17699, 17700, 1
17699, 17698, 2
17699, 17697, 2
17694, 17695, 1
17694, 17693, 2
