21510, 21511, 1
21510, 21509, 2
21510, 21513, 2
21510, 21512, 2
21510, 21508, 2
21512, 21511, 2
21512, 21510, 2
21512, 21513, 2
21512, 21514, 2
21512, 21509, 2
21508, 21510, 1
21508, 21513, 2
21508, 21509, 3
21514, 21511, 2
21514, 21513, 2
21514, 21512, 2
21511, 21510, 2
21511, 21513, 0
21511, 21512, 3
21511, 21514, 2
21511, 21509, 2
21509, 21511, 2
21509, 21510, 2
21509, 21512, 2
21509, 21508, 2
21513, 21511, 2
21513, 21510, 2
21513, 21512, 2
21513, 21508, 2
21513, 21514, 3
