66508, 66509, 2
66508, 66506, 2
66508, 66505, 2
66508, 66507, 2
66499, 66500, 1
66503, 66500, 2
66503, 66505, 1
66503, 66502, 2
66503, 66501, 2
66503, 66504, 6
66507, 66509, 1
66507, 66508, 6
66507, 66505, 2
66507, 66506, 2
66509, 66508, 2
66509, 66506, 2
66509, 66507, 2
66509, 66516, 2
66509, 66513, 2
66509, 66512, 2
66509, 66510, 1
66509, 66511, 2
66502, 66500, 2
66502, 66505, 2
66502, 66503, 2
66502, 66501, 2
66523, 66520, 2
66523, 66519, 2
66523, 66522, 2
66523, 66521, 2
66523, 66516, 2
66500, 66499, 2
66500, 66503, 2
66500, 66501, 1
66500, 66516, 2
66500, 66502, 2
66500, 66504, 2
66505, 66508, 2
66505, 66501, 2
66505, 66506, 1
66505, 66503, 2
66505, 66507, 2
66505, 66516, 2
66505, 66502, 2
66505, 66504, 2
66518, 66520, 2
66518, 66519, 1
66518, 66517, 2
66518, 66522, 2
66518, 66516, 2
66510, 66509, 2
66510, 66513, 1
66510, 66511, 6
66510, 66512, 8
66510, 66514, 2
66511, 66513, 2
66511, 66514, 2
66511, 66516, 2
66511, 66509, 2
66511, 66510, 2
66511, 66512, 2
66517, 66515, 2
66517, 66518, 1
66517, 66514, 2
66517, 66516, 6
66522, 66520, 2
66522, 66519, 2
66522, 66518, 2
66522, 66516, 2
66522, 66523, 2
66522, 66521, 2
66506, 66509, 2
66506, 66508, 2
66506, 66505, 2
66506, 66507, 1
66520, 66519, 2
66520, 66518, 2
66520, 66521, 2
66520, 66516, 2
66520, 66523, 2
66520, 66522, 2
66512, 66513, 2
66512, 66509, 2
66512, 66510, 2
66512, 66511, 2
66512, 66514, 2
66504, 66500, 2
66504, 66505, 2
66504, 66503, 2
66504, 66501, 2
66515, 66516, 2
66515, 66514, 2
66515, 66517, 1
66519, 66520, 8
66519, 66518, 2
66519, 66521, 1
66519, 66516, 2
66519, 66523, 2
66519, 66522, 2
66521, 66523, 1
66521, 66520, 2
66521, 66519, 2
66521, 66522, 6
66521, 66516, 2
66501, 66500, 2
66501, 66505, 2
66501, 66502, 8
66501, 66503, 1
66501, 66504, 2
66516, 66515, 2
66516, 66509, 2
66516, 66520, 2
66516, 66500, 2
66516, 66505, 2
66516, 66518, 2
66516, 66521, 2
66516, 66523, 2
66516, 66519, 2
66516, 66511, 2
66516, 66517, 2
66516, 66522, 2
66516, 66514, 2
66513, 66509, 2
66513, 66511, 2
66513, 66510, 2
66513, 66512, 2
66513, 66514, 1
66514, 66515, 1
66514, 66516, 2
66514, 66513, 2
66514, 66511, 2
66514, 66510, 2
66514, 66512, 2
66514, 66517, 2
