22555, 22554, 2
22555, 22556, 1
22550, 22552, 2
22550, 22551, 1
22558, 22556, 2
22558, 22557, 2
22556, 22554, 2
22556, 22555, 2
22556, 22558, 2
22556, 22557, 1
22554, 22556, 2
22554, 22555, 1
22554, 22552, 2
22554, 22553, 2
22557, 22556, 2
22557, 22558, 3
22552, 22554, 1
22552, 22550, 2
22552, 22551, 2
22552, 22553, 3
22551, 22550, 2
22551, 22552, 1
22553, 22554, 2
22553, 22552, 2
