118130, 118126, 2
118130, 118129, 2
118130, 118128, 2
118130, 118127, 2
118130, 118125, 2
118130, 118131, 1
118126, 118130, 1
118126, 118129, 2
118126, 118127, 2
118126, 118125, 2
118126, 118128, 2
118129, 118130, 2
118129, 118126, 2
118129, 118127, 2
118129, 118128, 2
118129, 118131, 2
118124, 118127, 3
118124, 118125, 1
118128, 118130, 2
118128, 118126, 2
118128, 118127, 2
118128, 118129, 1
118132, 118133, 1
118132, 118131, 2
118127, 118130, 2
118127, 118126, 2
118127, 118129, 2
118127, 118124, 2
118127, 118128, 1
118127, 118125, 2
118125, 118130, 2
118125, 118126, 1
118125, 118127, 2
118125, 118124, 2
118133, 118132, 2
118133, 118131, 2
118131, 118130, 2
118131, 118132, 1
118131, 118129, 2
118131, 118133, 2
