63899, 63897, 2
63899, 63900, 1
63899, 63898, 2
63889, 63892, 2
63889, 63897, 2
63889, 63891, 1
63889, 63890, 6
63897, 63901, 2
63897, 63899, 2
63897, 63895, 2
63897, 63900, 2
63897, 63898, 2
63897, 63896, 2
63897, 63890, 2
63897, 63893, 2
63897, 63889, 2
63897, 63903, 2
63897, 63894, 2
63898, 63896, 2
63898, 63899, 1
63898, 63895, 2
63898, 63897, 2
63898, 63890, 2
63892, 63893, 1
63892, 63889, 2
63892, 63891, 2
63892, 63890, 2
63891, 63889, 2
63891, 63892, 1
63891, 63890, 2
63890, 63901, 2
63890, 63893, 2
63890, 63889, 2
63890, 63897, 2
63890, 63900, 2
63890, 63898, 2
63890, 63892, 2
63890, 63891, 2
63890, 63895, 2
63890, 63894, 2
63903, 63901, 2
63903, 63897, 2
63903, 63902, 2
63894, 63893, 2
63894, 63895, 1
63894, 63897, 2
63894, 63890, 2
63901, 63902, 1
63901, 63897, 2
63901, 63900, 2
63901, 63890, 2
63901, 63903, 2
63893, 63897, 2
63893, 63892, 2
63893, 63890, 2
63893, 63894, 1
63895, 63896, 1
63895, 63890, 2
63895, 63897, 2
63895, 63894, 2
63895, 63898, 2
63900, 63901, 1
63900, 63899, 2
63900, 63897, 2
63900, 63890, 2
63902, 63901, 2
63902, 63903, 1
63896, 63895, 2
63896, 63897, 6
63896, 63898, 1
