295662, 295661, 2
295662, 295663, 1
295668, 295666, 2
295668, 295670, 1
295668, 295667, 2
295668, 295669, 8
295668, 295671, 2
295659, 295661, 1
295659, 295660, 3
295666, 295664, 2
295666, 295668, 2
295666, 295667, 1
295666, 295663, 2
295666, 295665, 2
295666, 295669, 2
295665, 295666, 1
295665, 295664, 2
295661, 295662, 1
295661, 295660, 2
295661, 295659, 2
295669, 295666, 2
295669, 295667, 2
295669, 295670, 2
295669, 295668, 2
295669, 295671, 2
295671, 295670, 2
295671, 295668, 2
295671, 295669, 2
295664, 295666, 2
295664, 295663, 2
295664, 295665, 1
295670, 295668, 2
295670, 295671, 1
295670, 295669, 2
295663, 295666, 2
295663, 295662, 2
295663, 295664, 1
295667, 295666, 2
295667, 295668, 1
295667, 295669, 2
295660, 295661, 2
295660, 295659, 2
