294464, 294462, 2
294464, 294463, 2
294464, 294466, 2
294464, 294465, 2
294457, 294458, 6
294457, 294459, 1
294458, 294459, 2
294458, 294460, 2
294458, 294457, 2
294463, 294464, 2
294463, 294462, 2
294463, 294461, 2
294463, 294465, 2
294460, 294458, 2
294460, 294461, 1
294460, 294459, 2
294462, 294464, 8
294462, 294461, 2
294462, 294465, 1
294462, 294466, 2
294462, 294463, 3
294461, 294462, 1
294461, 294463, 2
294461, 294460, 2
294465, 294464, 2
294465, 294462, 2
294465, 294463, 2
294465, 294466, 1
294466, 294464, 2
294466, 294462, 2
294466, 294465, 2
294459, 294457, 2
294459, 294458, 2
294459, 294460, 1
