254112, 254110, 2
254112, 254113, 1
254112, 254111, 2
254118, 254124, 2
254118, 254122, 2
254118, 254116, 2
254118, 254120, 2
254118, 254117, 2
254118, 254119, 2
254113, 254112, 2
254113, 254110, 2
254113, 254107, 2
254113, 254114, 1
254113, 254122, 2
254113, 254117, 2
254113, 254111, 2
254113, 254108, 2
254107, 254110, 2
254107, 254113, 2
254107, 254108, 2
254107, 254106, 2
254107, 254111, 2
254107, 254109, 2
254120, 254121, 1
254120, 254122, 2
254120, 254119, 2
254120, 254118, 2
254120, 254117, 2
254121, 254122, 2
254121, 254124, 2
254121, 254119, 2
254121, 254123, 2
254121, 254120, 2
254108, 254110, 2
254108, 254113, 2
254108, 254107, 2
254108, 254106, 2
254108, 254111, 2
254108, 254109, 2
254111, 254112, 2
254111, 254110, 2
254111, 254113, 2
254111, 254107, 2
254111, 254108, 2
254111, 254106, 2
254111, 254109, 2
254106, 254109, 1
254106, 254111, 2
254106, 254108, 3
254106, 254107, 6
254114, 254117, 1
254114, 254115, 3
254114, 254113, 2
254124, 254121, 2
254124, 254122, 2
254124, 254118, 2
254124, 254123, 2
254124, 254117, 2
254116, 254117, 2
254116, 254118, 2
254116, 254115, 2
254117, 254124, 2
254117, 254118, 3
254117, 254113, 2
254117, 254120, 2
254117, 254122, 1
254117, 254115, 2
254117, 254116, 2
254117, 254114, 2
254122, 254124, 1
254122, 254118, 2
254122, 254113, 2
254122, 254120, 2
254122, 254121, 2
254122, 254117, 2
254122, 254119, 2
254122, 254123, 3
254119, 254121, 2
254119, 254122, 2
254119, 254118, 2
254119, 254120, 1
254115, 254117, 2
254115, 254116, 2
254115, 254114, 2
254109, 254106, 2
254109, 254110, 1
254109, 254108, 2
254109, 254111, 2
254109, 254107, 2
254123, 254121, 2
254123, 254124, 2
254123, 254122, 2
254110, 254112, 1
254110, 254113, 2
254110, 254107, 2
254110, 254108, 2
254110, 254111, 6
254110, 254109, 2
