295422, 295421, 2
295422, 295423, 1
295421, 295422, 1
295421, 295423, 2
295421, 295424, 2
295430, 295431, 1
295430, 295429, 2
295434, 295433, 2
295433, 295434, 1
295433, 295432, 2
295424, 295421, 2
295424, 295423, 2
295424, 295426, 2
295424, 295425, 1
295432, 295433, 1
295432, 295431, 2
295431, 295430, 2
295431, 295432, 1
295427, 295428, 1
295427, 295426, 2
295428, 295427, 2
295428, 295429, 1
295423, 295422, 2
295423, 295421, 2
295423, 295424, 1
295426, 295427, 1
295426, 295424, 2
295426, 295425, 2
295425, 295424, 2
295425, 295426, 1
295429, 295428, 2
295429, 295430, 1
