132038, 132039, 1
132038, 132036, 2
132038, 132037, 2
132038, 132035, 2
132072, 132080, 2
132072, 132075, 2
132072, 132073, 2
132072, 132069, 2
132072, 132077, 2
132072, 132082, 2
132072, 132074, 2
132072, 132084, 2
132072, 132071, 2
132072, 132060, 2
132072, 132076, 2
132072, 132083, 2
132072, 132070, 2
132072, 132065, 2
132083, 132079, 2
132083, 132072, 2
132083, 132082, 2
132083, 132084, 1
132073, 132071, 2
132073, 132066, 2
132073, 132068, 2
132073, 132074, 1
132073, 132072, 2
132073, 132069, 2
132073, 132070, 2
132073, 132064, 2
132073, 132065, 2
132049, 132051, 0
132049, 132052, 1
132049, 132048, 2
132049, 132050, 3
132045, 132051, 2
132045, 132044, 2
132045, 132046, 1
132081, 132080, 2
132081, 132082, 1
132062, 132060, 2
132062, 132063, 1
132062, 132059, 2
132062, 132061, 2
132062, 132066, 2
132062, 132064, 2
132062, 132065, 2
132034, 132051, 2
132034, 132035, 1
132076, 132075, 2
132076, 132060, 2
132076, 132066, 2
132076, 132077, 1
132076, 132072, 2
132076, 132074, 2
132076, 132078, 2
132076, 132069, 2
132046, 132051, 2
132046, 132047, 3
132046, 132045, 2
132046, 132048, 1
132048, 132046, 2
132048, 132051, 2
132048, 132049, 1
132048, 132052, 2
132048, 132047, 2
132048, 132050, 2
132070, 132072, 2
132070, 132059, 2
132070, 132086, 2
132070, 132071, 2
132070, 132073, 2
132070, 132068, 2
132070, 132074, 2
132070, 132064, 2
132070, 132075, 2
132070, 132087, 2
132070, 132085, 2
132070, 132065, 2
132070, 132078, 2
132070, 132079, 2
132065, 132072, 2
132065, 132063, 2
132065, 132073, 1
132065, 132069, 2
132065, 132067, 2
132065, 132066, 2
132065, 132068, 2
132065, 132074, 2
132065, 132062, 4
132065, 132071, 2
132065, 132060, 2
132065, 132064, 6
132065, 132059, 2
132065, 132061, 2
132065, 132070, 2
132065, 132079, 2
132056, 132059, 2
132056, 132058, 2
132056, 132057, 1
132056, 132055, 2
132043, 132042, 2
132043, 132051, 2
132043, 132044, 1
132063, 132059, 2
132063, 132066, 1
132063, 132062, 2
132063, 132064, 2
132063, 132065, 2
132078, 132075, 2
132078, 132076, 2
132078, 132080, 1
132078, 132077, 2
132078, 132068, 2
132078, 132070, 2
132078, 132079, 0
132068, 132075, 2
132068, 132059, 2
132068, 132073, 2
132068, 132078, 2
132068, 132079, 2
132068, 132074, 2
132068, 132070, 2
132068, 132064, 2
132068, 132065, 2
132069, 132071, 1
132069, 132060, 2
132069, 132076, 2
132069, 132059, 2
132069, 132073, 2
132069, 132074, 2
132069, 132067, 2
132069, 132066, 2
132069, 132072, 2
132069, 132065, 2
132039, 132038, 2
132039, 132040, 1
132054, 132053, 2
132054, 132055, 1
132075, 132076, 3
132075, 132070, 2
132075, 132074, 2
132075, 132077, 2
132075, 132072, 2
132075, 132078, 1
132075, 132068, 2
132075, 132079, 2
132060, 132076, 2
132060, 132059, 2
132060, 132062, 2
132060, 132069, 2
132060, 132077, 2
132060, 132072, 2
132060, 132066, 2
132060, 132061, 3
132060, 132064, 2
132060, 132065, 2
132036, 132038, 2
132036, 132051, 2
132036, 132037, 1
132036, 132035, 2
132087, 132085, 2
132087, 132079, 2
132087, 132086, 2
132087, 132070, 2
132087, 132084, 2
132051, 132043, 2
132051, 132055, 2
132051, 132042, 2
132051, 132036, 2
132051, 132049, 2
132051, 132045, 2
132051, 132041, 2
132051, 132050, 2
132051, 132034, 2
132051, 132053, 2
132051, 132046, 2
132051, 132052, 2
132051, 132048, 2
132051, 132035, 2
132061, 132060, 2
132061, 132059, 2
132061, 132062, 2
132061, 132064, 2
132061, 132065, 2
132086, 132085, 2
132086, 132070, 2
132086, 132087, 0
132086, 132079, 2
132044, 132042, 2
132044, 132043, 2
132044, 132045, 1
132077, 132075, 2
132077, 132060, 2
132077, 132076, 2
132077, 132078, 2
132077, 132072, 2
132080, 132078, 2
132080, 132072, 2
132080, 132081, 1
132080, 132082, 2
132080, 132079, 2
132055, 132056, 1
132055, 132064, 2
132055, 132058, 2
132055, 132051, 2
132055, 132047, 2
132055, 132050, 2
132055, 132057, 2
132055, 132054, 2
132037, 132038, 1
132037, 132036, 2
132037, 132035, 2
132082, 132080, 2
132082, 132083, 1
132082, 132079, 2
132082, 132072, 2
132082, 132081, 2
132082, 132084, 2
132066, 132060, 2
132066, 132076, 2
132066, 132063, 2
132066, 132073, 2
132066, 132059, 2
132066, 132067, 8
132066, 132069, 1
132066, 132062, 2
132066, 132074, 2
132066, 132065, 2
132057, 132056, 2
132057, 132059, 1
132057, 132058, 3
132057, 132055, 2
132084, 132072, 2
132084, 132087, 2
132084, 132083, 2
132084, 132085, 1
132084, 132082, 2
132084, 132079, 2
132071, 132073, 2
132071, 132069, 2
132071, 132072, 1
132071, 132074, 2
132071, 132070, 2
132071, 132065, 2
132085, 132084, 2
132085, 132070, 2
132085, 132087, 2
132085, 132086, 1
132052, 132053, 1
132052, 132051, 2
132052, 132049, 2
132052, 132048, 2
132052, 132047, 2
132052, 132050, 2
132035, 132038, 2
132035, 132034, 2
132035, 132036, 1
132035, 132037, 2
132035, 132051, 2
132059, 132056, 2
132059, 132063, 2
132059, 132058, 2
132059, 132069, 2
132059, 132068, 2
132059, 132066, 2
132059, 132062, 2
132059, 132057, 2
132059, 132060, 3
132059, 132064, 2
132059, 132061, 2
132059, 132079, 2
132059, 132070, 2
132059, 132065, 1
132058, 132056, 2
132058, 132059, 2
132058, 132057, 2
132058, 132055, 2
132042, 132051, 2
132042, 132043, 1
132042, 132044, 2
132042, 132041, 2
132067, 132069, 2
132067, 132066, 2
132067, 132065, 2
132074, 132075, 1
132074, 132076, 2
132074, 132072, 2
132074, 132071, 2
132074, 132073, 2
132074, 132069, 2
132074, 132079, 2
132074, 132068, 2
132074, 132066, 2
132074, 132070, 2
132074, 132065, 2
132041, 132051, 2
132041, 132042, 1
132041, 132040, 2
132064, 132060, 2
132064, 132059, 2
132064, 132055, 2
132064, 132073, 2
132064, 132063, 2
132064, 132061, 2
132064, 132068, 8
132064, 132070, 1
132064, 132062, 2
132064, 132065, 2
132050, 132053, 2
132050, 132055, 2
132050, 132051, 2
132050, 132049, 2
132050, 132047, 2
132050, 132048, 2
132050, 132052, 2
132040, 132039, 2
132040, 132041, 1
132053, 132051, 2
132053, 132052, 2
132053, 132050, 2
132053, 132054, 1
132047, 132052, 2
132047, 132055, 2
132047, 132048, 2
132047, 132046, 2
132047, 132050, 2
132079, 132080, 2
132079, 132059, 2
132079, 132083, 2
132079, 132068, 2
132079, 132074, 2
132079, 132084, 2
132079, 132075, 2
132079, 132087, 2
132079, 132086, 2
132079, 132078, 2
132079, 132070, 2
132079, 132082, 2
132079, 132065, 2
