258687, 258686, 2
258687, 258690, 2
258687, 258689, 2
258687, 258688, 1
258686, 258687, 1
258686, 258685, 2
258686, 258689, 2
258686, 258688, 2
258690, 258687, 2
258690, 258689, 2
258690, 258688, 2
258685, 258686, 1
258685, 258689, 2
258689, 258686, 2
258689, 258687, 2
258689, 258685, 2
258689, 258690, 1
258689, 258688, 2
258688, 258686, 2
258688, 258687, 2
258688, 258690, 2
258688, 258689, 1
