257331, 257332, 0
257331, 257333, 1
257336, 257335, 2
257336, 257337, 1
257367, 257364, 2
257367, 257368, 1
257367, 257366, 2
257367, 257365, 2
257373, 257375, 2
257373, 257374, 1
257373, 257372, 2
257373, 257369, 2
257339, 257343, 2
257339, 257342, 2
257339, 257340, 1
257339, 257341, 2
257339, 257338, 2
257339, 257337, 2
257351, 257349, 2
257351, 257352, 2
257351, 257350, 2
257357, 257358, 1
257357, 257356, 2
257355, 257354, 2
257355, 257356, 1
257364, 257367, 2
257364, 257363, 2
257364, 257365, 1
257343, 257342, 2
257343, 257337, 2
257343, 257344, 1
257343, 257339, 2
257343, 257341, 2
257362, 257360, 2
257362, 257361, 2
257362, 257363, 1
257362, 257359, 2
257375, 257373, 2
257375, 257374, 2
257375, 257372, 2
257332, 257331, 2
257332, 257333, 2
257340, 257341, 1
257340, 257339, 2
257340, 257338, 2
257356, 257357, 1
257356, 257355, 2
257361, 257360, 2
257361, 257362, 2
257361, 257359, 2
257352, 257349, 2
257352, 257353, 1
257352, 257350, 2
257352, 257351, 2
257360, 257361, 3
257360, 257362, 2
257360, 257359, 2
257341, 257343, 2
257341, 257342, 2
257341, 257339, 2
257341, 257340, 2
257341, 257337, 2
257341, 257338, 2
257335, 257336, 1
257335, 257342, 2
257335, 257334, 2
257335, 257337, 2
257363, 257364, 1
257363, 257362, 2
257358, 257357, 2
257358, 257359, 1
257346, 257345, 2
257346, 257347, 1
257345, 257346, 1
257345, 257344, 2
257344, 257343, 2
257344, 257345, 1
257349, 257352, 1
257349, 257350, 0
257349, 257348, 2
257349, 257347, 2
257349, 257351, 2
257368, 257370, 2
257368, 257367, 2
257368, 257369, 1
257368, 257371, 2
257347, 257349, 2
257347, 257346, 2
257347, 257348, 1
257337, 257343, 2
257337, 257341, 2
257337, 257335, 2
257337, 257339, 2
257337, 257342, 1
257337, 257336, 2
257337, 257338, 0
257370, 257368, 2
257370, 257371, 1
257370, 257372, 2
257370, 257369, 2
257333, 257334, 1
257333, 257331, 2
257333, 257332, 2
257372, 257373, 0
257372, 257371, 2
257372, 257375, 2
257372, 257369, 2
257372, 257374, 2
257372, 257370, 2
257371, 257368, 2
257371, 257372, 1
257371, 257369, 2
257371, 257370, 2
257350, 257349, 2
257350, 257352, 2
257350, 257351, 3
257348, 257349, 1
257348, 257347, 2
257354, 257355, 1
257354, 257353, 2
257338, 257341, 2
257338, 257342, 2
257338, 257340, 2
257338, 257339, 1
257338, 257337, 2
257334, 257335, 1
257334, 257333, 2
257374, 257372, 2
257374, 257373, 2
257374, 257375, 1
257342, 257343, 1
257342, 257341, 2
257342, 257335, 2
257342, 257339, 2
257342, 257337, 2
257342, 257338, 2
257366, 257367, 1
257366, 257365, 2
257365, 257364, 2
257365, 257366, 1
257365, 257367, 2
257369, 257368, 2
257369, 257373, 2
257369, 257371, 2
257369, 257372, 2
257369, 257370, 1
257359, 257360, 0
257359, 257361, 2
257359, 257362, 1
257359, 257358, 2
257353, 257352, 2
257353, 257354, 1
