300415, 300416, 1
300415, 300419, 2
300415, 300417, 2
300417, 300419, 2
300417, 300415, 2
300417, 300420, 2
300417, 300418, 2
300417, 300416, 2
300416, 300419, 1
300416, 300415, 2
300416, 300420, 2
300416, 300418, 8
300416, 300417, 3
300419, 300417, 2
300419, 300415, 2
300419, 300420, 1
300419, 300418, 2
300419, 300416, 2
300420, 300419, 2
300420, 300417, 2
300420, 300418, 2
300420, 300416, 2
300418, 300417, 2
300418, 300420, 2
300418, 300419, 2
300418, 300416, 2
