160782, 160784, 1
160782, 160788, 2
160782, 160781, 2
160782, 160787, 2
160782, 160783, 2
160782, 160786, 2
160782, 160780, 2
160785, 160781, 2
160785, 160787, 2
160785, 160783, 2
160785, 160780, 2
160784, 160782, 2
160784, 160788, 2
160784, 160786, 1
160784, 160781, 2
160784, 160787, 2
160784, 160783, 2
160784, 160780, 2
160786, 160782, 2
160786, 160784, 2
160786, 160788, 2
160786, 160781, 2
160786, 160787, 2
160786, 160783, 2
160786, 160780, 2
160781, 160782, 2
160781, 160785, 2
160781, 160784, 2
160781, 160786, 2
160781, 160780, 2
160781, 160783, 1
160788, 160782, 2
160788, 160787, 2
160788, 160784, 2
160788, 160786, 2
160788, 160783, 2
160787, 160782, 2
160787, 160785, 2
160787, 160784, 2
160787, 160788, 3
160787, 160783, 2
160787, 160786, 2
160780, 160782, 2
160780, 160785, 2
160780, 160784, 2
160780, 160786, 2
160780, 160781, 1
160780, 160783, 2
160783, 160782, 4
160783, 160785, 6
160783, 160784, 2
160783, 160786, 2
160783, 160781, 2
160783, 160788, 2
160783, 160787, 1
160783, 160780, 2
