62644, 62643, 2
62637, 62636, 2
62637, 62633, 2
62637, 62638, 1
62635, 62636, 1
62635, 62634, 2
62640, 62639, 2
62640, 62641, 0
62640, 62642, 1
62641, 62639, 2
62641, 62640, 2
62641, 62642, 2
62643, 62644, 1
62643, 62642, 2
62639, 62641, 2
62639, 62640, 1
62639, 62638, 2
62636, 62635, 2
62636, 62637, 2
62633, 62634, 0
62633, 62637, 1
62633, 62638, 2
62638, 62639, 1
62638, 62633, 2
62638, 62637, 2
62634, 62635, 1
62634, 62633, 2
62642, 62641, 2
62642, 62640, 2
62642, 62643, 1
