65954, 65955, 1
65954, 65956, 2
65954, 65953, 2
65959, 65960, 1
65959, 65958, 2
65959, 65962, 2
65959, 65956, 2
65970, 65969, 2
65970, 65968, 2
65970, 65967, 2
65958, 65957, 2
65958, 65959, 1
65968, 65969, 1
65968, 65967, 2
65968, 65970, 2
65967, 65969, 2
65967, 65968, 1
65967, 65970, 2
65967, 65966, 2
65960, 65961, 1
65960, 65959, 2
65961, 65960, 2
65961, 65962, 1
65957, 65958, 1
65957, 65956, 2
65951, 65950, 2
65951, 65952, 1
65962, 65961, 2
65962, 65959, 2
65962, 65963, 1
65956, 65954, 2
65956, 65957, 1
65956, 65955, 2
65956, 65959, 2
65965, 65964, 2
65965, 65966, 1
65949, 65950, 1
65966, 65965, 2
65966, 65967, 1
65966, 65964, 2
65952, 65951, 2
65952, 65953, 1
65955, 65954, 2
65955, 65956, 1
65953, 65954, 1
65953, 65952, 2
65950, 65951, 1
65950, 65949, 2
65964, 65965, 1
65964, 65966, 2
65964, 65963, 2
65969, 65968, 2
65969, 65967, 2
65969, 65970, 1
65963, 65964, 1
65963, 65962, 2
