119323, 119324, 1
119323, 119322, 2
119315, 119314, 2
119315, 119316, 1
119315, 119313, 2
119316, 119314, 2
119316, 119317, 1
119316, 119315, 2
119321, 119320, 2
119321, 119322, 1
119317, 119316, 2
119317, 119318, 1
119318, 119317, 2
119318, 119319, 1
119319, 119320, 1
119319, 119318, 2
119320, 119321, 1
119320, 119319, 2
119314, 119313, 2
119314, 119315, 1
119314, 119316, 2
119313, 119314, 1
119313, 119315, 2
119322, 119321, 2
119322, 119324, 2
119322, 119323, 1
119324, 119322, 2
119324, 119323, 2
