134403, 134401, 2
134403, 134405, 2
134403, 134411, 2
134403, 134415, 2
134403, 134408, 2
134403, 134412, 2
134403, 134409, 2
134403, 134391, 2
134403, 134395, 2
134403, 134406, 2
134403, 134393, 2
134403, 134416, 2
134411, 134403, 2
134411, 134412, 1
134411, 134409, 2
134411, 134419, 2
134411, 134415, 2
134411, 134410, 2
134411, 134396, 2
134413, 134412, 2
134413, 134419, 2
134413, 134417, 2
134413, 134415, 2
134413, 134421, 2
134413, 134427, 2
134413, 134414, 1
134413, 134416, 2
134426, 134424, 2
134426, 134431, 2
134426, 134414, 2
134426, 134419, 2
134427, 134423, 2
134427, 134420, 2
134427, 134428, 2
134427, 134413, 2
134427, 134431, 2
134427, 134414, 2
134427, 134425, 2
134427, 134416, 2
134397, 134390, 2
134397, 134394, 2
134397, 134400, 1
134397, 134395, 2
134397, 134393, 2
134397, 134391, 2
134379, 134377, 2
134379, 134381, 2
134379, 134376, 2
134383, 134386, 1
134383, 134381, 2
134383, 134382, 2
134380, 134377, 2
134380, 134376, 2
134380, 134381, 2
134380, 134378, 2
134386, 134383, 2
134386, 134381, 2
134386, 134382, 2
134386, 134390, 2
134386, 134388, 1
134384, 134382, 2
134384, 134390, 2
134384, 134381, 2
134384, 134385, 0
134384, 134387, 2
134436, 134434, 2
134436, 134431, 2
134436, 134435, 2
134436, 134437, 2
134385, 134390, 2
134385, 134381, 2
134385, 134382, 2
134385, 134384, 2
134385, 134387, 1
134400, 134405, 2
134400, 134401, 1
134400, 134395, 2
134400, 134397, 2
134400, 134393, 2
134400, 134391, 2
134370, 134371, 2
134370, 134368, 2
134387, 134385, 2
134387, 134384, 2
134387, 134382, 2
134387, 134390, 2
134368, 134370, 6
134368, 134369, 4
134368, 134371, 1
134438, 134432, 2
134438, 134431, 2
134438, 134435, 2
134438, 134437, 2
134438, 134433, 2
134423, 134420, 2
134423, 134414, 2
134423, 134425, 1
134423, 134427, 2
134398, 134390, 2
134398, 134396, 2
134398, 134399, 1
134398, 134395, 2
134398, 134393, 2
134373, 134372, 2
134373, 134375, 1
134373, 134376, 2
134373, 134371, 2
134373, 134374, 2
134419, 134405, 2
134419, 134411, 2
134419, 134424, 2
134419, 134426, 2
134419, 134413, 2
134419, 134431, 2
134419, 134376, 2
134419, 134414, 2
134419, 134402, 2
134419, 134412, 2
134419, 134409, 2
134419, 134404, 2
134419, 134421, 0
134419, 134406, 2
134419, 134422, 2
134419, 134396, 2
134372, 134374, 2
134372, 134376, 2
134372, 134373, 1
134372, 134371, 2
134434, 134432, 2
134434, 134436, 2
134434, 134433, 2
134434, 134435, 1
134434, 134431, 2
134396, 134392, 2
134396, 134390, 2
134396, 134411, 2
134396, 134398, 0
134396, 134419, 2
134396, 134431, 2
134396, 134408, 2
134396, 134412, 2
134396, 134409, 2
134396, 134395, 2
134396, 134404, 2
134396, 134394, 2
134396, 134421, 2
134396, 134399, 2
134396, 134402, 2
134396, 134393, 2
134371, 134369, 2
134371, 134375, 2
134371, 134373, 2
134371, 134372, 3
134371, 134370, 2
134371, 134376, 1
134371, 134368, 2
134371, 134374, 0
134407, 134408, 1
134407, 134406, 2
134409, 134403, 2
134409, 134408, 2
134409, 134411, 2
134409, 134419, 2
134409, 134415, 2
134409, 134410, 1
134409, 134396, 2
134393, 134392, 2
134393, 134405, 2
134393, 134390, 2
134393, 134394, 0
134393, 134400, 2
134393, 134395, 1
134393, 134397, 2
134393, 134398, 2
134393, 134403, 2
134393, 134396, 2
134393, 134391, 2
134395, 134405, 1
134395, 134390, 2
134395, 134394, 2
134395, 134393, 2
134395, 134397, 6
134395, 134399, 2
134395, 134400, 2
134395, 134404, 2
134395, 134398, 2
134395, 134403, 2
134395, 134402, 2
134395, 134396, 4
134395, 134401, 2
134404, 134405, 2
134404, 134419, 2
134404, 134395, 2
134404, 134408, 2
134404, 134421, 2
134404, 134402, 2
134404, 134396, 2
134381, 134390, 2
134381, 134382, 1
134381, 134377, 2
134381, 134380, 2
134381, 134383, 2
134381, 134376, 2
134381, 134384, 2
134381, 134386, 2
134381, 134389, 2
134381, 134379, 2
134381, 134385, 2
134381, 134378, 2
134402, 134405, 2
134402, 134419, 2
134402, 134395, 2
134402, 134404, 1
134402, 134421, 2
134402, 134399, 2
134402, 134396, 2
134391, 134392, 2
134391, 134390, 2
134391, 134394, 2
134391, 134400, 2
134391, 134397, 2
134391, 134415, 2
134391, 134431, 2
134391, 134403, 2
134391, 134393, 2
134392, 134390, 2
134392, 134396, 2
134392, 134393, 1
134392, 134391, 2
134369, 134371, 2
134369, 134368, 2
134437, 134436, 2
134437, 134435, 2
134437, 134438, 0
134418, 134417, 2
134418, 134420, 1
134418, 134414, 2
134425, 134423, 2
134425, 134428, 1
134425, 134414, 2
134425, 134427, 3
134424, 134414, 2
134424, 134419, 2
134424, 134426, 1
134424, 134422, 2
134432, 134438, 2
134432, 134434, 2
134432, 134431, 2
134432, 134433, 1
134420, 134423, 1
134420, 134418, 2
134420, 134414, 2
134420, 134427, 2
134417, 134418, 1
134417, 134415, 2
134417, 134414, 2
134417, 134413, 2
134417, 134416, 2
134421, 134412, 2
134421, 134419, 2
134421, 134404, 2
134421, 134414, 2
134421, 134413, 2
134421, 134422, 1
134421, 134396, 2
134421, 134402, 2
134375, 134374, 2
134375, 134376, 2
134375, 134373, 2
134375, 134371, 2
134399, 134405, 2
134399, 134396, 2
134399, 134398, 2
134399, 134402, 1
134399, 134395, 2
134414, 134423, 2
134414, 134418, 2
134414, 134424, 2
134414, 134430, 2
134414, 134419, 4
134414, 134427, 2
134414, 134415, 6
134414, 134431, 1
134414, 134413, 2
134414, 134426, 2
134414, 134425, 2
134414, 134412, 2
134414, 134420, 2
134414, 134428, 2
134414, 134417, 2
134414, 134421, 2
134414, 134429, 2
134414, 134422, 2
134414, 134416, 2
134416, 134412, 2
134416, 134431, 2
134416, 134413, 2
134416, 134415, 2
134416, 134417, 2
134416, 134427, 2
134416, 134403, 2
134416, 134414, 2
134405, 134394, 2
134405, 134419, 2
134405, 134399, 2
134405, 134406, 1
134405, 134408, 2
134405, 134400, 2
134405, 134395, 2
134405, 134415, 2
134405, 134404, 2
134405, 134403, 2
134405, 134402, 2
134405, 134393, 2
134390, 134392, 1
134390, 134394, 2
134390, 134397, 2
134390, 134384, 2
134390, 134382, 2
134390, 134386, 2
134390, 134389, 2
134390, 134385, 2
134390, 134393, 2
134390, 134395, 2
134390, 134398, 2
134390, 134381, 2
134390, 134387, 2
134390, 134396, 2
134390, 134391, 0
134382, 134386, 2
134382, 134389, 2
134382, 134385, 2
134382, 134383, 6
134382, 134381, 2
134382, 134387, 2
134382, 134390, 1
134382, 134384, 4
134382, 134388, 2
134430, 134414, 2
134430, 134431, 2
134430, 134429, 2
134408, 134405, 2
134408, 134406, 2
134408, 134409, 1
134408, 134407, 2
134408, 134404, 2
134408, 134415, 2
134408, 134403, 2
134408, 134396, 2
134377, 134376, 2
134377, 134380, 2
134377, 134379, 6
134377, 134378, 4
134377, 134381, 1
134415, 134405, 2
134415, 134411, 2
134415, 134403, 2
134415, 134413, 2
134415, 134408, 2
134415, 134412, 2
134415, 134409, 2
134415, 134391, 2
134415, 134417, 1
134415, 134406, 2
134415, 134414, 2
134415, 134416, 3
134431, 134438, 2
134431, 134430, 2
134431, 134419, 2
134431, 134427, 2
134431, 134434, 2
134431, 134428, 2
134431, 134426, 2
134431, 134436, 2
134431, 134391, 2
134431, 134432, 1
134431, 134414, 2
134431, 134435, 2
134431, 134396, 2
134431, 134416, 2
134410, 134409, 2
134410, 134411, 1
134412, 134411, 2
134412, 134413, 1
134412, 134419, 2
134412, 134415, 2
134412, 134421, 2
134412, 134403, 2
134412, 134414, 2
134412, 134396, 2
134412, 134416, 2
134435, 134438, 2
134435, 134434, 2
134435, 134436, 3
134435, 134437, 1
134435, 134431, 2
134394, 134405, 2
134394, 134390, 2
134394, 134393, 2
134394, 134395, 2
134394, 134397, 2
134394, 134396, 2
134394, 134391, 2
134389, 134390, 2
134389, 134381, 2
134389, 134382, 2
134389, 134388, 2
134374, 134372, 2
134374, 134375, 2
134374, 134376, 2
134374, 134373, 2
134374, 134371, 2
134376, 134375, 2
134376, 134379, 2
134376, 134378, 2
134376, 134373, 2
134376, 134419, 2
134376, 134377, 1
134376, 134372, 2
134376, 134381, 2
134376, 134380, 2
134376, 134371, 2
134376, 134374, 2
134401, 134403, 1
134401, 134400, 2
134401, 134395, 2
134428, 134429, 1
134428, 134431, 2
134428, 134414, 2
134428, 134425, 2
134428, 134427, 2
134429, 134414, 2
134429, 134430, 1
134429, 134428, 2
134378, 134377, 2
134378, 134376, 2
134378, 134381, 2
134378, 134380, 1
134433, 134434, 1
134433, 134438, 2
134433, 134432, 2
134406, 134405, 2
134406, 134419, 2
134406, 134407, 1
134406, 134408, 2
134406, 134415, 2
134406, 134403, 2
134422, 134414, 2
134422, 134421, 2
134422, 134424, 1
134422, 134419, 2
134388, 134386, 2
134388, 134389, 1
134388, 134382, 2
