62420, 62421, 2
62420, 62419, 2
62428, 62427, 2
62428, 62425, 2
62424, 62425, 2
62424, 62423, 2
62424, 62426, 1
62423, 62425, 0
62423, 62424, 3
62423, 62422, 2
62417, 62418, 1
62418, 62417, 2
62418, 62419, 1
62421, 62420, 2
62421, 62419, 2
62421, 62422, 1
62419, 62420, 3
62419, 62418, 2
62419, 62421, 1
62427, 62425, 2
62427, 62428, 1
62427, 62426, 2
62426, 62427, 1
62426, 62425, 2
62426, 62424, 2
62425, 62427, 2
62425, 62428, 2
62425, 62424, 2
62425, 62423, 2
62425, 62426, 2
62422, 62423, 1
62422, 62421, 2
