222131, 222132, 1
222131, 222129, 2
222131, 222130, 2
222131, 222133, 2
222131, 222128, 2
222129, 222131, 1
222129, 222130, 3
222129, 222128, 2
222130, 222131, 2
222130, 222129, 2
222130, 222133, 2
222130, 222128, 2
222127, 222128, 1
222128, 222131, 2
222128, 222129, 1
222128, 222130, 2
222128, 222127, 2
222132, 222131, 2
222132, 222133, 3
222132, 222134, 1
222134, 222132, 2
222134, 222133, 2
222133, 222131, 2
222133, 222130, 2
222133, 222134, 2
222133, 222132, 2
