168808, 168809, 1
168810, 168811, 3
168810, 168812, 2
168810, 168809, 2
168809, 168808, 2
168809, 168810, 3
168809, 168812, 1
168812, 168810, 2
168812, 168809, 2
168812, 168811, 2
168811, 168810, 2
168811, 168812, 2
