299673, 299672, 2
299673, 299674, 1
299673, 299670, 2
299673, 299666, 2
299673, 299671, 2
299651, 299653, 8
299651, 299666, 2
299651, 299654, 1
299651, 299648, 2
299651, 299649, 2
299651, 299652, 6
299651, 299650, 2
299651, 299655, 2
299676, 299679, 2
299676, 299674, 2
299676, 299675, 2
299676, 299678, 2
299676, 299677, 2
299677, 299679, 2
299677, 299678, 2
299677, 299676, 2
299677, 299675, 2
299663, 299662, 2
299663, 299664, 1
299663, 299661, 2
299682, 299683, 1
299682, 299670, 2
299682, 299681, 2
299682, 299666, 2
299682, 299680, 2
299682, 299678, 2
299682, 299652, 2
299674, 299673, 2
299674, 299670, 2
299674, 299675, 1
299674, 299678, 2
299674, 299676, 2
299674, 299666, 2
299646, 299647, 2
299646, 299645, 2
299646, 299653, 2
299646, 299650, 2
299646, 299655, 2
299652, 299651, 2
299652, 299685, 2
299652, 299682, 2
299652, 299669, 2
299652, 299661, 2
299652, 299649, 2
299652, 299647, 2
299652, 299653, 2
299652, 299666, 2
299652, 299654, 2
299652, 299658, 2
299652, 299645, 2
299652, 299648, 2
299652, 299664, 2
299652, 299650, 2
299649, 299647, 2
299649, 299651, 1
299649, 299648, 6
299649, 299652, 2
299649, 299650, 8
299665, 299664, 2
299665, 299670, 2
299665, 299667, 1
299665, 299668, 2
299665, 299666, 2
299647, 299646, 2
299647, 299645, 2
299647, 299648, 2
299647, 299652, 2
299647, 299650, 2
299647, 299649, 1
299669, 299670, 6
299669, 299666, 2
299669, 299671, 1
299669, 299667, 2
299669, 299668, 2
299669, 299652, 2
299653, 299651, 2
299653, 299655, 2
299653, 299654, 2
299653, 299646, 2
299653, 299652, 2
299653, 299650, 2
299675, 299670, 2
299675, 299677, 8
299675, 299679, 2
299675, 299678, 1
299675, 299676, 3
299675, 299674, 2
299675, 299666, 2
299671, 299673, 2
299671, 299670, 2
299671, 299669, 2
299671, 299667, 2
299671, 299668, 2
299671, 299672, 1
299664, 299665, 1
299664, 299670, 2
299664, 299652, 2
299664, 299663, 2
299664, 299666, 2
299657, 299658, 1
299657, 299655, 2
299657, 299656, 2
299657, 299654, 2
299648, 299647, 2
299648, 299651, 2
299648, 299652, 2
299648, 299666, 2
299648, 299654, 2
299648, 299658, 2
299648, 299645, 2
299648, 299661, 2
299648, 299650, 2
299648, 299649, 2
299684, 299683, 2
299684, 299685, 1
299650, 299647, 2
299650, 299651, 2
299650, 299655, 2
299650, 299646, 2
299650, 299653, 2
299650, 299648, 2
299650, 299652, 2
299650, 299649, 2
299655, 299646, 2
299655, 299651, 2
299655, 299653, 2
299655, 299656, 2
299655, 299654, 2
299655, 299658, 2
299655, 299657, 2
299655, 299650, 2
299681, 299682, 1
299681, 299680, 2
299685, 299683, 2
299685, 299670, 2
299685, 299684, 2
299685, 299652, 2
299660, 299659, 2
299660, 299661, 1
299670, 299673, 2
299670, 299685, 2
299670, 299682, 2
299670, 299674, 2
299670, 299667, 2
299670, 299665, 2
299670, 299666, 2
299670, 299671, 2
299670, 299664, 2
299670, 299669, 2
299670, 299668, 2
299670, 299678, 2
299670, 299675, 2
299678, 299677, 2
299678, 299670, 2
299678, 299666, 2
299678, 299680, 1
299678, 299682, 2
299678, 299679, 3
299678, 299674, 2
299678, 299676, 2
299678, 299675, 2
299667, 299665, 2
299667, 299670, 2
299667, 299666, 6
299667, 299669, 1
299667, 299671, 2
299667, 299668, 8
299661, 299662, 1
299661, 299666, 2
299661, 299663, 2
299661, 299660, 2
299661, 299658, 2
299661, 299648, 2
299661, 299652, 2
299656, 299655, 2
299656, 299658, 2
299656, 299657, 2
299656, 299654, 2
299658, 299659, 1
299658, 299655, 2
299658, 299656, 2
299658, 299666, 2
299658, 299654, 2
299658, 299648, 2
299658, 299657, 2
299658, 299652, 2
299658, 299661, 2
299683, 299682, 2
299683, 299684, 1
299683, 299685, 2
299659, 299660, 1
299659, 299658, 2
299666, 299673, 2
299666, 299651, 2
299666, 299670, 2
299666, 299669, 2
299666, 299682, 2
299666, 299678, 2
299666, 299667, 2
299666, 299652, 2
299666, 299661, 2
299666, 299665, 2
299666, 299675, 2
299666, 299654, 2
299666, 299658, 2
299666, 299645, 2
299666, 299648, 2
299666, 299668, 2
299666, 299674, 2
299666, 299664, 2
299680, 299682, 2
299680, 299679, 2
299680, 299678, 2
299680, 299681, 1
299654, 299651, 2
299654, 299653, 2
299654, 299656, 8
299654, 299666, 2
299654, 299648, 2
299654, 299658, 2
299654, 299657, 1
299654, 299652, 2
299654, 299655, 3
299662, 299661, 2
299662, 299663, 1
299679, 299678, 2
299679, 299676, 2
299679, 299677, 2
299679, 299680, 2
299679, 299675, 2
299645, 299647, 1
299645, 299648, 2
299645, 299652, 2
299645, 299666, 2
299645, 299646, 3
299668, 299665, 2
299668, 299670, 2
299668, 299666, 2
299668, 299671, 2
299668, 299667, 2
299668, 299669, 2
299672, 299673, 1
299672, 299671, 2
