340613, 340615, 1
340613, 340612, 2
340613, 340614, 0
340614, 340612, 2
340614, 340615, 2
340614, 340613, 2
340617, 340618, 0
340617, 340615, 2
340617, 340616, 2
340615, 340613, 2
340615, 340614, 2
340615, 340617, 2
340615, 340618, 2
340615, 340612, 2
340615, 340616, 1
340611, 340612, 1
340612, 340615, 2
340612, 340611, 2
340612, 340613, 1
340612, 340614, 2
340618, 340615, 2
340618, 340616, 2
340618, 340617, 2
340616, 340615, 2
340616, 340618, 2
340616, 340617, 1
