294239, 294241, 1
294239, 294238, 2
294239, 294240, 2
294239, 294237, 2
294242, 294241, 2
294242, 294238, 2
294242, 294243, 1
294242, 294240, 2
294243, 294242, 2
294243, 294244, 1
294243, 294246, 2
294243, 294240, 2
294243, 294245, 2
294237, 294241, 2
294237, 294238, 3
294237, 294239, 1
294237, 294240, 2
294241, 294237, 2
294241, 294242, 1
294241, 294239, 2
294241, 294238, 2
294241, 294240, 6
294238, 294237, 2
294238, 294242, 2
294238, 294245, 2
294238, 294241, 2
294238, 294239, 2
294238, 294240, 2
294244, 294246, 1
294244, 294243, 2
294244, 294245, 3
294245, 294238, 2
294245, 294244, 2
294245, 294246, 2
294245, 294243, 2
294246, 294244, 2
294246, 294240, 2
294246, 294243, 2
294246, 294245, 2
294240, 294242, 2
294240, 294243, 2
294240, 294241, 2
294240, 294237, 2
294240, 294238, 2
294240, 294239, 2
294240, 294246, 2
