72383, 72384, 1
72383, 72382, 2
72384, 72383, 2
72384, 72385, 1
72379, 72380, 1
72385, 72386, 1
72385, 72384, 2
72382, 72383, 1
72382, 72381, 2
72380, 72381, 1
72380, 72379, 2
72381, 72380, 2
72381, 72382, 1
72386, 72385, 2
