72025, 72026, 1
72025, 72024, 2
72025, 72027, 2
72024, 72026, 2
72024, 72025, 1
72024, 72023, 2
72028, 72027, 2
72027, 72026, 2
72027, 72025, 2
72027, 72028, 0
72026, 72027, 1
72026, 72025, 2
72026, 72024, 2
72023, 72024, 1
