294998, 294988, 2
294998, 294996, 2
294998, 294999, 2
294998, 294995, 2
294998, 294993, 2
294998, 294990, 2
294998, 294994, 2
294998, 294997, 2
294988, 294998, 2
294988, 294989, 3
294988, 294990, 1
294996, 294998, 2
294996, 294995, 2
294996, 294997, 1
294999, 294998, 6
294999, 294997, 2
294995, 294998, 2
294995, 294994, 2
294995, 294996, 1
294991, 294992, 6
294991, 294990, 2
294991, 294993, 1
294993, 294998, 2
294993, 294991, 2
294993, 294994, 1
294993, 294992, 2
294989, 294988, 2
294989, 294990, 2
294997, 294998, 2
294997, 294996, 2
294997, 294999, 1
294994, 294998, 2
294994, 294993, 2
294994, 294995, 1
294992, 294991, 2
294992, 294993, 2
294992, 294990, 2
294990, 294998, 2
294990, 294988, 2
294990, 294989, 2
294990, 294991, 1
294990, 294992, 2
