118174, 118177, 2
118174, 118176, 8
118174, 118179, 1
118174, 118175, 3
118174, 118178, 2
118183, 118179, 2
118183, 118182, 2
118176, 118174, 2
118176, 118179, 2
118176, 118175, 2
118176, 118177, 1
118176, 118180, 2
118176, 118178, 2
118176, 118181, 2
118179, 118174, 2
118179, 118183, 2
118179, 118176, 2
118179, 118175, 2
118179, 118177, 2
118179, 118180, 3
118179, 118182, 2
118179, 118178, 2
118179, 118181, 2
118175, 118174, 2
118175, 118176, 2
118175, 118179, 2
118175, 118177, 2
118175, 118180, 2
118175, 118178, 2
118175, 118181, 2
118177, 118174, 2
118177, 118176, 2
118177, 118179, 2
118177, 118175, 2
118177, 118180, 2
118177, 118178, 1
118177, 118181, 2
118180, 118176, 2
118180, 118179, 2
118180, 118175, 2
118180, 118177, 2
118180, 118178, 2
118180, 118181, 1
118182, 118183, 1
118182, 118179, 2
118182, 118181, 2
118178, 118174, 2
118178, 118176, 2
118178, 118179, 2
118178, 118175, 2
118178, 118177, 2
118178, 118180, 2
118181, 118176, 2
118181, 118179, 2
118181, 118175, 2
118181, 118177, 2
118181, 118180, 2
118181, 118182, 1
