132962, 132961, 2
132962, 132963, 1
132963, 132962, 2
132963, 132964, 1
132963, 132961, 2
132963, 132965, 2
132964, 132963, 2
132964, 132965, 1
132960, 132961, 1
132961, 132962, 1
132961, 132963, 2
132961, 132960, 2
132965, 132964, 2
132965, 132963, 2
