216148, 216147, 2
216148, 216146, 2
216148, 216149, 1
216148, 216151, 2
216146, 216148, 2
216146, 216147, 1
216146, 216145, 2
216153, 216154, 2
216153, 216152, 2
216149, 216148, 2
216149, 216150, 0
216149, 216152, 1
216149, 216151, 8
216150, 216152, 2
216150, 216149, 2
216150, 216151, 2
216147, 216148, 1
216147, 216146, 2
216147, 216145, 2
216152, 216150, 2
216152, 216154, 1
216152, 216153, 0
216152, 216149, 2
216152, 216151, 2
216145, 216147, 2
216145, 216146, 1
216154, 216153, 2
216154, 216152, 2
216154, 216151, 2
216151, 216148, 2
216151, 216150, 2
216151, 216154, 2
216151, 216152, 2
216151, 216149, 2
