168688, 168690, 2
168688, 168689, 1
168691, 168690, 2
168691, 168692, 1
168690, 168688, 2
168690, 168691, 1
168690, 168692, 2
168690, 168689, 2
168689, 168688, 2
168689, 168690, 1
168692, 168691, 2
168692, 168690, 2
