334012, 334011, 2
334012, 334013, 1
334012, 334010, 2
334014, 334015, 1
334014, 334013, 2
334008, 334009, 1
334008, 334007, 2
334011, 334012, 2
334011, 334010, 2
334011, 334013, 2
334011, 334009, 2
334013, 334012, 2
334013, 334015, 2
334013, 334011, 2
334013, 334014, 1
334015, 334014, 2
334015, 334013, 2
334015, 334016, 0
334010, 334012, 1
334010, 334011, 8
334010, 334009, 2
334009, 334008, 2
334009, 334011, 2
334009, 334010, 1
334018, 334017, 2
334017, 334018, 1
334017, 334016, 2
334006, 334007, 1
334016, 334015, 2
334016, 334017, 1
334007, 334008, 1
334007, 334006, 2
