134044, 134043, 2
134040, 134039, 2
134040, 134041, 8
134040, 134042, 1
134041, 134040, 2
134041, 134042, 2
134038, 134039, 1
134039, 134040, 1
134039, 134038, 2
134043, 134044, 1
134043, 134042, 2
134042, 134043, 1
134042, 134040, 2
134042, 134041, 2
