593365, 593366, 1
593372, 593371, 2
593372, 593373, 1
593366, 593368, 1
593366, 593365, 2
593366, 593367, 0
593369, 593370, 1
593369, 593368, 2
593370, 593371, 1
593370, 593369, 2
593370, 593368, 2
593373, 593371, 2
593373, 593372, 2
593368, 593370, 2
593368, 593369, 1
593368, 593367, 2
593368, 593366, 2
593367, 593368, 2
593367, 593366, 2
593371, 593370, 2
593371, 593373, 2
593371, 593372, 1
