641706, 641709, 2
641706, 641708, 2
641706, 641705, 2
641706, 641707, 1
641714, 641715, 1
641714, 641710, 2
641714, 641712, 2
641714, 641713, 2
641711, 641709, 2
641711, 641708, 2
641711, 641710, 2
641711, 641712, 2
641711, 641713, 2
641712, 641711, 2
641712, 641710, 2
641712, 641714, 1
641712, 641713, 3
641705, 641706, 3
641705, 641708, 2
641705, 641707, 2
641705, 641709, 1
641709, 641706, 2
641709, 641708, 2
641709, 641711, 2
641709, 641710, 1
641709, 641705, 2
641708, 641706, 2
641708, 641711, 2
641708, 641705, 2
641708, 641707, 2
641708, 641709, 2
641713, 641711, 2
641713, 641712, 2
641713, 641714, 2
641710, 641709, 2
641710, 641711, 8
641710, 641712, 1
641710, 641714, 2
641715, 641714, 2
641707, 641706, 2
641707, 641708, 1
641707, 641705, 2
