608366, 608367, 1
608366, 608365, 2
608365, 608366, 1
608365, 608367, 2
608372, 608371, 2
608368, 608367, 2
608368, 608369, 1
608367, 608366, 2
608367, 608365, 2
608367, 608368, 1
608369, 608370, 1
608369, 608368, 2
608371, 608370, 2
608371, 608372, 1
608370, 608369, 2
608370, 608371, 1
