554324, 554323, 2
554324, 554321, 2
554324, 554322, 2
554324, 554326, 2
554324, 554325, 1
554326, 554323, 2
554326, 554324, 2
554326, 554325, 2
554325, 554324, 2
554325, 554322, 2
554325, 554326, 3
554323, 554320, 2
554323, 554324, 2
554323, 554321, 2
554323, 554322, 2
554323, 554326, 2
554321, 554323, 2
554321, 554324, 2
554321, 554322, 1
554321, 554320, 2
554322, 554323, 3
554322, 554324, 1
554322, 554321, 2
554322, 554320, 2
554322, 554325, 2
554320, 554323, 2
554320, 554321, 1
554320, 554322, 2
