523246, 523245, 2
523244, 523243, 2
523244, 523245, 1
523239, 523241, 1
523239, 523240, 8
523241, 523242, 1
523241, 523239, 2
523241, 523240, 2
523242, 523241, 2
523242, 523243, 1
523243, 523242, 2
523243, 523244, 1
523240, 523241, 2
523240, 523239, 2
523245, 523244, 2
523245, 523246, 1
