514988, 514987, 2
514988, 514989, 2
514988, 514986, 2
514988, 514990, 2
514989, 514988, 2
514989, 514987, 2
514989, 514986, 2
514989, 514990, 1
514993, 514992, 2
514993, 514994, 1
514994, 514995, 1
514994, 514993, 2
514986, 514988, 2
514986, 514987, 0
514986, 514989, 1
514986, 514990, 2
514992, 514990, 2
514992, 514991, 2
514992, 514993, 1
514991, 514992, 1
514991, 514990, 2
514987, 514988, 1
514987, 514989, 2
514987, 514986, 2
514987, 514990, 2
514996, 514997, 1
514996, 514995, 2
514997, 514996, 2
514990, 514988, 2
514990, 514989, 2
514990, 514991, 1
514990, 514987, 2
514990, 514986, 2
514990, 514992, 2
514995, 514996, 1
514995, 514994, 2
