656618, 656620, 2
656618, 656619, 1
656618, 656621, 2
656618, 656617, 2
656618, 656616, 2
656616, 656617, 3
656616, 656618, 1
656617, 656620, 2
656617, 656616, 2
656617, 656618, 2
656619, 656620, 3
656619, 656621, 1
656619, 656618, 2
656627, 656626, 2
656627, 656625, 2
656627, 656624, 2
656621, 656620, 2
656621, 656619, 2
656621, 656623, 2
656621, 656618, 2
656621, 656622, 1
656626, 656627, 2
656626, 656624, 2
656626, 656625, 2
656625, 656627, 1
656625, 656624, 2
656625, 656626, 3
656620, 656619, 2
656620, 656621, 2
656620, 656617, 2
656620, 656618, 2
656620, 656623, 2
656622, 656621, 2
656622, 656623, 1
656624, 656627, 2
656624, 656626, 2
656624, 656625, 1
656624, 656623, 2
656623, 656620, 2
656623, 656621, 2
656623, 656624, 1
656623, 656622, 2
