536821, 536819, 2
536821, 536823, 2
536821, 536820, 2
536821, 536822, 1
536824, 536823, 2
536824, 536822, 2
536822, 536821, 2
536822, 536823, 3
536822, 536824, 0
536819, 536821, 1
536819, 536820, 3
536823, 536821, 2
536823, 536824, 2
536823, 536822, 2
536820, 536819, 2
536820, 536821, 2
