657371, 657372, 1
657371, 657368, 2
657371, 657366, 2
657371, 657370, 2
657370, 657371, 2
657370, 657368, 2
657370, 657369, 2
657370, 657372, 2
657355, 657353, 2
657355, 657356, 3
657355, 657354, 2
657355, 657360, 2
657355, 657357, 1
657355, 657358, 2
657355, 657350, 2
657367, 657368, 2
657367, 657366, 2
657367, 657364, 2
657367, 657369, 1
657361, 657365, 2
657361, 657359, 2
657361, 657363, 2
657361, 657362, 1
657361, 657360, 2
657361, 657364, 2
657368, 657371, 2
657368, 657365, 2
657368, 657369, 2
657368, 657370, 2
657368, 657372, 2
657368, 657366, 2
657368, 657367, 2
657368, 657360, 2
657353, 657355, 2
657353, 657359, 2
657353, 657350, 2
657353, 657352, 2
657353, 657354, 2
657369, 657367, 2
657369, 657368, 2
657369, 657370, 1
657354, 657355, 1
657354, 657353, 2
657354, 657350, 2
657354, 657349, 2
657372, 657371, 2
657372, 657368, 2
657372, 657366, 2
657372, 657370, 2
657360, 657363, 2
657360, 657364, 2
657360, 657368, 2
657360, 657365, 2
657360, 657359, 2
657360, 657356, 2
657360, 657355, 2
657360, 657362, 2
657360, 657358, 2
657360, 657366, 2
657360, 657361, 2
657350, 657356, 2
657350, 657353, 2
657350, 657352, 2
657350, 657349, 2
657350, 657354, 2
657350, 657355, 2
657350, 657351, 2
657359, 657353, 2
657359, 657363, 2
657359, 657365, 2
657359, 657357, 2
657359, 657360, 2
657359, 657358, 2
657359, 657361, 1
657352, 657351, 2
657352, 657353, 1
657352, 657350, 2
657349, 657351, 0
657349, 657350, 3
657349, 657356, 2
657349, 657354, 1
657362, 657365, 2
657362, 657360, 2
657362, 657361, 2
657362, 657363, 1
657357, 657355, 2
657357, 657358, 1
657357, 657359, 2
657357, 657356, 2
657358, 657356, 2
657358, 657365, 8
657358, 657359, 0
657358, 657363, 2
657358, 657355, 2
657358, 657357, 2
657358, 657360, 3
657364, 657365, 2
657364, 657363, 2
657364, 657366, 2
657364, 657367, 2
657364, 657360, 2
657364, 657361, 2
657356, 657349, 2
657356, 657355, 2
657356, 657358, 2
657356, 657357, 2
657356, 657360, 2
657356, 657350, 2
657366, 657371, 1
657366, 657368, 3
657366, 657365, 2
657366, 657372, 2
657366, 657367, 0
657366, 657360, 2
657366, 657364, 2
657363, 657365, 2
657363, 657364, 1
657363, 657362, 2
657363, 657360, 2
657363, 657358, 2
657363, 657361, 2
657363, 657359, 2
657365, 657368, 2
657365, 657366, 2
657365, 657364, 2
657365, 657363, 2
657365, 657362, 2
657365, 657360, 2
657365, 657358, 2
657365, 657361, 2
657365, 657359, 2
657351, 657350, 2
657351, 657349, 2
657351, 657352, 1
