406101, 406098, 2
406101, 406102, 2
406101, 406103, 2
406101, 406100, 2
406103, 406101, 2
406103, 406102, 2
406103, 406100, 2
406098, 406101, 2
406098, 406100, 1
406098, 406097, 2
406098, 406099, 3
406097, 406098, 1
406100, 406101, 2
406100, 406102, 1
406100, 406103, 2
406100, 406099, 2
406100, 406098, 2
406099, 406100, 2
406099, 406098, 2
406102, 406101, 6
406102, 406100, 2
406102, 406103, 1
