623718, 623723, 1
623718, 623720, 0
623718, 623722, 2
623718, 623721, 2
623718, 623719, 3
623723, 623718, 2
623723, 623724, 1
623723, 623722, 2
623723, 623720, 2
623723, 623725, 2
623723, 623721, 2
623723, 623719, 2
623720, 623718, 2
623720, 623723, 2
623720, 623722, 2
623720, 623721, 2
623720, 623719, 2
623722, 623718, 2
623722, 623720, 2
623722, 623724, 2
623722, 623726, 2
623722, 623721, 2
623722, 623723, 2
623724, 623726, 2
623724, 623725, 1
623724, 623722, 2
623724, 623723, 2
623727, 623726, 2
623727, 623725, 2
623725, 623726, 3
623725, 623727, 0
623725, 623724, 2
623725, 623723, 2
623726, 623724, 2
623726, 623727, 2
623726, 623725, 2
623726, 623721, 2
623726, 623722, 2
623721, 623718, 2
623721, 623720, 2
623721, 623722, 1
623721, 623719, 2
623721, 623726, 2
623721, 623723, 2
623719, 623718, 2
623719, 623720, 2
623719, 623721, 1
623719, 623723, 2
