592908, 592910, 2
592908, 592907, 2
592908, 592909, 1
592912, 592911, 2
592912, 592910, 2
592909, 592908, 2
592909, 592907, 2
592909, 592911, 2
592909, 592910, 1
592907, 592908, 3
592907, 592911, 1
592907, 592909, 2
592911, 592912, 3
592911, 592907, 2
592911, 592909, 2
592911, 592910, 2
592910, 592908, 2
592910, 592912, 2
592910, 592911, 2
592910, 592909, 2
