379641, 379642, 2
379641, 379640, 2
379641, 379643, 2
379641, 379639, 2
379640, 379641, 1
379640, 379642, 2
379640, 379639, 2
379646, 379645, 2
379644, 379645, 1
379644, 379643, 2
379642, 379641, 2
379642, 379640, 2
379642, 379643, 1
379642, 379639, 2
379639, 379641, 2
379639, 379640, 0
379639, 379642, 1
379645, 379646, 1
379645, 379644, 2
379645, 379643, 2
379643, 379641, 2
379643, 379645, 2
379643, 379644, 1
379643, 379642, 2
