522941, 522940, 2
522941, 522942, 2
522941, 522943, 2
522941, 522939, 2
522941, 522935, 2
522941, 522944, 2
522941, 522938, 2
522944, 522941, 2
522944, 522940, 2
522944, 522942, 2
522944, 522945, 1
522944, 522943, 2
522944, 522938, 2
522946, 522947, 1
522946, 522945, 2
522963, 522961, 2
522963, 522962, 2
522963, 522964, 2
522925, 522926, 1
522925, 522927, 2
522925, 522924, 2
522925, 522928, 2
522956, 522958, 2
522956, 522955, 2
522956, 522952, 2
522956, 522954, 2
522956, 522957, 1
522956, 522953, 2
522952, 522956, 2
522952, 522955, 2
522952, 522951, 2
522952, 522954, 2
522952, 522957, 2
522952, 522953, 1
522934, 522932, 2
522934, 522933, 2
522934, 522928, 2
522934, 522936, 2
522934, 522931, 2
522934, 522935, 1
522945, 522944, 2
522945, 522946, 1
522930, 522931, 1
522930, 522929, 2
522932, 522931, 2
522932, 522935, 2
522932, 522933, 1
522932, 522934, 2
522954, 522956, 0
522954, 522958, 1
522954, 522955, 6
522954, 522952, 2
522954, 522953, 2
522954, 522957, 2
522938, 522941, 2
522938, 522944, 2
522938, 522942, 2
522938, 522939, 1
522938, 522943, 2
522938, 522937, 2
522938, 522940, 2
522949, 522947, 2
522949, 522948, 2
522949, 522950, 2
522929, 522926, 2
522929, 522927, 2
522929, 522930, 1
522929, 522928, 2
522962, 522963, 3
522962, 522964, 1
522962, 522961, 2
522961, 522963, 2
522961, 522960, 2
522961, 522962, 1
522959, 522958, 2
522959, 522960, 1
522931, 522935, 2
522931, 522932, 1
522931, 522930, 2
522931, 522933, 2
522931, 522934, 2
522940, 522941, 6
522940, 522944, 1
522940, 522942, 0
522940, 522943, 2
522940, 522939, 2
522940, 522938, 2
522955, 522956, 2
522955, 522958, 2
522955, 522952, 2
522955, 522954, 2
522955, 522953, 2
522955, 522957, 2
522928, 522926, 2
522928, 522929, 2
522928, 522927, 2
522928, 522925, 2
522928, 522922, 2
522928, 522935, 2
522928, 522934, 2
522936, 522935, 2
522936, 522937, 1
522936, 522933, 2
522936, 522934, 2
522935, 522941, 2
522935, 522932, 2
522935, 522933, 2
522935, 522928, 2
522935, 522936, 2
522935, 522931, 2
522935, 522934, 2
522957, 522956, 2
522957, 522958, 2
522957, 522955, 2
522957, 522952, 2
522957, 522954, 2
522957, 522953, 2
522958, 522956, 2
522958, 522955, 2
522958, 522954, 2
522958, 522957, 2
522958, 522959, 1
522966, 522965, 2
522939, 522941, 2
522939, 522940, 1
522939, 522942, 2
522939, 522938, 2
522939, 522943, 2
522933, 522936, 1
522933, 522931, 2
522933, 522935, 2
522933, 522932, 2
522933, 522934, 0
522942, 522941, 2
522942, 522940, 2
522942, 522943, 1
522942, 522939, 2
522942, 522944, 2
522942, 522938, 2
522950, 522949, 2
522950, 522947, 2
522950, 522948, 2
522950, 522951, 1
522927, 522926, 2
522927, 522929, 2
522927, 522928, 1
522927, 522925, 2
522927, 522922, 2
522927, 522924, 2
522953, 522956, 2
522953, 522952, 2
522953, 522955, 2
522953, 522957, 2
522953, 522954, 1
522947, 522949, 2
522947, 522946, 2
522947, 522948, 1
522947, 522950, 2
522951, 522952, 1
522951, 522950, 2
522943, 522941, 2
522943, 522944, 2
522943, 522942, 2
522943, 522939, 2
522943, 522940, 2
522943, 522938, 2
522948, 522949, 3
522948, 522947, 2
522948, 522950, 1
522960, 522961, 1
522960, 522959, 2
522965, 522966, 1
522965, 522964, 2
522922, 522927, 2
522922, 522924, 1
522922, 522928, 2
522922, 522923, 3
522924, 522926, 2
522924, 522925, 1
522924, 522927, 2
522924, 522922, 2
522924, 522923, 2
522926, 522929, 1
522926, 522928, 2
522926, 522923, 2
522926, 522925, 2
522926, 522927, 0
522926, 522924, 2
522923, 522926, 2
522923, 522922, 2
522923, 522924, 2
522937, 522936, 2
522937, 522938, 1
522964, 522963, 2
522964, 522965, 1
522964, 522962, 2
