624171, 624172, 1
624171, 624169, 2
624171, 624170, 2
624165, 624166, 1
624165, 624164, 2
624165, 624163, 2
624165, 624167, 2
624165, 624162, 2
624168, 624167, 2
624168, 624169, 2
624169, 624171, 2
624169, 624168, 2
624169, 624167, 2
624169, 624170, 1
624160, 624161, 2
624160, 624159, 2
624160, 624162, 2
624172, 624171, 2
624170, 624171, 1
624170, 624169, 2
624159, 624162, 1
624159, 624161, 8
624159, 624160, 3
624166, 624164, 2
624166, 624165, 2
624166, 624163, 2
624166, 624167, 2
624163, 624166, 2
624163, 624165, 2
624163, 624162, 2
624163, 624164, 2
624164, 624166, 2
624164, 624165, 1
624164, 624163, 2
624164, 624167, 2
624161, 624162, 2
624161, 624159, 2
624161, 624160, 2
624167, 624166, 2
624167, 624165, 2
624167, 624168, 3
624167, 624169, 1
624167, 624164, 2
624167, 624162, 2
624162, 624165, 2
624162, 624160, 2
624162, 624163, 3
624162, 624161, 2
624162, 624167, 1
624162, 624159, 2
