405989, 405987, 2
405989, 405990, 1
405989, 405991, 2
405989, 405988, 2
405990, 405987, 2
405990, 405992, 1
405990, 405989, 2
405990, 405991, 3
405990, 405988, 2
405986, 405988, 1
405986, 405987, 8
405992, 405990, 2
405992, 405991, 2
405988, 405986, 2
405988, 405989, 1
405988, 405991, 2
405988, 405990, 2
405988, 405987, 2
405991, 405987, 2
405991, 405992, 2
405991, 405989, 2
405991, 405990, 2
405991, 405988, 2
405987, 405986, 2
405987, 405988, 2
405987, 405991, 2
405987, 405990, 2
405987, 405989, 2
