450935, 450936, 1
450935, 450934, 2
450938, 450940, 2
450938, 450939, 1
450938, 450937, 2
450939, 450941, 1
450939, 450940, 8
450939, 450938, 2
450946, 450944, 2
450946, 450947, 1
450946, 450945, 2
450948, 450947, 2
450948, 450949, 1
450941, 450942, 1
450941, 450944, 2
450941, 450943, 2
450941, 450940, 2
450941, 450939, 2
450947, 450948, 1
450947, 450946, 2
450931, 450933, 2
450931, 450932, 1
450931, 450934, 2
450944, 450942, 2
450944, 450941, 2
450944, 450943, 2
450944, 450945, 1
450944, 450946, 2
450933, 450931, 2
450933, 450932, 2
450933, 450934, 2
450945, 450944, 2
450945, 450946, 1
450937, 450936, 2
450937, 450938, 1
450942, 450944, 1
450942, 450941, 2
450942, 450943, 3
450932, 450933, 3
450932, 450931, 2
450932, 450934, 1
450943, 450944, 2
450943, 450942, 2
450943, 450941, 2
450940, 450941, 2
450940, 450938, 2
450940, 450939, 2
450936, 450935, 2
450936, 450934, 2
450936, 450937, 1
450949, 450948, 2
450934, 450932, 2
450934, 450933, 2
450934, 450935, 1
450934, 450936, 2
450934, 450931, 2
