553910, 553909, 2
553910, 553911, 1
553909, 553910, 1
553909, 553908, 2
553911, 553910, 2
553911, 553912, 1
553911, 553908, 2
553908, 553911, 2
553908, 553909, 1
553912, 553913, 1
553912, 553911, 2
553913, 553912, 2
