378336, 378337, 1
378338, 378339, 1
378338, 378337, 2
378337, 378336, 2
378337, 378339, 2
378337, 378338, 1
378340, 378339, 2
378340, 378341, 0
378339, 378338, 2
378339, 378337, 2
378339, 378340, 1
378341, 378340, 2
