419111, 419096, 2
419111, 419113, 1
419111, 419095, 2
419111, 419107, 2
419117, 419116, 2
419117, 419118, 0
419117, 419120, 2
419117, 419121, 1
419117, 419119, 2
419097, 419096, 2
419097, 419098, 1
419097, 419095, 2
419095, 419111, 2
419095, 419091, 2
419095, 419097, 2
419095, 419094, 2
419095, 419096, 1
419095, 419100, 2
419095, 419104, 2
419095, 419093, 2
419095, 419098, 2
419095, 419103, 2
419095, 419099, 2
419115, 419116, 2
419115, 419096, 2
419115, 419114, 2
419093, 419092, 2
419093, 419091, 2
419093, 419094, 1
419093, 419095, 2
419092, 419090, 2
419092, 419091, 2
419092, 419089, 2
419092, 419093, 1
419104, 419096, 2
419104, 419095, 2
419104, 419100, 2
419104, 419107, 2
419104, 419103, 2
419104, 419105, 1
419114, 419116, 2
419114, 419112, 2
419114, 419096, 2
419114, 419110, 2
419114, 419115, 1
419102, 419101, 2
419102, 419096, 2
419102, 419106, 1
419094, 419095, 1
419094, 419093, 2
419089, 419092, 2
419089, 419090, 1
419089, 419087, 2
419089, 419088, 2
419089, 419091, 2
419106, 419102, 2
419106, 419108, 1
419106, 419096, 2
419106, 419101, 2
419113, 419111, 2
419113, 419116, 2
419113, 419096, 2
419113, 419107, 2
419103, 419096, 2
419103, 419104, 2
419103, 419095, 2
419103, 419100, 2
419099, 419101, 1
419099, 419096, 2
419099, 419098, 2
419099, 419095, 2
419120, 419116, 2
419120, 419117, 2
419120, 419121, 2
419120, 419119, 2
419091, 419092, 2
419091, 419090, 2
419091, 419089, 2
419091, 419095, 2
419091, 419093, 2
419087, 419088, 3
419087, 419089, 1
419108, 419109, 1
419108, 419096, 2
419108, 419106, 2
419109, 419112, 2
419109, 419108, 2
419109, 419096, 2
419109, 419110, 1
419107, 419111, 1
419107, 419104, 2
419107, 419113, 2
419107, 419096, 2
419107, 419105, 2
419116, 419119, 2
419116, 419120, 2
419116, 419096, 2
419116, 419115, 2
419116, 419117, 1
419116, 419118, 2
419116, 419112, 2
419116, 419113, 2
419116, 419121, 2
419116, 419114, 2
419116, 419110, 2
419121, 419116, 2
419121, 419117, 2
419121, 419120, 2
419121, 419119, 2
419121, 419118, 2
419112, 419116, 2
419112, 419109, 2
419112, 419096, 2
419112, 419114, 1
419112, 419110, 2
419098, 419097, 2
419098, 419096, 2
419098, 419095, 2
419098, 419099, 1
419110, 419109, 2
419110, 419116, 2
419110, 419112, 3
419110, 419096, 2
419110, 419114, 2
419105, 419096, 2
419105, 419104, 2
419105, 419107, 1
419090, 419092, 1
419090, 419091, 8
419090, 419089, 2
419119, 419116, 2
419119, 419117, 2
419119, 419120, 1
419119, 419121, 2
419119, 419118, 2
419101, 419102, 1
419101, 419096, 2
419101, 419106, 2
419101, 419099, 2
419096, 419111, 2
419096, 419102, 2
419096, 419113, 2
419096, 419095, 2
419096, 419107, 2
419096, 419116, 1
419096, 419098, 2
419096, 419112, 2
419096, 419104, 2
419096, 419097, 6
419096, 419106, 2
419096, 419110, 2
419096, 419109, 2
419096, 419101, 2
419096, 419115, 2
419096, 419100, 4
419096, 419105, 2
419096, 419108, 2
419096, 419114, 2
419096, 419103, 2
419096, 419099, 2
419100, 419096, 2
419100, 419104, 1
419100, 419095, 2
419100, 419103, 0
419118, 419116, 2
419118, 419117, 2
419118, 419121, 2
419118, 419119, 1
419088, 419087, 2
419088, 419089, 2
