491960, 491959, 2
491960, 491961, 1
491956, 491958, 2
491956, 491954, 2
491956, 491955, 2
491956, 491957, 2
491951, 491953, 2
491951, 491950, 2
491951, 491952, 1
491952, 491953, 1
491952, 491951, 2
491965, 491962, 2
491965, 491967, 1
491965, 491966, 8
491965, 491961, 2
491965, 491964, 2
491953, 491954, 1
491953, 491951, 2
491953, 491952, 2
491966, 491963, 2
491966, 491961, 2
491966, 491965, 2
491966, 491964, 2
491966, 491962, 2
491966, 491967, 2
491966, 491968, 2
491955, 491958, 1
491955, 491957, 8
491955, 491956, 3
491955, 491954, 2
491957, 491958, 2
491957, 491956, 2
491957, 491959, 2
491957, 491955, 2
491964, 491963, 2
491964, 491965, 1
491964, 491966, 2
491969, 491967, 2
491969, 491968, 2
491954, 491953, 2
491954, 491949, 2
491954, 491956, 2
491954, 491955, 1
491963, 491962, 2
491963, 491966, 2
491963, 491961, 2
491963, 491964, 1
491948, 491949, 3
491948, 491950, 1
491962, 491963, 2
491962, 491965, 2
491962, 491961, 2
491962, 491966, 2
491967, 491966, 2
491967, 491969, 2
491967, 491968, 8
491967, 491965, 2
491959, 491958, 2
491959, 491960, 1
491959, 491957, 2
491949, 491954, 2
491949, 491950, 2
491949, 491948, 2
491950, 491949, 2
491950, 491951, 1
491950, 491948, 2
491961, 491960, 2
491961, 491962, 8
491961, 491963, 1
491961, 491965, 2
491961, 491966, 2
491958, 491959, 1
491958, 491956, 2
491958, 491957, 2
491958, 491955, 2
491968, 491967, 2
491968, 491969, 1
491968, 491966, 2
