535106, 535107, 2
535106, 535105, 2
535107, 535106, 2
535107, 535102, 2
535107, 535109, 2
535107, 535105, 2
535107, 535108, 1
535107, 535104, 2
535107, 535103, 2
535103, 535107, 1
535103, 535105, 2
535103, 535104, 3
535103, 535102, 2
535094, 535093, 2
535094, 535097, 2
535094, 535092, 2
535094, 535096, 2
535094, 535095, 1
535095, 535097, 1
535095, 535096, 3
535095, 535094, 2
535093, 535092, 2
535093, 535094, 2
535109, 535107, 2
535109, 535108, 2
535099, 535101, 2
535099, 535097, 2
535099, 535100, 2
535099, 535098, 2
535099, 535102, 2
535101, 535100, 2
535101, 535099, 2
535101, 535102, 2
535097, 535100, 1
535097, 535096, 2
535097, 535094, 2
535097, 535095, 2
535097, 535098, 0
535097, 535099, 2
535105, 535106, 1
535105, 535107, 2
535105, 535104, 2
535105, 535103, 2
535096, 535097, 2
535096, 535094, 2
535096, 535095, 2
535100, 535101, 0
535100, 535097, 2
535100, 535098, 2
535100, 535099, 2
535100, 535102, 1
535108, 535107, 2
535108, 535109, 1
535092, 535093, 0
535092, 535094, 1
535098, 535100, 2
535098, 535097, 2
535098, 535099, 1
535104, 535102, 2
535104, 535107, 2
535104, 535105, 1
535104, 535103, 2
535102, 535101, 2
535102, 535100, 2
535102, 535104, 2
535102, 535107, 2
535102, 535099, 2
535102, 535103, 1
