378412, 378410, 2
378412, 378411, 2
378408, 378409, 0
378408, 378410, 1
378410, 378412, 2
378410, 378408, 2
378410, 378411, 1
378410, 378409, 2
378411, 378412, 1
378411, 378410, 2
378409, 378408, 2
378409, 378410, 2
