553638, 553639, 1
553638, 553637, 2
553638, 553641, 2
553640, 553639, 2
553640, 553642, 2
553640, 553641, 2
553639, 553638, 2
553639, 553637, 2
553639, 553642, 1
553639, 553641, 3
553639, 553640, 0
553642, 553639, 2
553642, 553641, 2
553642, 553640, 2
553637, 553639, 2
553637, 553638, 1
553637, 553641, 2
553641, 553639, 2
553641, 553638, 2
553641, 553637, 2
553641, 553642, 2
553641, 553640, 2
