573163, 573162, 2
573163, 573165, 2
573163, 573164, 1
573163, 573166, 2
573163, 573161, 2
573163, 573160, 2
573162, 573163, 1
573162, 573160, 2
573162, 573161, 2
573165, 573163, 2
573165, 573164, 2
573165, 573166, 1
573164, 573163, 2
573164, 573165, 1
573164, 573166, 2
573166, 573163, 2
573166, 573165, 2
573166, 573164, 2
573166, 573167, 0
573161, 573160, 2
573161, 573162, 2
573161, 573163, 2
573160, 573163, 2
573160, 573162, 1
573160, 573161, 0
573167, 573166, 2
