656655, 656656, 3
656655, 656657, 1
656660, 656662, 2
656660, 656661, 1
656660, 656659, 2
656665, 656662, 2
656665, 656668, 1
656665, 656667, 8
656665, 656664, 2
656665, 656666, 2
656665, 656663, 2
656664, 656662, 2
656664, 656665, 3
656664, 656666, 0
656664, 656663, 2
656657, 656659, 2
656657, 656655, 2
656657, 656656, 2
656657, 656658, 1
656662, 656664, 2
656662, 656659, 2
656662, 656667, 2
656662, 656660, 2
656662, 656665, 2
656662, 656661, 2
656662, 656663, 2
656662, 656656, 2
656659, 656660, 1
656659, 656662, 2
656659, 656661, 2
656659, 656657, 2
656659, 656658, 2
656668, 656665, 2
656668, 656666, 2
656668, 656667, 2
656658, 656657, 2
656658, 656659, 1
656667, 656662, 2
656667, 656665, 2
656667, 656661, 2
656667, 656666, 2
656667, 656668, 2
656661, 656660, 2
656661, 656662, 3
656661, 656659, 2
656661, 656663, 1
656661, 656667, 2
656666, 656665, 2
656666, 656664, 2
656666, 656668, 2
656666, 656667, 2
656663, 656662, 2
656663, 656665, 2
656663, 656664, 1
656663, 656661, 2
656656, 656662, 2
656656, 656655, 2
656656, 656657, 2
