572794, 572790, 2
572794, 572792, 2
572794, 572793, 2
572788, 572789, 1
572790, 572794, 2
572790, 572793, 2
572790, 572789, 2
572790, 572791, 2
572793, 572794, 1
572793, 572790, 2
572793, 572792, 2
572792, 572794, 2
572792, 572793, 1
572792, 572791, 2
572789, 572790, 8
572789, 572788, 2
572789, 572791, 1
572791, 572790, 2
572791, 572792, 1
572791, 572789, 2
