593190, 593191, 1
593190, 593189, 2
593192, 593193, 1
593192, 593191, 2
593195, 593194, 2
593193, 593194, 1
593193, 593192, 2
593193, 593191, 2
593189, 593190, 1
593194, 593193, 2
593194, 593195, 1
593191, 593193, 2
593191, 593190, 2
593191, 593192, 0
