496163, 496161, 2
496163, 496164, 1
496163, 496162, 2
496157, 496158, 1
496157, 496156, 2
496156, 496158, 2
496156, 496157, 1
496164, 496163, 2
496164, 496162, 2
496161, 496160, 2
496161, 496162, 1
496161, 496159, 2
496161, 496163, 2
496162, 496161, 2
496162, 496163, 1
496162, 496164, 2
496160, 496161, 1
496160, 496158, 2
496160, 496159, 2
496158, 496160, 2
496158, 496157, 2
496158, 496156, 2
496158, 496159, 1
496159, 496161, 2
496159, 496160, 1
496159, 496158, 2
