536564, 536565, 1
536565, 536564, 2
536565, 536568, 2
536565, 536566, 1
536565, 536567, 2
536566, 536565, 2
536566, 536567, 3
536566, 536568, 1
536568, 536565, 2
536568, 536567, 2
536568, 536566, 2
536567, 536565, 2
536567, 536566, 2
536567, 536568, 2
