642021, 642020, 2
642021, 642017, 2
642021, 642022, 2
642021, 642018, 2
642021, 642016, 2
642021, 642015, 2
642021, 642019, 2
642018, 642017, 2
642018, 642021, 2
642018, 642022, 1
642018, 642016, 2
642018, 642020, 0
642018, 642019, 3
642016, 642018, 2
642016, 642017, 2
642016, 642015, 2
642016, 642021, 2
642016, 642020, 2
642020, 642017, 2
642020, 642021, 1
642020, 642022, 2
642020, 642018, 2
642020, 642016, 2
642020, 642015, 2
642020, 642019, 2
642024, 642023, 2
642019, 642017, 2
642019, 642021, 2
642019, 642022, 2
642019, 642018, 2
642019, 642012, 2
642019, 642013, 2
642019, 642015, 2
642019, 642020, 2
642017, 642021, 2
642017, 642015, 2
642017, 642018, 1
642017, 642016, 2
642017, 642020, 2
642017, 642019, 2
642022, 642018, 2
642022, 642019, 2
642022, 642020, 2
642022, 642023, 1
642022, 642021, 2
642012, 642013, 1
642012, 642019, 2
642014, 642013, 2
642014, 642015, 1
642013, 642012, 2
642013, 642014, 1
642013, 642019, 2
642015, 642017, 1
642015, 642021, 2
642015, 642014, 2
642015, 642016, 0
642015, 642020, 2
642015, 642019, 2
642023, 642022, 2
642023, 642024, 1
