643622, 643624, 1
643622, 643623, 3
643622, 643625, 2
643624, 643622, 2
643624, 643623, 2
643624, 643625, 1
643623, 643622, 2
643623, 643624, 2
643623, 643625, 2
643625, 643622, 2
643625, 643624, 2
643625, 643623, 2
