608183, 608184, 3
608183, 608182, 2
608183, 608181, 2
608183, 608180, 2
608184, 608183, 2
608181, 608183, 2
608181, 608182, 2
608181, 608178, 2
608181, 608180, 2
608178, 608181, 2
608178, 608179, 1
608178, 608180, 2
608182, 608183, 1
608182, 608181, 2
608182, 608180, 2
608179, 608178, 2
608179, 608180, 1
608180, 608182, 1
608180, 608183, 2
608180, 608181, 3
608180, 608178, 2
608180, 608179, 2
