495855, 495857, 1
495855, 495856, 3
495857, 495859, 2
495857, 495855, 2
495857, 495858, 1
495857, 495856, 2
495858, 495859, 0
495858, 495857, 2
495858, 495860, 1
495861, 495862, 3
495861, 495860, 2
495862, 495861, 2
495859, 495857, 2
495859, 495858, 2
495859, 495860, 2
495856, 495855, 2
495856, 495857, 2
495860, 495859, 2
495860, 495858, 2
495860, 495861, 1
