379255, 379256, 1
379261, 379260, 2
379259, 379258, 2
379259, 379257, 2
379259, 379260, 1
379260, 379261, 1
379260, 379259, 2
379258, 379257, 2
379258, 379259, 1
379257, 379258, 1
379257, 379259, 2
379257, 379256, 2
379256, 379255, 2
379256, 379257, 1
