570340, 570341, 1
570340, 570342, 2
570341, 570340, 2
570341, 570342, 1
570345, 570347, 2
570345, 570343, 2
570345, 570348, 2
570345, 570344, 2
570345, 570346, 1
570344, 570343, 2
570344, 570342, 2
570344, 570345, 2
570344, 570346, 2
570344, 570348, 2
570349, 570347, 2
570349, 570350, 2
570349, 570348, 2
570347, 570349, 2
570347, 570342, 2
570347, 570346, 2
570347, 570345, 2
570347, 570350, 2
570347, 570348, 2
570343, 570345, 8
570343, 570348, 1
570343, 570342, 2
570343, 570344, 3
570343, 570346, 2
570348, 570344, 2
570348, 570347, 2
570348, 570343, 2
570348, 570346, 2
570348, 570345, 2
570348, 570350, 1
570348, 570349, 3
570342, 570340, 2
570342, 570341, 2
570342, 570344, 2
570342, 570347, 2
570342, 570343, 1
570350, 570347, 2
570350, 570349, 2
570350, 570348, 2
570346, 570347, 1
570346, 570343, 2
570346, 570345, 2
570346, 570344, 2
570346, 570348, 2
