554526, 554527, 2
554526, 554525, 2
554526, 554524, 2
554521, 554520, 2
554521, 554522, 1
554524, 554526, 3
554524, 554523, 2
554524, 554527, 2
554524, 554525, 0
554524, 554522, 2
554527, 554526, 2
554527, 554525, 2
554527, 554524, 2
554523, 554524, 1
554523, 554522, 2
554520, 554521, 1
554520, 554522, 2
554525, 554526, 2
554525, 554527, 1
554525, 554524, 2
554522, 554523, 1
554522, 554520, 2
554522, 554521, 2
554522, 554524, 2
