379480, 379481, 1
379480, 379479, 2
379482, 379481, 2
379482, 379483, 1
379483, 379484, 1
379483, 379482, 2
379483, 379481, 2
379484, 379481, 2
379484, 379483, 2
379484, 379485, 1
379486, 379485, 2
379481, 379480, 2
379481, 379484, 2
379481, 379482, 1
379481, 379483, 2
379481, 379479, 2
379479, 379480, 1
379479, 379481, 2
379485, 379486, 1
379485, 379484, 2
