489855, 489854, 2
489855, 489860, 2
489855, 489856, 0
489855, 489857, 1
489860, 489859, 2
489860, 489855, 2
489860, 489862, 2
489860, 489858, 2
489860, 489854, 2
489860, 489861, 2
489860, 489856, 2
489860, 489863, 2
489854, 489855, 1
489854, 489857, 2
489854, 489853, 2
489854, 489860, 2
489853, 489854, 1
489858, 489859, 1
489858, 489861, 2
489858, 489857, 2
489858, 489856, 2
489858, 489860, 2
489856, 489855, 2
489856, 489860, 2
489856, 489857, 2
489856, 489858, 2
489859, 489858, 2
489859, 489861, 8
489859, 489862, 1
489859, 489863, 2
489859, 489860, 6
489862, 489859, 2
489862, 489861, 2
489862, 489863, 1
489862, 489860, 2
489857, 489854, 2
489857, 489855, 2
489857, 489856, 2
489857, 489858, 1
489861, 489859, 2
489861, 489858, 2
489861, 489862, 2
489861, 489863, 2
489861, 489860, 2
489865, 489864, 2
489865, 489863, 2
489864, 489865, 1
489864, 489863, 2
489863, 489859, 2
489863, 489862, 2
489863, 489860, 2
489863, 489861, 2
489863, 489865, 2
489863, 489864, 1
