456330, 456328, 2
456330, 456331, 1
456330, 456327, 2
456330, 456329, 2
456326, 456327, 1
456328, 456330, 1
456328, 456327, 2
456328, 456329, 8
456331, 456330, 2
456331, 456329, 2
456329, 456330, 2
456329, 456328, 2
456329, 456331, 2
456329, 456327, 2
456327, 456330, 2
456327, 456328, 1
456327, 456326, 2
456327, 456329, 2
