626087, 626090, 1
626087, 626086, 2
626087, 626091, 2
626087, 626089, 0
626087, 626088, 3
626092, 626091, 2
626092, 626090, 2
626092, 626093, 2
626092, 626088, 2
626093, 626092, 2
626093, 626091, 2
626089, 626087, 2
626089, 626090, 2
626089, 626091, 2
626089, 626088, 2
626088, 626087, 2
626088, 626092, 2
626088, 626089, 2
626088, 626090, 2
626091, 626087, 2
626091, 626092, 3
626091, 626093, 0
626091, 626089, 2
626091, 626090, 2
626086, 626087, 1
626090, 626087, 2
626090, 626092, 2
626090, 626091, 1
626090, 626089, 2
626090, 626088, 2
