433311, 433314, 2
433311, 433310, 2
433311, 433313, 2
433311, 433312, 1
433311, 433309, 2
433310, 433311, 1
433310, 433309, 2
433309, 433311, 2
433309, 433310, 1
433314, 433311, 2
433314, 433313, 2
433314, 433315, 1
433314, 433312, 2
433313, 433311, 2
433313, 433312, 2
433313, 433315, 2
433313, 433314, 2
433312, 433311, 2
433312, 433313, 8
433312, 433314, 1
433315, 433313, 2
433315, 433314, 2
