496030, 496032, 2
496030, 496033, 2
496030, 496031, 1
496033, 496034, 1
496033, 496030, 2
496033, 496032, 2
496033, 496031, 2
496033, 496036, 2
496034, 496035, 1
496034, 496033, 2
496037, 496038, 1
496037, 496036, 2
496035, 496034, 2
496035, 496036, 1
496036, 496035, 2
496036, 496037, 1
496036, 496033, 2
496036, 496038, 2
496031, 496032, 1
496031, 496030, 2
496031, 496033, 2
496038, 496037, 2
496038, 496036, 2
496032, 496030, 2
496032, 496033, 1
496032, 496031, 2
