572608, 572607, 2
572608, 572606, 2
572608, 572609, 1
572608, 572610, 2
572608, 572611, 2
572610, 572606, 2
572610, 572609, 2
572610, 572608, 2
572610, 572612, 2
572610, 572611, 2
572611, 572608, 2
572611, 572612, 3
572611, 572607, 2
572611, 572606, 2
572611, 572609, 2
572611, 572610, 2
572607, 572606, 2
572607, 572609, 2
572607, 572608, 2
572607, 572611, 2
572606, 572607, 3
572606, 572609, 2
572606, 572608, 8
572606, 572610, 2
572606, 572611, 1
572609, 572607, 2
572609, 572606, 2
572609, 572608, 2
572609, 572610, 1
572609, 572611, 2
572612, 572610, 2
572612, 572611, 2
