549783, 549784, 2
549783, 549782, 2
549781, 549782, 1
549784, 549783, 2
549784, 549785, 8
549784, 549782, 2
549784, 549786, 1
549786, 549785, 2
549786, 549784, 2
549786, 549788, 1
549786, 549791, 2
549786, 549790, 2
549786, 549787, 3
549791, 549788, 2
549791, 549790, 2
549791, 549786, 2
549791, 549787, 2
549788, 549791, 2
549788, 549786, 2
549788, 549787, 2
549788, 549789, 1
549785, 549784, 2
549785, 549786, 2
549785, 549787, 2
549782, 549783, 3
549782, 549781, 2
549782, 549784, 1
549790, 549791, 3
549790, 549787, 2
549790, 549789, 2
549790, 549786, 2
549787, 549790, 2
549787, 549786, 2
549787, 549788, 2
549787, 549791, 2
549787, 549785, 2
549787, 549789, 2
549789, 549788, 2
549789, 549790, 3
549789, 549787, 2
