494646, 494648, 2
494646, 494647, 3
494646, 494645, 2
494650, 494647, 2
494650, 494649, 2
494645, 494648, 1
494645, 494646, 3
494645, 494649, 2
494648, 494646, 2
494648, 494647, 2
494648, 494645, 2
494648, 494649, 1
494647, 494648, 2
494647, 494646, 2
494647, 494650, 2
494647, 494649, 2
494649, 494648, 2
494649, 494647, 2
494649, 494650, 3
494649, 494645, 2
