495519, 495522, 2
495519, 495520, 6
495519, 495521, 1
495525, 495526, 2
495525, 495524, 2
495525, 495523, 2
495522, 495519, 2
495522, 495520, 2
495522, 495523, 1
495522, 495521, 2
495520, 495519, 2
495520, 495522, 2
495520, 495523, 2
495520, 495524, 2
495520, 495521, 2
495524, 495525, 3
495524, 495526, 1
495524, 495520, 2
495524, 495523, 2
495523, 495525, 2
495523, 495522, 2
495523, 495520, 2
495523, 495524, 1
495526, 495525, 2
495526, 495524, 2
495521, 495519, 2
495521, 495522, 1
495521, 495520, 2
