374995, 374997, 2
374995, 374996, 1
374995, 374994, 2
375002, 375001, 2
375002, 375003, 1
374994, 374995, 1
374994, 374993, 2
374994, 374996, 2
374994, 374997, 2
374994, 374992, 2
374990, 374992, 2
374990, 374989, 2
374990, 374997, 2
374990, 374991, 1
374991, 374992, 1
374991, 374990, 2
374991, 374997, 2
375003, 375002, 2
375000, 374998, 2
375000, 375001, 1
375000, 374999, 2
374996, 374995, 2
374996, 374997, 3
374996, 374994, 2
374996, 374998, 1
374998, 374996, 2
374998, 375000, 2
374998, 374997, 2
374998, 375001, 2
374998, 374999, 1
374999, 375000, 1
374999, 375001, 2
374999, 374998, 2
374992, 374993, 1
374992, 374997, 2
374992, 374994, 2
374992, 374991, 2
374992, 374990, 2
374993, 374992, 2
374993, 374997, 2
374993, 374994, 1
374989, 374990, 1
374989, 374997, 2
374997, 374995, 2
374997, 374996, 2
374997, 374994, 2
374997, 374990, 2
374997, 374992, 2
374997, 374993, 2
374997, 374989, 2
374997, 374998, 2
374997, 374991, 2
375001, 375000, 2
375001, 375002, 1
375001, 374998, 2
375001, 374999, 2
