451715, 451716, 1
451715, 451714, 2
451711, 451712, 1
451711, 451708, 2
451711, 451710, 2
451708, 451712, 2
451708, 451703, 2
451708, 451713, 2
451708, 451711, 2
451708, 451718, 2
451708, 451710, 2
451708, 451702, 2
451708, 451705, 2
451708, 451719, 2
451708, 451706, 2
451708, 451709, 2
451708, 451714, 2
451708, 451707, 2
451702, 451703, 1
451702, 451708, 2
451703, 451702, 2
451703, 451706, 2
451703, 451705, 2
451703, 451708, 2
451703, 451704, 1
451713, 451708, 2
451713, 451714, 1
451713, 451712, 2
451720, 451722, 2
451720, 451721, 0
451720, 451723, 2
451720, 451719, 2
451719, 451721, 2
451719, 451720, 1
451719, 451708, 2
451719, 451718, 2
451721, 451722, 1
451721, 451720, 2
451721, 451719, 2
451709, 451706, 2
451709, 451707, 2
451709, 451708, 6
451709, 451710, 1
451724, 451725, 1
451724, 451723, 2
451712, 451713, 1
451712, 451711, 2
451712, 451708, 2
451712, 451714, 2
451712, 451710, 2
451717, 451716, 2
451717, 451718, 1
451723, 451724, 1
451723, 451720, 2
451723, 451722, 2
451716, 451715, 2
451716, 451717, 1
451716, 451718, 2
451718, 451717, 2
451718, 451708, 2
451718, 451719, 1
451718, 451716, 2
451710, 451712, 2
451710, 451711, 1
451710, 451709, 2
451710, 451708, 2
451725, 451724, 2
451705, 451703, 2
451705, 451706, 1
451705, 451708, 2
451705, 451704, 2
451704, 451703, 2
451704, 451706, 2
451704, 451705, 1
451706, 451705, 2
451706, 451708, 2
451706, 451704, 2
451706, 451703, 2
451706, 451709, 2
451706, 451707, 1
451722, 451723, 1
451722, 451721, 2
451722, 451720, 2
451714, 451715, 1
451714, 451713, 2
451714, 451708, 2
451714, 451712, 2
451707, 451706, 2
451707, 451708, 2
451707, 451709, 1
