496208, 496207, 2
496208, 496209, 3
496207, 496208, 1
496207, 496206, 2
496202, 496201, 2
496202, 496203, 2
496205, 496204, 2
496205, 496206, 2
496201, 496202, 3
496201, 496203, 1
496204, 496205, 3
496204, 496206, 1
496204, 496203, 2
496206, 496205, 2
496206, 496207, 1
496206, 496204, 2
496203, 496201, 2
496203, 496202, 2
496203, 496204, 1
496209, 496208, 2
