550577, 550576, 2
550577, 550578, 1
550577, 550580, 2
550577, 550579, 2
550577, 550575, 2
550577, 550573, 2
550569, 550571, 2
550569, 550568, 2
550569, 550570, 1
550564, 550566, 2
550564, 550567, 2
550564, 550565, 1
550571, 550569, 2
550571, 550573, 1
550571, 550570, 2
550571, 550572, 0
550565, 550566, 8
550565, 550568, 2
550565, 550564, 2
550565, 550567, 1
550581, 550580, 2
550581, 550578, 2
550581, 550579, 2
550574, 550572, 2
550574, 550575, 1
550574, 550573, 2
550580, 550577, 2
550580, 550581, 1
550580, 550578, 2
550580, 550579, 2
550576, 550577, 1
550576, 550575, 2
550572, 550574, 2
550572, 550575, 2
550572, 550571, 2
550572, 550573, 2
550567, 550566, 2
550567, 550564, 2
550567, 550568, 1
550567, 550565, 2
550575, 550577, 2
550575, 550572, 2
550575, 550574, 2
550575, 550576, 1
550575, 550573, 2
550570, 550569, 2
550570, 550568, 2
550570, 550571, 1
550566, 550568, 2
550566, 550564, 2
550566, 550567, 2
550566, 550565, 2
550579, 550577, 2
550579, 550580, 1
550579, 550581, 2
550579, 550578, 2
550568, 550566, 2
550568, 550569, 1
550568, 550570, 2
550568, 550567, 2
550568, 550565, 2
550578, 550577, 2
550578, 550580, 2
550578, 550581, 2
550578, 550579, 1
550573, 550577, 2
550573, 550574, 1
550573, 550575, 2
550573, 550571, 2
550573, 550572, 2
