553968, 553967, 2
553968, 553969, 1
553968, 553970, 2
553966, 553964, 2
553966, 553967, 1
553966, 553965, 2
553969, 553968, 2
553969, 553970, 1
553965, 553964, 2
553965, 553966, 2
553964, 553966, 1
553964, 553965, 3
553967, 553968, 1
553967, 553966, 2
553970, 553968, 2
553970, 553969, 2
