449489, 449491, 2
449489, 449490, 1
449489, 449488, 2
449483, 449481, 2
449483, 449484, 1
449483, 449480, 2
449483, 449482, 2
449488, 449489, 1
449488, 449487, 2
449481, 449484, 2
449481, 449480, 2
449481, 449483, 1
449481, 449482, 8
449491, 449489, 2
449491, 449490, 2
449484, 449481, 2
449484, 449483, 2
449484, 449482, 2
449484, 449485, 1
449480, 449481, 1
449480, 449483, 2
449480, 449482, 2
449486, 449485, 2
449486, 449487, 1
449490, 449489, 2
449490, 449491, 1
449487, 449488, 1
449487, 449485, 2
449487, 449486, 2
449485, 449484, 2
449485, 449486, 1
449485, 449487, 2
449482, 449481, 2
449482, 449484, 2
449482, 449480, 2
449482, 449483, 2
