421441, 421442, 2
421441, 421440, 2
421441, 421444, 2
421441, 421443, 2
421445, 421444, 2
421445, 421443, 2
421440, 421441, 2
421440, 421442, 2
421440, 421444, 2
421440, 421439, 2
421440, 421443, 2
421444, 421441, 2
421444, 421445, 3
421444, 421440, 2
421444, 421442, 2
421444, 421443, 2
421444, 421439, 2
421442, 421441, 2
421442, 421440, 2
421442, 421444, 1
421442, 421439, 2
421442, 421443, 8
421443, 421441, 2
421443, 421445, 2
421443, 421440, 2
421443, 421444, 2
421443, 421442, 2
421443, 421439, 2
421439, 421442, 1
421439, 421440, 3
421439, 421444, 2
421439, 421443, 2
