523416, 523415, 2
523416, 523418, 1
523416, 523417, 8
523416, 523413, 2
523414, 523415, 1
523414, 523412, 2
523414, 523413, 2
523411, 523412, 1
523411, 523410, 2
523413, 523415, 2
523413, 523412, 2
523413, 523414, 2
523413, 523417, 2
523413, 523416, 2
523415, 523416, 3
523415, 523412, 2
523415, 523414, 2
523415, 523418, 2
523415, 523413, 2
523412, 523415, 2
523412, 523414, 1
523412, 523411, 2
523412, 523410, 2
523412, 523413, 3
523417, 523416, 2
523417, 523418, 2
523417, 523413, 2
523410, 523412, 2
523410, 523411, 1
523418, 523416, 2
523418, 523415, 2
523418, 523417, 2
