456205, 456202, 2
456205, 456204, 2
456205, 456203, 2
456200, 456202, 2
456200, 456201, 1
456204, 456205, 2
456204, 456202, 2
456204, 456203, 2
456201, 456200, 2
456201, 456202, 8
456201, 456203, 1
456203, 456202, 2
456203, 456205, 1
456203, 456204, 3
456203, 456201, 2
456202, 456205, 2
456202, 456200, 2
456202, 456204, 2
456202, 456203, 2
456202, 456201, 2
