643990, 643991, 1
643990, 643989, 2
643994, 643991, 2
643994, 643993, 2
643992, 643991, 2
643992, 643993, 1
643991, 643992, 1
643991, 643990, 2
643991, 643994, 2
643991, 643993, 2
643993, 643992, 2
643993, 643991, 2
643993, 643994, 0
643989, 643990, 1
