380039, 380038, 2
380039, 380040, 1
380042, 380043, 2
380042, 380044, 2
380042, 380041, 2
380044, 380045, 1
380044, 380042, 2
380044, 380041, 2
380044, 380043, 2
380041, 380042, 8
380041, 380044, 2
380041, 380043, 1
380041, 380040, 2
380043, 380042, 2
380043, 380044, 1
380043, 380041, 2
380046, 380045, 2
380038, 380039, 1
380045, 380046, 1
380045, 380044, 2
380040, 380039, 2
380040, 380041, 1
