590960, 590959, 2
590960, 590962, 2
590960, 590958, 2
590960, 590961, 2
590962, 590960, 2
590962, 590963, 2
590962, 590959, 2
590962, 590964, 1
590962, 590961, 2
590966, 590965, 2
590966, 590967, 1
590957, 590956, 2
590957, 590959, 1
590957, 590958, 8
590967, 590968, 1
590967, 590966, 2
590963, 590962, 2
590963, 590964, 2
590963, 590961, 2
590964, 590962, 2
590964, 590963, 7
590964, 590965, 1
590961, 590960, 2
590961, 590962, 1
590961, 590959, 2
590961, 590956, 2
590961, 590963, 2
590959, 590960, 8
590959, 590962, 2
590959, 590957, 2
590959, 590956, 2
590959, 590958, 2
590959, 590961, 1
590968, 590969, 0
590968, 590967, 2
590965, 590964, 2
590965, 590966, 1
590955, 590956, 1
590969, 590968, 2
590958, 590960, 2
590958, 590959, 2
590958, 590957, 2
590956, 590959, 2
590956, 590955, 2
590956, 590957, 1
590956, 590961, 2
