433451, 433449, 2
433451, 433452, 2
433451, 433453, 2
433451, 433448, 2
433451, 433454, 2
433451, 433450, 2
433449, 433451, 2
433449, 433448, 2
433449, 433450, 2
433449, 433454, 2
433449, 433453, 2
433452, 433451, 2
433452, 433448, 2
433452, 433450, 2
433452, 433454, 2
433452, 433453, 2
433453, 433451, 2
433453, 433449, 2
433453, 433452, 2
433453, 433448, 2
433453, 433454, 2
433453, 433450, 2
433448, 433451, 2
433448, 433449, 2
433448, 433452, 2
433448, 433453, 2
433448, 433454, 2
433448, 433446, 2
433448, 433450, 2
433448, 433447, 2
433454, 433451, 2
433454, 433449, 2
433454, 433452, 2
433454, 433453, 2
433454, 433448, 2
433454, 433450, 2
433446, 433448, 2
433446, 433447, 1
433450, 433451, 2
433450, 433449, 2
433450, 433452, 2
433450, 433453, 2
433450, 433448, 2
433450, 433454, 2
433447, 433448, 2
433447, 433446, 2
