571411, 571412, 3
571411, 571410, 2
571394, 571393, 2
571394, 571392, 2
571394, 571395, 1
571399, 571401, 2
571399, 571398, 2
571399, 571403, 2
571399, 571404, 1
571399, 571402, 2
571399, 571400, 3
571402, 571401, 2
571402, 571404, 2
571402, 571403, 0
571402, 571399, 2
571404, 571408, 2
571404, 571405, 3
571404, 571403, 2
571404, 571407, 1
571404, 571402, 2
571404, 571399, 2
571412, 571411, 2
571407, 571408, 1
571407, 571404, 2
571407, 571405, 2
571407, 571406, 2
571398, 571397, 2
571398, 571399, 1
571401, 571403, 2
571401, 571400, 2
571401, 571399, 2
571401, 571402, 1
571405, 571404, 2
571405, 571407, 2
571405, 571406, 3
571397, 571398, 1
571397, 571393, 2
571397, 571396, 2
571397, 571395, 2
571409, 571408, 2
571409, 571406, 2
571409, 571410, 2
571395, 571393, 2
571395, 571394, 2
571395, 571397, 2
571395, 571396, 1
571410, 571408, 2
571410, 571409, 2
571410, 571411, 1
571396, 571397, 2
571396, 571395, 2
571408, 571406, 2
571408, 571407, 2
571408, 571410, 1
571408, 571409, 3
571408, 571404, 2
571406, 571408, 2
571406, 571405, 2
571406, 571407, 2
571406, 571409, 2
571403, 571401, 2
571403, 571404, 2
571403, 571400, 2
571403, 571402, 2
571403, 571399, 2
571392, 571393, 1
571392, 571391, 2
571392, 571394, 2
571392, 571390, 2
571393, 571394, 3
571393, 571397, 1
571393, 571395, 2
571393, 571392, 2
571391, 571390, 2
571391, 571392, 2
571390, 571391, 0
571390, 571392, 1
571400, 571401, 1
571400, 571403, 2
571400, 571399, 2
