449991, 449990, 2
449991, 449992, 1
449991, 449989, 2
449985, 449986, 1
449985, 449984, 2
449984, 449985, 1
449988, 449990, 2
449988, 449989, 1
449988, 449987, 2
449990, 449988, 2
449990, 449989, 2
449990, 449987, 2
449990, 449991, 1
449995, 449994, 2
449986, 449985, 2
449986, 449987, 1
449989, 449990, 0
449989, 449992, 2
449989, 449991, 2
449989, 449993, 2
449989, 449987, 2
449989, 449988, 2
449994, 449995, 1
449994, 449993, 2
449993, 449992, 2
449993, 449989, 2
449993, 449994, 1
449987, 449990, 2
449987, 449986, 2
449987, 449989, 2
449987, 449988, 1
449992, 449993, 1
449992, 449989, 2
449992, 449991, 2
