431897, 431896, 2
431897, 431898, 0
431897, 431895, 2
431897, 431900, 2
431897, 431899, 2
431892, 431894, 1
431892, 431895, 2
431892, 431891, 2
431892, 431890, 2
431892, 431893, 0
431898, 431897, 2
431898, 431893, 2
431898, 431895, 2
431898, 431900, 2
431898, 431899, 1
431895, 431897, 2
431895, 431892, 2
431895, 431898, 2
431895, 431896, 1
431895, 431894, 2
431895, 431893, 2
431896, 431897, 1
431896, 431895, 2
431891, 431892, 1
431891, 431890, 2
431894, 431892, 2
431894, 431895, 1
431894, 431893, 2
431899, 431897, 2
431899, 431898, 2
431899, 431900, 1
431893, 431892, 2
431893, 431898, 2
431893, 431895, 2
431893, 431894, 2
431893, 431890, 2
431893, 431900, 2
431900, 431897, 2
431900, 431898, 2
431900, 431893, 2
431900, 431899, 2
431890, 431892, 2
431890, 431891, 1
431890, 431893, 2
