376561, 376562, 1
376561, 376560, 2
376556, 376557, 8
376556, 376558, 1
376556, 376559, 2
376556, 376554, 2
376556, 376555, 2
376554, 376555, 1
376554, 376556, 2
376554, 376557, 2
376565, 376564, 2
376565, 376563, 2
376565, 376566, 1
376565, 376562, 2
376578, 376576, 2
376578, 376579, 1
376578, 376577, 2
376574, 376573, 2
376574, 376575, 1
376576, 376578, 1
376576, 376577, 3
376576, 376575, 2
376572, 376573, 1
376572, 376571, 2
376571, 376572, 1
376571, 376570, 2
376571, 376569, 2
376558, 376557, 2
376558, 376556, 2
376558, 376560, 2
376558, 376559, 1
376564, 376563, 2
376564, 376562, 2
376564, 376565, 2
376563, 376564, 8
376563, 376562, 2
376563, 376565, 1
376557, 376558, 2
376557, 376556, 2
376557, 376559, 2
376557, 376554, 2
376580, 376579, 2
376579, 376578, 2
376579, 376580, 1
376573, 376577, 2
376573, 376572, 2
376573, 376574, 1
376562, 376561, 2
376562, 376563, 1
376562, 376565, 2
376562, 376564, 2
376559, 376557, 2
376559, 376556, 2
376559, 376560, 1
376559, 376558, 2
376569, 376568, 2
376569, 376570, 3
376569, 376571, 1
376566, 376567, 1
376566, 376565, 2
376560, 376561, 1
376560, 376559, 2
376560, 376558, 2
376577, 376576, 2
376577, 376578, 2
376577, 376573, 2
376567, 376568, 1
376567, 376566, 2
376575, 376576, 1
376575, 376574, 2
376555, 376556, 1
376555, 376554, 2
376568, 376567, 2
376568, 376569, 1
376570, 376569, 2
376570, 376571, 2
