523274, 523272, 2
523274, 523273, 2
523274, 523276, 1
523274, 523271, 2
523305, 523296, 2
523305, 523301, 2
523305, 523289, 2
523305, 523308, 2
523305, 523300, 2
523305, 523307, 2
523305, 523309, 2
523305, 523306, 1
523305, 523287, 2
523305, 523293, 2
523305, 523292, 2
523305, 523304, 2
523305, 523299, 2
523305, 523284, 2
523305, 523285, 2
523305, 523278, 2
523305, 523303, 2
523308, 523296, 2
523308, 523301, 2
523308, 523305, 2
523308, 523295, 2
523308, 523306, 2
523308, 523313, 2
523308, 523304, 2
523308, 523299, 2
523308, 523284, 2
523308, 523315, 2
523308, 523311, 2
523308, 523336, 2
523308, 523312, 2
523308, 523303, 2
523344, 523327, 2
523344, 523342, 2
523344, 523345, 1
523300, 523307, 2
523300, 523305, 2
523300, 523284, 2
523300, 523302, 1
523300, 523278, 2
523300, 523292, 2
523300, 523298, 2
523341, 523343, 1
523341, 523327, 2
523341, 523340, 2
523335, 523327, 2
523335, 523333, 2
523335, 523337, 1
523335, 523340, 2
523335, 523331, 2
523306, 523301, 2
523306, 523305, 2
523306, 523310, 2
523306, 523308, 6
523306, 523316, 2
523306, 523307, 4
523306, 523309, 2
523306, 523299, 2
523306, 523321, 2
523306, 523304, 2
523306, 523314, 2
523306, 523284, 2
523306, 523313, 2
523306, 523320, 2
523306, 523315, 2
523306, 523311, 1
523306, 523278, 2
523306, 523317, 2
523306, 523312, 2
523306, 523303, 2
523325, 523326, 1
523325, 523328, 2
523325, 523321, 2
523325, 523324, 2
523263, 523264, 3
523263, 523265, 1
523321, 523320, 2
523321, 523342, 2
523321, 523326, 2
523321, 523327, 1
523321, 523331, 2
523321, 523306, 2
523321, 523324, 2
523321, 523343, 2
523321, 523325, 2
523321, 523317, 2
523321, 523313, 2
523321, 523336, 2
523321, 523328, 2
523321, 523310, 2
523321, 523318, 2
523321, 523311, 2
523321, 523323, 2
523321, 523329, 2
523321, 523316, 2
523321, 523337, 2
523321, 523334, 2
523321, 523333, 2
523321, 523332, 2
523321, 523319, 2
523321, 523312, 2
523321, 523322, 3
523322, 523333, 2
523322, 523321, 2
523322, 523304, 2
523322, 523310, 2
523322, 523323, 1
523322, 523327, 2
523322, 523328, 2
523281, 523283, 2
523281, 523285, 2
523281, 523280, 2
523281, 523278, 2
523281, 523282, 1
523281, 523307, 2
523327, 523344, 2
523327, 523341, 2
523327, 523336, 2
523327, 523342, 2
523327, 523326, 2
523327, 523331, 4
523327, 523335, 2
523327, 523324, 2
523327, 523321, 2
523327, 523322, 2
523327, 523343, 2
523327, 523328, 6
523327, 523338, 2
523327, 523339, 2
523327, 523330, 2
523327, 523329, 2
523327, 523337, 2
523327, 523340, 2
523327, 523334, 2
523327, 523333, 2
523327, 523332, 2
523327, 523345, 2
523320, 523321, 2
523320, 523311, 2
523320, 523336, 2
523320, 523306, 2
523320, 523318, 2
523273, 523274, 1
523273, 523267, 2
523273, 523270, 2
523273, 523272, 2
523273, 523264, 2
523273, 523278, 2
523273, 523266, 2
523273, 523268, 2
523273, 523271, 2
523311, 523320, 2
523311, 523310, 2
523311, 523308, 2
523311, 523316, 2
523311, 523306, 2
523311, 523309, 2
523311, 523317, 2
523311, 523321, 1
523311, 523314, 2
523311, 523313, 6
523311, 523315, 2
523311, 523319, 2
523311, 523318, 2
523311, 523312, 4
523285, 523283, 2
523285, 523305, 2
523285, 523281, 2
523285, 523287, 1
523285, 523284, 2
523285, 523282, 2
523285, 523278, 2
523285, 523279, 2
523285, 523280, 2
523338, 523327, 2
523338, 523334, 2
523338, 523336, 2
523338, 523332, 2
523338, 523339, 1
523339, 523327, 2
523339, 523342, 1
523339, 523338, 2
523283, 523281, 2
523283, 523286, 2
523283, 523284, 2
523283, 523285, 2
523283, 523278, 2
523283, 523282, 2
523283, 523307, 2
523330, 523327, 2
523330, 523329, 2
523330, 523332, 1
523265, 523266, 1
523265, 523263, 2
523265, 523275, 2
523265, 523267, 2
523265, 523264, 2
523294, 523284, 2
523294, 523298, 1
523294, 523292, 2
523279, 523284, 2
523279, 523285, 2
523279, 523278, 2
523279, 523280, 1
523267, 523266, 2
523267, 523273, 2
523267, 523265, 2
523267, 523275, 2
523267, 523268, 1
523293, 523296, 1
523293, 523305, 2
523293, 523291, 2
523293, 523284, 2
523293, 523278, 2
523293, 523295, 0
523307, 523283, 2
523307, 523301, 2
523307, 523305, 2
523307, 523286, 2
523307, 523300, 2
523307, 523306, 2
523307, 523309, 1
523307, 523304, 2
523307, 523281, 2
523307, 523310, 2
523307, 523284, 2
523307, 523298, 2
523307, 523312, 2
523307, 523303, 2
523271, 523274, 2
523271, 523276, 2
523271, 523275, 2
523271, 523270, 2
523271, 523272, 1
523271, 523273, 2
523271, 523278, 2
523269, 523268, 2
523269, 523270, 1
523332, 523330, 2
523332, 523321, 2
523332, 523336, 2
523332, 523327, 2
523332, 523338, 2
523332, 523334, 1
523333, 523327, 2
523333, 523321, 2
523333, 523335, 1
523333, 523322, 2
523333, 523331, 2
523313, 523295, 2
523313, 523321, 2
523313, 523310, 2
523313, 523308, 2
523313, 523315, 0
523313, 523311, 2
523313, 523306, 2
523313, 523317, 1
523313, 523303, 2
523314, 523316, 1
523314, 523311, 2
523314, 523306, 2
523314, 523310, 2
523314, 523312, 2
523299, 523297, 2
523299, 523301, 1
523299, 523305, 2
523299, 523308, 2
523299, 523284, 2
523299, 523278, 2
523299, 523306, 2
523299, 523295, 2
523277, 523272, 2
523277, 523276, 2
523277, 523278, 2
523298, 523284, 2
523298, 523300, 1
523298, 523294, 2
523298, 523292, 2
523298, 523307, 2
523345, 523327, 2
523345, 523344, 2
523295, 523313, 2
523295, 523296, 2
523295, 523293, 2
523295, 523275, 2
523295, 523308, 2
523295, 523284, 2
523295, 523287, 2
523295, 523291, 2
523295, 523301, 2
523295, 523278, 2
523295, 523299, 2
523272, 523274, 2
523272, 523276, 2
523272, 523275, 6
523272, 523270, 2
523272, 523277, 2
523272, 523273, 4
523272, 523278, 1
523272, 523271, 2
523276, 523272, 2
523276, 523274, 2
523276, 523278, 2
523276, 523277, 1
523276, 523271, 2
523289, 523278, 2
523289, 523284, 2
523289, 523305, 2
523289, 523286, 2
523289, 523290, 1
523342, 523327, 2
523342, 523344, 1
523342, 523321, 2
523342, 523336, 2
523342, 523339, 2
523326, 523328, 2
523326, 523325, 2
523326, 523327, 2
523326, 523331, 2
523326, 523321, 2
523326, 523324, 2
523331, 523333, 0
523331, 523321, 2
523331, 523327, 2
523331, 523326, 2
523331, 523335, 2
523331, 523340, 1
523309, 523303, 2
523309, 523301, 2
523309, 523305, 2
523309, 523310, 1
523309, 523284, 2
523309, 523311, 2
523309, 523307, 2
523309, 523312, 2
523309, 523306, 2
523266, 523264, 2
523266, 523273, 2
523266, 523265, 2
523266, 523267, 1
523286, 523283, 2
523286, 523284, 2
523286, 523289, 1
523286, 523307, 2
523286, 523278, 2
523324, 523321, 2
523324, 523323, 2
523324, 523327, 2
523324, 523326, 2
523324, 523328, 2
523324, 523325, 1
523268, 523269, 1
523268, 523273, 2
523268, 523275, 2
523268, 523267, 2
523290, 523292, 1
523290, 523289, 2
523290, 523284, 2
523343, 523327, 2
523343, 523341, 2
523343, 523321, 2
523302, 523300, 2
523302, 523304, 1
523302, 523284, 2
523328, 523325, 2
523328, 523321, 2
523328, 523322, 2
523328, 523329, 1
523328, 523327, 2
523328, 523326, 2
523328, 523324, 2
523328, 523323, 2
523278, 523276, 2
523278, 523305, 2
523278, 523300, 2
523278, 523306, 2
523278, 523299, 2
523278, 523293, 2
523278, 523281, 2
523278, 523272, 2
523278, 523289, 2
523278, 523285, 2
523278, 523273, 2
523278, 523275, 2
523278, 523283, 2
523278, 523277, 2
523278, 523270, 2
523278, 523291, 2
523278, 523282, 2
523278, 523271, 2
523278, 523279, 3
523278, 523292, 2
523278, 523286, 2
523278, 523304, 2
523278, 523287, 2
523278, 523284, 1
523278, 523295, 2
523278, 523280, 2
523336, 523329, 2
523336, 523321, 2
523336, 523320, 2
523336, 523342, 2
523336, 523332, 2
523336, 523327, 2
523336, 523315, 2
523336, 523308, 2
523336, 523317, 2
523336, 523338, 2
523336, 523334, 2
523275, 523265, 2
523275, 523267, 2
523275, 523270, 2
523275, 523272, 2
523275, 523271, 2
523275, 523278, 2
523275, 523268, 2
523275, 523295, 2
523318, 523321, 2
523318, 523311, 2
523318, 523320, 1
523318, 523317, 2
523296, 523297, 1
523296, 523293, 2
523296, 523305, 2
523296, 523308, 2
523296, 523291, 2
523296, 523284, 2
523296, 523295, 2
523301, 523305, 2
523301, 523308, 2
523301, 523299, 2
523301, 523284, 2
523301, 523303, 1
523301, 523306, 2
523301, 523307, 2
523301, 523309, 2
523301, 523295, 2
523323, 523328, 2
523323, 523321, 2
523323, 523322, 2
523323, 523324, 1
523329, 523327, 2
523329, 523330, 1
523329, 523321, 2
523329, 523336, 2
523329, 523328, 2
523270, 523269, 2
523270, 523275, 2
523270, 523272, 2
523270, 523273, 2
523270, 523278, 2
523270, 523271, 1
523291, 523296, 2
523291, 523293, 1
523291, 523288, 2
523291, 523284, 2
523291, 523278, 2
523291, 523295, 2
523282, 523283, 1
523282, 523284, 2
523282, 523285, 2
523282, 523278, 2
523282, 523281, 2
523337, 523327, 2
523337, 523340, 2
523337, 523321, 2
523337, 523335, 2
523340, 523327, 2
523340, 523341, 1
523340, 523335, 2
523340, 523331, 2
523340, 523337, 2
523264, 523266, 2
523264, 523263, 2
523264, 523273, 2
523264, 523265, 2
523315, 523303, 2
523315, 523336, 2
523315, 523308, 2
523315, 523313, 2
523315, 523284, 2
523315, 523311, 2
523315, 523306, 2
523315, 523317, 2
523334, 523327, 2
523334, 523321, 2
523334, 523336, 0
523334, 523332, 2
523334, 523338, 1
523317, 523321, 2
523317, 523336, 2
523317, 523313, 2
523317, 523315, 2
523317, 523311, 2
523317, 523306, 2
523317, 523318, 1
523297, 523299, 1
523297, 523284, 2
523297, 523296, 2
523288, 523287, 2
523288, 523291, 1
523288, 523284, 2
523292, 523294, 1
523292, 523305, 2
523292, 523300, 2
523292, 523284, 2
523292, 523298, 2
523292, 523290, 2
523292, 523278, 2
523310, 523316, 2
523310, 523307, 2
523310, 523309, 2
523310, 523306, 2
523310, 523321, 2
523310, 523304, 2
523310, 523322, 2
523310, 523314, 2
523310, 523313, 2
523310, 523284, 2
523310, 523311, 2
523310, 523319, 2
523310, 523312, 2
523304, 523310, 2
523304, 523305, 2
523304, 523322, 2
523304, 523308, 2
523304, 523284, 2
523304, 523302, 2
523304, 523278, 2
523304, 523307, 2
523304, 523312, 2
523304, 523306, 2
523287, 523305, 2
523287, 523288, 1
523287, 523284, 2
523287, 523285, 2
523287, 523278, 2
523287, 523295, 2
523284, 523305, 1
523284, 523286, 4
523284, 523308, 2
523284, 523300, 2
523284, 523306, 2
523284, 523309, 2
523284, 523287, 2
523284, 523293, 2
523284, 523290, 2
523284, 523302, 2
523284, 523289, 2
523284, 523285, 6
523284, 523278, 2
523284, 523315, 2
523284, 523283, 2
523284, 523296, 2
523284, 523301, 2
523284, 523294, 2
523284, 523279, 2
523284, 523288, 2
523284, 523291, 2
523284, 523282, 2
523284, 523307, 2
523284, 523297, 2
523284, 523292, 2
523284, 523310, 2
523284, 523299, 2
523284, 523304, 2
523284, 523298, 2
523284, 523295, 2
523284, 523303, 2
523280, 523285, 2
523280, 523278, 2
523280, 523281, 1
523280, 523279, 2
523319, 523316, 2
523319, 523311, 2
523319, 523321, 2
523319, 523310, 2
523316, 523321, 2
523316, 523314, 2
523316, 523310, 2
523316, 523311, 2
523316, 523319, 1
523316, 523306, 2
523312, 523314, 1
523312, 523321, 2
523312, 523304, 2
523312, 523310, 2
523312, 523308, 2
523312, 523311, 2
523312, 523307, 2
523312, 523309, 2
523312, 523306, 2
523303, 523301, 2
523303, 523305, 2
523303, 523308, 2
523303, 523313, 2
523303, 523284, 2
523303, 523315, 2
523303, 523306, 2
523303, 523309, 2
523303, 523307, 2
