455533, 455531, 2
455533, 455532, 2
455531, 455533, 2
455531, 455532, 1
455531, 455530, 2
455531, 455529, 2
455529, 455531, 1
455529, 455530, 3
455530, 455531, 2
455530, 455529, 2
455532, 455533, 1
455532, 455531, 2
