535565, 535566, 1
535565, 535564, 2
535551, 535553, 2
535551, 535550, 2
535551, 535552, 1
535549, 535548, 2
535549, 535550, 1
535566, 535565, 2
535566, 535564, 2
535557, 535556, 2
535557, 535558, 1
535554, 535553, 2
535554, 535555, 1
535554, 535552, 2
535553, 535551, 2
535553, 535554, 2
535553, 535550, 2
535553, 535552, 2
535563, 535564, 1
535563, 535562, 2
535550, 535553, 2
535550, 535551, 1
535550, 535549, 2
535550, 535552, 2
535561, 535559, 2
535561, 535560, 2
535561, 535562, 2
535548, 535547, 2
535548, 535549, 1
535547, 535548, 1
535555, 535554, 2
535555, 535556, 1
535560, 535559, 2
535560, 535562, 1
535560, 535561, 3
535560, 535558, 2
535564, 535565, 1
535564, 535563, 2
535564, 535566, 2
535556, 535559, 2
535556, 535555, 2
535556, 535557, 1
535556, 535558, 2
535559, 535558, 2
535559, 535560, 2
535559, 535561, 2
535559, 535556, 2
535558, 535559, 3
535558, 535557, 2
535558, 535556, 2
535558, 535560, 1
535562, 535563, 1
535562, 535560, 2
535562, 535561, 2
535552, 535554, 1
535552, 535553, 0
535552, 535551, 2
535552, 535550, 2
