554071, 554073, 2
554071, 554070, 2
554071, 554072, 1
554071, 554069, 2
554074, 554073, 2
554074, 554072, 2
554074, 554069, 2
554070, 554071, 2
554070, 554073, 2
554070, 554072, 2
554070, 554069, 2
554069, 554071, 1
554069, 554074, 2
554069, 554070, 3
554069, 554072, 2
554069, 554073, 2
554073, 554071, 2
554073, 554074, 2
554073, 554070, 2
554073, 554072, 2
554073, 554069, 2
554072, 554071, 2
554072, 554074, 0
554072, 554070, 2
554072, 554073, 3
554072, 554069, 2
