433268, 433267, 2
433268, 433269, 2
433268, 433271, 2
433268, 433270, 2
433271, 433272, 2
433271, 433268, 2
433271, 433269, 2
433271, 433273, 2
433271, 433270, 2
433273, 433272, 2
433273, 433271, 2
433273, 433270, 2
433272, 433273, 1
433272, 433271, 2
433272, 433270, 2
433267, 433268, 3
433267, 433269, 1
433270, 433268, 2
433270, 433269, 2
433270, 433271, 3
433270, 433273, 2
433270, 433272, 1
433269, 433268, 2
433269, 433267, 2
433269, 433271, 2
433269, 433270, 1
