608230, 608232, 2
608230, 608227, 2
608230, 608231, 1
608230, 608229, 2
608230, 608228, 2
608227, 608230, 2
608227, 608232, 1
608227, 608229, 8
608227, 608228, 3
608228, 608230, 2
608228, 608232, 2
608228, 608227, 2
608228, 608229, 2
608229, 608230, 1
608229, 608232, 2
608229, 608227, 2
608229, 608231, 2
608229, 608228, 2
608232, 608230, 2
608232, 608227, 2
608232, 608228, 2
608232, 608229, 2
608232, 608231, 2
608232, 608233, 3
608231, 608230, 2
608231, 608232, 2
608231, 608229, 2
608231, 608233, 2
608233, 608232, 2
608233, 608231, 2
