523150, 523151, 2
523150, 523149, 2
523150, 523146, 2
523151, 523150, 2
523151, 523149, 2
523151, 523148, 2
523146, 523147, 2
523146, 523150, 2
523146, 523149, 2
523146, 523148, 2
523146, 523145, 2
523147, 523145, 2
523147, 523146, 2
523147, 523148, 1
523145, 523147, 1
523145, 523146, 3
523145, 523148, 2
523149, 523150, 8
523149, 523151, 1
523149, 523146, 2
523149, 523148, 2
523148, 523147, 2
523148, 523145, 2
523148, 523151, 2
523148, 523146, 2
523148, 523149, 3
