641928, 641927, 2
641928, 641930, 2
641928, 641931, 2
641928, 641929, 1
641927, 641928, 2
641927, 641933, 2
641927, 641926, 2
641927, 641925, 2
641927, 641931, 2
641927, 641929, 2
641922, 641923, 2
641922, 641925, 2
641922, 641921, 2
641922, 641924, 2
641922, 641933, 2
641930, 641932, 2
641930, 641933, 2
641930, 641931, 2
641930, 641928, 2
641930, 641929, 2
641925, 641924, 2
641925, 641927, 2
641925, 641922, 2
641925, 641926, 1
641925, 641931, 2
641925, 641929, 2
641921, 641922, 6
641921, 641923, 1
641931, 641932, 3
641931, 641928, 2
641931, 641927, 2
641931, 641933, 1
641931, 641930, 2
641931, 641925, 2
641931, 641926, 2
641931, 641929, 2
641929, 641928, 2
641929, 641927, 2
641929, 641930, 1
641929, 641925, 2
641929, 641926, 2
641929, 641931, 2
641932, 641933, 2
641932, 641930, 2
641932, 641931, 2
641933, 641927, 2
641933, 641922, 2
641933, 641930, 2
641933, 641931, 2
641933, 641932, 2
641923, 641922, 2
641923, 641921, 2
641923, 641924, 1
641926, 641927, 3
641926, 641925, 2
641926, 641931, 1
641926, 641929, 2
641924, 641922, 2
641924, 641925, 1
641924, 641923, 2
