553165, 553164, 2
553165, 553166, 3
553165, 553163, 2
553166, 553165, 2
553166, 553164, 2
553166, 553163, 2
553164, 553165, 1
553164, 553166, 2
553164, 553163, 2
553163, 553165, 2
553163, 553166, 2
553163, 553164, 1
