374773, 374772, 2
374769, 374768, 2
374769, 374770, 1
374770, 374769, 2
374770, 374771, 1
374765, 374764, 2
374765, 374767, 2
374765, 374766, 1
374772, 374773, 1
374772, 374771, 2
374771, 374772, 1
374771, 374770, 2
374764, 374763, 2
374764, 374765, 1
374768, 374769, 1
374768, 374767, 2
374767, 374768, 1
374767, 374765, 2
374767, 374766, 2
374763, 374764, 1
374763, 374762, 2
374762, 374763, 1
374762, 374761, 2
374761, 374762, 1
374766, 374765, 2
374766, 374767, 1
