333382, 333383, 2
333382, 333380, 2
333382, 333381, 2
333382, 333384, 2
333380, 333378, 2
333380, 333382, 2
333380, 333379, 2
333380, 333381, 1
333383, 333382, 2
333383, 333384, 1
333383, 333381, 2
333386, 333385, 2
333386, 333388, 1
333386, 333384, 2
333386, 333387, 0
333379, 333378, 2
333379, 333380, 2
333387, 333388, 2
333387, 333386, 2
333378, 333379, 3
333378, 333380, 1
333388, 333386, 2
333388, 333387, 2
333385, 333386, 1
333385, 333384, 2
333384, 333382, 2
333384, 333385, 1
333384, 333383, 2
333384, 333386, 2
333381, 333382, 8
333381, 333383, 1
333381, 333380, 2
