455161, 455157, 2
455161, 455162, 2
455161, 455164, 2
455161, 455163, 2
455161, 455168, 2
455161, 455166, 2
455161, 455159, 2
455161, 455165, 1
455161, 455170, 2
455161, 455160, 2
455159, 455161, 2
455159, 455157, 2
455159, 455156, 2
455159, 455155, 2
455159, 455158, 2
455159, 455162, 1
455159, 455154, 2
455159, 455160, 2
455159, 455165, 2
455173, 455175, 2
455173, 455170, 2
455173, 455172, 2
455173, 455174, 1
455173, 455171, 2
455182, 455183, 2
455182, 455178, 2
455182, 455181, 2
455182, 455185, 2
455157, 455161, 2
455157, 455155, 2
455157, 455156, 2
455157, 455158, 2
455157, 455152, 2
455157, 455154, 2
455157, 455149, 2
455157, 455159, 1
455157, 455165, 2
455157, 455150, 2
455157, 455160, 2
455162, 455161, 2
455162, 455155, 2
455162, 455156, 2
455162, 455158, 2
455162, 455163, 1
455162, 455159, 2
455162, 455165, 2
455162, 455160, 2
455176, 455178, 2
455176, 455175, 2
455176, 455177, 1
455160, 455161, 1
455160, 455157, 2
455160, 455158, 2
455160, 455163, 2
455160, 455164, 2
455160, 455162, 2
455160, 455166, 2
455160, 455159, 2
455160, 455165, 2
455170, 455161, 2
455170, 455155, 2
455170, 455178, 2
455170, 455173, 2
455170, 455179, 2
455170, 455181, 2
455170, 455175, 2
455170, 455171, 2
455170, 455167, 2
455170, 455168, 2
455170, 455169, 2
455170, 455174, 2
455170, 455165, 2
455190, 455189, 2
455190, 455191, 1
455190, 455185, 2
455190, 455192, 2
455190, 455187, 2
455155, 455154, 2
455155, 455156, 1
455155, 455158, 2
455155, 455164, 2
455155, 455179, 2
455155, 455166, 2
455155, 455159, 2
455155, 455181, 2
455155, 455157, 2
455155, 455162, 2
455155, 455168, 2
455155, 455170, 2
455178, 455187, 2
455178, 455179, 3
455178, 455183, 2
455178, 455186, 2
455178, 455181, 2
455178, 455175, 2
455178, 455182, 2
455178, 455180, 2
455178, 455177, 2
455178, 455176, 2
455178, 455170, 2
455178, 455188, 2
455178, 455185, 1
455169, 455164, 2
455169, 455167, 2
455169, 455168, 2
455169, 455166, 2
455169, 455170, 2
455169, 455171, 1
455164, 455161, 2
455164, 455155, 2
455164, 455156, 2
455164, 455169, 2
455164, 455158, 2
455164, 455167, 2
455164, 455163, 2
455164, 455166, 2
455164, 455160, 2
455164, 455165, 2
455164, 455171, 2
455150, 455157, 2
455150, 455151, 1
455150, 455149, 2
455179, 455155, 2
455179, 455180, 1
455179, 455178, 2
455179, 455170, 2
455179, 455188, 2
455179, 455185, 2
455172, 455173, 1
455172, 455174, 2
455172, 455171, 2
455175, 455178, 1
455175, 455177, 2
455175, 455176, 0
455175, 455170, 2
455175, 455173, 2
455175, 455174, 2
455171, 455169, 2
455171, 455164, 2
455171, 455167, 2
455171, 455168, 2
455171, 455166, 2
455171, 455170, 2
455171, 455172, 1
455171, 455173, 2
455165, 455161, 2
455165, 455162, 2
455165, 455160, 2
455165, 455164, 2
455165, 455167, 1
455165, 455168, 2
455165, 455166, 4
455165, 455159, 2
455165, 455163, 2
455165, 455170, 2
455165, 455157, 2
455177, 455176, 2
455177, 455178, 2
455177, 455175, 2
455184, 455183, 2
455184, 455186, 2
455184, 455185, 2
455184, 455187, 2
455174, 455170, 2
455174, 455173, 2
455174, 455175, 1
455174, 455172, 2
455152, 455157, 2
455152, 455153, 1
455152, 455151, 2
455189, 455188, 2
455189, 455185, 2
455189, 455190, 2
455189, 455187, 2
455163, 455161, 2
455163, 455162, 2
455163, 455156, 2
455163, 455158, 2
455163, 455164, 1
455163, 455160, 2
455163, 455165, 2
455187, 455189, 2
455187, 455190, 2
455187, 455192, 2
455187, 455184, 2
455187, 455183, 2
455187, 455186, 2
455187, 455188, 2
455187, 455178, 2
455187, 455185, 2
455154, 455157, 2
455154, 455155, 1
455154, 455156, 2
455154, 455158, 2
455154, 455153, 2
455154, 455159, 2
455166, 455161, 2
455166, 455155, 2
455166, 455156, 2
455166, 455169, 2
455166, 455158, 2
455166, 455167, 2
455166, 455164, 2
455166, 455168, 1
455166, 455160, 2
455166, 455165, 2
455166, 455171, 2
455156, 455157, 2
455156, 455162, 2
455156, 455155, 2
455156, 455158, 1
455156, 455164, 2
455156, 455163, 2
455156, 455154, 2
455156, 455166, 2
455156, 455159, 2
455153, 455154, 1
455153, 455152, 2
455167, 455169, 1
455167, 455164, 2
455167, 455168, 2
455167, 455166, 2
455167, 455170, 2
455167, 455165, 2
455167, 455171, 2
455149, 455157, 2
455149, 455150, 3
455188, 455180, 2
455188, 455189, 1
455188, 455187, 2
455188, 455179, 2
455188, 455183, 2
455188, 455186, 2
455188, 455181, 2
455188, 455178, 2
455188, 455185, 2
455193, 455194, 1
455193, 455192, 2
455191, 455192, 1
455191, 455190, 2
455158, 455157, 4
455158, 455162, 2
455158, 455156, 2
455158, 455155, 2
455158, 455163, 2
455158, 455164, 2
455158, 455154, 2
455158, 455166, 2
455158, 455159, 2
455158, 455160, 1
455192, 455191, 2
455192, 455193, 1
455192, 455190, 2
455192, 455187, 2
455194, 455193, 2
455183, 455180, 2
455183, 455178, 2
455183, 455188, 2
455183, 455185, 2
455183, 455187, 2
455183, 455184, 8
455183, 455186, 1
455183, 455181, 2
455183, 455182, 2
455186, 455178, 2
455186, 455187, 1
455186, 455184, 2
455186, 455183, 2
455186, 455188, 2
455186, 455185, 2
455181, 455155, 2
455181, 455180, 2
455181, 455178, 2
455181, 455185, 2
455181, 455183, 1
455181, 455170, 2
455181, 455188, 2
455181, 455182, 8
455180, 455178, 2
455180, 455188, 2
455180, 455179, 2
455180, 455183, 2
455180, 455181, 1
455180, 455185, 2
455168, 455161, 2
455168, 455155, 2
455168, 455169, 2
455168, 455167, 2
455168, 455166, 2
455168, 455170, 1
455168, 455165, 2
455168, 455171, 2
455151, 455152, 2
455151, 455150, 2
455185, 455189, 2
455185, 455187, 2
455185, 455179, 2
455185, 455183, 2
455185, 455186, 2
455185, 455181, 2
455185, 455178, 2
455185, 455182, 2
455185, 455180, 2
455185, 455184, 2
455185, 455188, 3
455185, 455190, 1
