554612, 554610, 2
554612, 554613, 2
554614, 554615, 1
554614, 554613, 2
554616, 554618, 1
554616, 554617, 3
554616, 554615, 2
554616, 554611, 2
554610, 554612, 3
554610, 554611, 6
554610, 554613, 1
554615, 554614, 2
554615, 554616, 1
554615, 554611, 2
554615, 554613, 2
554618, 554617, 2
554618, 554616, 2
554617, 554618, 2
554617, 554616, 2
554611, 554616, 2
554611, 554615, 2
554611, 554610, 2
554611, 554613, 2
554613, 554612, 2
554613, 554614, 1
554613, 554610, 2
554613, 554611, 2
554613, 554615, 2
