643562, 643564, 1
643562, 643563, 0
643562, 643565, 2
643564, 643562, 2
643564, 643563, 2
643564, 643565, 1
643563, 643562, 2
643563, 643564, 2
643563, 643565, 2
643565, 643562, 2
643565, 643564, 2
643565, 643563, 2
