571318, 571315, 2
571318, 571320, 2
571318, 571316, 2
571318, 571319, 2
571318, 571317, 2
571305, 571309, 8
571305, 571306, 3
571305, 571307, 2
571305, 571308, 0
571307, 571309, 2
571307, 571305, 2
571307, 571310, 2
571307, 571306, 2
571307, 571308, 2
571322, 571320, 2
571322, 571321, 2
571322, 571323, 2
571313, 571315, 2
571313, 571310, 2
571313, 571312, 2
571313, 571311, 2
571313, 571314, 2
571309, 571305, 2
571309, 571310, 2
571309, 571307, 2
571309, 571308, 2
571309, 571311, 2
571306, 571305, 2
571306, 571307, 1
571306, 571308, 2
571315, 571318, 0
571315, 571316, 3
571315, 571312, 2
571315, 571314, 2
571315, 571313, 2
571315, 571319, 8
571315, 571317, 2
571320, 571318, 2
571320, 571322, 2
571320, 571319, 2
571320, 571321, 3
571320, 571323, 0
571320, 571317, 2
571316, 571315, 2
571316, 571318, 2
571316, 571314, 2
571316, 571317, 1
571310, 571312, 2
571310, 571307, 2
571310, 571308, 2
571310, 571314, 8
571310, 571313, 0
571310, 571309, 2
571310, 571311, 3
571308, 571309, 2
571308, 571305, 2
571308, 571310, 2
571308, 571306, 2
571308, 571307, 2
571319, 571318, 2
571319, 571320, 2
571319, 571321, 2
571319, 571315, 2
571319, 571317, 2
571312, 571315, 2
571312, 571313, 2
571312, 571310, 2
571312, 571311, 2
571312, 571314, 2
571317, 571315, 2
571317, 571318, 2
571317, 571316, 2
571317, 571319, 2
571317, 571320, 2
571314, 571315, 2
571314, 571313, 2
571314, 571316, 2
571314, 571312, 2
571314, 571310, 2
571321, 571320, 2
571321, 571323, 2
571321, 571322, 1
571321, 571319, 2
571323, 571320, 2
571323, 571321, 2
571323, 571322, 2
571311, 571313, 2
571311, 571312, 1
571311, 571309, 2
571311, 571310, 2
