379212, 379210, 2
379212, 379213, 1
379212, 379211, 2
379214, 379213, 2
379213, 379210, 2
379213, 379211, 2
379213, 379214, 0
379213, 379212, 2
379209, 379210, 1
379209, 379207, 2
379209, 379208, 2
379210, 379212, 1
379210, 379211, 0
379210, 379213, 2
379210, 379208, 2
379210, 379209, 2
379207, 379208, 0
379207, 379209, 1
379208, 379210, 2
379208, 379207, 2
379208, 379209, 2
379211, 379210, 2
379211, 379213, 2
379211, 379212, 2
