515440, 515438, 2
515440, 515439, 2
515440, 515441, 0
515436, 515438, 2
515436, 515437, 1
515437, 515438, 1
515437, 515436, 2
515438, 515440, 2
515438, 515439, 1
515438, 515437, 2
515438, 515436, 2
515439, 515440, 1
515439, 515438, 2
515441, 515440, 2
