495893, 495892, 2
495893, 495894, 3
495889, 495888, 2
495889, 495890, 2
495892, 495893, 1
495892, 495891, 2
495892, 495890, 2
495892, 495894, 2
495888, 495889, 2
495888, 495887, 2
495888, 495890, 2
495894, 495893, 2
495894, 495892, 2
495894, 495891, 2
495894, 495890, 2
495887, 495888, 3
495887, 495890, 1
495890, 495889, 2
495890, 495892, 1
495890, 495888, 2
495890, 495894, 2
495890, 495887, 2
495890, 495891, 3
495891, 495892, 2
495891, 495890, 2
495891, 495894, 2
