449930, 449929, 2
449930, 449931, 1
449926, 449927, 1
449926, 449925, 2
449926, 449924, 2
449927, 449929, 2
449927, 449928, 1
449927, 449925, 2
449927, 449926, 2
449929, 449930, 1
449929, 449928, 2
449929, 449931, 2
449929, 449927, 2
449919, 449920, 1
449925, 449927, 2
449925, 449926, 1
449925, 449924, 2
449931, 449929, 2
449931, 449930, 2
449924, 449921, 2
449924, 449922, 2
449924, 449925, 1
449924, 449923, 2
449924, 449926, 2
449921, 449924, 2
449921, 449922, 8
449921, 449923, 1
449921, 449920, 2
449928, 449929, 1
449928, 449927, 2
449923, 449921, 2
449923, 449920, 2
449923, 449922, 2
449923, 449924, 1
449920, 449921, 1
449920, 449922, 2
449920, 449923, 2
449920, 449919, 2
449922, 449921, 2
449922, 449924, 2
449922, 449923, 2
449922, 449920, 2
