379380, 379376, 2
379380, 379378, 2
379380, 379381, 1
379380, 379377, 2
379380, 379379, 2
379381, 379380, 2
379381, 379378, 2
379381, 379379, 2
379376, 379380, 2
379376, 379378, 2
379376, 379377, 1
379376, 379379, 2
379376, 379375, 2
379378, 379380, 2
379378, 379381, 2
379378, 379377, 2
379378, 379376, 2
379378, 379375, 2
379377, 379380, 1
379377, 379378, 4
379377, 379379, 6
379377, 379376, 2
379379, 379380, 2
379379, 379381, 2
379379, 379377, 2
379379, 379376, 2
379379, 379375, 2
379375, 379378, 2
379375, 379379, 2
379375, 379376, 1
