378807, 378808, 8
378807, 378806, 2
378807, 378809, 1
378807, 378805, 2
378807, 378810, 2
378806, 378807, 2
378806, 378808, 2
378806, 378804, 2
378806, 378805, 2
378804, 378806, 2
378804, 378805, 1
378808, 378807, 2
378808, 378806, 2
378808, 378809, 2
378808, 378810, 2
378809, 378807, 2
378809, 378808, 2
378809, 378810, 1
378805, 378807, 1
378805, 378806, 8
378805, 378804, 2
378805, 378810, 2
378810, 378807, 2
378810, 378808, 2
378810, 378809, 2
378810, 378805, 2
