642187, 642190, 2
642187, 642189, 2
642187, 642188, 3
642187, 642183, 2
642187, 642184, 2
642187, 642185, 2
642187, 642182, 2
642187, 642186, 2
642190, 642187, 2
642190, 642189, 2
642190, 642188, 2
642188, 642187, 2
642188, 642190, 2
642188, 642186, 2
642188, 642189, 1
642179, 642177, 2
642179, 642178, 2
642179, 642180, 1
642185, 642187, 2
642185, 642183, 2
642185, 642182, 2
642185, 642186, 1
642185, 642184, 2
642178, 642181, 2
642178, 642177, 2
642178, 642179, 2
642178, 642180, 2
642189, 642187, 2
642189, 642190, 1
642189, 642188, 2
642183, 642187, 2
642183, 642185, 2
642183, 642182, 2
642183, 642181, 2
642183, 642184, 2
642180, 642181, 8
642180, 642177, 2
642180, 642179, 2
642180, 642182, 1
642180, 642178, 2
642184, 642187, 2
642184, 642185, 1
642184, 642183, 2
642184, 642186, 2
642181, 642183, 2
642181, 642182, 2
642181, 642180, 2
642181, 642178, 2
642177, 642179, 1
642177, 642178, 3
642177, 642180, 2
642182, 642187, 1
642182, 642185, 2
642182, 642181, 2
642182, 642180, 2
642182, 642183, 3
642186, 642187, 2
642186, 642185, 2
642186, 642188, 2
642186, 642184, 2
