405626, 405624, 2
405626, 405625, 2
405626, 405627, 1
405626, 405628, 2
405624, 405625, 1
405624, 405626, 2
405624, 405623, 2
405628, 405626, 2
405628, 405627, 2
405623, 405624, 1
405627, 405626, 2
405627, 405628, 1
405625, 405626, 1
405625, 405624, 2
