378396, 378397, 1
378400, 378401, 1
378400, 378398, 2
378400, 378397, 2
378400, 378399, 2
378401, 378400, 2
378398, 378400, 1
378398, 378397, 2
378398, 378399, 8
378397, 378396, 2
378397, 378398, 1
378397, 378399, 2
378397, 378400, 2
378399, 378398, 2
378399, 378397, 2
378399, 378400, 2
