590237, 590233, 2
590237, 590238, 2
590237, 590235, 2
590237, 590234, 2
590237, 590236, 2
590230, 590231, 1
590231, 590230, 2
590231, 590233, 2
590231, 590232, 1
590235, 590237, 2
590235, 590234, 2
590235, 590236, 1
590232, 590231, 2
590232, 590233, 1
590238, 590237, 2
590238, 590236, 2
590233, 590237, 2
590233, 590232, 2
590233, 590231, 2
590233, 590234, 1
590234, 590237, 2
590234, 590235, 1
590234, 590233, 2
590236, 590237, 3
590236, 590238, 1
590236, 590235, 2
