592680, 592678, 2
592680, 592682, 2
592680, 592679, 2
592680, 592681, 1
592681, 592683, 2
592681, 592680, 2
592681, 592682, 2
592681, 592679, 2
592678, 592680, 2
592678, 592682, 1
592678, 592679, 3
592683, 592682, 2
592683, 592681, 2
592682, 592678, 2
592682, 592680, 2
592682, 592683, 3
592682, 592681, 2
592679, 592678, 2
592679, 592680, 1
592679, 592681, 2
