405944, 405946, 1
405944, 405945, 3
405949, 405948, 2
405949, 405945, 2
405949, 405947, 2
405949, 405950, 0
405950, 405949, 2
405947, 405946, 2
405947, 405949, 2
405947, 405945, 2
405947, 405948, 1
405948, 405949, 1
405948, 405947, 2
405946, 405944, 2
405946, 405945, 2
405946, 405947, 1
405945, 405944, 2
405945, 405949, 2
405945, 405947, 2
405945, 405946, 2
