495797, 495796, 2
495797, 495798, 3
495792, 495793, 2
495792, 495794, 2
495792, 495791, 2
495798, 495795, 2
495798, 495796, 2
495798, 495794, 2
495798, 495797, 2
495795, 495796, 2
495795, 495794, 2
495795, 495798, 2
495793, 495792, 2
495793, 495791, 2
495793, 495794, 2
495796, 495795, 2
495796, 495798, 2
495796, 495797, 1
495796, 495794, 2
495791, 495793, 8
495791, 495792, 3
495791, 495794, 1
495794, 495792, 2
495794, 495798, 2
495794, 495795, 3
495794, 495793, 2
495794, 495796, 1
495794, 495791, 2
