534992, 534988, 2
534992, 534989, 2
534992, 534994, 2
534992, 534990, 2
534992, 534991, 2
534992, 534993, 2
535003, 535002, 2
535003, 535001, 2
535003, 534997, 2
535003, 534999, 2
535003, 534996, 2
535003, 535000, 2
535003, 534998, 2
534997, 535003, 2
534997, 534999, 1
534997, 534994, 2
534997, 534998, 2
534997, 534995, 2
534997, 534996, 2
534988, 534992, 2
534988, 534989, 3
534988, 534990, 8
534988, 534991, 2
534988, 534987, 2
534988, 534993, 1
534999, 534996, 2
534999, 535000, 1
534999, 535003, 2
534999, 534997, 2
534999, 534998, 2
534991, 534992, 1
534991, 534989, 2
534991, 534993, 2
534991, 534990, 2
534991, 534988, 2
535000, 535002, 2
535000, 535001, 2
535000, 535003, 2
535000, 534999, 2
535000, 534998, 2
535000, 534996, 2
534993, 534992, 2
534993, 534989, 2
534993, 534994, 3
534993, 534990, 2
534993, 534988, 2
534993, 534991, 2
534993, 534996, 1
535002, 535001, 2
535002, 535003, 2
535002, 535000, 2
535002, 534998, 2
535002, 534996, 2
534996, 535002, 2
534996, 535003, 1
534996, 534997, 3
534996, 534999, 2
534996, 534994, 2
534996, 535000, 2
534996, 534993, 2
534996, 534995, 2
534996, 534998, 0
534989, 534992, 2
534989, 534990, 2
534989, 534988, 2
534989, 534991, 2
534989, 534987, 2
534989, 534993, 2
535001, 535002, 1
535001, 535000, 2
535001, 535003, 2
534990, 534992, 2
534990, 534989, 2
534990, 534994, 2
534990, 534988, 2
534990, 534991, 1
534990, 534993, 2
534994, 534992, 2
534994, 534997, 2
534994, 534990, 2
534994, 534993, 2
534994, 534995, 2
534994, 534996, 2
534987, 534988, 1
534987, 534989, 2
534995, 534994, 2
534995, 534997, 2
534995, 534996, 2
534998, 535002, 2
534998, 535003, 2
534998, 534997, 2
534998, 534999, 2
534998, 535000, 2
534998, 534996, 2
