590430, 590432, 2
590430, 590429, 2
590430, 590431, 2
590430, 590428, 2
590427, 590429, 1
590427, 590426, 2
590427, 590431, 2
590427, 590428, 8
590429, 590430, 8
590429, 590427, 2
590429, 590426, 2
590429, 590431, 1
590429, 590428, 2
590426, 590425, 2
590426, 590427, 1
590426, 590429, 2
590426, 590431, 2
590426, 590428, 2
590434, 590433, 2
590434, 590435, 1
590425, 590426, 1
590432, 590430, 2
590432, 590433, 1
590432, 590431, 2
590433, 590432, 2
590433, 590434, 1
590435, 590434, 2
590431, 590430, 2
590431, 590432, 1
590431, 590427, 2
590431, 590429, 2
590431, 590426, 2
590428, 590430, 2
590428, 590427, 2
590428, 590429, 2
590428, 590426, 2
