592857, 592855, 2
592857, 592856, 2
592855, 592857, 2
592855, 592854, 2
592855, 592856, 1
592855, 592853, 2
592854, 592855, 1
592854, 592853, 2
592853, 592855, 2
592853, 592854, 1
592853, 592852, 2
592856, 592857, 1
592856, 592855, 2
592851, 592852, 1
592852, 592851, 2
592852, 592853, 1
