378798, 378797, 2
378798, 378799, 1
378802, 378800, 2
378802, 378801, 2
378797, 378798, 1
378800, 378802, 2
378800, 378801, 1
378800, 378799, 2
378799, 378798, 2
378799, 378800, 1
378801, 378800, 2
378801, 378802, 1
