421273, 421274, 1
421279, 421278, 2
421275, 421274, 2
421275, 421276, 1
421276, 421277, 1
421276, 421275, 2
421277, 421278, 1
421277, 421276, 2
421274, 421273, 2
421274, 421275, 1
421278, 421277, 2
421278, 421279, 1
