592575, 592574, 2
592571, 592572, 1
592571, 592570, 2
592572, 592571, 2
592572, 592573, 1
592572, 592570, 2
592574, 592573, 2
592574, 592575, 1
592573, 592572, 2
592573, 592574, 1
592570, 592572, 2
592570, 592571, 1
