658484, 658487, 2
658484, 658486, 2
658484, 658485, 1
658487, 658484, 2
658487, 658488, 2
658487, 658486, 2
658487, 658489, 2
658491, 658490, 2
658488, 658487, 2
658488, 658489, 1
658488, 658486, 2
658489, 658487, 2
658489, 658488, 2
658489, 658486, 2
658489, 658485, 2
658489, 658490, 1
658486, 658484, 2
658486, 658487, 8
658486, 658489, 2
658486, 658485, 2
658486, 658488, 1
658485, 658484, 2
658485, 658489, 2
658485, 658486, 1
658490, 658489, 2
658490, 658491, 1
