625831, 625830, 2
625831, 625832, 6
625831, 625829, 2
625832, 625831, 2
625832, 625830, 2
625832, 625829, 2
625828, 625827, 2
625828, 625829, 1
625827, 625828, 1
625830, 625831, 1
625830, 625832, 2
625830, 625829, 2
625829, 625830, 1
625829, 625831, 2
625829, 625832, 2
625829, 625828, 2
