341612, 341613, 1
341612, 341610, 2
341612, 341611, 2
341609, 341608, 2
341609, 341606, 2
341609, 341610, 1
341609, 341607, 2
341613, 341612, 2
341613, 341610, 2
341606, 341609, 2
341606, 341608, 2
341606, 341605, 2
341606, 341607, 1
341610, 341612, 2
341610, 341608, 2
341610, 341609, 2
341610, 341613, 2
341610, 341611, 0
341607, 341609, 1
341607, 341608, 8
341607, 341606, 2
341608, 341609, 2
341608, 341606, 2
341608, 341610, 2
341608, 341607, 2
341611, 341612, 1
341611, 341610, 2
341605, 341606, 1
