489011, 489012, 1
489011, 489013, 2
489011, 489010, 2
489011, 489009, 2
489018, 489017, 2
489017, 489016, 2
489017, 489018, 3
489014, 489012, 2
489014, 489015, 2
489014, 489013, 2
489009, 489011, 1
489009, 489010, 3
489015, 489016, 1
489015, 489012, 2
489015, 489014, 2
489015, 489013, 2
489012, 489011, 2
489012, 489015, 1
489012, 489014, 2
489012, 489013, 3
489016, 489017, 1
489016, 489015, 2
489010, 489011, 2
489010, 489009, 2
489013, 489011, 2
489013, 489015, 2
489013, 489012, 2
489013, 489014, 0
