608409, 608408, 2
608409, 608410, 2
608406, 608407, 1
608406, 608405, 2
608407, 608406, 2
608407, 608408, 1
608410, 608409, 2
608410, 608408, 2
608410, 608411, 1
608410, 608412, 2
608405, 608406, 1
608408, 608409, 3
608408, 608407, 2
608408, 608410, 1
608412, 608410, 2
608412, 608411, 2
608411, 608410, 2
608411, 608412, 1
