341454, 341455, 1
341454, 341453, 2
341454, 341452, 2
341456, 341458, 1
341456, 341455, 2
341456, 341457, 8
341456, 341460, 2
341453, 341454, 1
341453, 341452, 2
341452, 341454, 2
341452, 341455, 2
341452, 341453, 1
341458, 341456, 2
341458, 341457, 2
341458, 341460, 1
341458, 341459, 3
341455, 341454, 2
341455, 341456, 1
341455, 341457, 2
341455, 341452, 2
341457, 341458, 2
341457, 341456, 2
341457, 341455, 2
341460, 341458, 2
341460, 341456, 2
341460, 341459, 2
341459, 341458, 2
341459, 341460, 2
