606836, 606837, 1
606836, 606843, 2
606836, 606835, 2
606837, 606836, 2
606837, 606838, 1
606837, 606839, 2
606837, 606843, 2
606837, 606835, 2
606835, 606836, 1
606835, 606837, 2
606835, 606843, 2
606841, 606840, 2
606841, 606842, 1
606841, 606839, 2
606841, 606843, 2
606842, 606845, 1
606842, 606844, 3
606842, 606843, 6
606842, 606841, 2
606842, 606846, 2
606842, 606839, 2
606839, 606837, 2
606839, 606838, 2
606839, 606843, 2
606839, 606841, 1
606839, 606842, 2
606839, 606840, 3
606838, 606837, 2
606838, 606839, 1
606838, 606843, 2
606845, 606844, 2
606845, 606846, 1
606845, 606842, 2
606845, 606843, 2
606844, 606845, 2
606844, 606846, 2
606844, 606842, 2
606844, 606847, 2
606843, 606836, 2
606843, 606837, 2
606843, 606838, 2
606843, 606845, 2
606843, 606841, 2
606843, 606835, 2
606843, 606842, 2
606843, 606839, 2
606843, 606846, 2
606843, 606840, 2
606847, 606844, 2
606847, 606846, 2
606846, 606845, 2
606846, 606844, 2
606846, 606842, 2
606846, 606847, 3
606846, 606843, 2
606840, 606841, 2
606840, 606839, 2
606840, 606843, 2
