656777, 656779, 2
656777, 656778, 1
656777, 656776, 2
656781, 656782, 1
656781, 656779, 2
656781, 656780, 2
656785, 656784, 2
656783, 656779, 2
656783, 656782, 2
656783, 656784, 1
656784, 656785, 1
656784, 656783, 2
656779, 656777, 2
656779, 656781, 2
656779, 656774, 2
656779, 656782, 2
656779, 656773, 2
656779, 656783, 2
656779, 656776, 2
656779, 656780, 1
656779, 656771, 2
656779, 656775, 2
656779, 656778, 2
656773, 656772, 2
656773, 656779, 2
656773, 656771, 2
656773, 656774, 1
656780, 656781, 1
656780, 656779, 2
656780, 656778, 2
656772, 656771, 2
656772, 656773, 1
656771, 656774, 2
656771, 656779, 2
656771, 656772, 1
656771, 656773, 2
656782, 656781, 2
656782, 656779, 2
656782, 656783, 1
656774, 656779, 2
656774, 656771, 2
656774, 656775, 1
656774, 656773, 2
656778, 656777, 2
656778, 656780, 2
656778, 656779, 1
656775, 656776, 1
656775, 656779, 2
656775, 656774, 2
656776, 656777, 1
656776, 656779, 2
656776, 656775, 2
