534235, 534233, 2
534235, 534234, 2
534232, 534231, 2
534232, 534229, 2
534232, 534233, 2
534234, 534235, 1
534234, 534233, 2
534228, 534230, 2
534228, 534229, 1
534228, 534227, 2
534228, 534233, 2
534231, 534232, 1
534231, 534230, 2
534231, 534229, 2
534231, 534233, 2
534230, 534228, 2
534230, 534231, 1
534230, 534229, 2
534230, 534233, 2
534229, 534228, 2
534229, 534231, 2
534229, 534232, 2
534229, 534230, 3
534229, 534233, 1
534227, 534228, 1
534233, 534235, 2
534233, 534230, 2
534233, 534234, 1
534233, 534228, 2
534233, 534231, 2
534233, 534232, 2
534233, 534229, 2
