455659, 455660, 3
455659, 455661, 1
455662, 455661, 2
455662, 455663, 1
455660, 455659, 2
455660, 455661, 2
455661, 455659, 2
455661, 455662, 1
455661, 455660, 2
455661, 455663, 2
455663, 455662, 2
455663, 455661, 2
