456534, 456532, 2
456534, 456533, 2
456534, 456535, 1
456533, 456534, 2
456533, 456530, 2
456533, 456532, 2
456533, 456531, 2
456533, 456535, 2
456533, 456529, 2
456529, 456530, 1
456529, 456533, 2
456529, 456531, 2
456532, 456534, 1
456532, 456530, 2
456532, 456533, 8
456532, 456531, 2
456531, 456532, 1
456531, 456530, 2
456531, 456533, 2
456531, 456529, 2
456535, 456534, 2
456535, 456533, 2
456530, 456532, 2
456530, 456531, 1
456530, 456533, 2
456530, 456529, 2
