453987, 453988, 2
453987, 453986, 2
454003, 454001, 2
454003, 454004, 1
454003, 454002, 2
454003, 454000, 2
453991, 453992, 1
453991, 453989, 2
453991, 453990, 2
453985, 453983, 2
453985, 453984, 2
453985, 453986, 1
453992, 453991, 2
453992, 453993, 3
453992, 453994, 1
454015, 454013, 2
454015, 454016, 1
454015, 454012, 2
454015, 454017, 2
454015, 454014, 2
454009, 454008, 2
454009, 454004, 2
454009, 454005, 2
454009, 454012, 2
454009, 454011, 2
454009, 454006, 2
454009, 454010, 1
453986, 453987, 3
453986, 453988, 1
453986, 453985, 2
454013, 454011, 2
454013, 454012, 2
454013, 454015, 2
454013, 454014, 2
454019, 454018, 2
454019, 454021, 2
454019, 454017, 2
454019, 454020, 1
454010, 454011, 8
454010, 454012, 1
454010, 454009, 2
454008, 454004, 2
454008, 454009, 2
454008, 454007, 2
453993, 453994, 2
453993, 453992, 2
454016, 454015, 2
454016, 454017, 1
454012, 454015, 2
454012, 454009, 2
454012, 454011, 2
454012, 454013, 3
454012, 454010, 2
454012, 454014, 1
453997, 453999, 2
453997, 453996, 2
453997, 453995, 2
453997, 453998, 1
453990, 453991, 2
453990, 453989, 2
454018, 454019, 1
454018, 454017, 2
454006, 454004, 2
454006, 454005, 2
454006, 454009, 2
454006, 454007, 1
453995, 453996, 3
453995, 453994, 2
453995, 453997, 1
454011, 454013, 2
454011, 454010, 2
454011, 454009, 2
454011, 454012, 2
453988, 453987, 2
453988, 453986, 2
453988, 453989, 1
454001, 454003, 2
454001, 454002, 1
454001, 454000, 2
454014, 454013, 2
454014, 454015, 1
454014, 454012, 2
454007, 454008, 1
454007, 454006, 2
454007, 454004, 2
453999, 453998, 2
453999, 454000, 1
453999, 453997, 2
453984, 453983, 2
453984, 453985, 2
454017, 454018, 1
454017, 454019, 2
454017, 454016, 2
454017, 454015, 2
453989, 453988, 2
453989, 453991, 1
453989, 453990, 3
453998, 453999, 1
453998, 453997, 2
453983, 453984, 2
453983, 453985, 1
454002, 454003, 2
454002, 454001, 2
454002, 454000, 2
454005, 454006, 1
454005, 454004, 2
454005, 454009, 2
453996, 453995, 2
453996, 453997, 2
454004, 454008, 2
454004, 454005, 3
454004, 454009, 1
454004, 454003, 2
454004, 454006, 2
454004, 454007, 2
454021, 454019, 2
454021, 454020, 2
453994, 453993, 2
453994, 453992, 2
453994, 453995, 1
454000, 454003, 1
454000, 454001, 3
454000, 453999, 2
454000, 454002, 2
454020, 454021, 1
454020, 454019, 2
