488667, 488665, 2
488667, 488666, 2
488660, 488661, 1
488660, 488662, 2
488660, 488659, 2
488665, 488667, 2
488665, 488663, 2
488665, 488666, 1
488665, 488664, 2
488666, 488667, 1
488666, 488665, 2
488659, 488660, 1
488663, 488665, 1
488663, 488662, 2
488663, 488664, 3
488661, 488660, 2
488661, 488662, 1
488662, 488663, 1
488662, 488660, 2
488662, 488661, 2
488662, 488664, 2
488664, 488663, 2
488664, 488665, 2
488664, 488662, 2
