536974, 536975, 3
536974, 536977, 2
536974, 536976, 8
536974, 536979, 1
536980, 536979, 2
536980, 536978, 2
536976, 536975, 2
536976, 536974, 2
536976, 536978, 2
536976, 536977, 1
536976, 536979, 2
536979, 536974, 2
536979, 536980, 3
536979, 536976, 2
536979, 536975, 2
536979, 536978, 2
536979, 536977, 2
536975, 536979, 2
536975, 536974, 2
536975, 536977, 2
536975, 536978, 2
536975, 536976, 2
536978, 536979, 2
536978, 536980, 2
536978, 536977, 2
536978, 536976, 2
536978, 536975, 2
536977, 536979, 2
536977, 536974, 2
536977, 536978, 1
536977, 536976, 2
536977, 536975, 2
