405776, 405775, 2
405776, 405777, 2
405776, 405778, 2
405775, 405776, 8
405775, 405774, 2
405775, 405777, 1
405777, 405776, 2
405777, 405775, 2
405777, 405778, 1
405777, 405774, 2
405773, 405774, 1
405778, 405776, 2
405778, 405777, 2
405774, 405775, 1
405774, 405777, 2
405774, 405773, 2
