454362, 454361, 2
454362, 454363, 1
454362, 454360, 2
454361, 454362, 2
454361, 454360, 2
454361, 454363, 2
454360, 454362, 1
454360, 454361, 3
454360, 454363, 2
454363, 454362, 2
454363, 454361, 2
454363, 454360, 2
