417696, 417695, 2
417696, 417697, 2
417687, 417686, 2
417687, 417688, 2
417687, 417689, 2
417694, 417695, 2
417694, 417693, 2
417697, 417696, 2
417697, 417695, 2
417692, 417689, 2
417692, 417691, 2
417692, 417693, 1
417692, 417690, 2
417689, 417686, 2
417689, 417687, 2
417689, 417690, 1
417689, 417692, 2
417689, 417688, 2
417689, 417691, 2
417686, 417687, 3
417686, 417688, 0
417686, 417689, 1
417688, 417686, 2
417688, 417687, 2
417688, 417689, 2
417691, 417689, 2
417691, 417692, 2
417691, 417695, 2
417691, 417693, 2
417691, 417690, 2
417695, 417694, 2
417695, 417696, 2
417695, 417691, 2
417695, 417693, 2
417695, 417697, 2
417690, 417692, 1
417690, 417691, 8
417690, 417689, 2
417693, 417694, 1
417693, 417692, 2
417693, 417691, 2
417693, 417695, 2
