494117, 494119, 2
494117, 494118, 1
494117, 494116, 2
494119, 494117, 2
494119, 494118, 2
494119, 494116, 2
494115, 494116, 1
494116, 494117, 1
494116, 494119, 2
494116, 494115, 2
494116, 494118, 2
494118, 494117, 2
494118, 494119, 1
494118, 494116, 2
