522833, 522834, 3
522833, 522835, 2
522833, 522832, 2
522833, 522836, 2
522835, 522833, 2
522835, 522834, 2
522835, 522832, 2
522835, 522836, 1
522832, 522833, 3
522832, 522831, 2
522832, 522835, 1
522832, 522834, 2
522836, 522833, 2
522836, 522834, 2
522836, 522835, 2
522836, 522837, 1
522834, 522833, 2
522834, 522844, 2
522834, 522835, 2
522834, 522832, 2
522834, 522836, 2
522844, 522842, 2
522844, 522841, 2
522844, 522846, 2
522844, 522834, 2
522844, 522847, 2
522844, 522856, 2
522844, 522845, 2
522844, 522843, 2
522844, 522849, 2
522842, 522844, 2
522842, 522841, 2
522842, 522845, 1
522842, 522843, 3
522831, 522832, 1
522831, 522830, 2
522841, 522842, 1
522841, 522844, 2
522841, 522840, 2
522841, 522839, 2
522856, 522854, 2
522856, 522855, 2
522856, 522844, 2
522856, 522853, 2
522856, 522849, 2
522849, 522851, 2
522849, 522850, 2
522849, 522847, 2
522849, 522856, 2
522849, 522844, 2
522849, 522848, 2
522827, 522828, 1
522827, 522826, 2
522848, 522850, 1
522848, 522847, 2
522848, 522849, 3
522840, 522841, 1
522840, 522839, 2
522851, 522849, 2
522851, 522852, 1
522851, 522850, 2
522853, 522854, 1
522853, 522856, 2
522853, 522852, 2
522826, 522828, 2
522826, 522827, 1
522828, 522826, 2
522828, 522827, 2
522828, 522829, 1
522830, 522831, 1
522830, 522829, 2
522854, 522855, 3
522854, 522856, 2
522854, 522853, 2
522855, 522854, 2
522855, 522856, 3
522845, 522842, 2
522845, 522844, 2
522845, 522843, 2
522845, 522846, 1
522846, 522844, 2
522846, 522847, 1
522846, 522845, 2
522846, 522843, 2
522850, 522851, 1
522850, 522852, 2
522850, 522847, 2
522850, 522849, 2
522850, 522848, 2
522838, 522839, 1
522838, 522837, 2
522847, 522849, 2
522847, 522844, 2
522847, 522848, 1
522847, 522846, 2
522847, 522850, 2
522829, 522828, 2
522829, 522830, 1
522852, 522851, 2
522852, 522850, 2
522852, 522853, 1
522843, 522842, 2
522843, 522845, 2
522843, 522844, 3
522843, 522846, 2
522839, 522838, 2
522839, 522841, 2
522839, 522840, 1
522839, 522837, 2
522837, 522838, 1
522837, 522836, 2
522837, 522839, 2
