379959, 379958, 2
379959, 379960, 1
379959, 379961, 2
379959, 379957, 2
379957, 379959, 2
379957, 379958, 1
379964, 379963, 2
379964, 379965, 1
379964, 379962, 2
379965, 379964, 2
379962, 379963, 8
379962, 379961, 2
379962, 379964, 1
379958, 379959, 1
379958, 379957, 2
379960, 379959, 2
379960, 379961, 1
379963, 379961, 2
379963, 379964, 2
379963, 379962, 2
379961, 379963, 2
379961, 379959, 2
379961, 379960, 2
379961, 379962, 1
