339196, 339194, 2
339196, 339195, 2
339192, 339193, 1
339193, 339192, 2
339193, 339194, 1
339193, 339195, 2
339194, 339196, 0
339194, 339193, 2
339194, 339195, 6
339195, 339196, 2
339195, 339193, 2
339195, 339194, 2
