334062, 334067, 2
334062, 334058, 2
334062, 334061, 2
334062, 334063, 1
334062, 334060, 2
334062, 334059, 2
334068, 334066, 2
334068, 334067, 2
334068, 334069, 1
334070, 334069, 2
334061, 334062, 2
334061, 334058, 2
334061, 334060, 2
334061, 334059, 2
334069, 334068, 2
334069, 334070, 1
334064, 334066, 2
334064, 334063, 2
334064, 334065, 2
334065, 334066, 1
334065, 334067, 2
334065, 334064, 2
334065, 334063, 2
334060, 334061, 2
334060, 334062, 2
334060, 334058, 2
334060, 334063, 2
334060, 334059, 2
334063, 334062, 2
334063, 334067, 2
334063, 334066, 2
334063, 334064, 3
334063, 334065, 1
334063, 334060, 2
334067, 334062, 2
334067, 334068, 2
334067, 334066, 2
334067, 334059, 2
334067, 334063, 2
334067, 334065, 2
334058, 334062, 1
334058, 334059, 0
334058, 334061, 2
334058, 334060, 3
334066, 334068, 0
334066, 334064, 2
334066, 334063, 2
334066, 334067, 6
334066, 334065, 2
334059, 334062, 2
334059, 334067, 2
334059, 334058, 2
334059, 334061, 3
334059, 334060, 2
