378924, 378923, 2
378924, 378925, 1
378924, 378926, 2
378925, 378924, 2
378925, 378926, 3
378925, 378927, 1
378928, 378929, 1
378928, 378927, 2
378926, 378924, 2
378926, 378925, 2
378926, 378927, 2
378926, 378923, 2
378929, 378928, 2
378929, 378927, 2
378923, 378924, 1
378923, 378926, 2
378927, 378929, 2
378927, 378925, 2
378927, 378928, 1
378927, 378926, 2
