592819, 592817, 2
592819, 592818, 2
592819, 592820, 1
592822, 592821, 2
592821, 592822, 1
592821, 592820, 2
592817, 592819, 1
592817, 592818, 0
592817, 592816, 2
592816, 592817, 1
592818, 592819, 2
592818, 592817, 2
592820, 592821, 1
592820, 592819, 2
