537114, 537115, 3
537114, 537116, 1
537115, 537114, 2
537115, 537118, 2
537115, 537116, 2
537118, 537119, 2
537118, 537117, 2
537118, 537115, 2
537118, 537116, 2
537119, 537118, 2
537119, 537117, 2
537117, 537118, 3
537117, 537119, 0
537117, 537116, 2
537116, 537114, 2
537116, 537118, 2
537116, 537117, 1
537116, 537115, 2
