489632, 489638, 2
489632, 489637, 2
489632, 489635, 2
489632, 489633, 3
489632, 489634, 1
489639, 489638, 2
489639, 489640, 1
489639, 489635, 2
489639, 489637, 2
489639, 489636, 2
489643, 489642, 2
489638, 489637, 2
489638, 489634, 2
489638, 489639, 2
489638, 489632, 2
489638, 489635, 2
489638, 489636, 2
489636, 489634, 2
489636, 489637, 2
489636, 489639, 2
489636, 489638, 2
489636, 489635, 2
489636, 489633, 2
489641, 489642, 1
489641, 489640, 2
489637, 489634, 2
489637, 489632, 2
489637, 489639, 2
489637, 489638, 1
489637, 489635, 2
489637, 489636, 2
489637, 489633, 2
489634, 489632, 2
489634, 489637, 2
489634, 489638, 2
489634, 489635, 1
489634, 489636, 2
489634, 489633, 2
489642, 489641, 2
489642, 489643, 1
489635, 489634, 2
489635, 489632, 2
489635, 489637, 0
489635, 489639, 1
489635, 489638, 2
489635, 489636, 3
489635, 489633, 2
489640, 489639, 2
489640, 489641, 1
489633, 489634, 2
489633, 489632, 2
489633, 489635, 2
489633, 489637, 2
489633, 489636, 2
