491843, 491841, 2
491843, 491842, 2
491843, 491844, 1
491838, 491839, 1
491838, 491840, 2
491838, 491837, 2
491844, 491845, 1
491844, 491846, 2
491844, 491843, 2
491850, 491849, 2
491850, 491851, 1
491850, 491848, 2
491840, 491839, 2
491840, 491838, 2
491840, 491841, 1
491839, 491837, 2
491839, 491840, 1
491839, 491838, 2
491839, 491841, 2
491842, 491843, 1
491842, 491841, 2
491853, 491848, 2
491853, 491849, 2
491853, 491851, 2
491853, 491852, 2
491853, 491854, 2
491846, 491845, 2
491846, 491847, 3
491846, 491848, 1
491846, 491844, 2
491854, 491853, 2
491854, 491852, 2
491847, 491846, 2
491847, 491848, 2
491848, 491850, 1
491848, 491846, 2
491848, 491849, 8
491848, 491847, 2
491848, 491853, 2
491845, 491846, 1
491845, 491844, 2
491835, 491833, 2
491835, 491834, 2
491835, 491836, 1
491837, 491839, 2
491837, 491838, 1
491837, 491836, 2
491849, 491848, 2
491849, 491850, 2
491849, 491851, 2
491849, 491853, 2
491852, 491853, 3
491852, 491854, 1
491852, 491851, 2
491841, 491839, 2
491841, 491840, 2
491841, 491843, 2
491841, 491842, 1
491836, 491837, 1
491836, 491835, 2
491833, 491835, 2
491833, 491834, 1
491834, 491835, 1
491834, 491833, 2
491851, 491850, 2
491851, 491849, 2
491851, 491852, 1
491851, 491853, 2
