608349, 608350, 1
608354, 608355, 1
608354, 608350, 2
608354, 608351, 2
608354, 608353, 2
608354, 608352, 2
608353, 608351, 2
608353, 608354, 2
608353, 608350, 2
608353, 608352, 2
608356, 608355, 2
608355, 608356, 1
608355, 608354, 2
608351, 608353, 2
608351, 608354, 1
608351, 608350, 2
608351, 608352, 0
608350, 608349, 2
608350, 608351, 1
608350, 608354, 2
608350, 608353, 2
608350, 608352, 2
608352, 608353, 1
608352, 608354, 2
608352, 608350, 2
608352, 608351, 2
