490195, 490198, 2
490195, 490194, 2
490195, 490201, 2
490195, 490196, 2
490195, 490197, 2
490203, 490200, 2
490203, 490204, 1
490203, 490201, 2
490203, 490202, 2
490192, 490194, 2
490192, 490191, 2
490192, 490193, 1
490196, 490194, 2
490196, 490197, 1
490196, 490193, 2
490196, 490195, 2
490204, 490200, 2
490204, 490203, 2
490204, 490202, 2
490199, 490200, 1
490199, 490197, 2
490199, 490198, 2
490199, 490201, 2
490191, 490192, 1
490191, 490194, 2
490202, 490203, 2
490202, 490201, 2
490202, 490204, 2
490193, 490192, 2
490193, 490194, 3
490193, 490197, 2
490193, 490196, 1
490198, 490199, 2
490198, 490197, 2
490198, 490195, 2
490198, 490201, 2
490198, 490200, 2
490194, 490196, 2
490194, 490192, 2
490194, 490191, 2
490194, 490201, 2
490194, 490193, 2
490194, 490195, 3
490197, 490199, 1
490197, 490196, 2
490197, 490201, 2
490197, 490195, 2
490197, 490193, 2
490197, 490198, 3
490197, 490200, 2
490201, 490199, 2
490201, 490195, 2
490201, 490202, 3
490201, 490194, 2
490201, 490203, 2
490201, 490197, 2
490201, 490198, 2
490201, 490200, 2
490200, 490199, 2
490200, 490201, 3
490200, 490203, 1
490200, 490197, 2
490200, 490198, 2
490200, 490204, 2
