658518, 658516, 2
658518, 658517, 2
658512, 658513, 2
658512, 658514, 2
658512, 658511, 2
658511, 658512, 3
658511, 658513, 1
658514, 658512, 2
658514, 658515, 1
658514, 658513, 2
658516, 658515, 2
658516, 658518, 2
658516, 658517, 1
658515, 658516, 1
658515, 658514, 2
658517, 658516, 2
658517, 658518, 1
658513, 658512, 2
658513, 658511, 2
658513, 658514, 1
