537084, 537083, 2
537084, 537082, 2
537082, 537084, 0
537082, 537083, 3
537082, 537081, 2
537079, 537080, 3
537079, 537081, 1
537080, 537079, 2
537080, 537081, 2
537083, 537084, 2
537083, 537082, 2
537083, 537081, 2
537081, 537083, 2
537081, 537079, 2
537081, 537082, 1
537081, 537080, 2
