625674, 625675, 1
625674, 625673, 2
625674, 625676, 2
625676, 625674, 2
625676, 625677, 1
625676, 625675, 2
625673, 625674, 1
625673, 625675, 2
625678, 625677, 2
625678, 625679, 1
625677, 625676, 2
625677, 625678, 1
625675, 625674, 2
625675, 625676, 1
625675, 625673, 2
625679, 625678, 2
