553614, 553616, 2
553614, 553613, 2
553616, 553614, 2
553616, 553613, 2
553616, 553615, 2
553616, 553617, 3
553615, 553616, 2
553615, 553613, 2
553613, 553614, 6
553613, 553616, 1
553613, 553615, 3
553617, 553616, 2
