456388, 456389, 2
456388, 456387, 2
456388, 456386, 2
456391, 456390, 2
456391, 456389, 2
456386, 456388, 2
456386, 456387, 1
456390, 456389, 2
456390, 456391, 1
456389, 456388, 2
456389, 456390, 1
456389, 456391, 2
456387, 456388, 0
456387, 456386, 2
