450597, 450594, 2
450597, 450593, 2
450597, 450596, 2
450597, 450599, 2
450597, 450598, 2
450597, 450595, 2
450593, 450597, 2
450593, 450594, 1
450593, 450595, 2
450593, 450596, 2
450593, 450592, 2
450596, 450597, 8
450596, 450594, 2
450596, 450593, 2
450596, 450595, 2
450596, 450598, 1
450587, 450588, 1
450587, 450585, 2
450587, 450589, 2
450587, 450586, 2
450590, 450592, 1
450590, 450589, 2
450590, 450591, 3
450598, 450597, 2
450598, 450600, 1
450598, 450596, 2
450598, 450599, 8
450598, 450601, 2
450588, 450586, 2
450588, 450585, 2
450588, 450589, 1
450588, 450587, 2
450585, 450588, 2
450585, 450589, 2
450585, 450587, 1
450585, 450586, 3
450591, 450592, 2
450591, 450589, 2
450591, 450590, 2
450594, 450597, 2
450594, 450593, 2
450594, 450595, 1
450594, 450596, 2
450601, 450600, 2
450601, 450599, 2
450601, 450598, 2
450586, 450588, 2
450586, 450585, 2
450586, 450589, 2
450586, 450587, 2
450592, 450593, 1
450592, 450591, 2
450592, 450590, 2
450595, 450594, 2
450595, 450597, 2
450595, 450593, 2
450595, 450596, 1
450589, 450590, 1
450589, 450587, 2
450589, 450586, 2
450589, 450588, 2
450589, 450585, 2
450589, 450591, 2
450600, 450599, 2
450600, 450601, 1
450600, 450598, 2
450599, 450597, 2
450599, 450600, 2
450599, 450601, 2
450599, 450598, 2
