658373, 658370, 2
658373, 658374, 2
658373, 658371, 2
658373, 658372, 2
658372, 658373, 3
658372, 658370, 2
658372, 658374, 1
658372, 658371, 2
658371, 658373, 2
658371, 658370, 2
658371, 658374, 2
658371, 658372, 1
658370, 658373, 2
658370, 658372, 2
658370, 658371, 1
658374, 658373, 2
658374, 658372, 2
658374, 658375, 1
658374, 658371, 2
658374, 658376, 2
658376, 658374, 2
658376, 658375, 2
658375, 658376, 1
658375, 658374, 2
