406111, 406110, 2
406111, 406109, 2
406109, 406110, 1
406109, 406111, 2
406109, 406107, 2
406109, 406108, 2
406107, 406106, 2
406107, 406109, 1
406107, 406108, 3
406108, 406109, 2
406108, 406107, 2
406110, 406111, 1
406110, 406109, 2
406106, 406105, 2
406106, 406107, 1
406105, 406106, 1
