550433, 550429, 2
550433, 550434, 1
550433, 550432, 2
550433, 550431, 2
550437, 550436, 2
550437, 550438, 1
550437, 550434, 2
550437, 550439, 2
550432, 550433, 1
550432, 550431, 2
550440, 550429, 2
550440, 550439, 2
550440, 550441, 1
550439, 550438, 2
550439, 550437, 2
550439, 550440, 1
550430, 550428, 2
550430, 550431, 2
550431, 550433, 2
550431, 550432, 1
550431, 550429, 2
550431, 550430, 2
550431, 550428, 2
550435, 550436, 1
550435, 550434, 2
550436, 550429, 2
550436, 550434, 2
550436, 550437, 1
550436, 550435, 2
550428, 550429, 6
550428, 550430, 3
550428, 550431, 1
550438, 550437, 2
550438, 550439, 1
550429, 550433, 2
550429, 550428, 2
550429, 550440, 2
550429, 550436, 2
550429, 550434, 2
550429, 550444, 2
550429, 550431, 2
550434, 550436, 2
550434, 550433, 2
550434, 550437, 2
550434, 550435, 1
550434, 550429, 2
550442, 550441, 2
550442, 550443, 1
550441, 550442, 1
550441, 550443, 2
550441, 550440, 2
550444, 550429, 2
550444, 550443, 2
550443, 550442, 2
550443, 550444, 1
550443, 550441, 2
