570299, 570301, 1
570299, 570300, 0
570306, 570305, 2
570306, 570307, 1
570303, 570304, 1
570303, 570302, 2
570307, 570306, 2
570304, 570305, 1
570304, 570303, 2
570305, 570304, 2
570305, 570306, 1
570301, 570299, 2
570301, 570300, 2
570301, 570302, 1
570300, 570299, 2
570300, 570301, 2
570302, 570301, 2
570302, 570303, 1
