607361, 607362, 2
607361, 607360, 2
607367, 607365, 2
607367, 607368, 1
607367, 607366, 2
607366, 607365, 2
607366, 607367, 2
607366, 607364, 2
607366, 607362, 2
607372, 607370, 2
607372, 607371, 2
607372, 607373, 1
607362, 607361, 2
607362, 607358, 2
607362, 607366, 2
607362, 607363, 1
607362, 607356, 2
607362, 607364, 2
607373, 607374, 1
607373, 607372, 2
607374, 607376, 1
607374, 607375, 3
607374, 607373, 2
607370, 607372, 2
607370, 607369, 2
607370, 607371, 1
607360, 607361, 1
607360, 607359, 2
607360, 607358, 2
607368, 607367, 2
607368, 607369, 1
607357, 607356, 2
607357, 607359, 2
607357, 607358, 1
607358, 607359, 3
607358, 607357, 2
607358, 607360, 2
607358, 607362, 1
607363, 607362, 2
607363, 607364, 1
607369, 607370, 1
607369, 607368, 2
607378, 607377, 2
607364, 607365, 1
607364, 607362, 2
607364, 607366, 2
607364, 607363, 2
607377, 607376, 2
607377, 607378, 1
607365, 607364, 2
607365, 607367, 1
607365, 607366, 3
607356, 607357, 1
607356, 607362, 2
607359, 607357, 2
607359, 607358, 2
607359, 607360, 1
607371, 607370, 2
607371, 607372, 1
607375, 607374, 2
607375, 607376, 2
607376, 607374, 2
607376, 607375, 2
607376, 607377, 1
