570202, 570201, 2
570202, 570204, 2
570202, 570203, 1
570208, 570207, 2
570201, 570202, 1
570201, 570200, 2
570201, 570199, 2
570200, 570201, 2
570200, 570199, 2
570205, 570206, 1
570205, 570204, 2
570203, 570202, 2
570203, 570204, 1
570207, 570208, 1
570207, 570206, 2
570199, 570201, 1
570199, 570200, 3
570206, 570207, 1
570206, 570205, 2
570206, 570204, 2
570204, 570202, 2
570204, 570205, 1
570204, 570206, 2
570204, 570203, 2
