572742, 572743, 1
572742, 572741, 2
572740, 572741, 1
572740, 572739, 2
572744, 572743, 2
572741, 572742, 3
572741, 572743, 2
572741, 572740, 2
572741, 572739, 2
572743, 572742, 2
572743, 572744, 1
572743, 572741, 2
572739, 572741, 2
572739, 572740, 1
