451058, 451059, 2
451058, 451057, 2
451049, 451050, 1
451049, 451048, 2
451057, 451059, 1
451057, 451058, 8
451057, 451056, 2
451051, 451050, 2
451051, 451052, 1
451053, 451055, 1
451053, 451054, 3
451053, 451052, 2
451060, 451059, 2
451060, 451061, 2
451055, 451056, 1
451055, 451054, 2
451055, 451053, 2
451061, 451060, 2
451061, 451059, 2
451061, 451062, 1
451050, 451049, 2
451050, 451051, 1
451050, 451052, 2
451054, 451055, 2
451054, 451053, 2
451064, 451063, 2
451056, 451055, 2
451056, 451057, 1
451048, 451047, 2
451048, 451049, 1
451052, 451050, 2
451052, 451051, 2
451052, 451053, 1
451063, 451064, 1
451063, 451062, 2
451046, 451045, 2
451046, 451047, 1
451045, 451046, 3
451047, 451046, 2
451047, 451048, 2
451059, 451060, 3
451059, 451058, 2
451059, 451057, 2
451059, 451061, 1
451062, 451061, 2
451062, 451063, 1
