454923, 454925, 2
454923, 454922, 2
454923, 454924, 2
454923, 454921, 2
454910, 454908, 2
454910, 454913, 1
454910, 454909, 2
454910, 454894, 2
454910, 454897, 2
454910, 454912, 2
454910, 454911, 0
454910, 454902, 2
454888, 454887, 2
454888, 454891, 1
454888, 454884, 2
454888, 454893, 2
454888, 454886, 2
454888, 454889, 2
454884, 454885, 1
454884, 454888, 2
454884, 454883, 2
454884, 454890, 2
454884, 454886, 2
454895, 454899, 2
454895, 454900, 2
454895, 454896, 2
454895, 454894, 2
454895, 454893, 2
454895, 454897, 1
454895, 454898, 2
454895, 454901, 2
454895, 454902, 2
454921, 454923, 2
454921, 454922, 0
454921, 454925, 2
454921, 454894, 2
454921, 454897, 2
454921, 454920, 2
454921, 454902, 2
454886, 454887, 1
454886, 454891, 2
454886, 454888, 2
454886, 454884, 2
454886, 454890, 2
454886, 454893, 2
454886, 454885, 2
454886, 454892, 2
454886, 454889, 2
454891, 454887, 2
454891, 454888, 2
454891, 454893, 2
454891, 454892, 1
454891, 454889, 2
454891, 454886, 2
454907, 454908, 1
454907, 454894, 2
454907, 454906, 2
454907, 454897, 2
454907, 454905, 2
454907, 454902, 2
454925, 454923, 2
454925, 454902, 2
454925, 454922, 2
454925, 454924, 2
454925, 454921, 2
454915, 454917, 2
454915, 454918, 2
454915, 454914, 2
454915, 454913, 2
454915, 454916, 1
454901, 454893, 2
454901, 454903, 2
454901, 454899, 2
454901, 454900, 2
454901, 454896, 2
454901, 454895, 2
454901, 454904, 2
454901, 454894, 2
454901, 454897, 2
454901, 454902, 1
454913, 454917, 2
454913, 454910, 2
454913, 454912, 2
454913, 454916, 2
454913, 454894, 2
454913, 454897, 2
454913, 454914, 1
454913, 454911, 2
454913, 454915, 2
454913, 454902, 2
454924, 454923, 4
454924, 454925, 6
454890, 454884, 2
454890, 454887, 2
454890, 454886, 2
454890, 454889, 2
454890, 454893, 2
454904, 454903, 2
454904, 454899, 2
454904, 454900, 2
454904, 454905, 1
454904, 454894, 2
454904, 454897, 2
454904, 454901, 2
454904, 454902, 2
454911, 454910, 2
454911, 454912, 1
454911, 454913, 2
454906, 454905, 2
454906, 454907, 2
454909, 454910, 1
454909, 454908, 2
454887, 454891, 2
454887, 454888, 2
454887, 454890, 2
454887, 454892, 2
454887, 454889, 1
454887, 454886, 2
454899, 454895, 2
454899, 454901, 1
454899, 454896, 2
454899, 454903, 2
454899, 454900, 2
454899, 454904, 2
454899, 454893, 2
454899, 454897, 2
454899, 454898, 2
454899, 454894, 2
454914, 454917, 2
454914, 454915, 1
454914, 454913, 2
454914, 454916, 2
454896, 454917, 2
454896, 454895, 2
454896, 454899, 2
454896, 454901, 2
454896, 454893, 2
454896, 454900, 2
454896, 454894, 2
454896, 454897, 2
454896, 454898, 3
454896, 454902, 2
454916, 454917, 0
454916, 454913, 2
454916, 454914, 2
454916, 454918, 1
454916, 454915, 2
454893, 454895, 2
454893, 454891, 2
454893, 454888, 2
454893, 454896, 0
454893, 454890, 2
454893, 454899, 2
454893, 454901, 2
454893, 454898, 2
454893, 454900, 1
454893, 454894, 3
454893, 454892, 2
454893, 454902, 2
454893, 454897, 2
454893, 454886, 2
454893, 454889, 2
454898, 454895, 2
454898, 454899, 1
454898, 454900, 2
454898, 454896, 2
454898, 454893, 2
454898, 454894, 2
454898, 454897, 2
454920, 454921, 1
454920, 454919, 2
454920, 454902, 2
454902, 454895, 2
454902, 454910, 2
454902, 454901, 2
454902, 454896, 2
454902, 454893, 2
454902, 454921, 2
454902, 454907, 2
454902, 454917, 2
454902, 454903, 2
454902, 454900, 2
454902, 454913, 2
454902, 454920, 2
454902, 454894, 2
454902, 454918, 2
454902, 454925, 2
454902, 454912, 2
454902, 454897, 2
454902, 454904, 2
454902, 454905, 2
454917, 454915, 2
454917, 454918, 2
454917, 454896, 2
454917, 454916, 2
454917, 454913, 2
454917, 454914, 2
454917, 454902, 2
454903, 454899, 2
454903, 454900, 2
454903, 454905, 2
454903, 454904, 1
454903, 454897, 2
454903, 454901, 2
454903, 454902, 2
454919, 454918, 2
454919, 454920, 1
454900, 454895, 2
454900, 454899, 2
454900, 454901, 2
454900, 454896, 2
454900, 454893, 2
454900, 454898, 2
454900, 454902, 2
454900, 454903, 1
454900, 454894, 2
454900, 454904, 2
454900, 454897, 2
454900, 454905, 2
454918, 454917, 2
454918, 454919, 1
454918, 454916, 2
454918, 454894, 2
454918, 454915, 2
454918, 454897, 2
454918, 454902, 2
454922, 454923, 2
454922, 454925, 2
454922, 454921, 2
454894, 454895, 3
454894, 454910, 2
454894, 454901, 2
454894, 454896, 2
454894, 454893, 2
454894, 454921, 2
454894, 454899, 2
454894, 454907, 2
454894, 454898, 2
454894, 454900, 2
454894, 454913, 2
454894, 454918, 2
454894, 454904, 2
454894, 454902, 2
454894, 454897, 2
454894, 454892, 2
454894, 454905, 2
454908, 454910, 2
454908, 454909, 1
454908, 454907, 2
454885, 454884, 2
454885, 454886, 1
454892, 454887, 2
454892, 454891, 2
454892, 454894, 2
454892, 454893, 2
454892, 454889, 2
454892, 454886, 2
454912, 454911, 2
454912, 454910, 2
454912, 454913, 2
454912, 454902, 2
454897, 454895, 2
454897, 454910, 2
454897, 454901, 2
454897, 454896, 2
454897, 454893, 2
454897, 454921, 2
454897, 454899, 2
454897, 454907, 2
454897, 454898, 2
454897, 454903, 2
454897, 454900, 2
454897, 454913, 2
454897, 454894, 2
454897, 454918, 2
454897, 454904, 2
454897, 454902, 2
454897, 454905, 2
454889, 454887, 2
454889, 454891, 2
454889, 454888, 4
454889, 454890, 6
454889, 454893, 1
454889, 454892, 2
454889, 454886, 2
454905, 454903, 2
454905, 454900, 2
454905, 454894, 2
454905, 454906, 0
454905, 454897, 2
454905, 454904, 2
454905, 454907, 1
454905, 454902, 2
454883, 454884, 1
