572046, 572043, 2
572046, 572045, 2
572043, 572046, 2
572043, 572042, 2
572043, 572044, 2
572043, 572045, 2
572042, 572043, 3
572042, 572044, 1
572044, 572043, 2
572044, 572042, 2
572044, 572045, 1
572045, 572046, 8
572045, 572043, 2
572045, 572044, 2
