377892, 377894, 1
377892, 377893, 8
377894, 377892, 2
377894, 377895, 0
377894, 377896, 2
377894, 377893, 2
377895, 377894, 2
377895, 377896, 1
377896, 377894, 2
377896, 377895, 2
377893, 377894, 2
377893, 377892, 2
