379144, 379143, 2
379144, 379145, 1
379144, 379141, 2
379143, 379140, 2
379143, 379144, 1
379143, 379142, 2
379143, 379141, 2
379140, 379142, 3
379140, 379143, 1
379140, 379141, 6
379142, 379140, 2
379142, 379143, 2
379145, 379144, 2
379145, 379141, 2
379141, 379140, 2
379141, 379144, 2
379141, 379143, 2
379141, 379145, 2
