489251, 489253, 1
489251, 489252, 3
489251, 489250, 2
489251, 489254, 2
489256, 489257, 1
489256, 489255, 2
489258, 489257, 2
489258, 489252, 2
489255, 489256, 1
489255, 489254, 2
489257, 489256, 2
489257, 489258, 3
489254, 489251, 2
489254, 489253, 2
489254, 489252, 2
489254, 489255, 1
489252, 489251, 2
489252, 489253, 2
489252, 489258, 2
489252, 489254, 2
489249, 489250, 1
489250, 489251, 1
489250, 489249, 2
489253, 489251, 2
489253, 489252, 2
489253, 489254, 1
