623754, 623758, 2
623754, 623753, 2
623754, 623755, 2
623754, 623756, 2
623757, 623758, 2
623757, 623759, 1
623757, 623756, 2
623757, 623763, 2
623756, 623758, 2
623756, 623757, 1
623756, 623755, 2
623756, 623754, 2
623756, 623761, 2
623761, 623763, 2
623761, 623756, 2
623761, 623758, 2
623761, 623760, 2
623761, 623762, 1
623761, 623759, 2
623761, 623764, 2
623760, 623763, 2
623760, 623761, 2
623760, 623758, 2
623760, 623762, 2
623760, 623759, 2
623760, 623764, 2
623753, 623758, 2
623753, 623755, 1
623753, 623754, 6
623762, 623763, 6
623762, 623761, 2
623762, 623758, 2
623762, 623760, 2
623762, 623759, 2
623762, 623764, 3
623764, 623760, 2
623764, 623762, 2
623764, 623761, 2
623758, 623759, 2
623758, 623757, 2
623758, 623756, 2
623758, 623761, 2
623758, 623760, 2
623758, 623755, 2
623758, 623762, 2
623758, 623754, 2
623758, 623753, 2
623758, 623763, 2
623759, 623757, 2
623759, 623763, 2
623759, 623761, 1
623759, 623758, 6
623759, 623760, 3
623759, 623755, 2
623759, 623762, 2
623755, 623758, 2
623755, 623759, 2
623755, 623753, 2
623755, 623754, 2
623755, 623756, 1
623763, 623757, 2
623763, 623761, 2
623763, 623758, 2
623763, 623760, 2
623763, 623762, 2
623763, 623759, 2
