339788, 339789, 2
339788, 339790, 2
339788, 339787, 2
339790, 339791, 6
339790, 339792, 3
339790, 339789, 2
339790, 339788, 2
339791, 339792, 2
339791, 339789, 2
339791, 339787, 2
339791, 339790, 2
339792, 339791, 2
339792, 339790, 2
339789, 339791, 2
339789, 339788, 2
339789, 339787, 2
339789, 339790, 1
339787, 339791, 2
339787, 339789, 1
339787, 339788, 3
