379950, 379952, 1
379950, 379951, 8
379950, 379949, 2
379952, 379950, 2
379952, 379951, 2
379952, 379949, 2
379952, 379953, 1
379949, 379950, 1
379949, 379952, 2
379949, 379948, 2
379949, 379951, 2
379953, 379952, 2
379953, 379955, 2
379953, 379954, 1
379948, 379949, 1
379956, 379955, 2
379951, 379950, 2
379951, 379952, 2
379951, 379949, 2
379955, 379956, 0
379955, 379953, 2
379955, 379954, 2
379954, 379955, 1
379954, 379953, 2
