554422, 554421, 2
554422, 554423, 1
554422, 554420, 2
554418, 554417, 2
554418, 554416, 2
554418, 554419, 1
554423, 554422, 2
554416, 554417, 1
554416, 554418, 2
554419, 554418, 2
554419, 554420, 1
554417, 554418, 1
554417, 554416, 2
554421, 554422, 1
554421, 554420, 2
554420, 554422, 2
554420, 554421, 1
554420, 554419, 2
