379368, 379369, 2
379368, 379367, 2
379371, 379373, 2
379371, 379372, 1
379371, 379370, 2
379370, 379371, 1
379370, 379369, 2
379369, 379368, 2
379369, 379370, 1
379369, 379367, 2
379367, 379368, 3
379367, 379369, 1
379372, 379373, 1
379372, 379371, 2
379373, 379371, 2
379373, 379372, 2
