495812, 495810, 2
495812, 495813, 1
495812, 495811, 2
495813, 495812, 2
495813, 495814, 1
495808, 495810, 2
495808, 495807, 2
495808, 495809, 2
495811, 495810, 2
495811, 495812, 2
495811, 495807, 2
495811, 495809, 2
495809, 495810, 1
495809, 495807, 2
495809, 495808, 2
495809, 495811, 2
495810, 495812, 1
495810, 495808, 2
495810, 495811, 0
495810, 495809, 2
495807, 495809, 1
495807, 495808, 3
495807, 495811, 2
495814, 495813, 2
