607000, 606999, 2
607000, 606998, 2
606997, 606998, 1
606997, 606996, 2
606997, 606993, 2
606986, 606987, 0
606986, 606988, 1
606995, 606993, 2
606995, 606994, 2
606995, 606996, 1
606993, 606991, 2
606993, 606992, 2
606993, 606995, 2
606993, 606994, 1
606993, 606997, 2
606998, 606999, 3
606998, 606997, 2
606998, 607000, 1
606991, 606992, 1
606991, 606990, 2
606991, 606993, 2
606992, 606991, 2
606992, 606993, 1
606987, 606986, 2
606987, 606989, 2
606987, 606988, 2
606989, 606987, 2
606989, 606990, 1
606989, 606988, 2
606990, 606991, 1
606990, 606989, 2
606999, 606998, 2
606999, 607000, 2
606994, 606995, 1
606994, 606993, 2
606988, 606986, 2
606988, 606987, 2
606988, 606989, 1
606996, 606997, 1
606996, 606995, 2
