534436, 534437, 1
534436, 534433, 2
534436, 534432, 2
534436, 534438, 2
534436, 534435, 2
534436, 534434, 2
534437, 534436, 2
534437, 534439, 2
534437, 534438, 2
534437, 534435, 2
534437, 534434, 2
534433, 534436, 2
534433, 534432, 2
534433, 534438, 1
534433, 534442, 2
534433, 534434, 3
534441, 534438, 2
534441, 534440, 2
534441, 534439, 2
534441, 534442, 2
534439, 534441, 2
534439, 534437, 2
534439, 534440, 2
534439, 534438, 2
534439, 534442, 2
534440, 534441, 1
534440, 534438, 2
534440, 534439, 2
534440, 534442, 2
534432, 534436, 2
534432, 534434, 2
534432, 534438, 2
534432, 534433, 1
534438, 534436, 2
534438, 534437, 2
534438, 534433, 2
534438, 534441, 2
534438, 534440, 8
534438, 534432, 2
534438, 534439, 3
534438, 534442, 1
534438, 534435, 2
534438, 534434, 2
534442, 534441, 2
534442, 534439, 2
534442, 534440, 2
534442, 534438, 2
534442, 534433, 2
534435, 534436, 1
534435, 534437, 2
534435, 534438, 2
534435, 534434, 2
534434, 534436, 2
534434, 534437, 2
534434, 534433, 2
534434, 534432, 2
534434, 534438, 2
534434, 534435, 2
