491101, 491100, 2
491101, 491102, 1
491100, 491101, 1
491100, 491097, 2
491100, 491099, 2
491107, 491106, 2
491107, 491108, 1
491110, 491111, 1
491110, 491109, 2
491106, 491107, 1
491106, 491105, 2
491108, 491107, 2
491108, 491109, 1
491103, 491104, 1
491103, 491102, 2
491103, 491105, 2
491103, 491099, 2
491109, 491110, 1
491109, 491111, 2
491109, 491108, 2
491099, 491100, 0
491099, 491103, 1
491099, 491097, 2
491099, 491098, 2
491098, 491097, 2
491098, 491099, 1
491102, 491101, 2
491102, 491103, 2
491095, 491096, 1
491112, 491111, 2
491105, 491104, 2
491105, 491103, 2
491105, 491106, 1
491104, 491103, 2
491104, 491105, 1
491097, 491100, 2
491097, 491098, 1
491097, 491096, 2
491097, 491099, 2
491111, 491110, 2
491111, 491112, 1
491111, 491109, 2
491096, 491097, 1
491096, 491095, 2
