433302, 433303, 3
433302, 433305, 2
433302, 433306, 2
433302, 433304, 1
433305, 433302, 2
433305, 433308, 2
433305, 433307, 2
433305, 433304, 2
433305, 433303, 2
433305, 433306, 0
433308, 433305, 2
433308, 433306, 2
433308, 433307, 2
433307, 433305, 2
433307, 433308, 1
433307, 433306, 2
433304, 433302, 2
433304, 433305, 1
433304, 433303, 2
433303, 433302, 2
433303, 433305, 2
433303, 433304, 2
433306, 433302, 2
433306, 433305, 2
433306, 433308, 2
433306, 433307, 1
