494570, 494572, 1
494570, 494571, 3
494570, 494569, 2
494571, 494572, 2
494571, 494570, 2
494571, 494569, 2
494572, 494570, 2
494572, 494571, 2
494567, 494568, 6
494567, 494569, 1
494568, 494567, 2
494568, 494569, 2
494569, 494570, 1
494569, 494567, 2
494569, 494571, 2
494569, 494568, 2
