495801, 495803, 0
495801, 495806, 1
495801, 495802, 3
495801, 495800, 2
495805, 495804, 2
495805, 495802, 2
495805, 495806, 2
495802, 495805, 2
495802, 495801, 2
495802, 495803, 2
495802, 495804, 2
495802, 495806, 2
495802, 495800, 2
495799, 495800, 1
495803, 495802, 2
495803, 495804, 1
495803, 495801, 2
495803, 495806, 2
495803, 495800, 2
495806, 495803, 2
495806, 495805, 2
495806, 495801, 2
495806, 495804, 2
495806, 495802, 2
495804, 495803, 2
495804, 495805, 1
495804, 495802, 2
495804, 495806, 2
495800, 495803, 2
495800, 495801, 1
495800, 495799, 2
495800, 495802, 2
