404233, 404235, 2
404233, 404230, 2
404233, 404231, 2
404229, 404228, 2
404229, 404230, 2
404229, 404227, 2
404230, 404233, 2
404230, 404229, 2
404230, 404232, 2
404230, 404235, 2
404230, 404228, 2
404230, 404231, 1
404230, 404227, 2
404232, 404234, 1
404232, 404230, 2
404232, 404231, 2
404232, 404235, 2
404234, 404232, 2
404234, 404235, 2
404234, 404231, 2
404225, 404226, 1
404225, 404223, 2
404225, 404224, 2
404225, 404227, 2
404223, 404226, 2
404223, 404224, 1
404223, 404227, 2
404223, 404225, 2
404224, 404226, 2
404224, 404223, 2
404224, 404227, 2
404224, 404225, 1
404235, 404232, 2
404235, 404233, 2
404235, 404230, 2
404235, 404231, 2
404235, 404234, 2
404226, 404223, 2
404226, 404224, 2
404226, 404227, 3
404226, 404228, 1
404226, 404225, 2
404228, 404226, 2
404228, 404229, 3
404228, 404230, 1
404228, 404227, 2
404231, 404232, 4
404231, 404233, 6
404231, 404230, 2
404231, 404235, 1
404231, 404234, 2
404227, 404223, 2
404227, 404229, 2
404227, 404230, 2
404227, 404226, 2
404227, 404228, 2
404227, 404224, 2
404227, 404225, 2
