552947, 552948, 2
552947, 552946, 2
552947, 552944, 2
552947, 552945, 2
552937, 552939, 1
552937, 552938, 3
552937, 552936, 2
552952, 552948, 2
552952, 552950, 2
552952, 552953, 1
552952, 552951, 2
552952, 552954, 2
552971, 552968, 2
552971, 552979, 1
552971, 552974, 2
552971, 552980, 2
552971, 552970, 2
552971, 552969, 2
552971, 552972, 0
552971, 552981, 2
552971, 552976, 2
552971, 552977, 2
552971, 552967, 2
552971, 552966, 2
552934, 552935, 1
552964, 552963, 2
552964, 552959, 2
552964, 552961, 2
552964, 552965, 1
552972, 552968, 2
552972, 552973, 1
552972, 552974, 2
552972, 552966, 2
552972, 552979, 2
552972, 552971, 2
552972, 552970, 2
552972, 552967, 2
552962, 552963, 1
552962, 552959, 2
552962, 552961, 2
552962, 552960, 2
552957, 552968, 2
552957, 552956, 2
552957, 552951, 2
552957, 552958, 1
552957, 552959, 2
552957, 552955, 2
552957, 552967, 2
552957, 552960, 2
552976, 552975, 2
552976, 552977, 1
552976, 552971, 2
552944, 552942, 2
552944, 552946, 2
552944, 552947, 2
552944, 552943, 2
552944, 552945, 2
552946, 552948, 1
552946, 552942, 2
552946, 552945, 2
552946, 552944, 2
552946, 552947, 3
552946, 552943, 2
552981, 552969, 2
552981, 552979, 2
552981, 552971, 2
552981, 552980, 2
552981, 552978, 2
552938, 552939, 2
552938, 552937, 2
552938, 552936, 2
552936, 552939, 2
552936, 552938, 2
552936, 552937, 1
552936, 552935, 2
552961, 552963, 2
552961, 552968, 2
552961, 552962, 1
552961, 552964, 2
552961, 552960, 2
552980, 552968, 2
552980, 552981, 2
552980, 552979, 2
552980, 552971, 2
552980, 552969, 2
552960, 552958, 2
552960, 552961, 1
552960, 552962, 2
552960, 552957, 2
552960, 552963, 2
552960, 552959, 2
552941, 552942, 1
552941, 552939, 2
552941, 552940, 2
552966, 552971, 2
552966, 552972, 2
552966, 552967, 2
552966, 552970, 2
552966, 552965, 2
552967, 552968, 3
552967, 552969, 8
552967, 552972, 2
552967, 552957, 2
552967, 552965, 2
552967, 552966, 2
552967, 552971, 2
552967, 552970, 1
552967, 552959, 2
552943, 552944, 3
552943, 552946, 1
552943, 552948, 2
552943, 552942, 2
552943, 552945, 8
552942, 552944, 2
552942, 552946, 2
552942, 552941, 2
552942, 552943, 1
552968, 552969, 2
552968, 552972, 2
552968, 552957, 2
552968, 552961, 2
552968, 552971, 2
552968, 552979, 2
552968, 552967, 2
552968, 552980, 2
552968, 552970, 2
552968, 552959, 2
552939, 552940, 1
552939, 552941, 2
552939, 552938, 2
552939, 552937, 2
552939, 552936, 2
552978, 552981, 2
552978, 552977, 2
552978, 552979, 2
552949, 552948, 2
552949, 552950, 1
552975, 552974, 2
552975, 552976, 1
552940, 552941, 1
552940, 552939, 2
552948, 552952, 2
552948, 552949, 1
552948, 552950, 2
552948, 552946, 2
552948, 552947, 2
552948, 552943, 2
552958, 552960, 2
552958, 552957, 2
552958, 552959, 1
552951, 552956, 1
552951, 552957, 2
552951, 552952, 0
552951, 552950, 2
552951, 552953, 2
552951, 552954, 2
552970, 552968, 2
552970, 552969, 2
552970, 552972, 2
552970, 552971, 1
552970, 552966, 2
552970, 552967, 2
552955, 552956, 2
552955, 552954, 2
552955, 552957, 2
552963, 552961, 2
552963, 552959, 2
552963, 552962, 2
552963, 552964, 1
552963, 552960, 2
552950, 552948, 2
552950, 552951, 1
552950, 552949, 2
552950, 552952, 2
552954, 552953, 2
552954, 552951, 2
552954, 552956, 2
552954, 552952, 2
552954, 552955, 1
552953, 552951, 2
552953, 552954, 1
552953, 552952, 2
552959, 552968, 2
552959, 552962, 2
552959, 552957, 2
552959, 552958, 2
552959, 552963, 2
552959, 552965, 2
552959, 552967, 1
552959, 552964, 2
552959, 552960, 0
552956, 552951, 2
552956, 552954, 2
552956, 552957, 1
552956, 552955, 2
552945, 552944, 2
552945, 552946, 2
552945, 552947, 2
552945, 552943, 2
552979, 552968, 2
552979, 552969, 2
552979, 552977, 2
552979, 552972, 2
552979, 552981, 1
552979, 552971, 2
552979, 552980, 3
552979, 552978, 2
552974, 552973, 2
552974, 552972, 2
552974, 552971, 2
552974, 552975, 1
552935, 552934, 2
552935, 552936, 1
552973, 552972, 2
552973, 552974, 1
552969, 552968, 2
552969, 552967, 2
552969, 552981, 2
552969, 552979, 2
552969, 552971, 2
552969, 552980, 2
552969, 552970, 2
552977, 552979, 2
552977, 552971, 2
552977, 552978, 1
552977, 552976, 2
552965, 552966, 1
552965, 552967, 2
552965, 552964, 2
552965, 552959, 2
