592778, 592779, 1
592778, 592777, 2
592776, 592775, 2
592776, 592777, 1
592777, 592778, 1
592777, 592776, 2
592777, 592779, 2
592775, 592776, 1
592775, 592774, 2
592779, 592778, 2
592779, 592777, 2
592774, 592775, 1
