658302, 658301, 2
658302, 658303, 8
658302, 658300, 2
658302, 658304, 1
658301, 658302, 2
658301, 658299, 2
658301, 658300, 2
658299, 658298, 2
658299, 658301, 2
658299, 658300, 1
658304, 658302, 2
658304, 658303, 2
658298, 658299, 1
658303, 658302, 2
658303, 658304, 2
658300, 658302, 1
658300, 658301, 8
658300, 658299, 2
