553646, 553648, 0
553646, 553647, 6
553646, 553645, 2
553645, 553646, 1
553645, 553647, 2
553645, 553644, 2
553643, 553647, 2
553643, 553644, 1
553648, 553646, 2
553648, 553647, 2
553647, 553648, 2
553647, 553646, 2
553647, 553644, 2
553647, 553645, 2
553647, 553643, 2
553644, 553643, 2
553644, 553647, 2
553644, 553645, 1
