570911, 570910, 2
570911, 570912, 2
570911, 570913, 2
570911, 570914, 2
570905, 570908, 2
570905, 570907, 2
570905, 570906, 1
570905, 570904, 2
570905, 570909, 2
570900, 570901, 3
570900, 570903, 1
570913, 570911, 2
570913, 570909, 2
570913, 570912, 2
570913, 570914, 1
570914, 570911, 2
570914, 570913, 2
570909, 570905, 2
570909, 570904, 2
570909, 570910, 1
570909, 570913, 2
570909, 570908, 2
570909, 570912, 2
570912, 570911, 2
570912, 570909, 2
570912, 570910, 2
570912, 570913, 1
570902, 570901, 2
570902, 570904, 2
570902, 570903, 2
570901, 570903, 2
570901, 570900, 2
570901, 570902, 2
570904, 570902, 2
570904, 570905, 2
570904, 570908, 2
570904, 570909, 2
570904, 570906, 2
570904, 570903, 2
570910, 570911, 3
570910, 570909, 2
570910, 570908, 2
570910, 570912, 1
570903, 570901, 2
570903, 570904, 3
570903, 570900, 2
570903, 570906, 2
570903, 570908, 1
570903, 570902, 2
570908, 570905, 2
570908, 570904, 2
570908, 570910, 2
570908, 570909, 1
570908, 570906, 2
570908, 570907, 2
570908, 570903, 2
570906, 570905, 2
570906, 570907, 1
570906, 570904, 2
570906, 570908, 2
570906, 570903, 2
570907, 570905, 2
570907, 570906, 2
570907, 570908, 2
