571568, 571567, 2
571568, 571569, 1
571568, 571570, 2
571559, 571560, 1
571559, 571558, 2
571549, 571548, 2
571549, 571550, 1
571569, 571568, 2
571569, 571570, 1
571570, 571568, 2
571570, 571569, 2
571554, 571555, 1
571554, 571553, 2
571556, 571555, 2
571556, 571557, 1
571551, 571550, 2
571551, 571552, 1
571560, 571562, 2
571560, 571559, 2
571560, 571561, 1
571560, 571563, 2
571545, 571546, 1
571545, 571544, 2
571563, 571562, 2
571563, 571565, 2
571563, 571560, 2
571563, 571564, 1
571547, 571548, 1
571547, 571546, 2
571548, 571550, 2
571548, 571549, 1
571548, 571547, 2
571550, 571548, 2
571550, 571549, 2
571550, 571551, 1
571567, 571568, 1
571567, 571566, 2
571558, 571559, 1
571558, 571557, 2
571566, 571567, 1
571566, 571565, 2
571564, 571563, 2
571564, 571565, 1
571543, 571542, 2
571543, 571544, 1
571546, 571545, 2
571546, 571544, 2
571546, 571547, 1
571562, 571563, 1
571562, 571561, 2
571562, 571560, 2
571561, 571562, 1
571561, 571560, 2
571552, 571551, 2
571552, 571553, 1
571557, 571556, 2
571557, 571558, 1
571553, 571555, 2
571553, 571554, 1
571553, 571552, 2
571544, 571545, 1
571544, 571543, 2
571544, 571546, 2
571555, 571554, 2
571555, 571556, 1
571555, 571553, 2
571542, 571543, 1
571565, 571566, 1
571565, 571563, 2
571565, 571564, 2
