625853, 625851, 2
625853, 625850, 2
625853, 625852, 2
625850, 625853, 2
625850, 625852, 2
625850, 625849, 2
625850, 625851, 1
625849, 625850, 1
625849, 625848, 2
625852, 625853, 6
625852, 625850, 2
625852, 625851, 2
625848, 625849, 1
625851, 625853, 2
625851, 625850, 2
625851, 625852, 1
