493674, 493666, 2
493674, 493671, 2
493674, 493675, 1
493674, 493672, 2
493674, 493676, 2
493674, 493673, 2
493674, 493670, 2
493696, 493695, 2
493696, 493698, 2
493696, 493697, 3
493665, 493666, 1
493677, 493673, 2
493677, 493679, 2
493677, 493678, 3
493677, 493676, 2
493685, 493686, 1
493685, 493684, 2
493669, 493668, 2
493669, 493670, 1
493689, 493686, 2
493689, 493691, 2
493689, 493690, 1
493689, 493688, 2
493689, 493687, 2
493704, 493703, 2
493704, 493701, 2
493704, 493700, 2
493704, 493699, 2
493688, 493686, 2
493688, 493701, 2
493688, 493691, 2
493688, 493690, 2
493688, 493689, 2
493688, 493695, 2
493688, 493687, 2
493688, 493698, 2
493688, 493693, 2
493687, 493689, 1
493687, 493691, 2
493687, 493690, 2
493687, 493688, 2
493687, 493686, 2
493683, 493684, 1
493683, 493682, 2
493691, 493692, 3
493691, 493693, 1
493691, 493690, 2
493691, 493686, 2
493691, 493689, 2
493691, 493687, 2
493691, 493688, 2
493676, 493674, 2
493676, 493675, 2
493676, 493677, 2
493676, 493679, 1
493700, 493704, 2
493700, 493701, 2
493700, 493703, 2
493700, 493702, 2
493700, 493699, 2
493700, 493698, 2
493692, 493691, 2
493692, 493693, 2
493692, 493690, 2
493667, 493666, 2
493667, 493668, 1
493695, 493694, 2
493695, 493696, 2
493695, 493693, 2
493695, 493688, 2
493695, 493698, 1
493682, 493683, 1
493682, 493681, 2
493682, 493680, 2
493698, 493696, 2
493698, 493701, 2
493698, 493697, 2
493698, 493695, 2
493698, 493699, 1
493698, 493688, 2
493698, 493700, 2
493679, 493676, 2
493679, 493681, 2
493679, 493678, 2
493679, 493677, 2
493679, 493680, 1
493666, 493674, 2
493666, 493665, 2
493666, 493667, 1
493675, 493674, 2
493675, 493676, 1
493693, 493692, 2
493693, 493691, 2
493693, 493695, 2
493693, 493688, 2
493693, 493694, 1
493686, 493691, 1
493686, 493690, 2
493686, 493685, 2
493686, 493689, 2
493686, 493687, 3
493686, 493688, 0
493697, 493696, 2
493697, 493698, 2
493694, 493693, 2
493694, 493695, 1
493703, 493704, 2
493703, 493702, 2
493703, 493700, 2
493702, 493703, 1
493702, 493701, 2
493702, 493700, 2
493673, 493674, 2
493673, 493671, 2
493673, 493672, 2
493673, 493678, 2
493673, 493670, 2
493673, 493677, 2
493670, 493669, 2
493670, 493674, 1
493670, 493671, 2
493670, 493673, 2
493670, 493672, 2
493699, 493704, 1
493699, 493701, 0
493699, 493700, 3
493699, 493698, 2
493668, 493669, 1
493668, 493667, 2
493671, 493674, 2
493671, 493670, 2
493671, 493672, 1
493671, 493673, 2
493701, 493704, 2
493701, 493688, 2
493701, 493702, 1
493701, 493699, 2
493701, 493698, 2
493701, 493700, 2
493690, 493686, 2
493690, 493691, 2
493690, 493692, 2
493690, 493689, 2
493690, 493687, 2
493690, 493688, 2
493681, 493679, 2
493681, 493684, 2
493681, 493682, 2
493681, 493680, 2
493684, 493683, 2
493684, 493681, 2
493684, 493685, 1
493678, 493679, 2
493678, 493673, 2
493678, 493677, 2
493672, 493674, 2
493672, 493671, 2
493672, 493673, 1
493672, 493670, 2
493680, 493681, 3
493680, 493682, 1
493680, 493679, 2
