404101, 404100, 2
404101, 404102, 3
404101, 404103, 1
404101, 404099, 2
404103, 404101, 2
404103, 404102, 2
404103, 404104, 1
404104, 404105, 1
404104, 404103, 2
404106, 404105, 2
404106, 404107, 1
404105, 404107, 2
404105, 404104, 2
404105, 404106, 1
404108, 404107, 2
404099, 404100, 1
404099, 404101, 2
404099, 404098, 2
404099, 404097, 2
404107, 404105, 2
404107, 404108, 1
404107, 404106, 2
404100, 404101, 1
404100, 404099, 2
404097, 404098, 1
404097, 404099, 2
404098, 404097, 2
404098, 404099, 1
404102, 404101, 2
404102, 404103, 2
