537098, 537096, 2
537098, 537097, 2
537098, 537099, 3
537098, 537093, 2
537098, 537094, 2
537099, 537098, 2
537096, 537097, 1
537096, 537095, 2
537096, 537098, 2
537096, 537094, 2
537096, 537093, 2
537097, 537096, 2
537097, 537098, 2
537097, 537095, 2
537097, 537094, 2
537093, 537096, 2
537093, 537098, 1
537093, 537094, 3
537094, 537096, 2
537094, 537093, 2
537094, 537098, 2
537094, 537097, 2
537094, 537095, 2
537095, 537096, 1
537095, 537097, 2
537095, 537094, 2
