332973, 332974, 1
332973, 332972, 2
332977, 332978, 1
332977, 332976, 2
332976, 332975, 2
332976, 332978, 2
332976, 332977, 1
332974, 332975, 1
332974, 332973, 2
332969, 332971, 1
332969, 332970, 6
332975, 332974, 2
332975, 332976, 1
332971, 332969, 2
332971, 332972, 1
332971, 332970, 2
332978, 332977, 2
332978, 332976, 2
332972, 332971, 2
332972, 332973, 1
332972, 332970, 2
332970, 332969, 2
332970, 332971, 2
332970, 332972, 2
