433164, 433162, 2
433164, 433168, 2
433164, 433163, 2
433164, 433159, 2
433164, 433167, 2
433164, 433165, 1
433114, 433132, 2
433114, 433116, 2
433114, 433121, 2
433114, 433124, 2
433114, 433120, 2
433114, 433117, 2
433114, 433115, 2
433114, 433122, 2
433138, 433139, 1
433138, 433137, 2
433138, 433141, 2
433138, 433136, 2
433138, 433135, 2
433139, 433142, 2
433139, 433141, 2
433139, 433138, 2
433139, 433136, 2
433139, 433135, 2
433139, 433137, 2
433139, 433140, 2
433129, 433127, 2
433129, 433132, 1
433129, 433128, 2
433129, 433124, 2
433129, 433131, 2
433129, 433130, 3
433129, 433125, 2
433129, 433126, 2
433155, 433157, 2
433155, 433154, 2
433155, 433153, 2
433155, 433156, 3
433155, 433160, 1
433155, 433159, 2
433155, 433148, 2
433155, 433149, 2
433155, 433151, 2
433147, 433148, 1
433147, 433120, 2
433147, 433146, 2
433162, 433164, 2
433162, 433163, 1
433162, 433160, 2
433162, 433120, 2
433162, 433167, 2
433162, 433161, 2
433145, 433142, 2
433145, 433141, 2
433145, 433143, 2
433145, 433150, 2
433145, 433144, 2
433145, 433146, 2
433160, 433157, 2
433160, 433162, 2
433160, 433156, 2
433160, 433120, 2
433160, 433155, 2
433160, 433158, 2
433160, 433149, 2
433160, 433159, 2
433160, 433161, 1
433172, 433171, 2
433159, 433157, 2
433159, 433164, 2
433159, 433160, 2
433159, 433155, 2
433159, 433158, 2
433159, 433161, 2
433140, 433139, 2
433140, 433142, 2
433140, 433141, 2
433165, 433164, 2
433165, 433167, 2
433165, 433166, 2
433165, 433168, 2
433165, 433163, 2
433132, 433131, 2
433132, 433114, 2
433132, 433129, 2
433132, 433130, 2
433132, 433120, 2
433132, 433133, 1
433132, 433125, 2
433121, 433119, 2
433121, 433122, 1
433121, 433118, 2
433121, 433120, 6
433121, 433117, 2
433121, 433114, 2
433168, 433164, 2
433168, 433169, 1
433168, 433165, 2
433168, 433167, 2
433168, 433166, 2
433168, 433170, 2
433163, 433164, 3
433163, 433170, 2
433163, 433162, 2
433163, 433167, 1
433163, 433165, 2
433163, 433166, 8
433149, 433153, 2
433149, 433150, 3
433149, 433160, 2
433149, 433155, 1
433149, 433148, 2
433149, 433151, 2
433152, 433153, 1
433152, 433151, 2
433153, 433154, 2
433153, 433156, 2
433153, 433155, 2
433153, 433149, 2
433153, 433151, 2
433153, 433152, 2
433146, 433142, 2
433146, 433141, 2
433146, 433145, 2
433146, 433135, 2
433146, 433144, 2
433146, 433120, 2
433146, 433147, 1
433146, 433143, 2
433142, 433141, 2
433142, 433144, 2
433142, 433146, 2
433142, 433145, 2
433142, 433139, 2
433142, 433140, 2
433142, 433143, 1
433135, 433139, 2
433135, 433141, 1
433135, 433134, 2
433135, 433138, 2
433135, 433136, 3
433135, 433137, 2
433135, 433146, 2
433136, 433137, 1
433136, 433141, 2
433136, 433134, 2
433136, 433138, 2
433136, 433139, 2
433136, 433135, 2
433130, 433127, 2
433130, 433131, 1
433130, 433128, 2
433130, 433129, 2
433130, 433132, 2
433117, 433116, 2
433117, 433119, 2
433117, 433114, 2
433117, 433118, 2
433117, 433120, 2
433117, 433121, 2
433154, 433156, 2
433154, 433155, 2
433154, 433153, 2
433137, 433136, 2
433137, 433139, 2
433137, 433135, 2
433137, 433138, 1
433134, 433131, 2
433134, 433141, 2
433134, 433136, 2
433134, 433135, 1
433134, 433120, 2
433134, 433133, 2
433128, 433127, 2
433128, 433131, 2
433128, 433130, 2
433128, 433129, 2
433128, 433125, 2
433131, 433127, 2
433131, 433132, 2
433131, 433134, 2
433131, 433128, 2
433131, 433129, 2
433131, 433130, 2
433131, 433133, 2
433123, 433120, 2
433123, 433122, 2
433123, 433124, 1
433158, 433157, 2
433158, 433160, 2
433158, 433159, 1
433167, 433164, 2
433167, 433162, 2
433167, 433168, 3
433167, 433163, 2
433167, 433169, 2
433167, 433166, 2
433167, 433165, 2
433167, 433170, 1
433170, 433167, 2
433170, 433120, 2
433170, 433168, 2
433170, 433163, 2
433170, 433169, 2
433170, 433171, 1
433124, 433122, 2
433124, 433123, 2
433124, 433126, 2
433124, 433120, 2
433124, 433125, 1
433124, 433129, 2
433124, 433114, 2
433148, 433120, 2
433148, 433155, 2
433148, 433149, 1
433148, 433147, 2
433148, 433150, 2
433156, 433160, 2
433156, 433154, 2
433156, 433155, 2
433156, 433157, 1
433156, 433153, 2
433120, 433132, 2
433120, 433124, 2
433120, 433134, 2
433120, 433146, 2
433120, 433114, 2
433120, 433123, 2
433120, 433148, 2
433120, 433170, 2
433120, 433147, 2
433120, 433116, 2
433120, 433119, 2
433120, 433162, 2
433120, 433118, 2
433120, 433160, 2
433120, 433122, 2
433120, 433117, 2
433120, 433115, 2
433120, 433121, 2
433125, 433127, 2
433125, 433132, 2
433125, 433128, 8
433125, 433124, 2
433125, 433129, 1
433125, 433126, 3
433115, 433116, 1
433115, 433120, 2
433115, 433114, 6
433127, 433131, 2
433127, 433128, 2
433127, 433130, 2
433127, 433129, 2
433127, 433125, 2
433127, 433126, 2
433141, 433142, 3
433141, 433134, 2
433141, 433136, 2
433141, 433145, 2
433141, 433139, 2
433141, 433135, 2
433141, 433140, 2
433141, 433143, 2
433141, 433144, 2
433141, 433146, 1
433141, 433138, 2
433122, 433114, 2
433122, 433123, 1
433122, 433120, 2
433122, 433124, 2
433122, 433121, 2
433150, 433148, 2
433150, 433149, 2
433150, 433151, 1
433150, 433145, 2
433118, 433119, 8
433118, 433116, 2
433118, 433120, 2
433118, 433117, 6
433118, 433121, 1
433144, 433142, 2
433144, 433141, 2
433144, 433143, 2
433144, 433146, 2
433144, 433145, 1
433133, 433132, 2
433133, 433134, 1
433133, 433131, 2
433166, 433167, 2
433166, 433165, 2
433166, 433168, 2
433166, 433163, 2
433151, 433155, 2
433151, 433149, 2
433151, 433153, 2
433151, 433150, 2
433151, 433152, 1
433116, 433118, 1
433116, 433120, 2
433116, 433114, 2
433116, 433115, 2
433116, 433117, 2
433171, 433172, 1
433171, 433170, 2
433119, 433118, 2
433119, 433120, 2
433119, 433121, 2
433119, 433117, 2
433161, 433160, 2
433161, 433159, 2
433161, 433162, 1
433169, 433167, 2
433169, 433170, 2
433169, 433168, 2
433157, 433160, 2
433157, 433156, 2
433157, 433155, 2
433157, 433158, 1
433157, 433159, 2
433143, 433142, 2
433143, 433141, 2
433143, 433144, 1
433143, 433146, 2
433143, 433145, 2
433126, 433127, 1
433126, 433129, 2
433126, 433125, 2
433126, 433124, 2
