379683, 379682, 2
379683, 379684, 1
379682, 379679, 2
379682, 379683, 1
379682, 379680, 2
379682, 379681, 2
379680, 379679, 2
379680, 379682, 1
379680, 379681, 3
379684, 379683, 2
379684, 379685, 1
379685, 379684, 2
379685, 379686, 1
379679, 379682, 2
379679, 379680, 1
379681, 379682, 2
379681, 379680, 2
379686, 379685, 2
