657987, 657989, 2
657987, 657988, 2
657987, 657985, 2
657987, 657986, 2
657989, 657988, 2
657989, 657987, 2
657986, 657987, 8
657986, 657985, 2
657986, 657988, 1
657985, 657987, 2
657985, 657986, 1
657988, 657989, 1
657988, 657987, 2
657988, 657986, 2
