433457, 433456, 2
433457, 433458, 1
433461, 433460, 2
433461, 433458, 2
433461, 433459, 2
433461, 433462, 1
433459, 433460, 8
433459, 433461, 1
433459, 433458, 2
433455, 433456, 1
433455, 433458, 2
433460, 433461, 2
433460, 433458, 2
433460, 433459, 2
433460, 433462, 2
433456, 433457, 1
433456, 433455, 2
433458, 433457, 2
433458, 433460, 2
433458, 433461, 2
433458, 433459, 1
433458, 433455, 2
433462, 433460, 2
433462, 433461, 2
