606963, 606962, 2
606963, 606964, 1
606960, 606961, 1
606960, 606959, 2
606962, 606963, 1
606962, 606961, 2
606962, 606964, 2
606956, 606957, 1
606968, 606966, 2
606968, 606967, 2
606968, 606969, 2
606968, 606970, 2
606958, 606959, 1
606958, 606957, 2
606966, 606968, 2
606966, 606965, 2
606966, 606967, 2
606966, 606964, 2
606965, 606966, 8
606965, 606967, 1
606965, 606964, 2
606970, 606968, 2
606970, 606969, 2
606964, 606963, 2
606964, 606965, 1
606964, 606962, 2
606964, 606966, 2
606959, 606960, 1
606959, 606958, 2
606959, 606957, 2
606961, 606960, 2
606961, 606962, 1
606967, 606968, 8
606967, 606965, 2
606967, 606969, 1
606967, 606966, 2
606957, 606958, 1
606957, 606956, 2
606957, 606959, 2
606969, 606968, 2
606969, 606967, 2
606969, 606970, 1
