375074, 375075, 1
375074, 375076, 2
375074, 375073, 2
375065, 375066, 1
375065, 375064, 2
375065, 375069, 2
375065, 375067, 2
375077, 375078, 1
375077, 375076, 2
375068, 375066, 2
375068, 375069, 2
375068, 375067, 2
375069, 375066, 2
375069, 375065, 2
375069, 375067, 2
375069, 375068, 2
375069, 375071, 1
375069, 375070, 3
375070, 375071, 2
375070, 375069, 2
375072, 375071, 2
375072, 375073, 1
375066, 375068, 8
375066, 375065, 2
375066, 375069, 1
375066, 375067, 3
375071, 375072, 1
375071, 375073, 2
375071, 375070, 2
375071, 375069, 2
375075, 375074, 2
375075, 375076, 1
375067, 375066, 2
375067, 375068, 2
375067, 375069, 2
375067, 375065, 2
375078, 375077, 2
375064, 375065, 1
375076, 375074, 2
375076, 375075, 2
375076, 375077, 1
375073, 375074, 1
375073, 375072, 2
375073, 375071, 2
