496050, 496051, 1
496050, 496048, 2
496050, 496049, 2
496048, 496050, 1
496048, 496049, 3
496056, 496055, 2
496054, 496053, 2
496054, 496055, 1
496052, 496051, 2
496052, 496053, 1
496055, 496056, 1
496055, 496054, 2
496051, 496050, 2
496051, 496052, 1
496053, 496054, 1
496053, 496052, 2
496049, 496050, 2
496049, 496048, 2
