406113, 406115, 1
406113, 406114, 3
406119, 406118, 2
406119, 406117, 2
406116, 406115, 2
406116, 406117, 1
406114, 406113, 2
406114, 406115, 2
406118, 406119, 1
406118, 406117, 2
406115, 406113, 2
406115, 406116, 1
406115, 406117, 2
406115, 406114, 2
406117, 406118, 1
406117, 406115, 2
406117, 406119, 2
406117, 406116, 2
