494284, 494283, 2
494284, 494282, 2
494280, 494281, 1
494282, 494284, 1
494282, 494281, 2
494282, 494283, 3
494283, 494284, 2
494283, 494281, 2
494283, 494282, 2
494281, 494280, 2
494281, 494283, 2
494281, 494282, 1
