420329, 420331, 2
420329, 420326, 2
420329, 420330, 1
420329, 420327, 2
420329, 420328, 2
420328, 420329, 1
420328, 420326, 2
420328, 420335, 2
420328, 420331, 2
420328, 420330, 2
420328, 420327, 2
420324, 420323, 2
420324, 420326, 2
420324, 420325, 1
420320, 420315, 2
420320, 420321, 0
420320, 420322, 2
420320, 420317, 2
420320, 420323, 2
420320, 420318, 2
420320, 420316, 2
420318, 420315, 2
420318, 420323, 2
420318, 420316, 2
420318, 420320, 1
420318, 420317, 2
420309, 420308, 2
420309, 420314, 2
420309, 420311, 2
420309, 420310, 1
420317, 420315, 2
420317, 420321, 2
420317, 420323, 2
420317, 420320, 2
420317, 420316, 2
420317, 420318, 1
420340, 420338, 2
420340, 420343, 2
420340, 420336, 2
420340, 420335, 2
420308, 420309, 1
420308, 420314, 2
420308, 420307, 2
420331, 420328, 2
420331, 420329, 2
420331, 420335, 2
420331, 420326, 2
420331, 420334, 1
420331, 420333, 2
420331, 420330, 2
420331, 420332, 0
420333, 420331, 2
420333, 420335, 2
420333, 420334, 2
420333, 420330, 2
420333, 420332, 2
420334, 420326, 2
420334, 420335, 1
420334, 420331, 2
420334, 420333, 2
420334, 420330, 2
420334, 420332, 2
420355, 420350, 2
420355, 420348, 2
420355, 420354, 2
420355, 420356, 1
420355, 420353, 2
420355, 420349, 2
420355, 420352, 2
420355, 420351, 2
420322, 420323, 2
420322, 420315, 2
420322, 420321, 2
420322, 420320, 2
420322, 420316, 2
420347, 420344, 2
420347, 420346, 2
420347, 420345, 2
420347, 420343, 2
420347, 420348, 2
420341, 420338, 2
420341, 420342, 1
420341, 420339, 2
420345, 420347, 2
420345, 420344, 2
420345, 420346, 1
420345, 420343, 2
420343, 420338, 2
420343, 420342, 2
420343, 420344, 1
420343, 420335, 2
420343, 420339, 2
420343, 420347, 2
420343, 420346, 2
420343, 420345, 2
420343, 420337, 2
420343, 420336, 2
420343, 420340, 2
420344, 420347, 2
420344, 420346, 2
420344, 420345, 1
420344, 420343, 2
420321, 420315, 2
420321, 420316, 2
420321, 420322, 1
420321, 420317, 2
420321, 420323, 2
420321, 420320, 2
420306, 420304, 2
420306, 420303, 2
420306, 420307, 2
420337, 420338, 2
420337, 420339, 1
420337, 420343, 2
420337, 420336, 2
420337, 420335, 2
420326, 420329, 2
420326, 420335, 2
420326, 420328, 2
420326, 420323, 2
420326, 420331, 2
420326, 420324, 2
420326, 420325, 2
420326, 420330, 2
420326, 420327, 2
420326, 420334, 2
420346, 420347, 4
420346, 420344, 2
420346, 420345, 2
420346, 420343, 2
420346, 420348, 1
420304, 420305, 4
420304, 420303, 2
420304, 420307, 1
420304, 420306, 6
420310, 420309, 2
420310, 420311, 1
420307, 420313, 2
420307, 420306, 2
420307, 420308, 1
420307, 420314, 2
420307, 420305, 2
420307, 420304, 2
420307, 420303, 2
420313, 420312, 2
420313, 420314, 4
420313, 420315, 1
420313, 420307, 2
420313, 420311, 2
420312, 420314, 2
420312, 420313, 1
420312, 420311, 2
420316, 420315, 2
420316, 420321, 2
420316, 420322, 2
420316, 420317, 4
420316, 420323, 1
420316, 420319, 6
420316, 420318, 2
420316, 420320, 2
420348, 420350, 2
420348, 420355, 2
420348, 420354, 2
420348, 420349, 1
420348, 420347, 2
420348, 420353, 2
420348, 420346, 2
420348, 420352, 2
420348, 420351, 2
420335, 420334, 2
420335, 420328, 2
420335, 420340, 2
420335, 420343, 2
420335, 420336, 1
420335, 420330, 2
420335, 420338, 2
420335, 420326, 2
420335, 420337, 2
420335, 420331, 2
420335, 420333, 2
420335, 420332, 2
420323, 420315, 2
420323, 420322, 2
420323, 420319, 2
420323, 420324, 1
420323, 420320, 2
420323, 420316, 2
420323, 420318, 2
420323, 420321, 2
420323, 420326, 2
420323, 420317, 2
420323, 420325, 2
420323, 420332, 2
420356, 420355, 2
420330, 420328, 2
420330, 420329, 2
420330, 420326, 2
420330, 420335, 2
420330, 420331, 1
420330, 420333, 2
420330, 420334, 2
420330, 420327, 2
420330, 420332, 2
420338, 420340, 4
420338, 420342, 2
420338, 420335, 2
420338, 420341, 2
420338, 420339, 2
420338, 420337, 6
420338, 420336, 2
420338, 420343, 1
420319, 420323, 2
420319, 420315, 2
420319, 420316, 2
420354, 420350, 2
420354, 420355, 2
420354, 420348, 2
420354, 420349, 2
420354, 420352, 2
420354, 420351, 2
420353, 420350, 2
420353, 420349, 2
420353, 420351, 2
420353, 420348, 2
420353, 420355, 2
420339, 420338, 2
420339, 420342, 2
420339, 420337, 2
420339, 420341, 1
420339, 420343, 2
420339, 420336, 2
420327, 420329, 2
420327, 420328, 1
420327, 420326, 2
420327, 420325, 2
420327, 420330, 2
420332, 420334, 2
420332, 420335, 2
420332, 420323, 2
420332, 420331, 2
420332, 420333, 1
420332, 420325, 2
420332, 420330, 2
420315, 420313, 2
420315, 420321, 2
420315, 420322, 2
420315, 420317, 2
420315, 420323, 2
420315, 420314, 2
420315, 420319, 2
420315, 420318, 2
420315, 420316, 1
420315, 420320, 2
420314, 420312, 2
420314, 420315, 2
420314, 420313, 2
420314, 420308, 2
420314, 420309, 2
420314, 420311, 2
420314, 420307, 2
420311, 420309, 2
420311, 420312, 1
420311, 420314, 2
420311, 420313, 2
420311, 420310, 2
420336, 420338, 1
420336, 420342, 2
420336, 420335, 2
420336, 420337, 2
420336, 420339, 2
420336, 420343, 2
420336, 420340, 2
420352, 420350, 2
420352, 420354, 0
420352, 420355, 2
420352, 420348, 2
420352, 420349, 2
420352, 420351, 2
420342, 420338, 2
420342, 420341, 2
420342, 420339, 2
420342, 420343, 2
420342, 420336, 2
420305, 420304, 2
420305, 420303, 2
420305, 420307, 2
420349, 420350, 1
420349, 420348, 2
420349, 420354, 2
420349, 420353, 2
420349, 420352, 2
420349, 420351, 2
420349, 420355, 2
420303, 420305, 2
420303, 420304, 1
420303, 420307, 2
420303, 420306, 2
420325, 420323, 2
420325, 420324, 2
420325, 420326, 4
420325, 420327, 1
420325, 420332, 2
420351, 420350, 2
420351, 420348, 2
420351, 420355, 1
420351, 420354, 2
420351, 420349, 2
420351, 420353, 6
420351, 420352, 4
420350, 420348, 2
420350, 420354, 2
420350, 420349, 2
420350, 420353, 2
420350, 420352, 2
420350, 420351, 1
420350, 420355, 2
