377832, 377833, 1
377832, 377834, 2
377833, 377832, 2
377833, 377834, 1
377834, 377833, 2
377834, 377832, 2
377834, 377836, 2
377834, 377835, 1
377836, 377834, 2
377836, 377835, 2
377835, 377834, 2
377835, 377836, 1
