491012, 491011, 2
491012, 491013, 1
491011, 491012, 1
491011, 491009, 2
491011, 491010, 2
491007, 491006, 2
491007, 491008, 2
491016, 491017, 3
491016, 491013, 2
491016, 491018, 0
491016, 491015, 2
491016, 491014, 2
491016, 491019, 1
491005, 491006, 1
491005, 491008, 2
491008, 491006, 2
491008, 491007, 2
491008, 491009, 1
491008, 491005, 2
491022, 491021, 2
491022, 491020, 2
491006, 491008, 1
491006, 491007, 3
491006, 491005, 2
491017, 491018, 2
491017, 491016, 2
491017, 491019, 2
491017, 491015, 2
491021, 491020, 2
491021, 491022, 2
491020, 491021, 0
491020, 491019, 2
491020, 491022, 3
491009, 491011, 2
491009, 491008, 2
491009, 491010, 1
491010, 491011, 1
491010, 491009, 2
491015, 491017, 2
491015, 491016, 2
491015, 491014, 2
491018, 491017, 2
491018, 491016, 2
491018, 491019, 2
491014, 491013, 2
491014, 491016, 2
491014, 491015, 2
491013, 491012, 2
491013, 491014, 3
491013, 491016, 1
491019, 491018, 2
491019, 491017, 2
491019, 491020, 1
491019, 491016, 2
