656721, 656723, 1
656721, 656722, 8
656721, 656719, 2
656721, 656720, 2
656721, 656724, 2
656719, 656721, 2
656719, 656723, 2
656719, 656724, 2
656719, 656720, 2
656719, 656716, 2
656719, 656718, 2
656719, 656722, 2
656719, 656712, 2
656719, 656713, 2
656719, 656717, 2
656720, 656721, 1
656720, 656723, 2
656720, 656719, 2
656720, 656718, 2
656716, 656714, 2
656716, 656719, 2
656716, 656713, 2
656716, 656715, 2
656716, 656717, 1
656717, 656719, 2
656717, 656718, 1
656717, 656716, 2
656713, 656712, 2
656713, 656716, 2
656713, 656719, 2
656713, 656714, 8
656713, 656715, 1
656711, 656712, 1
656724, 656721, 2
656724, 656723, 2
656724, 656722, 2
656724, 656719, 2
656723, 656721, 2
656723, 656722, 2
656723, 656719, 2
656723, 656724, 1
656723, 656720, 2
656715, 656714, 2
656715, 656716, 1
656715, 656713, 2
656718, 656719, 6
656718, 656720, 1
656718, 656717, 2
656722, 656721, 2
656722, 656723, 2
656722, 656719, 2
656722, 656724, 2
656712, 656719, 2
656712, 656713, 1
656712, 656714, 2
656712, 656711, 2
656714, 656716, 2
656714, 656712, 2
656714, 656713, 2
656714, 656715, 2
