522604, 522603, 2
522604, 522605, 1
522614, 522613, 2
522614, 522615, 1
522601, 522600, 2
522601, 522603, 1
522601, 522602, 3
522601, 522605, 2
522601, 522608, 2
522598, 522597, 2
522598, 522599, 1
522616, 522617, 1
522616, 522615, 2
522608, 522609, 1
522608, 522607, 2
522608, 522602, 2
522608, 522601, 2
522611, 522607, 2
522611, 522610, 2
522611, 522612, 1
522599, 522598, 2
522599, 522600, 1
522612, 522611, 2
522612, 522613, 1
522607, 522609, 2
522607, 522611, 1
522607, 522606, 2
522607, 522610, 2
522607, 522608, 2
522617, 522616, 2
522617, 522618, 1
522609, 522607, 2
522609, 522610, 1
522609, 522608, 2
522606, 522607, 1
522606, 522605, 2
522618, 522617, 2
522605, 522604, 2
522605, 522606, 1
522605, 522603, 2
522605, 522602, 2
522605, 522601, 2
522597, 522598, 1
522613, 522614, 1
522613, 522612, 2
522600, 522599, 2
522600, 522601, 1
522615, 522614, 2
522615, 522616, 1
522603, 522604, 1
522603, 522602, 2
522603, 522605, 2
522603, 522601, 2
522602, 522608, 2
522602, 522603, 2
522602, 522605, 2
522602, 522601, 2
522610, 522611, 2
522610, 522609, 2
522610, 522607, 2
