593168, 593167, 2
593168, 593169, 1
593169, 593168, 2
593169, 593167, 2
593169, 593170, 1
593166, 593167, 1
593166, 593165, 2
593167, 593168, 0
593167, 593169, 2
593167, 593166, 2
593165, 593166, 1
593170, 593169, 2
593170, 593171, 1
593171, 593170, 2
