643397, 643398, 3
643397, 643396, 2
643397, 643402, 1
643397, 643400, 2
643402, 643398, 2
643402, 643399, 2
643402, 643396, 2
643402, 643403, 3
643402, 643400, 2
643402, 643397, 2
643402, 643404, 1
643402, 643401, 2
643387, 643390, 2
643387, 643386, 2
643387, 643394, 2
643387, 643388, 0
643387, 643389, 1
643388, 643390, 2
643388, 643393, 2
643388, 643387, 2
643388, 643389, 2
643410, 643412, 2
643410, 643411, 1
643410, 643407, 2
643410, 643408, 2
643410, 643406, 2
643410, 643409, 2
643416, 643414, 2
643416, 643415, 2
643416, 643413, 2
643416, 643412, 2
643416, 643408, 2
643386, 643385, 2
643386, 643387, 1
643386, 643394, 2
643385, 643386, 1
643385, 643394, 2
643404, 643402, 2
643404, 643405, 1
643404, 643398, 2
643404, 643406, 2
643404, 643400, 2
643404, 643401, 2
643404, 643403, 2
643389, 643390, 1
643389, 643387, 2
643389, 643388, 2
643399, 643402, 2
643399, 643398, 2
643399, 643401, 2
643399, 643400, 1
643401, 643402, 2
643401, 643399, 2
643401, 643404, 2
643401, 643403, 2
643401, 643400, 2
643415, 643416, 2
643415, 643414, 2
643415, 643413, 2
643415, 643412, 2
643395, 643396, 1
643395, 643393, 2
643395, 643394, 2
643395, 643390, 2
643395, 643392, 2
643395, 643391, 2
643414, 643416, 2
643414, 643415, 1
643414, 643413, 2
643414, 643412, 2
643396, 643397, 1
643396, 643402, 2
643396, 643393, 2
643396, 643398, 2
643396, 643400, 2
643396, 643395, 2
643405, 643404, 2
643405, 643406, 1
643391, 643393, 2
643391, 643395, 2
643391, 643394, 2
643391, 643390, 2
643391, 643392, 1
643408, 643410, 2
643408, 643416, 2
643408, 643407, 2
643408, 643412, 2
643408, 643406, 2
643408, 643409, 2
643398, 643397, 2
643398, 643402, 2
643398, 643396, 2
643398, 643399, 2
643398, 643400, 2
643398, 643404, 2
643411, 643413, 2
643411, 643410, 2
643411, 643412, 2
643411, 643409, 2
643407, 643408, 3
643407, 643410, 2
643407, 643406, 2
643407, 643412, 1
643412, 643411, 2
643412, 643413, 3
643412, 643416, 1
643412, 643410, 2
643412, 643414, 2
643412, 643415, 2
643412, 643407, 2
643412, 643408, 2
643412, 643406, 2
643412, 643409, 2
643406, 643405, 2
643406, 643404, 2
643406, 643410, 2
643406, 643408, 2
643406, 643407, 1
643406, 643412, 2
643409, 643411, 2
643409, 643408, 2
643409, 643412, 2
643409, 643410, 1
643393, 643396, 2
643393, 643394, 2
643393, 643388, 2
643393, 643390, 2
643393, 643395, 2
643393, 643392, 2
643393, 643391, 2
643394, 643393, 2
643394, 643391, 2
643394, 643386, 2
643394, 643390, 2
643394, 643395, 2
643394, 643385, 2
643394, 643392, 2
643394, 643387, 2
643413, 643411, 2
643413, 643415, 2
643413, 643414, 1
643413, 643412, 2
643413, 643416, 2
643400, 643402, 2
643400, 643399, 2
643400, 643396, 2
643400, 643398, 2
643400, 643397, 2
643400, 643404, 2
643400, 643401, 1
643390, 643393, 2
643390, 643391, 0
643390, 643388, 2
643390, 643394, 8
643390, 643395, 1
643390, 643392, 2
643390, 643387, 2
643390, 643389, 2
643392, 643393, 1
643392, 643390, 2
643392, 643391, 2
643392, 643394, 2
643392, 643395, 2
643403, 643402, 2
643403, 643404, 2
643403, 643401, 2
