379947, 379944, 2
379947, 379946, 2
379943, 379940, 2
379943, 379944, 3
379943, 379945, 1
379943, 379942, 2
379943, 379941, 2
379942, 379944, 2
379942, 379943, 2
379942, 379941, 2
379946, 379947, 3
379946, 379945, 2
379940, 379939, 2
379940, 379943, 2
379940, 379941, 1
379939, 379940, 1
379939, 379941, 2
379944, 379947, 2
379944, 379943, 2
379944, 379945, 2
379944, 379942, 2
379945, 379943, 2
379945, 379946, 1
379945, 379944, 2
379941, 379939, 2
379941, 379943, 1
379941, 379942, 3
379941, 379940, 2
