451734, 451733, 2
451734, 451735, 1
451734, 451736, 2
451734, 451732, 2
451746, 451738, 2
451746, 451747, 1
451746, 451745, 2
451746, 451737, 2
451746, 451744, 2
451738, 451746, 2
451738, 451739, 2
451738, 451743, 2
451738, 451748, 2
451738, 451737, 2
451738, 451751, 2
451738, 451750, 2
451738, 451736, 2
451738, 451740, 2
451738, 451745, 2
451739, 451736, 2
451739, 451738, 2
451739, 451740, 1
451739, 451737, 2
451749, 451750, 1
451749, 451748, 2
451740, 451741, 1
451740, 451736, 2
451740, 451743, 2
451740, 451737, 2
451740, 451738, 2
451740, 451742, 2
451740, 451739, 2
451751, 451752, 1
451751, 451750, 2
451751, 451738, 2
451730, 451729, 2
451730, 451731, 1
451730, 451728, 2
451743, 451741, 2
451743, 451738, 2
451743, 451737, 2
451743, 451742, 2
451743, 451744, 8
451743, 451745, 1
451743, 451740, 2
451742, 451741, 2
451742, 451743, 2
451742, 451740, 2
451742, 451737, 2
451732, 451733, 1
451732, 451734, 2
451732, 451731, 2
451745, 451743, 2
451745, 451746, 1
451745, 451738, 2
451745, 451744, 2
451733, 451734, 1
451733, 451732, 2
451741, 451742, 8
451741, 451743, 1
451741, 451740, 2
451729, 451730, 1
451729, 451728, 2
451748, 451738, 2
451748, 451747, 2
451748, 451749, 1
451748, 451737, 2
451747, 451746, 2
451747, 451748, 1
451735, 451734, 2
451735, 451736, 1
451736, 451734, 2
451736, 451738, 0
451736, 451737, 3
451736, 451735, 2
451736, 451739, 1
451736, 451740, 2
451744, 451746, 2
451744, 451743, 2
451744, 451745, 2
451744, 451737, 2
451727, 451728, 1
451750, 451749, 2
451750, 451738, 2
451750, 451751, 1
451750, 451737, 2
451750, 451752, 2
451737, 451746, 2
451737, 451739, 2
451737, 451743, 2
451737, 451748, 2
451737, 451752, 2
451737, 451738, 2
451737, 451742, 2
451737, 451736, 2
451737, 451744, 2
451737, 451750, 2
451737, 451740, 2
451752, 451750, 2
451752, 451751, 2
451752, 451737, 2
451731, 451732, 1
451731, 451730, 2
451728, 451729, 1
451728, 451730, 2
451728, 451727, 2
