488681, 488679, 2
488681, 488680, 2
488681, 488682, 1
488679, 488680, 6
488679, 488681, 1
488686, 488682, 2
488686, 488683, 2
488686, 488687, 1
488686, 488685, 2
488683, 488682, 2
488683, 488686, 2
488683, 488684, 2
488683, 488685, 2
488680, 488679, 2
488680, 488682, 2
488680, 488681, 2
488685, 488682, 2
488685, 488686, 1
488685, 488684, 2
488685, 488683, 2
488687, 488686, 2
488682, 488681, 2
488682, 488686, 2
488682, 488683, 3
488682, 488680, 2
488682, 488685, 2
488682, 488684, 1
488684, 488682, 2
488684, 488685, 1
488684, 488683, 2
