522367, 522369, 2
522367, 522364, 2
522367, 522366, 2
522367, 522368, 1
522367, 522361, 2
522360, 522362, 2
522360, 522361, 1
522360, 522359, 2
522366, 522369, 1
522366, 522367, 0
522366, 522364, 2
522366, 522368, 2
522366, 522365, 2
522363, 522362, 2
522363, 522364, 1
522361, 522367, 2
522361, 522359, 2
522361, 522360, 2
522361, 522368, 2
522361, 522362, 2
522359, 522362, 1
522359, 522360, 0
522359, 522361, 2
522371, 522370, 2
522368, 522367, 2
522368, 522366, 2
522368, 522361, 2
522368, 522369, 2
522368, 522365, 2
522368, 522364, 2
522370, 522369, 2
522370, 522371, 1
522362, 522360, 2
522362, 522363, 1
522362, 522361, 2
522362, 522359, 2
522369, 522367, 2
522369, 522366, 2
522369, 522368, 2
522369, 522370, 1
522365, 522364, 2
522365, 522366, 1
522365, 522368, 2
522364, 522367, 2
522364, 522366, 2
522364, 522368, 2
522364, 522363, 2
522364, 522365, 1
