549340, 549341, 8
549340, 549342, 1
549340, 549339, 2
549344, 549343, 2
549344, 549345, 1
549338, 549337, 2
549338, 549339, 1
549342, 549340, 2
549342, 549341, 2
549342, 549343, 1
549339, 549340, 1
549339, 549338, 2
549345, 549344, 2
549345, 549346, 1
549336, 549337, 1
549346, 549345, 2
549341, 549340, 2
549341, 549343, 2
549341, 549342, 2
549343, 549344, 1
549343, 549341, 2
549343, 549342, 2
549337, 549338, 1
549337, 549336, 2
