608057, 608058, 0
608057, 608060, 1
608057, 608059, 2
608058, 608057, 2
608058, 608060, 2
608058, 608059, 1
608061, 608060, 2
608061, 608062, 1
608060, 608057, 2
608060, 608058, 2
608060, 608059, 2
608060, 608061, 1
608059, 608057, 2
608059, 608058, 2
608059, 608060, 2
608062, 608061, 2
