571036, 571038, 2
571036, 571040, 2
571036, 571037, 1
571036, 571035, 2
571042, 571045, 2
571042, 571044, 2
571042, 571040, 2
571042, 571037, 2
571042, 571043, 1
571042, 571041, 2
571038, 571036, 2
571038, 571040, 2
571038, 571037, 2
571038, 571039, 2
571044, 571042, 2
571044, 571045, 1
571044, 571043, 2
571048, 571049, 2
571048, 571046, 2
571048, 571050, 2
571048, 571047, 2
571037, 571036, 2
571037, 571042, 2
571037, 571040, 1
571037, 571038, 3
571039, 571040, 2
571039, 571038, 2
571039, 571041, 2
571043, 571042, 2
571043, 571045, 2
571043, 571044, 1
571046, 571045, 2
571046, 571050, 2
571046, 571047, 1
571046, 571048, 2
571045, 571046, 1
571045, 571042, 2
571045, 571043, 2
571045, 571044, 2
571050, 571046, 2
571050, 571047, 2
571050, 571052, 1
571050, 571049, 2
571050, 571051, 3
571050, 571048, 2
571047, 571046, 2
571047, 571050, 1
571047, 571048, 3
571052, 571049, 2
571052, 571051, 2
571052, 571050, 2
571049, 571051, 2
571049, 571052, 2
571049, 571050, 2
571049, 571048, 2
571051, 571049, 2
571051, 571050, 2
571051, 571052, 2
571040, 571036, 2
571040, 571042, 1
571040, 571038, 2
571040, 571037, 2
571040, 571039, 2
571040, 571041, 3
571035, 571036, 1
571041, 571042, 2
571041, 571040, 2
571041, 571039, 2
