420553, 420552, 2
420553, 420554, 1
420553, 420551, 2
420553, 420555, 2
420552, 420553, 1
420552, 420551, 2
420554, 420553, 2
420554, 420555, 1
420551, 420553, 2
420551, 420552, 1
420555, 420553, 2
420555, 420554, 2
