341434, 341435, 1
341434, 341436, 2
341440, 341441, 1
341440, 341439, 2
341441, 341439, 2
341441, 341440, 2
341441, 341442, 1
341442, 341441, 2
341442, 341439, 2
341436, 341434, 2
341436, 341435, 2
341436, 341437, 1
341435, 341434, 2
341435, 341436, 1
341437, 341436, 2
341437, 341438, 1
341439, 341440, 0
341439, 341438, 2
341439, 341441, 2
341439, 341442, 2
341438, 341437, 2
341438, 341439, 1
