494498, 494495, 2
494498, 494499, 2
494498, 494497, 2
494495, 494498, 2
494495, 494496, 1
494499, 494498, 2
494499, 494497, 2
494496, 494495, 2
494496, 494497, 1
494497, 494498, 3
494497, 494496, 2
494497, 494499, 1
