641835, 641841, 2
641835, 641836, 1
641844, 641840, 2
641844, 641846, 2
641844, 641841, 2
641844, 641843, 2
641844, 641845, 1
641841, 641835, 2
641841, 641844, 2
641841, 641843, 2
641841, 641837, 2
641841, 641838, 2
641841, 641842, 2
641841, 641839, 2
641841, 641840, 2
641836, 641835, 2
641836, 641837, 1
641842, 641838, 2
641842, 641841, 2
641842, 641837, 2
641842, 641843, 1
641842, 641840, 2
641839, 641838, 2
641839, 641841, 2
641839, 641837, 2
641839, 641840, 1
641840, 641844, 2
641840, 641841, 2
641840, 641842, 2
641840, 641843, 2
641840, 641838, 2
641840, 641837, 2
641840, 641839, 2
641840, 641846, 2
641843, 641844, 1
641843, 641841, 2
641843, 641842, 2
641843, 641840, 2
641838, 641837, 2
641838, 641841, 2
641838, 641842, 2
641838, 641839, 1
641838, 641840, 2
641846, 641844, 2
641846, 641845, 2
641846, 641840, 2
641837, 641841, 8
641837, 641836, 2
641837, 641838, 0
641837, 641842, 1
641837, 641839, 2
641837, 641840, 2
641845, 641844, 2
641845, 641846, 1
