490341, 490340, 2
490341, 490342, 1
490341, 490338, 2
490341, 490336, 2
490341, 490346, 2
490341, 490339, 2
490333, 490337, 2
490333, 490334, 1
490333, 490338, 2
490347, 490346, 2
490338, 490340, 2
490338, 490341, 1
490338, 490333, 2
490338, 490339, 0
490338, 490336, 2
490338, 490337, 2
490344, 490345, 1
490344, 490343, 2
490346, 490345, 2
490346, 490341, 2
490346, 490347, 1
490346, 490342, 2
490339, 490340, 1
490339, 490337, 2
490339, 490336, 2
490339, 490341, 2
490339, 490338, 2
490345, 490344, 2
490345, 490346, 2
490340, 490337, 2
490340, 490339, 2
490340, 490336, 2
490340, 490341, 2
490340, 490338, 2
490335, 490336, 1
490335, 490334, 2
490342, 490343, 0
490342, 490346, 1
490342, 490341, 2
490343, 490344, 1
490343, 490342, 2
490336, 490340, 2
490336, 490335, 2
490336, 490341, 2
490336, 490338, 2
490336, 490337, 1
490336, 490339, 2
490334, 490335, 1
490334, 490333, 2
490337, 490340, 2
490337, 490339, 2
490337, 490336, 2
490337, 490333, 2
490337, 490338, 1
