340517, 340516, 2
340517, 340518, 2
340519, 340521, 1
340519, 340518, 2
340519, 340520, 8
340516, 340517, 3
340516, 340518, 1
340518, 340516, 2
340518, 340517, 2
340518, 340520, 2
340518, 340519, 1
340522, 340521, 2
340522, 340520, 2
340521, 340519, 2
340521, 340522, 1
340521, 340520, 2
340520, 340519, 2
340520, 340521, 2
340520, 340518, 2
340520, 340522, 2
