455731, 455729, 2
455731, 455733, 2
455731, 455732, 1
455731, 455730, 2
455729, 455731, 1
455729, 455730, 3
455733, 455731, 2
455733, 455732, 2
455730, 455731, 2
455730, 455729, 2
455732, 455731, 2
455732, 455733, 1
