625891, 625892, 6
625891, 625893, 1
625893, 625891, 2
625893, 625892, 2
625893, 625895, 2
625893, 625894, 1
625894, 625895, 1
625894, 625893, 2
625894, 625892, 2
625897, 625896, 2
625897, 625898, 1
625895, 625896, 1
625895, 625893, 2
625895, 625894, 2
625895, 625892, 2
625892, 625891, 2
625892, 625893, 2
625892, 625895, 2
625892, 625894, 2
625896, 625895, 2
625896, 625897, 1
625896, 625898, 2
625898, 625896, 2
625898, 625897, 2
