593297, 593298, 8
593297, 593299, 1
593297, 593296, 2
593293, 593294, 1
593295, 593294, 2
593295, 593296, 1
593298, 593297, 2
593298, 593299, 2
593300, 593299, 2
593299, 593297, 2
593299, 593300, 1
593299, 593296, 2
593299, 593298, 2
593294, 593295, 1
593294, 593293, 2
593294, 593296, 2
593296, 593297, 1
593296, 593299, 2
593296, 593294, 2
593296, 593295, 2
