607687, 607686, 2
607687, 607688, 1
607686, 607692, 2
607686, 607687, 1
607686, 607688, 2
607701, 607700, 2
607701, 607702, 1
607701, 607704, 2
607695, 607691, 2
607695, 607693, 2
607695, 607696, 1
607695, 607694, 2
607712, 607709, 2
607712, 607708, 2
607712, 607713, 1
607712, 607714, 2
607712, 607711, 2
607690, 607691, 1
607690, 607689, 2
607690, 607688, 2
607714, 607709, 2
607714, 607717, 2
607714, 607712, 2
607714, 607713, 2
607714, 607715, 1
607700, 607701, 1
607700, 607699, 2
607698, 607699, 1
607698, 607697, 2
607693, 607692, 2
607693, 607691, 2
607693, 607694, 1
607693, 607695, 2
607691, 607695, 2
607691, 607693, 1
607691, 607689, 2
607691, 607690, 2
607691, 607692, 8
607697, 607698, 1
607697, 607696, 2
607694, 607695, 1
607694, 607693, 2
607718, 607717, 2
607718, 607719, 1
607718, 607716, 2
607716, 607718, 2
607716, 607717, 2
607716, 607708, 2
607716, 607715, 2
607703, 607708, 2
607703, 607705, 2
607703, 607702, 2
607703, 607704, 2
607709, 607706, 2
607709, 607710, 2
607709, 607707, 2
607709, 607712, 2
607709, 607708, 2
607709, 607714, 2
607706, 607709, 2
607706, 607707, 1
607706, 607705, 2
607706, 607702, 2
607706, 607710, 2
607713, 607712, 2
607713, 607714, 1
607715, 607717, 1
607715, 607719, 2
607715, 607716, 0
607715, 607714, 2
607688, 607692, 2
607688, 607689, 0
607688, 607690, 1
607688, 607687, 2
607688, 607686, 2
607717, 607718, 1
607717, 607716, 2
607717, 607714, 2
607717, 607715, 2
607719, 607718, 2
607719, 607720, 1
607719, 607715, 2
607708, 607709, 2
607708, 607716, 2
607708, 607710, 2
607708, 607707, 2
607708, 607712, 2
607708, 607703, 2
607708, 607711, 2
607702, 607701, 2
607702, 607706, 2
607702, 607703, 0
607702, 607704, 1
607720, 607719, 2
607710, 607709, 2
607710, 607707, 2
607710, 607706, 2
607710, 607708, 2
607710, 607711, 1
607696, 607695, 2
607696, 607697, 1
607689, 607691, 2
607689, 607690, 2
607689, 607688, 2
607704, 607701, 2
607704, 607705, 1
607704, 607703, 2
607704, 607702, 2
607707, 607709, 8
607707, 607710, 1
607707, 607706, 2
607707, 607708, 0
607692, 607693, 2
607692, 607691, 2
607692, 607686, 2
607692, 607688, 2
607699, 607700, 1
607699, 607698, 2
607705, 607706, 1
607705, 607703, 2
607705, 607704, 2
607711, 607710, 2
607711, 607712, 1
607711, 607708, 2
