335675, 335676, 0
335675, 335674, 5
335675, 335673, 2
335675, 335678, 2
335675, 335677, 2
335675, 335680, 1
335675, 335681, 2
335676, 335675, 2
335676, 335677, 1
335676, 335673, 2
335690, 335689, 2
335674, 335675, 2
335674, 335680, 2
335674, 335681, 2
335674, 335673, 2
335673, 335675, 1
335673, 335676, 2
335673, 335674, 2
335679, 335683, 2
335679, 335684, 2
335679, 335685, 2
335679, 335678, 2
335679, 335682, 2
335679, 335680, 2
335679, 335681, 2
335686, 335685, 2
335686, 335687, 1
335678, 335675, 2
335678, 335683, 2
335678, 335685, 2
335678, 335679, 0
335678, 335684, 2
335678, 335682, 2
335678, 335677, 2
335678, 335680, 2
335678, 335681, 2
335682, 335678, 2
335682, 335683, 1
335682, 335681, 2
335682, 335679, 2
335677, 335675, 2
335677, 335676, 2
335677, 335680, 2
335677, 335678, 1
335683, 335678, 2
335683, 335684, 1
335683, 335682, 2
335683, 335679, 2
335687, 335688, 1
335687, 335686, 2
335685, 335678, 2
335685, 335684, 2
335685, 335679, 2
335685, 335686, 1
335684, 335678, 2
335684, 335683, 2
335684, 335685, 1
335684, 335679, 2
335688, 335689, 1
335688, 335687, 2
335680, 335675, 2
335680, 335674, 2
335680, 335679, 2
335680, 335678, 2
335680, 335677, 2
335680, 335681, 1
335681, 335675, 2
335681, 335674, 2
335681, 335679, 2
335681, 335678, 2
335681, 335682, 1
335681, 335680, 2
335689, 335690, 1
335689, 335688, 2
