495937, 495934, 2
495937, 495936, 2
495937, 495938, 2
495937, 495939, 2
495931, 495933, 2
495931, 495932, 1
495936, 495937, 3
495936, 495938, 1
495936, 495935, 2
495936, 495934, 2
495936, 495933, 2
495936, 495939, 2
495935, 495934, 2
495935, 495933, 2
495935, 495936, 1
495934, 495937, 2
495934, 495935, 2
495934, 495933, 2
495934, 495936, 2
495933, 495934, 3
495933, 495935, 1
495933, 495931, 2
495933, 495936, 2
495933, 495932, 2
495939, 495937, 2
495939, 495936, 2
495939, 495938, 2
495938, 495937, 2
495938, 495936, 2
495938, 495939, 1
495932, 495931, 2
495932, 495933, 1
