332919, 332923, 2
332919, 332921, 1
332919, 332922, 2
332919, 332920, 3
332928, 332923, 2
332928, 332925, 2
332928, 332927, 2
332921, 332919, 2
332921, 332923, 2
332921, 332922, 1
332921, 332920, 2
332924, 332925, 1
332924, 332927, 2
332924, 332920, 2
332924, 332926, 2
332924, 332923, 2
332924, 332922, 2
332927, 332926, 2
332927, 332928, 1
332927, 332925, 2
332927, 332924, 2
332927, 332923, 2
332920, 332919, 2
332920, 332921, 2
332920, 332924, 2
332920, 332922, 2
332926, 332925, 2
332926, 332924, 2
332926, 332927, 2
332923, 332919, 2
332923, 332928, 2
332923, 332921, 2
332923, 332924, 2
332923, 332927, 2
332923, 332922, 2
332922, 332919, 2
332922, 332923, 6
332922, 332921, 2
332922, 332924, 1
332922, 332920, 2
332925, 332926, 8
332925, 332928, 2
332925, 332924, 2
332925, 332927, 1
