658276, 658277, 1
658279, 658278, 2
658279, 658281, 2
658279, 658280, 1
658281, 658279, 2
658281, 658280, 2
658278, 658277, 2
658278, 658279, 1
658277, 658278, 1
658277, 658276, 2
658280, 658281, 1
658280, 658279, 2
