378813, 378812, 2
378813, 378814, 2
378813, 378815, 2
378813, 378811, 2
378815, 378812, 2
378815, 378813, 2
378815, 378814, 2
378815, 378817, 2
378815, 378816, 2
378816, 378812, 2
378816, 378814, 2
378816, 378817, 1
378816, 378815, 2
378811, 378812, 1
378811, 378813, 2
378812, 378813, 8
378812, 378814, 1
378812, 378816, 2
378812, 378815, 2
378812, 378811, 2
378814, 378812, 2
378814, 378813, 2
378814, 378815, 8
378814, 378817, 2
378814, 378816, 1
378817, 378814, 2
378817, 378815, 2
378817, 378816, 2
