656536, 656535, 2
656532, 656531, 2
656532, 656534, 2
656532, 656533, 1
656527, 656528, 1
656527, 656525, 2
656527, 656526, 2
656533, 656532, 2
656533, 656534, 1
656525, 656527, 2
656525, 656526, 1
656531, 656532, 1
656531, 656530, 2
656528, 656529, 1
656528, 656527, 2
656530, 656531, 1
656530, 656529, 2
656526, 656525, 2
656526, 656527, 1
656529, 656528, 2
656529, 656530, 1
656535, 656536, 1
656535, 656534, 2
656534, 656532, 2
656534, 656535, 1
656534, 656533, 2
