404093, 404094, 1
404093, 404092, 2
404086, 404089, 2
404086, 404085, 2
404086, 404087, 2
404086, 404088, 1
404087, 404086, 2
404087, 404088, 2
404087, 404090, 2
404087, 404089, 2
404087, 404085, 4
404087, 404091, 1
404087, 404092, 2
404088, 404086, 2
404088, 404087, 2
404088, 404090, 1
404088, 404089, 3
404088, 404085, 2
404088, 404091, 2
404088, 404092, 2
404089, 404086, 2
404089, 404087, 2
404089, 404090, 2
404089, 404088, 2
404089, 404085, 2
404089, 404091, 2
404085, 404089, 2
404085, 404086, 1
404085, 404088, 2
404085, 404087, 2
404091, 404089, 2
404091, 404088, 2
404091, 404090, 2
404091, 404087, 2
404091, 404092, 1
404094, 404093, 2
404094, 404096, 2
404094, 404090, 2
404094, 404095, 1
404092, 404093, 1
404092, 404091, 2
404092, 404090, 2
404092, 404087, 2
404092, 404088, 2
404096, 404090, 2
404096, 404094, 2
404096, 404095, 2
404090, 404096, 2
404090, 404088, 2
404090, 404087, 2
404090, 404089, 2
404090, 404091, 2
404090, 404094, 2
404090, 404092, 2
404095, 404096, 1
404095, 404094, 2
