405958, 405959, 3
405958, 405960, 1
405960, 405961, 1
405960, 405959, 2
405960, 405958, 2
405962, 405961, 2
405962, 405964, 2
405962, 405963, 1
405961, 405960, 2
405961, 405962, 1
405959, 405958, 2
405959, 405960, 2
405964, 405962, 2
405964, 405963, 2
405963, 405964, 1
405963, 405962, 2
