607192, 607193, 1
607192, 607191, 2
607192, 607194, 2
607192, 607190, 2
607192, 607195, 2
607186, 607187, 2
607186, 607188, 2
607186, 607184, 2
607186, 607185, 2
607196, 607194, 2
607196, 607198, 2
607196, 607199, 2
607196, 607197, 1
607196, 607200, 2
607196, 607195, 2
607199, 607197, 2
607199, 607196, 2
607199, 607198, 2
607199, 607200, 2
607197, 607196, 2
607197, 607198, 6
607197, 607199, 3
607197, 607200, 1
607194, 607193, 2
607194, 607192, 2
607194, 607190, 2
607194, 607196, 2
607194, 607191, 2
607194, 607195, 2
607184, 607183, 2
607184, 607187, 2
607184, 607186, 2
607184, 607182, 2
607184, 607185, 1
607182, 607183, 0
607182, 607184, 1
607189, 607188, 2
607189, 607190, 1
607193, 607192, 2
607193, 607191, 2
607193, 607194, 1
607193, 607190, 2
607193, 607195, 2
607183, 607184, 2
607183, 607182, 2
607190, 607192, 3
607190, 607193, 2
607190, 607195, 1
607190, 607194, 2
607190, 607191, 0
607190, 607189, 2
607195, 607192, 2
607195, 607193, 2
607195, 607194, 2
607195, 607190, 2
607195, 607196, 1
607195, 607191, 2
607187, 607186, 2
607187, 607184, 2
607187, 607188, 1
607187, 607185, 2
607198, 607197, 2
607198, 607196, 2
607198, 607199, 2
607198, 607200, 2
607188, 607187, 2
607188, 607186, 2
607188, 607189, 1
607200, 607197, 2
607200, 607196, 2
607200, 607198, 2
607200, 607199, 2
607191, 607192, 2
607191, 607193, 2
607191, 607194, 2
607191, 607190, 2
607191, 607195, 2
607185, 607187, 1
607185, 607186, 8
607185, 607184, 2
