642193, 642195, 2
642193, 642192, 2
642193, 642194, 2
642192, 642193, 3
642192, 642191, 2
642192, 642194, 1
642202, 642201, 2
642202, 642199, 2
642202, 642203, 1
642202, 642198, 2
642195, 642193, 2
642195, 642196, 2
642195, 642194, 2
642204, 642203, 2
642198, 642202, 1
642198, 642201, 2
642198, 642197, 2
642198, 642199, 3
642198, 642196, 2
642198, 642200, 2
642196, 642194, 2
642196, 642195, 2
642196, 642197, 1
642196, 642199, 2
642196, 642198, 2
642200, 642201, 1
642200, 642199, 2
642200, 642198, 2
642203, 642201, 2
642203, 642204, 0
642203, 642202, 2
642191, 642192, 1
642194, 642195, 3
642194, 642193, 2
642194, 642196, 1
642194, 642192, 2
642201, 642198, 2
642201, 642200, 2
642201, 642203, 2
642201, 642199, 2
642201, 642202, 2
642197, 642196, 2
642197, 642198, 1
642199, 642201, 2
642199, 642202, 2
642199, 642196, 2
642199, 642200, 1
642199, 642198, 2
