332980, 332979, 2
332980, 332981, 2
332982, 332983, 1
332982, 332981, 2
332984, 332983, 2
332984, 332985, 1
332981, 332980, 2
332981, 332982, 1
332981, 332979, 2
332988, 332987, 2
332986, 332985, 2
332986, 332987, 1
332979, 332980, 3
332979, 332981, 1
332983, 332982, 2
332983, 332984, 1
332985, 332986, 1
332985, 332984, 2
332987, 332986, 2
332987, 332988, 1
