607798, 607800, 2
607798, 607797, 2
607798, 607799, 2
607800, 607798, 2
607800, 607797, 2
607800, 607799, 2
607797, 607798, 6
607797, 607800, 1
607797, 607799, 3
607799, 607798, 2
607799, 607800, 2
607799, 607797, 2
