536416, 536418, 2
536416, 536415, 2
536416, 536417, 2
536416, 536414, 2
536418, 536416, 2
536418, 536415, 2
536418, 536417, 2
536415, 536416, 8
536415, 536418, 2
536415, 536417, 1
536415, 536414, 2
536417, 536416, 2
536417, 536418, 1
536417, 536415, 2
536417, 536414, 2
536414, 536416, 2
536414, 536415, 1
536414, 536417, 2
