495907, 495905, 2
495907, 495909, 2
495907, 495908, 1
495907, 495906, 2
495907, 495904, 2
495905, 495907, 2
495905, 495906, 2
495905, 495904, 2
495909, 495910, 1
495909, 495908, 2
495909, 495907, 2
495910, 495911, 1
495910, 495909, 2
495904, 495905, 3
495904, 495907, 1
495904, 495906, 0
495911, 495910, 2
495911, 495912, 1
495912, 495911, 2
495906, 495905, 2
495906, 495907, 2
495906, 495904, 2
495908, 495907, 2
495908, 495909, 1
