377359, 377361, 1
377359, 377360, 0
377359, 377358, 2
377359, 377357, 2
377374, 377372, 2
377374, 377376, 2
377374, 377373, 2
377374, 377375, 2
377387, 377388, 2
377387, 377386, 2
377387, 377385, 2
377364, 377362, 2
377364, 377365, 1
377364, 377363, 2
377393, 377394, 2
377393, 377392, 2
377362, 377361, 2
377362, 377365, 2
377362, 377364, 1
377362, 377363, 3
377380, 377379, 2
377380, 377381, 1
377380, 377378, 2
377361, 377359, 2
377361, 377360, 2
377361, 377363, 2
377361, 377362, 1
377371, 377372, 1
377371, 377370, 2
377369, 377370, 2
377369, 377368, 2
377369, 377367, 2
377382, 377381, 2
377382, 377384, 1
377382, 377386, 2
377382, 377388, 2
377382, 377383, 0
377382, 377385, 2
377377, 377378, 1
377377, 377376, 2
377368, 377370, 1
377368, 377367, 2
377368, 377369, 6
377386, 377382, 2
377386, 377384, 2
377386, 377387, 0
377386, 377388, 1
377386, 377383, 2
377386, 377385, 2
377376, 377374, 2
377376, 377377, 1
377376, 377373, 2
377376, 377378, 2
377376, 377375, 2
377360, 377359, 2
377360, 377361, 2
377358, 377359, 1
377358, 377357, 2
377383, 377382, 2
377383, 377384, 2
377383, 377386, 2
377383, 377385, 2
377390, 377388, 2
377390, 377391, 2
377390, 377389, 2
377394, 377392, 2
377394, 377393, 2
377392, 377394, 1
377392, 377391, 2
377392, 377389, 2
377392, 377393, 0
377357, 377359, 2
377357, 377358, 1
377365, 377362, 2
377365, 377364, 2
377365, 377367, 1
377365, 377366, 0
377372, 377374, 2
377372, 377370, 2
377372, 377373, 1
377372, 377367, 2
377372, 377371, 2
377370, 377372, 2
377370, 377368, 2
377370, 377367, 2
377370, 377369, 2
377370, 377371, 1
377375, 377374, 2
377375, 377373, 2
377375, 377376, 1
377366, 377367, 2
377366, 377365, 2
377381, 377380, 2
377381, 377382, 1
377384, 377382, 2
377384, 377383, 2
377384, 377386, 1
377384, 377385, 6
377391, 377390, 2
377391, 377392, 1
377391, 377389, 2
377378, 377379, 1
377378, 377380, 2
377378, 377377, 2
377378, 377376, 2
377389, 377390, 3
377389, 377388, 2
377389, 377391, 1
377389, 377392, 2
377373, 377372, 2
377373, 377374, 8
377373, 377376, 2
377373, 377375, 1
377388, 377382, 2
377388, 377390, 2
377388, 377387, 2
377388, 377389, 1
377388, 377386, 2
377379, 377380, 1
377379, 377378, 2
377367, 377368, 1
377367, 377369, 2
377367, 377365, 2
377367, 377372, 2
377367, 377370, 2
377367, 377366, 2
377385, 377382, 2
377385, 377384, 2
377385, 377387, 2
377385, 377383, 2
377385, 377386, 2
377363, 377362, 2
377363, 377364, 2
377363, 377361, 2
