378218, 378220, 2
378218, 378219, 2
378218, 378221, 2
378218, 378217, 2
378219, 378218, 2
378219, 378220, 1
378219, 378217, 2
378220, 378218, 2
378220, 378219, 2
378220, 378221, 1
378220, 378217, 2
378221, 378218, 2
378221, 378220, 2
378217, 378218, 3
378217, 378219, 1
378217, 378220, 2
