378439, 378442, 2
378439, 378441, 2
378439, 378440, 1
378439, 378438, 2
378443, 378442, 2
378440, 378439, 2
378440, 378441, 8
378440, 378442, 1
378442, 378443, 1
378442, 378439, 2
378442, 378441, 2
378442, 378440, 2
378441, 378439, 2
378441, 378440, 2
378441, 378442, 2
378438, 378439, 1
