404298, 404297, 2
404298, 404299, 1
404291, 404290, 2
404291, 404292, 1
404290, 404288, 2
404290, 404291, 1
404290, 404289, 2
404292, 404295, 2
404292, 404293, 1
404292, 404291, 2
404292, 404294, 2
404293, 404295, 2
404293, 404294, 1
404293, 404292, 2
404295, 404294, 2
404295, 404293, 2
404295, 404296, 2
404295, 404292, 2
404289, 404288, 2
404289, 404290, 2
404288, 404289, 3
404288, 404290, 1
404294, 404296, 1
404294, 404293, 2
404294, 404295, 3
404294, 404292, 2
404297, 404298, 1
404297, 404296, 2
404299, 404300, 1
404299, 404298, 2
404296, 404297, 1
404296, 404294, 2
404296, 404295, 2
404300, 404299, 2
