449785, 449781, 2
449785, 449786, 1
449785, 449784, 2
449779, 449780, 1
449779, 449778, 2
449779, 449781, 2
449780, 449779, 2
449780, 449781, 1
449788, 449787, 2
449783, 449784, 1
449783, 449782, 2
449786, 449787, 1
449786, 449785, 2
449781, 449780, 2
449781, 449785, 2
449781, 449779, 2
449781, 449782, 1
449782, 449783, 3
449782, 449781, 2
449777, 449776, 2
449777, 449778, 1
449787, 449788, 1
449787, 449786, 2
449776, 449777, 1
449778, 449777, 2
449778, 449779, 1
449784, 449785, 2
449784, 449783, 2
