456913, 456912, 2
456913, 456914, 1
456914, 456913, 2
456914, 456912, 2
456914, 456915, 1
456916, 456917, 1
456916, 456915, 2
456912, 456913, 1
456912, 456914, 2
456912, 456915, 2
456915, 456912, 2
456915, 456914, 2
456915, 456916, 1
456917, 456918, 1
456917, 456916, 2
456918, 456917, 2
