489071, 489070, 2
489066, 489067, 1
489066, 489065, 2
489066, 489064, 2
489064, 489063, 2
489064, 489066, 1
489064, 489065, 3
489069, 489068, 2
489069, 489070, 1
489063, 489062, 2
489063, 489064, 1
489070, 489069, 2
489070, 489071, 1
489067, 489066, 2
489067, 489068, 1
489068, 489069, 0
489068, 489067, 2
489062, 489063, 1
489065, 489066, 2
489065, 489064, 2
