449637, 449639, 2
449637, 449638, 1
449637, 449640, 2
449637, 449643, 2
449637, 449636, 2
449646, 449643, 2
449646, 449644, 2
449646, 449645, 2
449640, 449637, 2
449640, 449643, 2
449640, 449639, 2
449640, 449638, 2
449640, 449642, 2
449640, 449641, 1
449645, 449646, 1
449645, 449644, 2
449645, 449643, 2
449639, 449637, 2
449639, 449640, 1
449639, 449643, 2
449639, 449638, 2
449643, 449639, 2
449643, 449640, 2
449643, 449645, 2
449643, 449637, 2
449643, 449646, 2
449643, 449636, 2
449643, 449642, 2
449643, 449641, 2
449643, 449644, 2
449638, 449637, 2
449638, 449640, 2
449638, 449639, 1
449642, 449640, 2
449642, 449643, 6
449642, 449641, 2
449642, 449644, 1
449636, 449637, 1
449636, 449643, 2
449641, 449643, 2
449641, 449640, 2
449641, 449642, 1
449644, 449646, 2
449644, 449642, 2
449644, 449645, 1
449644, 449643, 2
