535952, 535953, 2
535952, 535950, 2
535952, 535951, 2
535952, 535954, 2
535937, 535936, 2
535937, 535938, 1
535937, 535935, 2
535937, 535940, 2
535958, 535957, 2
535958, 535960, 2
535958, 535956, 2
535958, 535959, 1
535953, 535952, 2
535953, 535954, 1
535953, 535950, 2
535953, 535951, 2
535951, 535952, 3
535951, 535953, 1
535951, 535950, 2
535933, 535934, 0
535933, 535935, 1
535942, 535943, 1
535942, 535941, 2
535942, 535940, 2
535938, 535936, 2
535938, 535937, 2
535938, 535939, 1
535938, 535940, 2
535960, 535956, 2
535960, 535958, 2
535960, 535959, 2
535960, 535961, 3
535960, 535955, 2
535960, 535962, 1
535956, 535957, 3
535956, 535958, 2
535956, 535959, 2
535956, 535960, 1
535956, 535955, 2
535956, 535962, 2
535950, 535952, 2
535950, 535953, 2
535950, 535949, 2
535950, 535948, 2
535950, 535951, 1
535945, 535943, 2
535945, 535946, 1
535945, 535944, 2
535940, 535942, 2
535940, 535937, 2
535940, 535938, 2
535940, 535935, 2
535940, 535936, 2
535940, 535939, 2
535940, 535941, 1
535936, 535937, 3
535936, 535940, 1
535936, 535938, 2
535936, 535939, 2
535936, 535935, 2
535939, 535936, 2
535939, 535938, 2
535939, 535940, 2
535939, 535935, 2
535963, 535964, 1
535963, 535962, 2
535948, 535946, 2
535948, 535949, 1
535948, 535943, 2
535948, 535950, 2
535948, 535944, 2
535948, 535947, 2
535935, 535936, 1
535935, 535937, 2
535935, 535934, 2
535935, 535940, 2
535935, 535939, 2
535935, 535933, 2
535959, 535960, 2
535959, 535961, 2
535959, 535956, 2
535959, 535958, 2
535943, 535942, 2
535943, 535941, 2
535943, 535948, 2
535943, 535944, 1
535943, 535945, 2
535943, 535947, 2
535955, 535960, 2
535955, 535954, 2
535955, 535956, 1
535955, 535957, 2
535964, 535961, 2
535964, 535963, 2
535964, 535962, 2
535949, 535950, 1
535949, 535948, 2
535946, 535944, 2
535946, 535948, 2
535946, 535945, 2
535946, 535947, 1
535941, 535943, 2
535941, 535942, 1
535941, 535940, 2
535934, 535935, 2
535934, 535933, 2
535957, 535955, 2
535957, 535956, 2
535957, 535958, 1
535954, 535952, 2
535954, 535953, 2
535954, 535955, 1
535962, 535960, 2
535962, 535961, 2
535962, 535963, 0
535962, 535956, 2
535962, 535964, 2
535944, 535943, 2
535944, 535946, 2
535944, 535948, 1
535944, 535945, 3
535944, 535947, 2
535961, 535960, 2
535961, 535962, 2
535961, 535964, 2
535961, 535959, 2
535947, 535943, 2
535947, 535946, 2
535947, 535948, 2
535947, 535944, 2
