495455, 495456, 1
495457, 495456, 2
495457, 495458, 6
495457, 495459, 1
495456, 495455, 2
495456, 495457, 1
495456, 495458, 2
495458, 495457, 2
495458, 495456, 2
495458, 495460, 2
495458, 495461, 2
495458, 495462, 2
495458, 495459, 2
495460, 495458, 2
495460, 495461, 1
495460, 495462, 2
495460, 495459, 2
495461, 495458, 2
495461, 495460, 2
495461, 495462, 1
495461, 495459, 2
495462, 495458, 2
495462, 495460, 2
495462, 495461, 2
495462, 495459, 2
495459, 495457, 2
495459, 495458, 2
495459, 495460, 1
495459, 495461, 2
495459, 495462, 2
