554127, 554125, 2
554127, 554126, 2
554127, 554128, 1
554126, 554125, 2
554126, 554127, 2
554130, 554131, 1
554130, 554129, 2
554125, 554127, 1
554125, 554126, 3
554129, 554130, 1
554129, 554131, 2
554129, 554128, 2
554131, 554130, 2
554131, 554129, 2
554128, 554127, 2
554128, 554129, 1
