522982, 522983, 1
522982, 522984, 2
522982, 522985, 2
522983, 522982, 2
522983, 522984, 1
522983, 522985, 2
522984, 522982, 2
522984, 522983, 2
522984, 522985, 8
522984, 522986, 1
522985, 522983, 2
522985, 522986, 2
522985, 522984, 2
522985, 522982, 2
522986, 522984, 2
522986, 522985, 2
