495646, 495643, 2
495646, 495645, 2
495640, 495639, 2
495640, 495641, 1
495645, 495643, 2
495645, 495646, 3
495645, 495644, 2
495643, 495646, 2
495643, 495641, 2
495643, 495642, 2
495643, 495645, 2
495643, 495644, 1
495642, 495643, 1
495642, 495641, 2
495639, 495640, 1
495641, 495643, 2
495641, 495642, 1
495641, 495640, 2
495644, 495643, 2
495644, 495645, 1
