591236, 591238, 2
591236, 591235, 2
591236, 591237, 1
591243, 591245, 2
591243, 591244, 1
591243, 591241, 2
591243, 591242, 2
591242, 591241, 2
591242, 591243, 1
591234, 591235, 1
591234, 591233, 2
591241, 591239, 2
591241, 591243, 2
591241, 591240, 2
591241, 591242, 1
591238, 591237, 2
591238, 591236, 2
591238, 591239, 1
591249, 591248, 2
591249, 591247, 2
591239, 591241, 2
591239, 591238, 2
591239, 591240, 1
591245, 591243, 2
591245, 591244, 2
591245, 591246, 1
591245, 591247, 2
591231, 591232, 1
591231, 591230, 2
591231, 591233, 2
591247, 591248, 1
591247, 591245, 2
591247, 591246, 2
591247, 591249, 2
591233, 591234, 1
591233, 591231, 2
591233, 591235, 2
591233, 591232, 2
591248, 591249, 1
591248, 591247, 2
591230, 591231, 1
591244, 591245, 1
591244, 591243, 2
591237, 591235, 2
591237, 591236, 2
591237, 591238, 1
591246, 591245, 2
591246, 591247, 1
591232, 591231, 2
591232, 591233, 1
591235, 591234, 2
591235, 591236, 1
591235, 591233, 2
591235, 591237, 2
591240, 591241, 1
591240, 591239, 2
