376073, 376062, 2
376073, 376074, 2
376073, 376072, 2
376069, 376070, 1
376069, 376068, 2
376069, 376062, 2
376069, 376067, 2
376074, 376075, 1
376074, 376072, 2
376074, 376062, 2
376074, 376073, 2
376062, 376070, 2
376062, 376069, 2
376062, 376077, 2
376062, 376074, 2
376062, 376072, 2
376062, 376064, 2
376062, 376061, 2
376062, 376065, 2
376062, 376067, 2
376062, 376059, 2
376062, 376073, 2
376075, 376076, 1
376075, 376074, 2
376064, 376063, 2
376064, 376066, 2
376064, 376061, 2
376064, 376065, 1
376064, 376062, 2
376063, 376064, 2
376063, 376061, 2
376066, 376068, 2
376066, 376064, 2
376066, 376067, 2
376066, 376065, 2
376072, 376062, 2
376072, 376071, 2
376072, 376074, 1
376072, 376073, 0
376065, 376064, 2
376065, 376068, 2
376065, 376066, 8
376065, 376062, 2
376065, 376067, 1
376071, 376070, 2
376071, 376072, 1
376070, 376068, 2
376070, 376069, 2
376070, 376062, 2
376070, 376067, 2
376070, 376071, 1
376077, 376076, 2
376077, 376062, 2
376077, 376078, 2
376059, 376062, 2
376059, 376060, 1
376060, 376061, 1
376060, 376059, 2
376068, 376070, 2
376068, 376069, 2
376068, 376066, 2
376068, 376067, 2
376068, 376065, 2
376076, 376075, 2
376076, 376077, 0
376076, 376078, 1
376078, 376076, 2
376078, 376077, 2
376061, 376064, 1
376061, 376063, 3
376061, 376062, 6
376061, 376060, 2
376067, 376070, 2
376067, 376069, 1
376067, 376062, 2
376067, 376068, 8
376067, 376066, 2
376067, 376065, 2
