550254, 550253, 2
550254, 550255, 1
550254, 550256, 2
550262, 550264, 0
550262, 550261, 2
550262, 550259, 2
550262, 550260, 2
550262, 550263, 3
550258, 550259, 1
550258, 550257, 2
550258, 550256, 2
550256, 550261, 2
550256, 550254, 2
550256, 550258, 2
550256, 550253, 2
550256, 550255, 2
550256, 550257, 2
550256, 550259, 2
550253, 550251, 2
550253, 550254, 1
550253, 550252, 2
550253, 550255, 2
550253, 550256, 2
550255, 550253, 2
550255, 550254, 2
550255, 550257, 1
550255, 550256, 8
550261, 550262, 2
550261, 550257, 2
550261, 550256, 2
550261, 550259, 2
550261, 550260, 2
550261, 550263, 2
550259, 550261, 3
550259, 550262, 1
550259, 550257, 2
550259, 550258, 2
550259, 550256, 2
550259, 550260, 0
550257, 550261, 2
550257, 550255, 2
550257, 550259, 2
550257, 550258, 1
550257, 550256, 2
550264, 550262, 2
550264, 550260, 2
550264, 550263, 2
550251, 550253, 2
550251, 550252, 1
550251, 550250, 2
550263, 550261, 2
550263, 550262, 2
550263, 550264, 2
550252, 550253, 1
550252, 550251, 2
550260, 550261, 2
550260, 550262, 2
550260, 550259, 2
550260, 550264, 2
550250, 550251, 1
