378170, 378169, 2
378170, 378168, 2
378170, 378167, 2
378167, 378170, 2
378167, 378169, 2
378167, 378168, 1
378168, 378170, 2
378168, 378167, 2
378168, 378169, 1
378169, 378170, 1
378169, 378167, 2
378169, 378168, 2
