406187, 406188, 2
406187, 406186, 2
406185, 406189, 2
406185, 406188, 2
406185, 406191, 2
406185, 406186, 3
406189, 406185, 2
406189, 406188, 2
406189, 406191, 2
406189, 406190, 1
406191, 406185, 2
406191, 406189, 2
406191, 406192, 2
406191, 406190, 2
406186, 406187, 3
406186, 406185, 2
406186, 406188, 1
406190, 406189, 2
406190, 406191, 0
406190, 406192, 2
406188, 406187, 2
406188, 406185, 2
406188, 406189, 1
406188, 406186, 2
406192, 406190, 2
406192, 406191, 2
