623909, 623911, 2
623909, 623910, 1
623913, 623918, 2
623913, 623916, 2
623913, 623911, 2
623913, 623910, 2
623913, 623914, 3
623913, 623912, 2
623913, 623915, 2
623911, 623909, 2
623911, 623913, 2
623911, 623912, 2
623911, 623910, 2
623910, 623909, 2
623910, 623913, 1
623910, 623912, 0
623910, 623911, 3
623920, 623918, 2
623920, 623919, 2
623914, 623913, 2
623914, 623916, 2
623914, 623915, 1
623914, 623917, 2
623919, 623917, 2
623919, 623918, 2
623919, 623920, 1
623918, 623913, 2
623918, 623919, 8
623918, 623916, 2
623918, 623920, 2
623918, 623917, 2
623916, 623913, 2
623916, 623914, 2
623916, 623915, 2
623916, 623918, 1
623916, 623917, 8
623917, 623914, 2
623917, 623918, 2
623917, 623916, 2
623917, 623919, 2
623912, 623913, 2
623912, 623911, 2
623912, 623910, 2
623915, 623913, 2
623915, 623914, 2
623915, 623916, 1
