549304, 549306, 2
549304, 549305, 1
549304, 549303, 2
549308, 549309, 2
549308, 549312, 2
549308, 549310, 2
549308, 549307, 2
549308, 549311, 2
549308, 549306, 2
549309, 549308, 2
549309, 549312, 2
549309, 549310, 2
549312, 549308, 2
549312, 549309, 2
549312, 549311, 2
549312, 549310, 2
549310, 549308, 2
549310, 549309, 2
549310, 549312, 2
549310, 549311, 2
549303, 549304, 1
549306, 549304, 2
549306, 549308, 2
549306, 549305, 2
549306, 549307, 1
549305, 549304, 2
549305, 549306, 1
549311, 549308, 2
549311, 549312, 2
549311, 549310, 2
549307, 549308, 2
549307, 549306, 2
