405532, 405530, 2
405532, 405533, 3
405532, 405534, 1
405532, 405531, 2
405530, 405532, 2
405530, 405533, 2
405530, 405531, 1
405533, 405532, 2
405533, 405530, 2
405533, 405534, 2
405533, 405531, 2
405534, 405532, 2
405534, 405533, 2
405531, 405532, 1
405531, 405530, 2
405531, 405533, 2
