642351, 642348, 2
642351, 642353, 2
642351, 642349, 2
642351, 642350, 2
642351, 642352, 2
642347, 642348, 2
642347, 642344, 2
642347, 642349, 2
642347, 642345, 2
642347, 642346, 2
642349, 642348, 2
642349, 642351, 2
642349, 642347, 2
642349, 642352, 2
642349, 642350, 1
642350, 642348, 2
642350, 642351, 1
642350, 642349, 2
642350, 642352, 2
642346, 642348, 2
642346, 642347, 1
642346, 642344, 2
642346, 642345, 2
642344, 642348, 1
642344, 642347, 2
642344, 642343, 2
642344, 642346, 2
642344, 642345, 8
642342, 642339, 2
642342, 642340, 2
642342, 642343, 1
642342, 642341, 2
642340, 642339, 2
642340, 642342, 2
642340, 642341, 2
642340, 642343, 2
642352, 642348, 2
642352, 642351, 2
642352, 642353, 1
642352, 642349, 2
642352, 642350, 2
642341, 642339, 2
642341, 642342, 2
642341, 642340, 2
642341, 642343, 2
642348, 642351, 2
642348, 642347, 2
642348, 642349, 8
642348, 642350, 2
642348, 642346, 2
642348, 642344, 2
642348, 642345, 2
642348, 642352, 1
642339, 642342, 1
642339, 642340, 0
642339, 642343, 2
642339, 642341, 3
642345, 642348, 2
642345, 642347, 2
642345, 642344, 2
642345, 642343, 2
642345, 642346, 1
642353, 642351, 2
642353, 642352, 2
642343, 642339, 2
642343, 642345, 2
642343, 642344, 1
642343, 642342, 2
642343, 642340, 2
642343, 642341, 2
