536431, 536430, 2
536431, 536432, 3
536431, 536433, 1
536429, 536430, 1
536432, 536431, 2
536432, 536430, 2
536432, 536433, 2
536433, 536431, 2
536433, 536430, 2
536433, 536432, 2
536430, 536431, 1
536430, 536429, 2
536430, 536432, 2
536430, 536433, 2
