419884, 419880, 2
419884, 419889, 2
419884, 419886, 1
419884, 419883, 2
419884, 419881, 2
419882, 419880, 2
419882, 419889, 2
419882, 419885, 1
419882, 419881, 2
419909, 419908, 2
419909, 419911, 1
419909, 419910, 8
419876, 419880, 2
419876, 419877, 2
419876, 419879, 0
419876, 419868, 2
419876, 419872, 2
419876, 419875, 2
419876, 419874, 2
419876, 419870, 2
419905, 419899, 2
419905, 419908, 1
419905, 419904, 2
419905, 419907, 0
419905, 419898, 2
419905, 419906, 3
419905, 419903, 2
419897, 419889, 2
419897, 419896, 2
419897, 419898, 1
419886, 419887, 1
419886, 419884, 2
419886, 419889, 2
419886, 419883, 2
419886, 419881, 2
419898, 419899, 1
419898, 419902, 2
419898, 419905, 2
419898, 419897, 2
419898, 419906, 2
419898, 419900, 2
419873, 419871, 2
419873, 419870, 2
419873, 419874, 1
419873, 419878, 2
419873, 419872, 2
419881, 419880, 2
419881, 419885, 2
419881, 419883, 6
419881, 419887, 2
419881, 419884, 2
419881, 419889, 1
419881, 419888, 2
419881, 419886, 2
419881, 419882, 4
419888, 419880, 2
419888, 419889, 2
419888, 419885, 2
419888, 419881, 2
419868, 419870, 2
419868, 419869, 2
419868, 419876, 2
419868, 419867, 2
419892, 419889, 2
419892, 419893, 2
419892, 419891, 2
419892, 419890, 2
419906, 419899, 2
419906, 419908, 2
419906, 419907, 2
419906, 419889, 2
419906, 419905, 2
419906, 419898, 2
419908, 419911, 2
419908, 419909, 1
419908, 419907, 2
419908, 419905, 2
419908, 419906, 2
419908, 419910, 2
419891, 419889, 2
419891, 419890, 2
419891, 419892, 2
419891, 419893, 2
419872, 419871, 2
419872, 419873, 2
419872, 419874, 2
419872, 419876, 2
419872, 419870, 2
419880, 419879, 2
419880, 419876, 2
419880, 419878, 2
419880, 419881, 1
419880, 419884, 2
419880, 419875, 2
419880, 419874, 2
419880, 419888, 2
419880, 419882, 2
419880, 419877, 2
419880, 419883, 2
419880, 419887, 2
419880, 419885, 2
419880, 419889, 2
419911, 419908, 2
419911, 419912, 1
419911, 419910, 2
419911, 419909, 2
419878, 419880, 2
419878, 419877, 2
419878, 419870, 2
419878, 419875, 2
419878, 419874, 2
419878, 419869, 2
419878, 419873, 2
419890, 419889, 2
419890, 419891, 3
419890, 419892, 0
419890, 419893, 1
419871, 419870, 2
419871, 419873, 1
419871, 419874, 2
419871, 419872, 8
419901, 419899, 2
419901, 419902, 1
419901, 419900, 2
419874, 419880, 2
419874, 419873, 2
419874, 419879, 2
419874, 419876, 2
419874, 419878, 2
419874, 419872, 2
419874, 419871, 2
419874, 419875, 1
419874, 419877, 2
419869, 419870, 2
419869, 419878, 2
419869, 419868, 2
419869, 419867, 2
419877, 419880, 1
419877, 419879, 2
419877, 419876, 4
419877, 419878, 6
419877, 419875, 2
419877, 419874, 2
419883, 419880, 2
419883, 419881, 2
419883, 419887, 2
419883, 419884, 0
419883, 419889, 2
419883, 419886, 2
419887, 419880, 2
419887, 419889, 2
419887, 419886, 2
419887, 419883, 2
419887, 419881, 2
419879, 419880, 2
419879, 419877, 2
419879, 419874, 2
419879, 419875, 2
419879, 419876, 2
419913, 419912, 2
419900, 419899, 2
419900, 419901, 1
419900, 419898, 2
419870, 419873, 2
419870, 419868, 2
419870, 419878, 2
419870, 419867, 2
419870, 419871, 1
419870, 419872, 2
419870, 419869, 2
419870, 419876, 2
419885, 419880, 2
419885, 419889, 2
419885, 419881, 2
419885, 419888, 1
419885, 419882, 2
419895, 419894, 2
419895, 419896, 1
419904, 419907, 2
419904, 419905, 2
419904, 419903, 2
419867, 419869, 0
419867, 419868, 3
419867, 419870, 1
419907, 419905, 2
419907, 419908, 2
419907, 419906, 2
419907, 419904, 2
419875, 419880, 2
419875, 419877, 1
419875, 419879, 2
419875, 419876, 2
419875, 419878, 2
419875, 419874, 2
419902, 419899, 2
419902, 419901, 2
419902, 419898, 2
419902, 419903, 1
419912, 419911, 2
419912, 419913, 1
419912, 419910, 2
419903, 419899, 2
419903, 419905, 2
419903, 419904, 1
419903, 419902, 2
419899, 419902, 2
419899, 419903, 2
419899, 419901, 2
419899, 419905, 1
419899, 419906, 2
419899, 419900, 0
419899, 419898, 2
419896, 419897, 1
419896, 419895, 2
419893, 419894, 1
419893, 419891, 2
419893, 419892, 2
419893, 419890, 2
419889, 419880, 2
419889, 419885, 2
419889, 419881, 2
419889, 419884, 2
419889, 419886, 2
419889, 419890, 1
419889, 419888, 2
419889, 419892, 2
419889, 419882, 2
419889, 419883, 2
419889, 419887, 2
419889, 419897, 2
419889, 419891, 2
419889, 419906, 2
419894, 419895, 1
419894, 419893, 2
419910, 419912, 2
419910, 419908, 2
419910, 419911, 2
419910, 419909, 2
