457073, 457077, 2
457073, 457075, 2
457073, 457076, 2
457073, 457074, 1
457081, 457080, 2
457081, 457079, 2
457081, 457078, 2
457075, 457077, 2
457075, 457073, 2
457075, 457076, 1
457075, 457074, 2
457076, 457073, 2
457076, 457075, 2
457076, 457078, 1
457076, 457074, 2
457076, 457079, 2
457076, 457077, 8
457078, 457077, 2
457078, 457081, 2
457078, 457079, 8
457078, 457080, 1
457078, 457076, 2
457074, 457077, 2
457074, 457073, 2
457074, 457075, 1
457074, 457076, 2
457077, 457073, 2
457077, 457079, 2
457077, 457076, 2
457077, 457078, 2
457077, 457074, 2
457077, 457075, 2
457080, 457081, 1
457080, 457079, 2
457080, 457078, 2
457079, 457077, 2
457079, 457080, 2
457079, 457081, 2
457079, 457076, 2
457079, 457078, 2
