572670, 572669, 2
572670, 572671, 2
572670, 572673, 2
572670, 572672, 2
572669, 572670, 3
572669, 572672, 2
572669, 572671, 1
572671, 572670, 2
572671, 572669, 2
572671, 572672, 1
572673, 572670, 2
572673, 572674, 2
572673, 572672, 2
572675, 572674, 2
572675, 572672, 2
572674, 572672, 2
572674, 572673, 2
572674, 572675, 1
572672, 572670, 2
572672, 572669, 2
572672, 572671, 2
572672, 572673, 3
572672, 572674, 1
572672, 572675, 2
