404489, 404491, 1
404489, 404488, 2
404489, 404490, 3
404483, 404482, 2
404483, 404484, 2
404483, 404485, 2
404481, 404482, 1
404481, 404484, 2
404481, 404480, 2
404495, 404494, 2
404493, 404494, 1
404493, 404492, 2
404490, 404489, 2
404490, 404488, 2
404490, 404491, 2
404492, 404493, 1
404492, 404491, 2
404486, 404487, 1
404486, 404485, 2
404491, 404489, 2
404491, 404488, 2
404491, 404490, 2
404491, 404492, 1
404482, 404483, 8
404482, 404481, 2
404482, 404484, 1
404480, 404481, 1
404487, 404486, 2
404487, 404488, 1
404487, 404485, 2
404484, 404483, 2
404484, 404481, 2
404484, 404482, 2
404484, 404485, 1
404488, 404489, 1
404488, 404490, 2
404488, 404487, 2
404488, 404491, 2
404494, 404493, 2
404494, 404495, 1
404485, 404486, 1
404485, 404483, 2
404485, 404487, 2
404485, 404484, 2
