336319, 336320, 1
336319, 336318, 2
336319, 336310, 2
336311, 336316, 2
336311, 336315, 1
336311, 336308, 2
336311, 336312, 0
336311, 336306, 2
336311, 336309, 2
336311, 336314, 2
336311, 336305, 2
336311, 336310, 2
336314, 336316, 2
336314, 336311, 2
336314, 336315, 2
336314, 336312, 2
336314, 336313, 2
336314, 336310, 2
336309, 336311, 2
336309, 336310, 3
336309, 336308, 2
336309, 336303, 2
336307, 336306, 2
336307, 336302, 2
336307, 336305, 2
336307, 336308, 1
336307, 336303, 2
336305, 336304, 2
336305, 336311, 2
336305, 336308, 2
336305, 336312, 2
336305, 336306, 0
336305, 336313, 2
336305, 336307, 2
336305, 336303, 2
336305, 336310, 2
336310, 336319, 2
336310, 336318, 2
336310, 336316, 2
336310, 336311, 2
336310, 336315, 2
336310, 336317, 2
336310, 336309, 2
336310, 336314, 2
336310, 336305, 2
336310, 336303, 2
336310, 336320, 2
336304, 336301, 2
336304, 336305, 1
336304, 336303, 2
336318, 336319, 1
336318, 336317, 2
336318, 336310, 2
336316, 336317, 1
336316, 336311, 2
336316, 336315, 2
336316, 336314, 2
336316, 336310, 2
336320, 336319, 2
336320, 336310, 2
336317, 336316, 2
336317, 336318, 1
336317, 336310, 2
336308, 336311, 1
336308, 336302, 2
336308, 336312, 2
336308, 336306, 2
336308, 336309, 3
336308, 336307, 2
336308, 336305, 2
336308, 336303, 2
336312, 336311, 2
336312, 336315, 2
336312, 336308, 2
336312, 336306, 2
336312, 336313, 0
336312, 336314, 2
336312, 336305, 2
336301, 336304, 2
336301, 336302, 3
336301, 336303, 1
336306, 336311, 2
336306, 336308, 2
336306, 336312, 2
336306, 336313, 2
336306, 336307, 2
336306, 336305, 2
336315, 336316, 1
336315, 336311, 2
336315, 336314, 2
336315, 336310, 2
336315, 336312, 2
336313, 336306, 2
336313, 336314, 3
336313, 336305, 2
336313, 336312, 2
336302, 336301, 2
336302, 336307, 2
336302, 336308, 2
336302, 336303, 2
336303, 336304, 0
336303, 336308, 2
336303, 336309, 2
336303, 336302, 2
336303, 336301, 2
336303, 336307, 1
336303, 336305, 2
336303, 336310, 2
