432409, 432411, 2
432409, 432410, 1
432409, 432412, 2
432409, 432408, 2
432414, 432415, 1
432414, 432413, 2
432418, 432419, 1
432418, 432417, 2
432423, 432422, 2
432423, 432424, 8
432423, 432426, 2
432423, 432425, 1
432411, 432413, 2
432411, 432409, 2
432411, 432410, 2
432411, 432412, 2
432420, 432419, 2
432420, 432421, 2
432413, 432410, 2
432413, 432411, 2
432413, 432414, 1
432413, 432415, 2
432413, 432412, 2
432422, 432424, 2
432422, 432425, 2
432422, 432419, 2
432422, 432421, 2
432422, 432423, 1
432425, 432424, 2
432425, 432426, 1
432425, 432422, 2
432425, 432423, 2
432408, 432409, 1
432416, 432417, 1
432416, 432415, 2
432410, 432409, 2
432410, 432411, 8
432410, 432413, 2
432410, 432412, 1
432412, 432410, 2
432412, 432411, 2
432412, 432413, 1
432412, 432409, 2
432421, 432419, 2
432421, 432420, 2
432421, 432422, 1
432427, 432426, 2
432424, 432425, 2
432424, 432426, 2
432424, 432422, 2
432424, 432423, 2
432417, 432416, 2
432417, 432418, 1
432415, 432416, 1
432415, 432413, 2
432415, 432414, 2
432426, 432424, 2
432426, 432427, 1
432426, 432425, 2
432426, 432423, 2
432419, 432421, 1
432419, 432420, 8
432419, 432418, 2
432419, 432422, 2
