451784, 451783, 2
451784, 451780, 2
451784, 451781, 2
451784, 451786, 2
451784, 451785, 1
451784, 451782, 2
451796, 451797, 2
451796, 451795, 2
451803, 451804, 1
451803, 451794, 2
451803, 451802, 2
451785, 451783, 2
451785, 451788, 2
451785, 451784, 2
451785, 451786, 2
451785, 451780, 2
451785, 451790, 2
451785, 451789, 2
451785, 451787, 2
451785, 451782, 2
451799, 451797, 2
451799, 451798, 2
451799, 451794, 2
451799, 451802, 2
451799, 451790, 2
451799, 451800, 1
451799, 451801, 2
451791, 451800, 2
451791, 451794, 2
451791, 451792, 1
451791, 451790, 2
451791, 451789, 2
451791, 451793, 2
451792, 451793, 2
451792, 451790, 2
451792, 451789, 2
451792, 451794, 1
451792, 451791, 2
451780, 451781, 2
451780, 451784, 2
451780, 451779, 4
451780, 451785, 2
451780, 451782, 1
451787, 451788, 1
451787, 451783, 2
451787, 451789, 2
451787, 451786, 2
451787, 451785, 2
451800, 451797, 2
451800, 451799, 2
451800, 451794, 2
451800, 451802, 2
451800, 451789, 2
451800, 451801, 1
451800, 451795, 2
451800, 451791, 2
451790, 451797, 2
451790, 451799, 2
451790, 451791, 2
451790, 451792, 2
451790, 451802, 2
451790, 451794, 2
451790, 451789, 2
451790, 451785, 2
451790, 451795, 2
451790, 451793, 2
451783, 451784, 2
451783, 451779, 2
451783, 451782, 2
451783, 451781, 2
451783, 451787, 2
451783, 451789, 2
451783, 451786, 1
451783, 451785, 2
451794, 451797, 2
451794, 451799, 2
451794, 451789, 2
451794, 451791, 2
451794, 451792, 2
451794, 451802, 2
451794, 451790, 2
451794, 451800, 2
451794, 451803, 2
451794, 451795, 2
451794, 451793, 2
451804, 451803, 2
451779, 451780, 2
451779, 451783, 2
451779, 451782, 2
451779, 451786, 2
451779, 451781, 1
451801, 451799, 2
451801, 451800, 2
451801, 451802, 1
451786, 451783, 2
451786, 451784, 2
451786, 451781, 2
451786, 451787, 1
451786, 451779, 2
451786, 451785, 2
451786, 451782, 2
451795, 451797, 1
451795, 451800, 2
451795, 451794, 2
451795, 451790, 2
451795, 451796, 3
451795, 451793, 2
451782, 451783, 1
451782, 451784, 2
451782, 451780, 2
451782, 451781, 2
451782, 451779, 2
451782, 451786, 2
451782, 451785, 2
451797, 451799, 2
451797, 451800, 2
451797, 451798, 1
451797, 451794, 2
451797, 451790, 2
451797, 451796, 2
451797, 451795, 2
451798, 451797, 2
451798, 451799, 1
451802, 451799, 2
451802, 451794, 2
451802, 451801, 2
451802, 451790, 2
451802, 451800, 2
451802, 451803, 1
451788, 451787, 2
451788, 451789, 1
451788, 451785, 2
451781, 451783, 2
451781, 451784, 1
451781, 451780, 2
451781, 451779, 2
451781, 451786, 2
451781, 451782, 2
451789, 451783, 2
451789, 451785, 2
451789, 451794, 2
451789, 451792, 2
451789, 451788, 2
451789, 451787, 2
451789, 451800, 2
451789, 451790, 3
451789, 451793, 1
451789, 451791, 0
451793, 451791, 2
451793, 451792, 2
451793, 451790, 2
451793, 451789, 2
451793, 451795, 1
451793, 451794, 2
