523121, 523119, 2
523121, 523120, 2
523121, 523117, 2
523121, 523118, 2
523121, 523123, 2
523121, 523122, 2
523119, 523120, 1
523119, 523121, 2
523119, 523118, 2
523120, 523121, 6
523120, 523119, 2
523120, 523123, 2
523120, 523122, 1
523117, 523121, 2
523117, 523123, 2
523117, 523118, 1
523118, 523121, 2
523118, 523117, 2
523118, 523119, 1
523123, 523120, 2
523123, 523121, 2
523123, 523122, 2
523123, 523117, 2
523122, 523120, 2
523122, 523121, 2
523122, 523123, 1
