418010, 418012, 1
418010, 418011, 2
418010, 418013, 2
418010, 418009, 2
417998, 417997, 2
417998, 417999, 2
417998, 418000, 2
417997, 417998, 1
417997, 417995, 2
417997, 417999, 2
417997, 417996, 2
418006, 418004, 2
418006, 418003, 2
418006, 418007, 1
418006, 418005, 2
418009, 418010, 1
418009, 418008, 2
418009, 418011, 2
418009, 418007, 2
418002, 418001, 2
418002, 418003, 1
418001, 418000, 2
418001, 418002, 1
418013, 418010, 2
418013, 418012, 2
418013, 418011, 2
417995, 417997, 2
417995, 417999, 1
417995, 417996, 3
418004, 418003, 2
418004, 418007, 2
418004, 418005, 1
418004, 418006, 2
418003, 418004, 1
418003, 418005, 2
418003, 418006, 2
418003, 418002, 2
418005, 418004, 2
418005, 418003, 2
418005, 418006, 1
417999, 417998, 2
417999, 417997, 2
417999, 417995, 2
417999, 418000, 1
417999, 417996, 2
418008, 418007, 2
418008, 418011, 0
418008, 418009, 1
417996, 417997, 1
417996, 417995, 2
417996, 417999, 2
418007, 418004, 2
418007, 418008, 1
418007, 418006, 2
418007, 418009, 2
418012, 418010, 2
418012, 418011, 2
418012, 418013, 1
418000, 417998, 2
418000, 417999, 2
418000, 418001, 1
418011, 418010, 2
418011, 418012, 2
418011, 418008, 2
418011, 418013, 2
418011, 418009, 2
