450722, 450723, 1
450722, 450724, 2
450722, 450720, 2
450722, 450718, 2
450722, 450721, 2
450711, 450710, 2
450711, 450712, 1
450718, 450722, 2
450718, 450720, 2
450718, 450717, 2
450718, 450719, 1
450718, 450721, 2
450714, 450715, 3
450714, 450712, 2
450714, 450713, 2
450714, 450716, 1
450710, 450709, 2
450710, 450711, 1
450710, 450708, 2
450713, 450715, 2
450713, 450712, 2
450713, 450714, 1
450717, 450718, 1
450717, 450716, 2
450720, 450722, 1
450720, 450719, 2
450720, 450718, 2
450720, 450721, 3
450716, 450715, 2
450716, 450712, 2
450716, 450717, 1
450716, 450714, 2
450712, 450711, 2
450712, 450713, 1
450712, 450716, 2
450712, 450714, 2
450724, 450722, 2
450724, 450723, 2
450719, 450720, 1
450719, 450718, 2
450719, 450721, 2
450709, 450710, 2
450709, 450708, 2
450721, 450722, 2
450721, 450720, 2
450721, 450719, 2
450721, 450718, 2
450715, 450713, 2
450715, 450716, 2
450715, 450714, 2
450708, 450710, 1
450708, 450709, 3
450723, 450722, 2
450723, 450724, 1
