554338, 554342, 2
554338, 554341, 2
554338, 554337, 2
554338, 554339, 3
554338, 554340, 0
554336, 554337, 1
554336, 554339, 2
554337, 554338, 1
554337, 554336, 2
554337, 554339, 2
554340, 554339, 2
554340, 554338, 2
554340, 554342, 2
554340, 554341, 2
554341, 554338, 2
554341, 554340, 2
554341, 554342, 1
554341, 554339, 2
554339, 554338, 2
554339, 554336, 2
554339, 554337, 2
554339, 554340, 2
554339, 554341, 1
554339, 554342, 2
554342, 554338, 2
554342, 554340, 2
554342, 554339, 2
554342, 554341, 2
