341614, 341615, 3
341614, 341616, 1
341621, 341622, 1
341621, 341619, 2
341621, 341620, 2
341618, 341616, 2
341618, 341617, 2
341618, 341619, 2
341620, 341621, 1
341620, 341619, 2
341619, 341622, 2
341619, 341621, 2
341619, 341618, 2
341619, 341617, 2
341619, 341620, 0
341615, 341614, 2
341615, 341616, 2
341622, 341621, 2
341622, 341619, 2
341616, 341615, 2
341616, 341614, 2
341616, 341618, 2
341616, 341617, 1
341617, 341618, 3
341617, 341616, 2
341617, 341619, 1
