592690, 592692, 2
592690, 592694, 1
592690, 592691, 3
592691, 592690, 2
592691, 592693, 2
592691, 592692, 1
592695, 592693, 2
592695, 592694, 2
592692, 592690, 2
592692, 592693, 1
592692, 592694, 2
592692, 592691, 2
592693, 592695, 2
592693, 592692, 2
592693, 592694, 2
592693, 592691, 2
592694, 592695, 3
592694, 592690, 2
592694, 592693, 2
592694, 592692, 2
