493102, 493101, 2
493102, 493103, 2
493102, 493099, 2
493080, 493081, 3
493080, 493082, 0
493080, 493083, 1
493080, 493079, 2
493096, 493095, 2
493096, 493097, 1
493078, 493077, 2
493078, 493079, 2
493078, 493075, 2
493093, 493092, 2
493093, 493094, 2
493093, 493091, 2
493100, 493101, 1
493100, 493099, 2
493071, 493073, 2
493071, 493072, 1
493071, 493070, 2
493088, 493087, 2
493088, 493089, 1
493089, 493090, 1
493089, 493087, 2
493089, 493088, 2
493091, 493093, 2
493091, 493090, 2
493091, 493092, 1
493094, 493093, 2
493094, 493092, 2
493094, 493095, 1
493085, 493084, 2
493085, 493087, 2
493085, 493086, 1
493090, 493091, 1
493090, 493089, 2
493086, 493085, 2
493086, 493087, 1
493082, 493081, 2
493082, 493080, 2
493082, 493079, 2
493082, 493083, 2
493082, 493075, 2
493095, 493094, 2
493095, 493096, 1
493095, 493097, 2
493084, 493085, 1
493084, 493083, 2
493070, 493071, 1
493099, 493102, 2
493099, 493098, 2
493099, 493100, 1
493074, 493073, 2
493074, 493072, 2
493074, 493075, 1
493081, 493080, 2
493081, 493082, 2
493081, 493079, 2
493081, 493083, 2
493098, 493097, 2
493098, 493099, 1
493103, 493102, 2
493103, 493101, 2
493075, 493074, 2
493075, 493082, 2
493075, 493078, 2
493075, 493076, 1
493077, 493079, 1
493077, 493078, 3
493077, 493076, 2
493092, 493093, 3
493092, 493091, 2
493092, 493094, 1
493072, 493074, 1
493072, 493073, 3
493072, 493071, 2
493073, 493074, 2
493073, 493072, 2
493073, 493071, 2
493083, 493081, 2
493083, 493080, 2
493083, 493084, 1
493083, 493082, 2
493076, 493077, 1
493076, 493075, 2
493097, 493098, 1
493097, 493096, 2
493097, 493095, 2
493087, 493085, 2
493087, 493089, 2
493087, 493086, 2
493087, 493088, 1
493101, 493102, 3
493101, 493100, 2
493101, 493103, 1
493079, 493081, 2
493079, 493080, 1
493079, 493082, 2
493079, 493077, 2
493079, 493078, 2
