625777, 625776, 2
625777, 625775, 2
625771, 625772, 1
625773, 625776, 2
625773, 625775, 1
625773, 625774, 8
625773, 625772, 2
625775, 625777, 1
625775, 625776, 3
625775, 625774, 2
625775, 625773, 2
625776, 625777, 2
625776, 625774, 2
625776, 625773, 2
625776, 625775, 2
625774, 625776, 2
625774, 625772, 2
625774, 625773, 2
625774, 625775, 2
625772, 625774, 2
625772, 625771, 2
625772, 625773, 1
