550470, 550472, 2
550470, 550473, 2
550470, 550467, 2
550470, 550471, 1
550470, 550468, 2
550470, 550469, 2
550463, 550473, 2
550463, 550465, 2
550463, 550462, 2
550463, 550475, 2
550463, 550467, 2
550463, 550471, 2
550466, 550467, 1
550466, 550465, 2
550474, 550473, 2
550474, 550475, 1
550477, 550476, 2
550475, 550472, 2
550475, 550476, 1
550475, 550473, 2
550475, 550463, 2
550475, 550474, 2
550471, 550472, 3
550471, 550470, 2
550471, 550473, 1
550471, 550463, 2
550471, 550468, 2
550471, 550469, 2
550468, 550470, 1
550468, 550471, 2
550468, 550467, 2
550468, 550469, 3
550469, 550472, 2
550469, 550470, 2
550469, 550471, 2
550469, 550468, 2
550476, 550477, 3
550476, 550475, 2
550472, 550470, 2
550472, 550473, 2
550472, 550471, 2
550472, 550469, 2
550472, 550475, 2
550473, 550472, 2
550473, 550470, 2
550473, 550463, 2
550473, 550475, 2
550473, 550474, 1
550473, 550471, 2
550462, 550463, 6
550462, 550465, 1
550462, 550464, 3
550467, 550470, 2
550467, 550466, 2
550467, 550463, 2
550467, 550468, 1
550467, 550465, 2
550464, 550465, 2
550464, 550462, 2
550465, 550467, 2
550465, 550463, 2
550465, 550466, 1
550465, 550464, 2
550465, 550462, 2
