450967, 450966, 2
450967, 450968, 1
450959, 450960, 2
450959, 450958, 2
450959, 450957, 2
450964, 450963, 2
450964, 450965, 1
450964, 450962, 2
450956, 450955, 2
450956, 450954, 2
450956, 450953, 2
450956, 450957, 1
450968, 450967, 2
450968, 450966, 2
450955, 450956, 2
450955, 450954, 2
450955, 450953, 2
450955, 450957, 2
450957, 450958, 1
450957, 450959, 2
450957, 450955, 2
450957, 450960, 2
450957, 450956, 2
450963, 450961, 2
450963, 450960, 2
450963, 450964, 1
450963, 450962, 2
450952, 450951, 2
450952, 450950, 2
450952, 450953, 2
450951, 450952, 3
450951, 450950, 2
450951, 450953, 1
450954, 450956, 1
450954, 450955, 8
450954, 450953, 2
450961, 450960, 2
450961, 450963, 1
450961, 450962, 8
450958, 450959, 3
450958, 450960, 1
450958, 450957, 2
450966, 450967, 1
450966, 450965, 2
450966, 450968, 2
450950, 450952, 2
450950, 450951, 1
450950, 450953, 2
450960, 450959, 2
450960, 450961, 1
450960, 450963, 2
450960, 450957, 2
450960, 450958, 2
450953, 450952, 2
450953, 450951, 2
450953, 450954, 1
450953, 450956, 2
450953, 450950, 2
450953, 450955, 2
450965, 450964, 2
450965, 450966, 1
450962, 450964, 2
450962, 450961, 2
450962, 450963, 2
