658499, 658498, 2
658499, 658500, 1
658494, 658495, 2
658494, 658493, 2
658495, 658494, 2
658495, 658496, 1
658495, 658493, 2
658495, 658498, 2
658495, 658497, 2
658493, 658494, 3
658493, 658495, 1
658500, 658499, 2
658500, 658498, 2
658497, 658496, 2
658497, 658498, 2
658497, 658495, 2
658496, 658497, 3
658496, 658495, 2
658496, 658498, 1
658498, 658499, 1
658498, 658497, 2
658498, 658496, 2
658498, 658500, 2
658498, 658495, 2
