379126, 379129, 1
379126, 379128, 3
379126, 379127, 6
379130, 379129, 2
379130, 379127, 2
379130, 379131, 1
379128, 379126, 2
379128, 379129, 2
379129, 379126, 2
379129, 379130, 1
379129, 379128, 2
379129, 379127, 2
379132, 379127, 2
379132, 379131, 2
379127, 379126, 2
379127, 379129, 2
379127, 379132, 2
379127, 379130, 2
379127, 379131, 2
379131, 379132, 1
379131, 379130, 2
379131, 379127, 2
