456888, 456889, 1
456888, 456890, 2
456891, 456893, 1
456891, 456890, 2
456891, 456892, 3
456894, 456893, 2
456893, 456891, 2
456893, 456894, 0
456893, 456892, 2
456890, 456888, 2
456890, 456891, 1
456890, 456889, 2
456890, 456892, 2
456889, 456888, 2
456889, 456890, 1
456892, 456893, 2
456892, 456890, 2
456892, 456891, 2
