573371, 573372, 1
573371, 573370, 2
573373, 573374, 1
573373, 573372, 2
573374, 573373, 2
573372, 573371, 2
573372, 573373, 1
573369, 573367, 2
573369, 573370, 2
573369, 573368, 2
573367, 573369, 0
573367, 573370, 1
573367, 573368, 3
573370, 573371, 1
573370, 573367, 2
573370, 573368, 2
573370, 573369, 2
573368, 573369, 2
573368, 573367, 2
573368, 573370, 2
