453418, 453396, 2
453418, 453419, 1
453418, 453414, 2
453418, 453417, 2
453418, 453400, 2
453405, 453400, 2
453405, 453406, 2
453405, 453404, 2
453405, 453403, 2
453405, 453407, 2
453413, 453414, 1
453413, 453412, 2
453393, 453396, 2
453393, 453394, 2
453393, 453395, 1
453393, 453398, 2
453393, 453392, 2
453415, 453400, 2
453415, 453414, 2
453415, 453412, 2
453415, 453416, 3
453404, 453405, 8
453404, 453403, 2
453404, 453406, 1
453401, 453400, 2
453401, 453402, 3
453401, 453398, 2
453401, 453403, 1
453401, 453397, 2
453388, 453387, 2
453388, 453386, 2
453388, 453390, 2
453388, 453389, 1
453407, 453396, 2
453407, 453400, 2
453407, 453405, 2
453407, 453408, 1
453407, 453406, 2
453416, 453415, 2
453416, 453417, 1
453396, 453418, 2
453396, 453395, 2
453396, 453412, 2
453396, 453410, 2
453396, 453394, 2
453396, 453403, 2
453396, 453393, 2
453396, 453406, 2
453396, 453398, 2
453396, 453407, 2
453396, 453392, 2
453396, 453414, 2
453396, 453397, 2
453396, 453420, 2
453414, 453396, 2
453414, 453418, 2
453414, 453415, 1
453414, 453413, 2
453389, 453388, 2
453389, 453390, 1
453419, 453420, 1
453419, 453418, 2
453395, 453396, 2
453395, 453398, 2
453395, 453392, 2
453395, 453393, 2
453395, 453394, 2
453395, 453397, 2
453397, 453400, 1
453397, 453395, 2
453397, 453401, 2
453397, 453398, 2
453397, 453399, 8
453397, 453396, 2
453397, 453394, 2
453397, 453402, 2
453397, 453392, 2
453417, 453418, 2
453417, 453416, 2
453399, 453400, 2
453399, 453397, 2
453399, 453398, 2
453410, 453396, 2
453410, 453400, 2
453410, 453409, 2
453410, 453408, 2
453410, 453411, 1
453394, 453396, 1
453394, 453395, 2
453394, 453398, 2
453394, 453392, 2
453394, 453393, 2
453394, 453397, 2
453408, 453410, 1
453408, 453400, 2
453408, 453409, 3
453408, 453407, 2
453403, 453400, 2
453403, 453405, 2
453403, 453398, 2
453403, 453406, 2
453403, 453396, 2
453403, 453402, 2
453403, 453404, 1
453403, 453401, 2
453400, 453418, 2
453400, 453405, 2
453400, 453397, 2
453400, 453408, 2
453400, 453399, 2
453400, 453410, 2
453400, 453415, 2
453400, 453401, 2
453400, 453403, 2
453400, 453420, 2
453400, 453412, 2
453400, 453398, 2
453400, 453407, 2
453400, 453392, 2
453400, 453402, 2
453420, 453396, 2
453420, 453419, 2
453420, 453400, 2
453406, 453396, 2
453406, 453405, 2
453406, 453404, 2
453406, 453403, 2
453406, 453407, 1
453398, 453400, 2
453398, 453396, 2
453398, 453395, 2
453398, 453402, 2
453398, 453399, 2
453398, 453393, 2
453398, 453394, 2
453398, 453401, 1
453398, 453392, 2
453398, 453403, 2
453398, 453397, 4
453391, 453390, 2
453391, 453392, 1
453386, 453388, 2
453386, 453387, 1
453392, 453400, 2
453392, 453396, 2
453392, 453395, 2
453392, 453398, 1
453392, 453391, 2
453392, 453393, 3
453392, 453394, 0
453392, 453397, 2
453392, 453390, 2
453409, 453410, 2
453409, 453408, 2
453402, 453400, 2
453402, 453401, 2
453402, 453398, 2
453402, 453403, 2
453402, 453397, 2
453387, 453388, 1
453387, 453386, 2
453411, 453410, 2
453411, 453412, 1
453390, 453388, 2
453390, 453392, 2
453390, 453391, 1
453390, 453389, 2
453412, 453396, 2
453412, 453400, 2
453412, 453415, 2
453412, 453411, 2
453412, 453413, 1
