606922, 606919, 2
606922, 606923, 2
606922, 606920, 2
606922, 606921, 2
606923, 606924, 1
606923, 606922, 2
606923, 606921, 2
606927, 606926, 2
606927, 606925, 2
606916, 606917, 1
606916, 606915, 2
606926, 606927, 1
606926, 606925, 2
606921, 606922, 0
606921, 606925, 2
606921, 606920, 2
606921, 606923, 1
606924, 606925, 1
606924, 606923, 2
606918, 606917, 2
606918, 606919, 1
606919, 606922, 2
606919, 606920, 1
606919, 606917, 2
606919, 606918, 2
606914, 606915, 1
606917, 606916, 2
606917, 606918, 1
606917, 606919, 2
606925, 606927, 2
606925, 606924, 2
606925, 606926, 1
606925, 606921, 2
606920, 606922, 2
606920, 606919, 2
606920, 606921, 1
606915, 606914, 2
606915, 606916, 1
