379908, 379906, 2
379908, 379907, 2
379908, 379909, 1
379908, 379910, 2
379908, 379911, 2
379907, 379908, 2
379907, 379906, 2
379907, 379911, 2
379909, 379908, 2
379909, 379910, 1
379910, 379908, 2
379910, 379909, 2
379910, 379911, 3
379911, 379908, 2
379911, 379907, 2
379911, 379910, 2
379906, 379908, 1
379906, 379907, 3
379906, 379905, 2
379903, 379905, 2
379903, 379904, 1
379904, 379903, 2
379904, 379905, 1
379905, 379906, 1
379905, 379903, 2
379905, 379904, 2
