451237, 451239, 2
451237, 451236, 2
451237, 451238, 1
451233, 451232, 2
451233, 451234, 1
451232, 451233, 1
451232, 451230, 2
451232, 451231, 2
451232, 451234, 2
451236, 451237, 3
451236, 451239, 1
451236, 451234, 2
451236, 451235, 2
451236, 451238, 2
451229, 451230, 1
451229, 451231, 2
451241, 451242, 1
451241, 451240, 2
451241, 451239, 2
451247, 451246, 2
451247, 451248, 1
451239, 451237, 2
451239, 451238, 2
451239, 451240, 1
451239, 451236, 2
451239, 451241, 2
451248, 451247, 2
451248, 451246, 2
451248, 451249, 1
451235, 451236, 1
451235, 451234, 2
451240, 451239, 2
451240, 451241, 1
451246, 451247, 1
451246, 451244, 2
451246, 451245, 2
451246, 451243, 2
451246, 451248, 2
451230, 451232, 2
451230, 451231, 1
451230, 451229, 2
451231, 451232, 1
451231, 451230, 2
451231, 451229, 2
451238, 451237, 2
451238, 451239, 2
451238, 451236, 2
451243, 451242, 2
451243, 451244, 3
451243, 451245, 2
451243, 451246, 1
451245, 451244, 2
451245, 451243, 2
451245, 451246, 2
451244, 451242, 2
451244, 451245, 1
451244, 451243, 2
451244, 451246, 2
451249, 451248, 2
451242, 451244, 2
451242, 451243, 1
451242, 451241, 2
451234, 451233, 2
451234, 451232, 2
451234, 451235, 1
451234, 451236, 2
