488730, 488729, 2
488730, 488731, 1
488733, 488734, 1
488733, 488732, 2
488735, 488734, 2
488735, 488736, 1
488734, 488733, 2
488734, 488735, 0
488732, 488733, 1
488732, 488731, 2
488737, 488736, 2
488736, 488737, 1
488736, 488735, 2
488729, 488730, 1
488731, 488730, 2
488731, 488732, 1
