553983, 553982, 2
553983, 553979, 2
553983, 553984, 0
553983, 553981, 2
553978, 553979, 8
553978, 553980, 1
553980, 553978, 2
553980, 553982, 1
553980, 553979, 2
553980, 553981, 0
553984, 553983, 2
553981, 553982, 2
553981, 553983, 2
553981, 553980, 2
553982, 553980, 2
553982, 553983, 1
553982, 553981, 2
553979, 553978, 2
553979, 553983, 2
553979, 553980, 2
