495196, 495198, 2
495196, 495193, 2
495196, 495197, 1
495196, 495195, 2
495197, 495196, 2
495197, 495198, 1
495195, 495196, 1
495195, 495194, 2
495195, 495193, 2
495198, 495196, 2
495198, 495197, 2
495194, 495193, 2
495194, 495195, 2
495193, 495196, 2
495193, 495194, 3
495193, 495195, 1
