549136, 549135, 2
549136, 549137, 1
549129, 549130, 6
549129, 549132, 1
549129, 549131, 3
549134, 549133, 2
549134, 549130, 2
549134, 549135, 1
549134, 549132, 2
549132, 549133, 3
549132, 549130, 2
549132, 549129, 2
549132, 549134, 1
549132, 549131, 2
549133, 549137, 2
549133, 549135, 2
549133, 549134, 2
549133, 549132, 2
549135, 549133, 2
549135, 549137, 2
549135, 549136, 1
549135, 549134, 2
549135, 549130, 2
549130, 549135, 2
549130, 549129, 2
549130, 549134, 2
549130, 549132, 2
549130, 549137, 2
549137, 549133, 2
549137, 549136, 2
549137, 549135, 2
549137, 549130, 2
549131, 549129, 2
549131, 549132, 2
