624091, 624090, 2
624091, 624092, 2
624091, 624089, 2
624091, 624093, 2
624095, 624096, 1
624095, 624094, 2
624093, 624091, 2
624093, 624092, 2
624093, 624090, 2
624093, 624094, 2
624097, 624098, 1
624097, 624096, 2
624097, 624100, 2
624097, 624094, 2
624098, 624097, 2
624098, 624099, 1
624100, 624097, 2
624100, 624099, 2
624100, 624101, 1
624094, 624092, 2
624094, 624095, 1
624094, 624097, 2
624094, 624093, 2
624094, 624096, 2
624102, 624101, 2
624089, 624091, 2
624089, 624090, 1
624090, 624091, 8
624090, 624092, 1
624090, 624089, 2
624090, 624093, 2
624092, 624091, 2
624092, 624090, 2
624092, 624093, 3
624092, 624094, 1
624099, 624098, 2
624099, 624100, 1
624096, 624095, 2
624096, 624097, 1
624096, 624094, 2
624101, 624102, 1
624101, 624100, 2
