418195, 418201, 2
418195, 418194, 2
418195, 418200, 2
418195, 418193, 2
418195, 418197, 6
418195, 418202, 1
418195, 418198, 2
418195, 418196, 4
418195, 418199, 2
418206, 418205, 2
418206, 418207, 2
418193, 418195, 2
418193, 418194, 1
418193, 418192, 2
418193, 418190, 2
418193, 418197, 2
418193, 418202, 2
418193, 418191, 2
418193, 418196, 2
418193, 418198, 2
418192, 418191, 2
418192, 418193, 1
418192, 418190, 2
418192, 418189, 2
418190, 418191, 8
418190, 418193, 2
418190, 418192, 1
418190, 418189, 2
418189, 418192, 2
418189, 418190, 1
418189, 418197, 2
418189, 418191, 2
418189, 418196, 2
418189, 418188, 2
418202, 418195, 2
418202, 418201, 2
418202, 418194, 2
418202, 418197, 2
418202, 418198, 2
418202, 418193, 2
418202, 418203, 1
418202, 418199, 2
418203, 418201, 2
418203, 418194, 2
418203, 418204, 1
418203, 418197, 2
418203, 418202, 2
418203, 418199, 2
418201, 418195, 2
418201, 418194, 2
418201, 418204, 2
418201, 418202, 2
418201, 418200, 2
418201, 418198, 2
418201, 418203, 2
418201, 418205, 2
418194, 418195, 1
418194, 418201, 2
418194, 418193, 2
418194, 418197, 2
418194, 418202, 2
418194, 418198, 2
418194, 418196, 2
418194, 418203, 2
418194, 418205, 2
418194, 418199, 2
418200, 418195, 2
418200, 418201, 0
418200, 418204, 2
418200, 418198, 2
418200, 418196, 2
418200, 418205, 2
418207, 418206, 2
418207, 418205, 2
418197, 418195, 2
418197, 418194, 2
418197, 418189, 2
418197, 418202, 2
418197, 418203, 2
418197, 418193, 2
418197, 418188, 2
418197, 418199, 1
418204, 418201, 2
418204, 418203, 2
418204, 418200, 2
418204, 418205, 1
418204, 418199, 2
418191, 418196, 2
418191, 418192, 2
418191, 418193, 2
418191, 418190, 2
418191, 418189, 2
418196, 418195, 2
418196, 418194, 2
418196, 418200, 1
418196, 418189, 2
418196, 418198, 0
418196, 418193, 2
418196, 418191, 2
418188, 418197, 2
418188, 418189, 1
418198, 418195, 2
418198, 418201, 2
418198, 418194, 2
418198, 418200, 2
418198, 418193, 2
418198, 418202, 2
418198, 418196, 2
418205, 418201, 2
418205, 418206, 4
418205, 418194, 2
418205, 418204, 2
418205, 418207, 1
418205, 418200, 2
418205, 418199, 2
418199, 418195, 2
418199, 418194, 2
418199, 418204, 2
418199, 418197, 2
418199, 418202, 2
418199, 418203, 2
418199, 418205, 2
