549836, 549835, 2
549836, 549837, 2
549836, 549838, 2
549836, 549834, 2
549833, 549834, 2
549833, 549832, 2
549840, 549838, 2
549840, 549839, 2
549840, 549841, 3
549840, 549842, 1
549835, 549836, 2
549835, 549834, 2
549835, 549838, 2
549837, 549836, 2
549837, 549838, 2
549837, 549834, 2
549838, 549836, 2
549838, 549840, 2
549838, 549834, 2
549838, 549841, 2
549838, 549835, 2
549838, 549837, 2
549838, 549843, 2
549838, 549839, 2
549838, 549842, 2
549843, 549838, 2
549843, 549842, 2
549843, 549841, 2
549834, 549836, 2
549834, 549833, 2
549834, 549838, 2
549834, 549832, 2
549834, 549835, 2
549834, 549837, 2
549839, 549840, 1
549839, 549838, 2
549832, 549833, 1
549832, 549834, 2
549841, 549840, 2
549841, 549843, 2
549841, 549838, 2
549841, 549842, 2
549842, 549840, 2
549842, 549843, 3
549842, 549838, 2
549842, 549841, 2
