644427, 644428, 2
644427, 644426, 2
644429, 644428, 2
644429, 644430, 0
644423, 644424, 1
644430, 644429, 2
644424, 644426, 1
644424, 644423, 2
644424, 644425, 3
644428, 644427, 2
644428, 644429, 1
644428, 644426, 2
644426, 644427, 3
644426, 644428, 1
644426, 644425, 2
644426, 644424, 2
644425, 644426, 2
644425, 644424, 2
