335715, 335716, 8
335715, 335717, 1
335715, 335714, 2
335721, 335720, 2
335721, 335722, 2
335709, 335710, 1
335726, 335724, 2
335726, 335725, 2
335714, 335715, 1
335714, 335713, 2
335714, 335716, 2
335712, 335713, 1
335712, 335711, 2
335713, 335712, 2
335713, 335714, 1
335719, 335720, 1
335719, 335718, 2
335720, 335721, 3
335720, 335719, 2
335720, 335722, 1
335710, 335709, 2
335710, 335711, 1
335722, 335721, 2
335722, 335724, 2
335722, 335720, 2
335722, 335723, 1
335717, 335715, 2
335717, 335716, 2
335717, 335718, 1
335718, 335719, 1
335718, 335716, 2
335718, 335717, 2
335716, 335715, 2
335716, 335718, 2
335716, 335717, 2
335716, 335714, 2
335724, 335723, 2
335724, 335726, 2
335724, 335725, 2
335724, 335722, 2
335723, 335724, 8
335723, 335725, 1
335723, 335722, 2
335725, 335723, 2
335725, 335724, 2
335725, 335726, 1
335711, 335712, 1
335711, 335710, 2
