571104, 571105, 1
571104, 571102, 2
571104, 571103, 2
571093, 571091, 2
571093, 571094, 1
571093, 571092, 2
571102, 571104, 2
571102, 571101, 2
571102, 571103, 2
571102, 571105, 2
571102, 571106, 2
571101, 571102, 3
571101, 571100, 2
571101, 571103, 1
571096, 571095, 2
571096, 571097, 1
571095, 571096, 1
571095, 571097, 2
571095, 571094, 2
571091, 571093, 2
571091, 571092, 1
571094, 571095, 1
571094, 571097, 2
571094, 571093, 2
571105, 571104, 2
571105, 571102, 2
571105, 571107, 2
571105, 571103, 2
571105, 571106, 1
571098, 571099, 1
571098, 571097, 2
571099, 571098, 2
571099, 571100, 1
571097, 571098, 1
571097, 571096, 2
571097, 571095, 2
571097, 571094, 2
571103, 571104, 1
571103, 571102, 2
571103, 571100, 2
571103, 571101, 2
571103, 571105, 2
571103, 571106, 2
571108, 571107, 2
571100, 571101, 1
571100, 571103, 2
571100, 571099, 2
571106, 571102, 2
571106, 571105, 2
571106, 571103, 2
571106, 571107, 1
571107, 571105, 2
571107, 571106, 2
571107, 571108, 1
571092, 571093, 1
571092, 571091, 2
