570287, 570286, 2
570287, 570288, 1
570288, 570286, 2
570288, 570285, 2
570288, 570287, 2
570285, 570288, 2
570285, 570286, 2
570285, 570283, 2
570285, 570284, 2
570285, 570282, 2
570284, 570286, 1
570284, 570283, 2
570284, 570285, 8
570280, 570279, 2
570280, 570281, 1
570283, 570282, 2
570283, 570284, 1
570283, 570285, 2
570283, 570281, 2
570279, 570282, 2
570279, 570280, 1
570286, 570284, 2
570286, 570288, 2
570286, 570285, 2
570286, 570287, 1
570282, 570279, 2
570282, 570283, 2
570282, 570285, 2
570282, 570281, 2
570281, 570282, 8
570281, 570283, 1
570281, 570280, 2
