406022, 406026, 2
406022, 406021, 2
406022, 406023, 2
406022, 406025, 2
406022, 406024, 2
406021, 406022, 3
406021, 406023, 1
406021, 406024, 2
406023, 406022, 2
406023, 406021, 2
406023, 406024, 1
406025, 406022, 2
406025, 406026, 1
406025, 406024, 2
406026, 406022, 2
406026, 406027, 0
406026, 406025, 2
406026, 406024, 2
406027, 406026, 2
406024, 406022, 2
406024, 406021, 2
406024, 406023, 2
406024, 406025, 1
406024, 406026, 2
