523206, 523203, 2
523206, 523205, 2
523206, 523207, 1
523206, 523204, 2
523205, 523206, 2
523205, 523203, 2
523205, 523204, 2
523207, 523206, 2
523204, 523206, 1
523204, 523205, 3
523204, 523203, 2
523203, 523206, 2
523203, 523205, 2
523203, 523202, 2
523203, 523204, 1
523201, 523202, 1
523202, 523203, 1
523202, 523201, 2
