379463, 379464, 1
379468, 379466, 2
379468, 379467, 2
379468, 379469, 1
379466, 379465, 2
379466, 379468, 1
379466, 379467, 3
379465, 379464, 2
379465, 379466, 1
379464, 379463, 2
379464, 379465, 1
379469, 379468, 2
379469, 379470, 1
379470, 379469, 2
379467, 379468, 2
379467, 379466, 2
