608295, 608294, 2
608295, 608293, 2
608295, 608296, 1
608291, 608290, 2
608291, 608292, 2
608290, 608291, 3
608290, 608292, 1
608292, 608291, 2
608292, 608290, 2
608292, 608293, 1
608296, 608295, 2
608296, 608294, 2
608294, 608295, 2
608294, 608296, 2
608294, 608293, 2
608293, 608295, 1
608293, 608294, 0
608293, 608292, 2
