515480, 515479, 2
515480, 515478, 2
515480, 515481, 1
515479, 515480, 2
515479, 515478, 2
515479, 515481, 2
515478, 515479, 0
515478, 515480, 1
515478, 515481, 2
515482, 515483, 1
515482, 515481, 2
515483, 515482, 2
515483, 515481, 2
515481, 515479, 2
515481, 515480, 2
515481, 515482, 1
515481, 515478, 2
515481, 515483, 2
