421553, 421551, 2
421553, 421552, 2
421553, 421554, 2
421557, 421556, 2
421557, 421558, 1
421557, 421555, 2
421557, 421554, 2
421555, 421556, 8
421555, 421557, 1
421555, 421554, 2
421556, 421558, 2
421556, 421557, 2
421556, 421555, 2
421556, 421554, 2
421558, 421556, 2
421558, 421557, 2
421551, 421553, 0
421551, 421552, 3
421551, 421554, 1
421552, 421553, 2
421552, 421551, 2
421552, 421554, 2
421554, 421553, 2
421554, 421557, 2
421554, 421555, 1
421554, 421556, 2
421554, 421551, 2
421554, 421552, 2
