641953, 641952, 2
641953, 641954, 1
641958, 641959, 1
641958, 641957, 2
641958, 641956, 2
641954, 641953, 2
641954, 641955, 1
641951, 641950, 2
641951, 641952, 1
641955, 641954, 2
641955, 641956, 1
641947, 641948, 1
641947, 641952, 2
641947, 641949, 2
641950, 641951, 1
641950, 641949, 2
641952, 641951, 2
641952, 641953, 1
641952, 641947, 2
641949, 641948, 2
641949, 641950, 1
641949, 641947, 2
641956, 641957, 1
641956, 641958, 2
641956, 641955, 2
641948, 641947, 2
641948, 641949, 1
641959, 641958, 2
641957, 641958, 1
641957, 641956, 2
