608131, 608130, 2
608131, 608133, 2
608131, 608132, 1
608129, 608130, 1
608133, 608134, 2
608133, 608132, 2
608133, 608131, 2
608134, 608133, 2
608134, 608132, 2
608130, 608131, 1
608130, 608129, 2
608132, 608131, 2
608132, 608133, 3
608132, 608134, 1
