641680, 641676, 2
641680, 641681, 3
641680, 641682, 1
641680, 641675, 2
641680, 641679, 2
641680, 641677, 2
641680, 641678, 2
641673, 641672, 2
641673, 641674, 1
641681, 641680, 2
641681, 641679, 2
641681, 641682, 2
641682, 641680, 2
641682, 641679, 2
641682, 641681, 2
641675, 641680, 1
641675, 641676, 3
641675, 641674, 2
641675, 641678, 2
641672, 641673, 1
641672, 641674, 2
641679, 641680, 2
641679, 641681, 2
641679, 641682, 2
641679, 641677, 2
641679, 641678, 2
641678, 641680, 2
641678, 641679, 1
641678, 641676, 2
641678, 641675, 2
641678, 641677, 2
641677, 641680, 2
641677, 641679, 2
641677, 641676, 2
641677, 641678, 1
641674, 641672, 2
641674, 641673, 2
641674, 641676, 2
641674, 641675, 1
641676, 641680, 2
641676, 641674, 2
641676, 641677, 2
641676, 641675, 2
641676, 641678, 2
