421411, 421410, 2
421411, 421409, 2
421411, 421412, 2
421411, 421413, 2
421407, 421409, 1
421407, 421408, 3
421408, 421407, 2
421408, 421409, 2
421413, 421411, 2
421413, 421412, 2
421410, 421411, 8
421410, 421409, 2
421410, 421412, 1
421409, 421411, 2
421409, 421407, 2
421409, 421408, 2
421409, 421412, 2
421409, 421410, 1
421412, 421411, 2
421412, 421409, 2
421412, 421410, 2
421412, 421413, 1
