625430, 625433, 2
625430, 625429, 2
625430, 625432, 2
625433, 625430, 2
625433, 625431, 2
625433, 625429, 2
625433, 625432, 2
625431, 625433, 2
625431, 625429, 2
625431, 625432, 1
625429, 625430, 6
625429, 625433, 1
625429, 625431, 3
625429, 625432, 2
625432, 625430, 2
625432, 625433, 2
625432, 625431, 2
625432, 625429, 2
