495529, 495530, 1
495529, 495528, 2
495527, 495528, 1
495527, 495532, 2
495531, 495530, 2
495531, 495532, 2
495530, 495529, 2
495530, 495531, 1
495534, 495532, 2
495534, 495533, 2
495528, 495529, 0
495528, 495527, 2
495528, 495532, 1
495533, 495534, 2
495533, 495532, 2
495532, 495534, 3
495532, 495528, 2
495532, 495531, 2
495532, 495533, 0
495532, 495527, 2
