570174, 570173, 2
570174, 570175, 1
570176, 570177, 1
570176, 570175, 2
570176, 570172, 2
570173, 570174, 1
570173, 570172, 2
570173, 570171, 2
570175, 570174, 2
570175, 570176, 2
570175, 570177, 2
570175, 570172, 2
570171, 570173, 0
570171, 570170, 2
570171, 570169, 2
570171, 570172, 3
570170, 570169, 2
570170, 570172, 2
570170, 570171, 2
570169, 570170, 3
570169, 570171, 1
570172, 570176, 2
570172, 570173, 2
570172, 570175, 2
570172, 570177, 2
570172, 570170, 2
570172, 570171, 2
570177, 570176, 2
570177, 570175, 2
570177, 570172, 2
