534250, 534249, 2
534250, 534251, 1
534250, 534252, 2
534250, 534247, 2
534250, 534248, 2
534251, 534250, 2
534251, 534249, 2
534251, 534248, 2
534251, 534252, 2
534251, 534253, 2
534247, 534250, 2
534247, 534249, 8
534247, 534252, 1
534247, 534248, 3
534248, 534250, 2
534248, 534249, 2
534248, 534251, 2
534248, 534247, 2
534248, 534252, 2
534249, 534250, 1
534249, 534251, 2
534249, 534247, 2
534249, 534252, 2
534249, 534248, 2
534255, 534254, 2
534255, 534252, 2
534255, 534253, 2
534253, 534255, 2
534253, 534251, 2
534253, 534254, 1
534253, 534252, 2
534254, 534255, 1
534254, 534252, 2
534254, 534253, 2
534252, 534250, 2
534252, 534251, 2
534252, 534253, 3
534252, 534249, 2
534252, 534255, 2
534252, 534248, 2
534252, 534254, 2
534252, 534247, 2
