495435, 495436, 8
495435, 495437, 1
495435, 495434, 2
495431, 495433, 2
495431, 495432, 1
495438, 495436, 2
495438, 495437, 2
495434, 495435, 1
495434, 495436, 2
495434, 495433, 2
495436, 495435, 2
495436, 495437, 2
495436, 495438, 2
495436, 495434, 2
495437, 495435, 2
495437, 495436, 2
495437, 495438, 1
495432, 495431, 2
495432, 495433, 1
495433, 495434, 1
495433, 495431, 2
495433, 495432, 2
