491515, 491514, 2
491515, 491516, 1
491530, 491533, 2
491530, 491531, 1
491530, 491528, 2
491530, 491532, 2
491530, 491527, 2
491530, 491529, 2
491521, 491519, 2
491521, 491522, 1
491521, 491518, 2
491521, 491520, 2
491521, 491523, 2
491525, 491526, 1
491525, 491524, 2
491525, 491523, 2
491520, 491517, 2
491520, 491519, 2
491520, 491521, 1
491520, 491518, 2
491522, 491521, 2
491522, 491523, 1
491528, 491530, 2
491528, 491526, 2
491528, 491527, 2
491528, 491529, 2
491526, 491528, 2
491526, 491525, 2
491526, 491527, 1
491526, 491529, 2
491517, 491519, 2
491517, 491518, 1
491517, 491516, 2
491517, 491520, 2
491516, 491515, 2
491516, 491514, 2
491516, 491517, 1
491527, 491528, 8
491527, 491530, 2
491527, 491529, 1
491527, 491526, 2
491514, 491515, 1
491514, 491516, 2
491531, 491530, 2
491531, 491533, 2
491531, 491532, 1
491533, 491530, 2
491533, 491532, 2
491533, 491531, 2
491524, 491525, 1
491524, 491523, 2
491519, 491520, 2
491519, 491521, 2
491519, 491517, 2
491519, 491518, 2
491529, 491530, 1
491529, 491528, 2
491529, 491527, 2
491529, 491526, 2
491518, 491519, 8
491518, 491521, 2
491518, 491517, 2
491518, 491520, 1
491532, 491530, 2
491532, 491533, 0
491532, 491531, 2
491523, 491521, 2
491523, 491525, 2
491523, 491524, 1
491523, 491522, 2
