656482, 656484, 2
656482, 656483, 1
656482, 656481, 2
656480, 656479, 2
656480, 656481, 1
656484, 656482, 2
656484, 656483, 2
656484, 656485, 1
656477, 656479, 2
656477, 656476, 2
656477, 656478, 2
656475, 656476, 1
656475, 656479, 2
656475, 656478, 2
656479, 656476, 2
656479, 656480, 1
656479, 656478, 2
656479, 656477, 2
656479, 656475, 2
656486, 656483, 2
656486, 656485, 2
656483, 656482, 2
656483, 656484, 1
656483, 656486, 2
656483, 656481, 2
656483, 656485, 2
656485, 656486, 1
656485, 656484, 2
656485, 656483, 2
656476, 656479, 1
656476, 656478, 0
656476, 656477, 3
656476, 656475, 2
656478, 656479, 2
656478, 656476, 2
656478, 656477, 2
656478, 656475, 2
656481, 656482, 1
656481, 656480, 2
656481, 656483, 2
