378134, 378132, 2
378134, 378135, 1
378134, 378133, 2
378136, 378135, 2
378136, 378133, 2
378132, 378134, 1
378132, 378135, 2
378132, 378133, 3
378135, 378134, 2
378135, 378136, 1
378135, 378132, 2
378135, 378133, 2
378133, 378134, 2
378133, 378136, 2
378133, 378132, 2
378133, 378135, 2
