641800, 641803, 2
641800, 641799, 2
641800, 641801, 2
641800, 641802, 2
641800, 641805, 2
641803, 641800, 2
641803, 641805, 2
641803, 641804, 1
641803, 641799, 2
641803, 641801, 2
641803, 641802, 2
641810, 641809, 2
641799, 641804, 2
641799, 641800, 3
641799, 641803, 2
641799, 641801, 1
641801, 641799, 2
641801, 641800, 2
641801, 641803, 2
641801, 641802, 1
641801, 641804, 2
641802, 641804, 2
641802, 641800, 2
641802, 641803, 0
641802, 641801, 2
641802, 641805, 1
641807, 641808, 1
641807, 641806, 2
641807, 641805, 2
641808, 641807, 2
641808, 641809, 1
641806, 641807, 1
641806, 641805, 2
641805, 641807, 2
641805, 641800, 2
641805, 641803, 2
641805, 641806, 1
641805, 641804, 2
641805, 641802, 2
641809, 641808, 2
641809, 641810, 1
641804, 641799, 2
641804, 641803, 2
641804, 641801, 2
641804, 641802, 2
641804, 641805, 2
