624031, 624030, 2
624031, 624032, 2
624031, 624029, 2
624031, 624033, 2
624031, 624027, 2
624031, 624034, 2
624028, 624030, 2
624028, 624029, 1
624028, 624025, 2
624028, 624027, 2
624028, 624026, 2
624032, 624033, 1
624032, 624030, 2
624032, 624031, 2
624032, 624034, 2
624033, 624032, 2
624033, 624030, 2
624033, 624031, 2
624033, 624034, 2
624030, 624025, 2
624030, 624027, 2
624030, 624034, 1
624030, 624032, 8
624030, 624029, 2
624030, 624033, 2
624030, 624026, 2
624030, 624031, 3
624030, 624028, 2
624034, 624032, 2
624034, 624025, 2
624034, 624033, 2
624034, 624030, 2
624034, 624031, 2
624025, 624028, 2
624025, 624027, 8
624025, 624024, 2
624025, 624023, 2
624025, 624029, 2
624025, 624026, 3
624025, 624030, 1
624025, 624034, 2
624024, 624023, 2
624024, 624025, 2
624024, 624026, 2
624024, 624022, 2
624022, 624023, 1
624022, 624024, 2
624023, 624025, 1
624023, 624024, 8
624023, 624022, 2
624029, 624025, 2
624029, 624027, 2
624029, 624031, 2
624029, 624026, 2
624029, 624030, 2
624029, 624028, 2
624026, 624025, 2
624026, 624027, 2
624026, 624024, 2
624026, 624029, 2
624026, 624030, 2
624026, 624028, 2
624027, 624025, 2
624027, 624028, 1
624027, 624030, 2
624027, 624029, 2
624027, 624026, 2
624027, 624031, 2
