493502, 493504, 2
493502, 493503, 2
493502, 493501, 2
493503, 493502, 2
493503, 493501, 2
493503, 493504, 1
493501, 493502, 0
493501, 493503, 1
493501, 493504, 2
493504, 493502, 2
493504, 493503, 2
493504, 493501, 2
