421589, 421586, 2
421589, 421587, 2
421589, 421588, 2
421589, 421590, 1
421584, 421585, 2
421584, 421583, 2
421584, 421586, 2
421583, 421585, 0
421583, 421584, 3
421583, 421586, 1
421587, 421589, 1
421587, 421588, 8
421587, 421586, 2
421588, 421589, 2
421588, 421590, 2
421588, 421587, 2
421588, 421586, 2
421585, 421584, 2
421585, 421583, 2
421585, 421586, 2
421586, 421589, 2
421586, 421584, 2
421586, 421583, 2
421586, 421587, 1
421586, 421588, 2
421586, 421585, 2
421590, 421589, 2
421590, 421588, 2
