492034, 492032, 2
492034, 492036, 1
492034, 492033, 2
492034, 492035, 6
492034, 492037, 2
492029, 492030, 1
492029, 492028, 2
492019, 492018, 2
492019, 492020, 1
492019, 492017, 2
492019, 492021, 2
492018, 492020, 2
492018, 492024, 2
492018, 492017, 2
492018, 492019, 2
492018, 492023, 2
492038, 492037, 2
492017, 492018, 3
492017, 492020, 2
492017, 492019, 1
492017, 492021, 2
492026, 492024, 2
492026, 492027, 1
492026, 492025, 2
492023, 492018, 2
492023, 492024, 1
492023, 492022, 2
492021, 492020, 2
492021, 492017, 2
492021, 492019, 2
492021, 492022, 1
492036, 492033, 2
492036, 492037, 2
492036, 492034, 2
492036, 492035, 2
492036, 492032, 2
492036, 492031, 2
492032, 492036, 2
492032, 492033, 2
492032, 492037, 2
492032, 492031, 2
492032, 492034, 2
492031, 492037, 1
492031, 492036, 2
492031, 492033, 0
492031, 492032, 3
492031, 492030, 2
492020, 492018, 2
492020, 492017, 2
492020, 492019, 2
492020, 492021, 1
492025, 492024, 2
492025, 492026, 1
492030, 492029, 2
492030, 492033, 2
492030, 492028, 2
492030, 492031, 1
492035, 492036, 2
492035, 492033, 2
492035, 492034, 2
492022, 492023, 2
492022, 492021, 2
492033, 492037, 2
492033, 492034, 1
492033, 492032, 2
492033, 492036, 2
492033, 492030, 2
492033, 492035, 2
492033, 492031, 2
492037, 492033, 2
492037, 492034, 2
492037, 492036, 2
492037, 492032, 2
492037, 492038, 1
492037, 492031, 2
492028, 492029, 1
492028, 492027, 2
492028, 492030, 2
492024, 492018, 2
492024, 492025, 1
492024, 492026, 2
492024, 492023, 2
492027, 492026, 2
492027, 492028, 2
