496123, 496126, 2
496123, 496124, 1
496123, 496122, 2
496125, 496126, 3
496125, 496124, 2
496125, 496127, 2
496124, 496123, 2
496124, 496126, 2
496124, 496125, 1
496126, 496123, 2
496126, 496125, 2
496126, 496124, 2
496126, 496127, 3
496120, 496121, 1
496121, 496120, 2
496121, 496122, 1
496127, 496126, 2
496127, 496125, 2
496122, 496123, 1
496122, 496121, 2
