449965, 449967, 2
449965, 449964, 2
449965, 449966, 1
449968, 449967, 2
449968, 449970, 2
449968, 449969, 1
449964, 449965, 1
449964, 449967, 2
449964, 449963, 2
449964, 449966, 2
449966, 449965, 2
449966, 449967, 1
449966, 449964, 2
449960, 449959, 2
449960, 449962, 2
449960, 449961, 1
449960, 449958, 2
449958, 449959, 3
449958, 449961, 2
449958, 449960, 1
449959, 449958, 2
449959, 449961, 2
449959, 449960, 2
449962, 449963, 1
449962, 449961, 2
449962, 449960, 2
449970, 449968, 2
449970, 449967, 2
449970, 449969, 2
449963, 449964, 1
449963, 449962, 2
449967, 449965, 2
449967, 449968, 1
449967, 449964, 2
449967, 449966, 2
449967, 449970, 2
449967, 449969, 2
449961, 449960, 2
449961, 449959, 2
449961, 449962, 1
449961, 449958, 2
449969, 449968, 2
449969, 449970, 1
449969, 449967, 2
