658249, 658248, 2
658249, 658250, 1
658248, 658249, 1
658248, 658250, 2
658254, 658253, 2
658254, 658250, 2
658252, 658253, 1
658252, 658251, 2
658252, 658250, 2
658253, 658252, 2
658253, 658254, 0
658250, 658249, 2
658250, 658251, 1
658250, 658252, 2
658250, 658248, 2
658250, 658254, 2
658251, 658252, 1
658251, 658250, 2
