433247, 433250, 2
433247, 433248, 2
433247, 433249, 2
433247, 433246, 2
433249, 433247, 2
433249, 433246, 2
433249, 433251, 1
433249, 433252, 2
433249, 433248, 2
433249, 433250, 3
433250, 433251, 2
433250, 433252, 2
433250, 433247, 2
433250, 433248, 2
433250, 433249, 2
433251, 433252, 1
433251, 433250, 2
433251, 433249, 2
433252, 433251, 2
433252, 433250, 2
433252, 433249, 2
433248, 433247, 2
433248, 433250, 2
433248, 433249, 1
433248, 433246, 2
433246, 433247, 3
433246, 433248, 1
433246, 433249, 2
