571918, 571919, 3
571918, 571921, 0
571918, 571920, 2
571919, 571918, 2
571919, 571921, 2
571919, 571920, 1
571921, 571918, 2
571921, 571919, 2
571921, 571920, 2
571920, 571918, 2
571920, 571919, 2
571920, 571921, 2
