492737, 492735, 2
492737, 492729, 2
492737, 492738, 1
492737, 492736, 2
492739, 492738, 2
492724, 492725, 1
492724, 492726, 2
492724, 492723, 2
492724, 492722, 2
492716, 492715, 2
492716, 492718, 2
492716, 492717, 2
492726, 492724, 2
492726, 492725, 2
492726, 492727, 1
492718, 492716, 2
492718, 492715, 2
492718, 492717, 2
492718, 492719, 3
492718, 492720, 1
492712, 492714, 1
492712, 492713, 3
492712, 492711, 2
492712, 492720, 2
492727, 492726, 2
492727, 492728, 1
492733, 492732, 2
492733, 492734, 2
492733, 492735, 2
492723, 492722, 2
492723, 492724, 1
492728, 492729, 1
492728, 492730, 2
492728, 492727, 2
492720, 492721, 1
492720, 492719, 2
492720, 492718, 2
492720, 492712, 2
492720, 492715, 2
492710, 492711, 1
492732, 492733, 3
492732, 492731, 2
492732, 492735, 1
492735, 492732, 2
492735, 492737, 1
492735, 492734, 2
492735, 492733, 2
492735, 492736, 3
492714, 492715, 1
492714, 492712, 2
492714, 492713, 2
492721, 492722, 1
492721, 492720, 2
492729, 492737, 2
492729, 492730, 3
492729, 492728, 2
492729, 492731, 1
492738, 492737, 2
492738, 492739, 1
492713, 492714, 2
492713, 492712, 2
492713, 492711, 2
492715, 492714, 2
492715, 492716, 3
492715, 492718, 1
492715, 492717, 8
492715, 492720, 2
492722, 492721, 2
492722, 492723, 1
492722, 492724, 2
492730, 492729, 2
492730, 492728, 2
492730, 492731, 2
492711, 492710, 2
492711, 492712, 1
492711, 492713, 2
492725, 492726, 1
492725, 492724, 2
492719, 492718, 2
492719, 492720, 2
492736, 492737, 2
492736, 492735, 2
492734, 492733, 2
492734, 492735, 2
492717, 492716, 2
492717, 492715, 2
492717, 492718, 2
492731, 492729, 2
492731, 492730, 2
492731, 492732, 1
