625602, 625601, 2
625602, 625604, 1
625602, 625603, 8
625602, 625605, 2
625606, 625604, 2
625606, 625603, 2
625606, 625605, 2
625603, 625602, 2
625603, 625604, 2
625603, 625606, 2
625605, 625602, 2
625605, 625604, 2
625605, 625606, 2
625605, 625601, 2
625601, 625602, 1
625601, 625604, 2
625601, 625605, 2
625604, 625602, 2
625604, 625601, 2
625604, 625606, 1
625604, 625603, 2
625604, 625605, 6
