549987, 549986, 2
549987, 549982, 2
549987, 549988, 1
549989, 549988, 2
549981, 549983, 2
549981, 549982, 3
549981, 549979, 2
549981, 549984, 2
549981, 549980, 2
549977, 549976, 2
549977, 549978, 2
549977, 549979, 2
549988, 549987, 2
549988, 549989, 1
549976, 549978, 1
549976, 549977, 3
549979, 549981, 2
549979, 549982, 2
549979, 549984, 2
549979, 549977, 2
549979, 549983, 1
549979, 549985, 2
549979, 549978, 2
549979, 549980, 4
549985, 549986, 1
549985, 549984, 2
549985, 549979, 2
549982, 549987, 2
549982, 549981, 2
549982, 549984, 2
549982, 549986, 2
549982, 549983, 2
549982, 549979, 2
549982, 549980, 2
549984, 549985, 1
549984, 549982, 2
549984, 549979, 2
549984, 549983, 2
549984, 549981, 2
549986, 549987, 1
549986, 549985, 2
549986, 549982, 2
549983, 549981, 2
549983, 549982, 2
549983, 549984, 1
549983, 549979, 2
549980, 549981, 1
549980, 549982, 2
549980, 549979, 2
549978, 549976, 2
549978, 549977, 2
549978, 549979, 1
