451513, 451512, 2
451513, 451511, 2
451513, 451515, 2
451513, 451514, 1
451513, 451509, 2
451516, 451517, 1
451516, 451515, 2
451524, 451523, 2
451524, 451525, 1
451527, 451525, 2
451527, 451526, 2
451507, 451506, 2
451507, 451509, 1
451507, 451508, 0
451507, 451504, 2
451507, 451505, 2
451510, 451509, 2
451510, 451511, 1
451510, 451512, 2
451519, 451520, 1
451519, 451517, 2
451519, 451518, 2
451522, 451520, 2
451522, 451521, 2
451522, 451523, 2
451525, 451524, 2
451525, 451527, 2
451525, 451526, 1
451525, 451523, 2
451515, 451517, 2
451515, 451513, 2
451515, 451516, 1
451515, 451514, 2
451518, 451519, 1
451518, 451517, 2
451506, 451505, 2
451506, 451507, 1
451506, 451504, 2
451506, 451509, 2
451512, 451511, 2
451512, 451513, 2
451512, 451510, 2
451505, 451506, 1
451505, 451509, 2
451505, 451507, 2
451505, 451504, 2
451504, 451506, 2
451504, 451505, 1
451504, 451507, 2
451523, 451524, 1
451523, 451522, 2
451523, 451525, 2
451523, 451520, 2
451523, 451521, 2
451508, 451509, 2
451508, 451507, 2
451509, 451505, 2
451509, 451508, 2
451509, 451513, 2
451509, 451506, 2
451509, 451507, 2
451509, 451510, 1
451526, 451527, 1
451526, 451525, 2
451511, 451512, 0
451511, 451513, 1
451511, 451510, 2
451520, 451519, 2
451520, 451522, 2
451520, 451521, 1
451520, 451523, 2
451521, 451522, 2
451521, 451523, 1
451521, 451520, 2
451517, 451519, 2
451517, 451515, 2
451517, 451516, 2
451517, 451518, 1
451514, 451515, 1
451514, 451513, 2
