421229, 421227, 2
421229, 421230, 1
421229, 421228, 2
421229, 421226, 2
421227, 421226, 2
421227, 421229, 1
421227, 421228, 8
421225, 421226, 2
421225, 421224, 2
421226, 421225, 2
421226, 421229, 2
421226, 421227, 1
421226, 421228, 2
421226, 421224, 2
421230, 421229, 2
421230, 421228, 2
421228, 421226, 2
421228, 421229, 2
421228, 421230, 2
421228, 421227, 2
421224, 421225, 3
421224, 421226, 1
