453855, 453854, 2
453855, 453856, 1
453848, 453847, 2
453848, 453852, 2
453848, 453849, 1
453848, 453850, 2
453848, 453845, 2
453848, 453846, 2
453848, 453851, 2
453858, 453859, 1
453858, 453857, 2
453849, 453848, 2
453849, 453847, 2
453849, 453852, 1
453849, 453850, 4
453849, 453845, 2
453849, 453846, 2
453849, 453851, 6
453841, 453842, 2
453841, 453838, 2
453841, 453843, 2
453841, 453840, 2
453837, 453838, 1
453837, 453836, 2
453835, 453836, 1
453835, 453834, 2
453846, 453848, 2
453846, 453847, 1
453846, 453849, 2
453846, 453850, 2
453846, 453845, 2
453846, 453851, 2
453834, 453835, 1
453834, 453836, 2
453834, 453833, 2
453834, 453832, 2
453844, 453845, 1
453844, 453843, 2
453839, 453842, 2
453839, 453838, 2
453839, 453843, 2
453839, 453840, 2
453860, 453861, 1
453860, 453859, 2
453852, 453850, 2
453852, 453848, 2
453852, 453853, 1
453852, 453849, 2
453852, 453851, 2
453828, 453830, 1
453828, 453829, 3
453850, 453848, 2
453850, 453847, 2
453850, 453849, 2
453850, 453852, 2
453850, 453845, 2
453850, 453853, 2
453850, 453846, 2
453838, 453839, 2
453838, 453836, 2
453838, 453841, 2
453838, 453842, 1
453838, 453837, 2
453838, 453840, 0
453853, 453850, 2
453853, 453854, 1
453853, 453852, 2
453853, 453851, 2
453851, 453848, 2
453851, 453847, 2
453851, 453849, 2
453851, 453852, 2
453851, 453854, 2
453851, 453853, 2
453851, 453846, 2
453832, 453831, 2
453832, 453830, 2
453832, 453833, 1
453832, 453834, 2
453836, 453837, 1
453836, 453835, 2
453836, 453834, 2
453836, 453838, 2
453842, 453839, 2
453842, 453838, 2
453842, 453843, 1
453842, 453840, 2
453842, 453841, 2
453831, 453830, 2
453831, 453832, 1
453845, 453848, 2
453845, 453847, 2
453845, 453843, 2
453845, 453849, 2
453845, 453850, 2
453845, 453846, 1
453845, 453844, 2
453857, 453859, 2
453857, 453858, 1
453857, 453856, 2
453840, 453842, 2
453840, 453839, 6
453840, 453838, 2
453840, 453843, 2
453840, 453841, 4
453859, 453861, 2
453859, 453857, 2
453859, 453860, 1
453859, 453858, 2
453830, 453831, 1
453830, 453829, 2
453830, 453828, 2
453830, 453832, 2
453847, 453848, 1
453847, 453849, 2
453847, 453850, 2
453847, 453845, 2
453847, 453846, 2
453847, 453851, 2
453843, 453839, 2
453843, 453841, 2
453843, 453842, 2
453843, 453845, 2
453843, 453840, 2
453843, 453844, 1
453856, 453855, 2
453856, 453857, 1
453862, 453861, 2
453862, 453863, 1
453863, 453864, 1
453863, 453862, 2
453863, 453861, 2
453864, 453863, 2
453854, 453855, 1
453854, 453853, 2
453854, 453851, 2
453861, 453863, 2
453861, 453859, 2
453861, 453862, 1
453861, 453860, 2
453833, 453834, 1
453833, 453832, 2
453829, 453830, 2
453829, 453828, 2
