550145, 550158, 2
550145, 550152, 2
550145, 550151, 2
550145, 550146, 2
550145, 550148, 2
550145, 550155, 2
550145, 550150, 2
550145, 550156, 2
550145, 550157, 2
550145, 550149, 2
550145, 550147, 2
550145, 550154, 2
550145, 550153, 2
550152, 550145, 2
550152, 550151, 2
550152, 550146, 2
550152, 550148, 2
550152, 550155, 2
550152, 550147, 2
550152, 550156, 2
550152, 550157, 2
550152, 550149, 2
550152, 550150, 2
550152, 550153, 2
550152, 550158, 2
550151, 550156, 2
550151, 550146, 2
550151, 550145, 2
550151, 550152, 2
550151, 550154, 2
550151, 550153, 2
550151, 550158, 2
550151, 550148, 2
550151, 550149, 2
550151, 550147, 2
550151, 550150, 2
550146, 550145, 2
550146, 550152, 2
550146, 550151, 2
550146, 550148, 2
550146, 550155, 2
550146, 550150, 2
550146, 550157, 2
550146, 550149, 2
550146, 550147, 2
550146, 550154, 2
550146, 550153, 2
550146, 550158, 2
550148, 550156, 2
550148, 550149, 2
550148, 550152, 2
550148, 550154, 2
550148, 550151, 2
550148, 550146, 2
550148, 550145, 2
550148, 550150, 2
550148, 550147, 2
550148, 550158, 2
550155, 550156, 2
550155, 550153, 2
550155, 550157, 2
550155, 550145, 2
550155, 550152, 2
550155, 550154, 2
550155, 550146, 2
550155, 550158, 2
550155, 550149, 2
550155, 550147, 2
550155, 550150, 2
550150, 550145, 2
550150, 550152, 2
550150, 550151, 2
550150, 550146, 2
550150, 550148, 2
550150, 550155, 2
550150, 550156, 2
550150, 550157, 2
550150, 550149, 2
550150, 550154, 2
550150, 550153, 2
550150, 550158, 2
550156, 550145, 2
550156, 550152, 2
550156, 550151, 2
550156, 550148, 2
550156, 550155, 2
550156, 550147, 2
550156, 550157, 2
550156, 550149, 2
550156, 550150, 2
550156, 550154, 2
550156, 550153, 2
550156, 550158, 2
550157, 550156, 2
550157, 550145, 2
550157, 550152, 2
550157, 550154, 2
550157, 550146, 2
550157, 550158, 2
550157, 550155, 2
550157, 550150, 2
550149, 550145, 2
550149, 550152, 2
550149, 550151, 2
550149, 550146, 2
550149, 550148, 2
550149, 550155, 2
550149, 550150, 2
550149, 550156, 2
550149, 550147, 2
550149, 550154, 2
550149, 550153, 2
550149, 550158, 2
550147, 550156, 2
550147, 550153, 2
550147, 550149, 2
550147, 550152, 2
550147, 550154, 2
550147, 550151, 2
550147, 550146, 2
550147, 550158, 2
550147, 550148, 2
550147, 550155, 2
550147, 550145, 2
550154, 550145, 2
550154, 550151, 2
550154, 550146, 2
550154, 550148, 2
550154, 550155, 2
550154, 550150, 2
550154, 550156, 2
550154, 550157, 2
550154, 550149, 2
550154, 550147, 2
550154, 550153, 2
550154, 550158, 2
550153, 550156, 2
550153, 550145, 2
550153, 550152, 2
550153, 550154, 2
550153, 550151, 2
550153, 550146, 2
550153, 550149, 2
550153, 550155, 2
550153, 550150, 2
550153, 550147, 2
550153, 550158, 2
550158, 550145, 2
550158, 550152, 2
550158, 550151, 2
550158, 550146, 2
550158, 550148, 2
550158, 550155, 2
550158, 550150, 2
550158, 550156, 2
550158, 550157, 2
550158, 550149, 2
550158, 550147, 2
550158, 550154, 2
550158, 550153, 2
