608199, 608200, 1
608202, 608201, 2
608202, 608203, 2
608202, 608200, 2
608203, 608205, 2
608203, 608202, 2
608203, 608201, 2
608203, 608204, 1
608200, 608202, 2
608200, 608199, 2
608200, 608201, 1
608201, 608202, 3
608201, 608203, 1
608201, 608200, 2
608205, 608203, 2
608205, 608204, 2
608204, 608205, 1
608204, 608203, 2
