403988, 403986, 2
403988, 403989, 1
403988, 403987, 2
403990, 403991, 2
403990, 403989, 2
403993, 403992, 2
403987, 403985, 2
403987, 403986, 2
403987, 403989, 2
403987, 403988, 2
403987, 403984, 2
403984, 403985, 2
403984, 403986, 2
403984, 403987, 2
403984, 403983, 2
403992, 403991, 2
403992, 403993, 1
403985, 403986, 2
403985, 403983, 2
403985, 403987, 2
403985, 403984, 2
403986, 403987, 3
403986, 403984, 2
403986, 403985, 2
403986, 403989, 2
403986, 403988, 1
403986, 403983, 2
403989, 403988, 2
403989, 403990, 3
403989, 403986, 2
403989, 403987, 2
403989, 403991, 1
403991, 403992, 1
403991, 403990, 2
403991, 403989, 2
403983, 403985, 8
403983, 403986, 1
403983, 403984, 3
