377157, 377155, 2
377157, 377162, 2
377157, 377156, 2
377157, 377159, 2
377157, 377158, 1
377165, 377163, 2
377165, 377166, 0
377165, 377164, 2
377165, 377167, 1
377163, 377162, 2
377163, 377165, 2
377163, 377160, 2
377163, 377164, 2
377163, 377161, 2
377163, 377159, 2
377163, 377167, 2
377150, 377152, 8
377150, 377151, 0
377150, 377153, 1
377150, 377149, 2
377150, 377148, 2
377147, 377145, 2
377147, 377146, 2
377147, 377151, 2
377147, 377149, 2
377147, 377148, 1
377161, 377163, 8
377161, 377162, 0
377161, 377160, 2
377161, 377159, 2
377161, 377164, 1
377171, 377167, 2
377171, 377170, 2
377171, 377168, 2
377171, 377172, 2
377167, 377169, 2
377167, 377165, 2
377167, 377168, 1
377167, 377163, 2
377167, 377170, 2
377167, 377171, 2
377167, 377166, 2
377152, 377151, 2
377152, 377155, 2
377152, 377153, 2
377152, 377150, 2
377152, 377149, 2
377139, 377141, 2
377139, 377140, 1
377166, 377165, 2
377166, 377167, 2
377156, 377155, 2
377156, 377157, 1
377155, 377152, 2
377155, 377157, 2
377155, 377153, 2
377155, 377156, 1
377155, 377154, 2
377170, 377169, 2
377170, 377167, 2
377170, 377171, 0
377170, 377168, 2
377170, 377172, 1
377149, 377152, 2
377149, 377147, 2
377149, 377150, 2
377149, 377148, 2
377148, 377147, 2
377148, 377151, 2
377148, 377150, 1
377148, 377149, 8
377145, 377147, 2
377145, 377146, 1
377145, 377144, 2
377145, 377143, 2
377141, 377139, 2
377141, 377142, 2
377141, 377143, 2
377141, 377140, 2
377164, 377163, 2
377164, 377162, 2
377164, 377161, 2
377164, 377165, 1
377143, 377145, 2
377143, 377141, 2
377143, 377144, 2
377143, 377142, 2
377151, 377152, 2
377151, 377147, 2
377151, 377153, 2
377151, 377150, 2
377151, 377148, 2
377168, 377169, 8
377168, 377170, 1
377168, 377171, 2
377168, 377167, 2
377144, 377145, 1
377144, 377142, 2
377144, 377143, 2
377144, 377140, 2
377158, 377162, 2
377158, 377157, 2
377158, 377160, 1
377158, 377159, 8
377173, 377172, 2
377140, 377139, 2
377140, 377141, 8
377140, 377144, 2
377140, 377142, 1
377162, 377157, 2
377162, 377164, 2
377162, 377158, 2
377162, 377163, 2
377162, 377160, 2
377162, 377161, 2
377146, 377147, 1
377146, 377145, 2
377153, 377155, 1
377153, 377152, 2
377153, 377154, 0
377153, 377150, 2
377153, 377151, 2
377160, 377163, 2
377160, 377162, 2
377160, 377161, 1
377160, 377159, 2
377160, 377158, 2
377169, 377170, 2
377169, 377172, 2
377169, 377168, 2
377169, 377167, 2
377172, 377169, 2
377172, 377170, 2
377172, 377171, 2
377172, 377173, 1
377159, 377163, 2
377159, 377157, 2
377159, 377161, 2
377159, 377160, 2
377159, 377158, 2
377142, 377141, 2
377142, 377144, 1
377142, 377143, 8
377142, 377140, 2
377154, 377155, 2
377154, 377153, 2
