534861, 534859, 2
534861, 534860, 2
534861, 534862, 2
534858, 534857, 2
534858, 534859, 2
534860, 534861, 3
534860, 534862, 1
534860, 534859, 2
534862, 534861, 2
534862, 534868, 2
534862, 534863, 1
534862, 534860, 2
534862, 534859, 2
534857, 534858, 3
534857, 534859, 1
534871, 534870, 2
534871, 534872, 1
534864, 534865, 3
534864, 534866, 2
534864, 534863, 2
534864, 534868, 1
534867, 534868, 2
534867, 534866, 2
534865, 534866, 1
534865, 534864, 2
534866, 534865, 2
534866, 534868, 2
534866, 534867, 1
534866, 534864, 2
534870, 534868, 2
534870, 534871, 1
534870, 534869, 2
534870, 534872, 2
534859, 534861, 2
534859, 534857, 2
534859, 534858, 2
534859, 534860, 1
534859, 534862, 2
534868, 534866, 2
534868, 534870, 2
534868, 534864, 2
534868, 534862, 2
534868, 534867, 2
534868, 534869, 1
534872, 534871, 2
534872, 534870, 2
534863, 534864, 1
534863, 534862, 2
534869, 534868, 2
534869, 534870, 1
