495413, 495415, 2
495413, 495411, 2
495413, 495414, 0
495413, 495412, 2
495413, 495410, 2
495414, 495415, 1
495414, 495413, 2
495414, 495412, 2
495414, 495410, 2
495416, 495415, 2
495415, 495413, 2
495415, 495414, 2
495415, 495416, 1
495411, 495413, 2
495411, 495412, 2
495411, 495410, 2
495412, 495411, 2
495412, 495413, 1
495412, 495414, 2
495412, 495410, 2
495410, 495411, 3
495410, 495413, 2
495410, 495414, 2
495410, 495412, 1
