456445, 456446, 1
456445, 456448, 2
456445, 456447, 2
456449, 456450, 1
456449, 456448, 2
456449, 456451, 2
456447, 456446, 2
456447, 456445, 2
456447, 456448, 1
456446, 456445, 2
456446, 456448, 2
456446, 456447, 1
456450, 456449, 2
456450, 456451, 1
456448, 456446, 2
456448, 456445, 2
456448, 456449, 1
456448, 456447, 2
456451, 456450, 2
456451, 456449, 2
