590261, 590262, 1
590261, 590260, 2
590265, 590266, 1
590265, 590264, 2
590260, 590261, 1
590260, 590262, 2
590268, 590267, 2
590267, 590268, 1
590267, 590266, 2
590266, 590267, 1
590266, 590265, 2
590262, 590261, 2
590262, 590260, 2
590262, 590263, 1
590263, 590262, 2
590263, 590264, 1
590264, 590265, 1
590264, 590263, 2
