494191, 494192, 6
494191, 494194, 1
494191, 494193, 3
494191, 494190, 2
494192, 494191, 2
494192, 494194, 2
494192, 494190, 2
494194, 494191, 2
494194, 494192, 2
494194, 494193, 2
494190, 494191, 1
494190, 494192, 2
494190, 494193, 2
494193, 494191, 2
494193, 494194, 2
494193, 494190, 2
