624378, 624380, 2
624378, 624377, 2
624378, 624381, 2
624378, 624379, 1
624378, 624376, 2
624377, 624378, 1
624377, 624380, 2
624377, 624379, 2
624377, 624376, 2
624377, 624375, 2
624381, 624378, 2
624381, 624380, 2
624381, 624379, 2
624381, 624382, 1
624381, 624376, 2
624382, 624383, 1
624382, 624380, 2
624382, 624381, 2
624373, 624380, 2
624373, 624371, 2
624373, 624372, 2
624373, 624374, 1
624373, 624375, 2
624370, 624380, 2
624370, 624371, 1
624374, 624375, 1
624374, 624373, 2
624376, 624378, 2
624376, 624377, 2
624376, 624381, 2
624376, 624371, 2
624376, 624375, 2
624383, 624384, 1
624383, 624380, 2
624383, 624382, 2
624371, 624380, 2
624371, 624370, 2
624371, 624372, 1
624371, 624373, 2
624371, 624376, 2
624372, 624371, 2
624372, 624373, 1
624379, 624378, 2
624379, 624377, 2
624379, 624381, 1
624379, 624380, 6
624384, 624383, 2
624384, 624380, 2
624380, 624378, 2
624380, 624377, 2
624380, 624381, 2
624380, 624379, 2
624380, 624382, 2
624380, 624373, 2
624380, 624383, 2
624380, 624371, 2
624380, 624384, 2
624380, 624370, 2
624380, 624375, 2
624375, 624377, 1
624375, 624380, 2
624375, 624374, 2
624375, 624373, 2
624375, 624376, 3
