456352, 456351, 2
456352, 456355, 2
456352, 456353, 8
456352, 456354, 1
456355, 456352, 2
456355, 456353, 2
456355, 456354, 2
456354, 456352, 2
456354, 456351, 2
456354, 456353, 2
456354, 456355, 1
456351, 456352, 1
456351, 456354, 2
456351, 456353, 2
456351, 456350, 2
456350, 456351, 1
456353, 456352, 2
456353, 456351, 2
456353, 456355, 2
456353, 456354, 2
