537383, 537382, 2
537383, 537384, 2
537383, 537381, 2
537382, 537383, 3
537382, 537384, 1
537382, 537381, 2
537381, 537383, 2
537381, 537382, 1
537381, 537384, 2
537381, 537379, 2
537381, 537380, 2
537379, 537381, 1
537379, 537380, 0
537386, 537385, 2
537386, 537384, 2
537385, 537384, 2
537385, 537386, 1
537384, 537383, 2
537384, 537385, 1
537384, 537382, 2
537384, 537381, 2
537384, 537386, 2
537380, 537381, 2
537380, 537379, 2
