494229, 494228, 2
494229, 494226, 2
494229, 494225, 2
494229, 494227, 2
494228, 494229, 2
494228, 494226, 2
494228, 494227, 2
494226, 494229, 1
494226, 494228, 8
494226, 494225, 2
494226, 494227, 2
494225, 494229, 2
494225, 494226, 3
494225, 494227, 0
494227, 494229, 2
494227, 494228, 2
494227, 494226, 2
494227, 494225, 2
