341641, 341642, 1
341647, 341645, 2
341647, 341646, 2
341647, 341648, 1
341648, 341647, 2
341648, 341649, 1
341646, 341647, 1
341646, 341644, 2
341646, 341645, 2
341642, 341641, 2
341642, 341643, 1
341643, 341642, 2
341643, 341644, 1
341649, 341648, 2
341644, 341646, 2
341644, 341643, 2
341644, 341645, 1
341645, 341647, 2
341645, 341646, 1
341645, 341644, 2
