657941, 657943, 1
657941, 657940, 2
657941, 657942, 8
657943, 657941, 2
657943, 657940, 2
657943, 657942, 2
657942, 657941, 2
657942, 657943, 2
657942, 657940, 2
657940, 657941, 3
657940, 657943, 2
657940, 657942, 2
