491035, 491037, 2
491035, 491033, 2
491035, 491036, 2
491035, 491034, 2
491025, 491024, 2
491025, 491026, 2
491033, 491035, 2
491033, 491034, 2
491033, 491032, 2
491029, 491027, 2
491029, 491030, 1
491029, 491028, 2
491027, 491026, 2
491027, 491029, 2
491027, 491028, 1
491037, 491035, 2
491037, 491034, 2
491037, 491038, 1
491037, 491036, 2
491023, 491024, 1
491034, 491035, 3
491034, 491033, 2
491034, 491032, 2
491034, 491037, 1
491034, 491031, 2
491034, 491036, 0
491031, 491034, 1
491031, 491030, 2
491031, 491032, 3
491036, 491035, 2
491036, 491037, 2
491036, 491034, 2
491026, 491025, 2
491026, 491027, 1
491026, 491024, 2
491040, 491039, 2
491040, 491038, 2
491039, 491040, 2
491039, 491038, 2
491030, 491031, 1
491030, 491029, 2
491038, 491037, 2
491038, 491039, 0
491038, 491040, 3
491024, 491025, 3
491024, 491023, 2
491024, 491026, 1
491028, 491027, 2
491028, 491029, 1
491032, 491033, 2
491032, 491031, 2
491032, 491034, 2
