591253, 591254, 1
591253, 591258, 2
591253, 591252, 2
591253, 591255, 2
591253, 591251, 2
591253, 591256, 2
591254, 591253, 2
591254, 591258, 2
591254, 591255, 8
591254, 591256, 1
591260, 591259, 2
591260, 591261, 1
591258, 591254, 2
591258, 591253, 2
591258, 591259, 1
591258, 591257, 2
591258, 591256, 2
591258, 591261, 2
591266, 591264, 2
591266, 591267, 2
591266, 591268, 2
591266, 591265, 2
591264, 591263, 2
591264, 591266, 2
591264, 591265, 2
591256, 591254, 2
591256, 591258, 1
591256, 591259, 2
591256, 591255, 2
591256, 591253, 2
591256, 591257, 8
591268, 591266, 2
591268, 591267, 2
591268, 591265, 2
591261, 591258, 2
591261, 591260, 2
591261, 591259, 2
591261, 591262, 1
591263, 591265, 1
591263, 591264, 8
591263, 591262, 2
591259, 591258, 2
591259, 591260, 1
591259, 591262, 2
591259, 591257, 2
591259, 591256, 2
591259, 591261, 2
591255, 591254, 2
591255, 591253, 2
591255, 591257, 2
591255, 591256, 2
591267, 591266, 2
591267, 591262, 2
591267, 591268, 1
591267, 591265, 2
591251, 591250, 2
591251, 591253, 2
591251, 591252, 2
591262, 591263, 1
591262, 591259, 2
591262, 591265, 2
591262, 591267, 2
591262, 591261, 2
591250, 591252, 1
591250, 591251, 8
591257, 591258, 2
591257, 591259, 2
591257, 591255, 2
591257, 591256, 2
591265, 591263, 2
591265, 591266, 8
591265, 591267, 1
591265, 591264, 2
591265, 591262, 2
591265, 591268, 2
591252, 591253, 1
591252, 591250, 2
591252, 591251, 2
