340371, 340373, 2
340371, 340372, 2
340371, 340369, 2
340371, 340370, 2
340369, 340373, 2
340369, 340371, 2
340369, 340370, 1
340370, 340373, 1
340370, 340371, 3
340370, 340375, 2
340370, 340369, 2
340373, 340371, 2
340373, 340369, 2
340373, 340370, 2
340373, 340375, 1
340373, 340372, 2
340373, 340374, 3
340375, 340373, 2
340375, 340370, 2
340375, 340374, 2
340372, 340373, 2
340372, 340371, 2
340374, 340373, 2
340374, 340375, 2
