420683, 420684, 0
420683, 420685, 1
420683, 420686, 2
420684, 420683, 2
420684, 420685, 2
420684, 420686, 2
420686, 420683, 2
420686, 420684, 2
420686, 420687, 3
420686, 420685, 2
420687, 420686, 2
420685, 420683, 2
420685, 420684, 2
420685, 420686, 1
