644659, 644660, 1
644659, 644661, 2
644659, 644657, 2
644659, 644658, 2
644655, 644656, 1
644655, 644658, 2
644655, 644657, 2
644662, 644661, 2
644662, 644663, 1
644658, 644659, 1
644658, 644655, 2
644658, 644657, 2
644658, 644656, 2
644658, 644661, 2
644658, 644660, 2
644656, 644658, 2
644656, 644655, 2
644656, 644657, 1
644657, 644659, 2
644657, 644655, 2
644657, 644663, 2
644657, 644656, 2
644657, 644658, 8
644657, 644660, 2
644657, 644661, 1
644663, 644660, 2
644663, 644661, 2
644663, 644662, 2
644663, 644657, 2
644660, 644657, 2
644660, 644659, 2
644660, 644663, 2
644660, 644661, 2
644660, 644658, 2
644661, 644658, 2
644661, 644659, 2
644661, 644662, 1
644661, 644663, 2
644661, 644657, 2
644661, 644660, 2
