658479, 658478, 2
658479, 658480, 1
658479, 658477, 2
658482, 658483, 1
658482, 658481, 2
658475, 658478, 1
658475, 658477, 8
658475, 658476, 3
658478, 658476, 2
658478, 658479, 1
658478, 658477, 2
658478, 658475, 2
658483, 658482, 2
658483, 658477, 2
658480, 658479, 2
658480, 658477, 2
658480, 658481, 1
658477, 658479, 2
658477, 658483, 2
658477, 658475, 2
658477, 658478, 2
658477, 658480, 2
658477, 658476, 2
658477, 658481, 2
658476, 658478, 2
658476, 658477, 2
658476, 658475, 2
658481, 658480, 2
658481, 658482, 1
658481, 658477, 2
