625575, 625574, 2
625575, 625576, 1
625575, 625572, 2
625572, 625573, 2
625572, 625575, 2
625572, 625574, 2
625572, 625571, 2
625576, 625575, 2
625573, 625572, 2
625573, 625574, 2
625573, 625571, 2
625574, 625575, 1
625574, 625573, 2
625574, 625572, 2
625574, 625571, 2
625571, 625573, 3
625571, 625572, 6
625571, 625574, 1
