379397, 379395, 2
379397, 379398, 1
379397, 379396, 2
379392, 379393, 1
379392, 379391, 2
379392, 379394, 2
379394, 379393, 2
379394, 379395, 2
379394, 379392, 2
379394, 379396, 2
379395, 379397, 1
379395, 379393, 2
379395, 379394, 2
379395, 379396, 8
379395, 379398, 2
379393, 379395, 1
379393, 379392, 2
379393, 379394, 8
379393, 379398, 2
379391, 379392, 1
379398, 379397, 2
379398, 379393, 2
379398, 379396, 2
379398, 379395, 2
379396, 379397, 2
379396, 379395, 2
379396, 379394, 2
379396, 379398, 2
