379099, 379098, 2
379099, 379100, 2
379103, 379102, 2
379098, 379099, 3
379098, 379100, 1
379100, 379099, 2
379100, 379101, 1
379100, 379098, 2
379101, 379102, 1
379101, 379100, 2
379102, 379101, 2
379102, 379103, 1
