643481, 643480, 2
643481, 643482, 2
643452, 643457, 1
643452, 643455, 2
643452, 643453, 3
643452, 643451, 2
643454, 643457, 2
643454, 643455, 1
643454, 643453, 2
643454, 643456, 2
643482, 643481, 2
643482, 643479, 2
643482, 643480, 2
643477, 643476, 2
643477, 643478, 1
643449, 643450, 0
643449, 643451, 1
643467, 643468, 1
643467, 643464, 2
643467, 643463, 2
643467, 643466, 2
643467, 643465, 2
643467, 643469, 2
643458, 643461, 2
643458, 643457, 2
643458, 643456, 2
643458, 643460, 2
643458, 643459, 1
643475, 643473, 2
643475, 643472, 2
643475, 643469, 2
643475, 643474, 2
643475, 643476, 2
643475, 643471, 2
643475, 643468, 2
643475, 643470, 2
643468, 643473, 2
643468, 643465, 2
643468, 643469, 0
643468, 643474, 2
643468, 643466, 2
643468, 643467, 2
643468, 643475, 2
643468, 643472, 2
643468, 643463, 2
643468, 643476, 1
643468, 643471, 2
643468, 643470, 3
643464, 643461, 2
643464, 643465, 2
643464, 643462, 2
643464, 643463, 2
643464, 643466, 3
643464, 643467, 2
643464, 643469, 2
643460, 643458, 2
643460, 643461, 2
643460, 643457, 2
643460, 643459, 2
643471, 643473, 1
643471, 643475, 2
643471, 643468, 2
643471, 643469, 2
643471, 643474, 2
643471, 643476, 2
643471, 643472, 2
643471, 643470, 2
643455, 643450, 2
643455, 643452, 2
643455, 643457, 2
643455, 643451, 2
643455, 643454, 2
643455, 643453, 2
643455, 643456, 1
643453, 643457, 2
643453, 643452, 2
643453, 643455, 2
643453, 643454, 2
643453, 643451, 2
643456, 643458, 2
643456, 643455, 2
643456, 643454, 2
643456, 643457, 2
643470, 643473, 2
643470, 643475, 2
643470, 643468, 2
643470, 643469, 2
643470, 643474, 2
643470, 643465, 2
643470, 643476, 2
643470, 643471, 2
643470, 643472, 1
643473, 643475, 1
643473, 643472, 2
643473, 643469, 2
643473, 643474, 2
643473, 643476, 2
643473, 643471, 2
643473, 643468, 2
643473, 643470, 2
643461, 643458, 2
643461, 643462, 1
643461, 643464, 2
643461, 643460, 2
643461, 643459, 2
643461, 643457, 2
643461, 643463, 2
643465, 643468, 2
643465, 643463, 2
643465, 643466, 2
643465, 643470, 2
643465, 643467, 2
643465, 643464, 2
643462, 643461, 2
643462, 643464, 2
643462, 643463, 1
643469, 643473, 2
643469, 643475, 2
643469, 643468, 2
643469, 643463, 2
643469, 643464, 2
643469, 643474, 2
643469, 643466, 2
643469, 643471, 3
643469, 643472, 2
643469, 643467, 2
643469, 643470, 2
643474, 643473, 2
643474, 643475, 2
643474, 643468, 2
643474, 643469, 2
643474, 643476, 2
643474, 643471, 2
643474, 643472, 2
643474, 643470, 2
643459, 643458, 2
643459, 643461, 2
643459, 643457, 2
643459, 643460, 1
643466, 643465, 2
643466, 643469, 2
643466, 643464, 2
643466, 643468, 2
643466, 643467, 2
643466, 643463, 2
643479, 643478, 2
643479, 643482, 2
643479, 643480, 1
643478, 643477, 2
643478, 643479, 1
643450, 643449, 2
643450, 643451, 2
643450, 643455, 2
643450, 643457, 2
643472, 643473, 2
643472, 643475, 2
643472, 643468, 2
643472, 643469, 2
643472, 643474, 1
643472, 643471, 2
643472, 643470, 2
643457, 643458, 3
643457, 643461, 1
643457, 643452, 2
643457, 643454, 2
643457, 643460, 2
643457, 643459, 2
643457, 643450, 2
643457, 643451, 2
643457, 643455, 2
643457, 643453, 2
643457, 643456, 2
643463, 643461, 2
643463, 643468, 2
643463, 643462, 2
643463, 643464, 0
643463, 643466, 2
643463, 643465, 3
643463, 643467, 1
643463, 643469, 2
643451, 643450, 2
643451, 643452, 1
643451, 643457, 2
643451, 643455, 2
643451, 643449, 2
643451, 643453, 2
643476, 643473, 2
643476, 643475, 2
643476, 643468, 2
643476, 643474, 2
643476, 643477, 1
643476, 643471, 2
643476, 643470, 2
643480, 643481, 3
643480, 643479, 2
643480, 643482, 1
