420977, 420981, 2
420977, 420976, 2
420977, 420975, 2
420977, 420986, 2
420977, 420983, 2
420977, 420980, 2
420977, 420984, 2
420977, 420974, 2
420977, 420979, 2
420977, 420978, 1
420999, 420997, 2
420999, 421000, 1
420999, 420998, 2
420958, 420957, 2
420958, 420965, 2
420958, 420961, 1
420958, 420956, 2
420989, 420982, 2
420989, 420990, 1
420989, 420993, 2
420989, 420988, 2
420989, 420987, 2
420957, 420958, 4
420957, 420959, 6
420957, 420964, 2
420957, 420962, 2
420957, 420965, 1
420957, 420960, 2
420957, 420961, 2
420957, 420963, 2
420957, 420956, 2
420965, 420958, 2
420965, 420964, 2
420965, 420967, 2
420965, 420966, 1
420965, 420959, 2
420965, 420968, 2
420965, 420957, 2
420965, 420962, 2
420965, 420961, 2
420965, 420960, 2
420965, 420956, 2
420965, 420963, 2
420965, 420973, 2
420986, 420982, 2
420986, 420977, 2
420986, 420985, 2
420986, 420975, 2
420986, 420988, 2
420986, 420976, 2
420986, 420987, 2
420986, 420974, 2
420986, 420993, 2
420953, 420955, 0
420953, 420951, 2
420953, 420952, 2
420953, 420956, 2
421001, 421003, 2
421001, 421002, 1
421001, 420997, 2
421001, 421000, 2
421002, 421001, 2
421002, 421005, 2
421002, 421003, 2
420970, 420969, 2
420970, 420971, 1
420952, 420955, 2
420952, 420954, 6
420952, 420951, 2
420952, 420956, 1
420952, 420953, 4
420960, 420962, 1
420960, 420957, 2
420960, 420965, 2
420960, 420959, 2
420960, 420956, 2
421006, 421005, 2
421006, 421009, 2
421006, 421004, 2
421006, 421007, 1
421006, 421003, 2
421006, 421008, 2
420987, 420981, 2
420987, 420985, 2
420987, 420989, 2
420987, 420991, 6
420987, 420980, 2
420987, 420986, 2
420987, 420982, 2
420987, 420990, 2
420987, 420988, 4
420987, 420992, 2
420987, 420983, 2
420987, 420984, 2
420987, 420974, 2
420987, 420993, 1
420955, 420956, 2
420955, 420951, 2
420955, 420952, 2
420955, 420953, 2
421009, 421008, 2
421009, 421010, 1
421009, 421006, 2
421009, 421007, 2
420964, 420957, 2
420964, 420965, 2
420964, 420961, 2
420964, 420956, 2
420967, 420966, 2
420967, 420969, 2
420967, 420965, 2
420967, 420968, 2
420980, 420977, 2
420980, 420981, 1
420980, 420975, 2
420980, 420976, 2
420980, 420991, 2
420980, 420987, 2
420980, 420982, 2
420980, 420974, 2
420980, 420979, 2
420980, 420978, 2
420978, 420977, 2
420978, 420982, 2
420978, 420985, 2
420978, 420975, 2
420978, 420991, 2
420978, 420981, 2
420978, 420980, 2
420978, 420984, 2
420978, 420983, 2
420978, 420979, 2
420978, 420974, 2
420972, 420971, 2
420972, 420974, 2
420972, 420973, 1
420966, 420967, 3
420966, 420965, 2
420966, 420969, 1
420966, 420968, 0
420959, 420962, 2
420959, 420957, 2
420959, 420965, 2
420959, 420960, 0
420959, 420956, 2
420959, 420963, 2
421010, 421009, 2
421010, 421008, 2
421010, 421011, 1
420994, 420995, 1
420994, 420993, 2
420962, 420957, 2
420962, 420965, 2
420962, 420960, 2
420962, 420959, 2
420962, 420963, 1
420983, 420977, 2
420983, 420981, 2
420983, 420975, 2
420983, 420976, 2
420983, 420982, 2
420983, 420984, 1
420983, 420978, 2
420983, 420987, 2
420993, 420989, 2
420993, 420991, 2
420993, 420992, 2
420993, 420986, 2
420993, 421004, 2
420993, 420982, 2
420993, 420990, 2
420993, 420998, 2
420993, 420994, 1
420993, 420988, 2
420993, 420995, 2
420993, 421003, 2
420993, 420987, 2
420984, 420977, 2
420984, 420982, 2
420984, 420985, 1
420984, 420975, 2
420984, 420976, 2
420984, 420983, 2
420984, 420978, 2
420984, 420987, 2
420973, 420972, 2
420973, 420965, 2
420973, 420974, 1
420973, 420963, 2
420969, 420967, 2
420969, 420971, 2
420969, 420968, 2
420969, 420970, 1
420969, 420966, 2
420985, 420982, 2
420985, 420976, 2
420985, 420975, 2
420985, 420986, 1
420985, 420984, 2
420985, 420978, 2
420985, 420987, 2
421004, 421005, 2
421004, 421003, 2
421004, 420993, 2
421004, 420997, 2
421004, 421006, 2
421004, 420996, 2
421005, 421003, 2
421005, 421002, 2
421005, 421006, 2
421005, 421004, 2
420991, 420982, 2
420991, 420981, 2
420991, 420987, 2
420991, 420980, 2
420991, 420974, 2
420991, 420978, 2
420991, 420993, 2
421007, 421009, 1
421007, 421008, 8
421007, 421006, 2
420997, 420999, 2
420997, 421001, 2
420997, 421000, 2
420997, 420998, 0
420997, 421003, 1
420997, 421004, 2
420997, 420996, 2
420982, 420976, 2
420982, 420985, 2
420982, 420989, 2
420982, 420991, 2
420982, 420980, 2
420982, 420986, 2
420982, 420978, 2
420982, 420981, 2
420982, 420990, 2
420982, 420975, 2
420982, 420988, 2
420982, 420983, 2
420982, 420987, 1
420982, 420984, 2
420982, 420974, 2
420982, 420979, 4
420982, 420993, 2
421008, 421009, 2
421008, 421010, 2
421008, 421006, 2
421008, 421007, 2
420975, 420977, 2
420975, 420976, 0
420975, 420985, 2
420975, 420984, 2
420975, 420980, 2
420975, 420986, 2
420975, 420978, 2
420975, 420981, 2
420975, 420988, 2
420975, 420983, 2
420975, 420982, 1
420975, 420974, 2
420975, 420979, 2
420998, 420999, 1
420998, 421003, 2
420998, 420993, 2
420998, 420997, 2
420998, 420996, 2
420968, 420967, 2
420968, 420969, 2
420968, 420965, 2
420968, 420966, 2
420961, 420965, 2
420961, 420957, 2
420961, 420958, 2
420961, 420964, 1
420961, 420956, 2
420996, 420995, 2
420996, 421003, 2
420996, 420997, 1
420996, 421004, 2
420996, 420998, 2
420974, 420977, 2
420974, 420976, 2
420974, 420971, 2
420974, 420972, 2
420974, 420991, 2
420974, 420980, 2
420974, 420986, 2
420974, 420978, 2
420974, 420981, 2
420974, 420975, 1
420974, 420988, 2
420974, 420987, 2
420974, 420982, 2
420974, 420979, 2
420974, 420973, 2
420963, 420959, 2
420963, 420962, 2
420963, 420957, 2
420963, 420965, 2
420963, 420956, 2
420963, 420973, 2
420976, 420977, 1
420976, 420981, 2
420976, 420985, 2
420976, 420975, 2
420976, 420982, 2
420976, 420984, 2
420976, 420983, 2
420976, 420980, 2
420976, 420986, 2
420976, 420974, 2
420976, 420979, 2
420951, 420955, 2
420951, 420954, 2
420951, 420956, 2
420951, 420952, 1
420951, 420953, 2
420995, 420993, 2
420995, 420996, 1
420995, 420994, 2
420971, 420972, 1
420971, 420969, 2
420971, 420974, 2
420971, 420970, 2
421003, 421001, 2
421003, 421005, 0
421003, 421002, 2
421003, 421004, 3
421003, 420998, 2
421003, 420993, 2
421003, 420997, 2
421003, 421006, 1
421003, 420996, 2
420981, 420977, 2
420981, 420976, 2
420981, 420975, 2
420981, 420991, 2
420981, 420983, 1
420981, 420980, 2
420981, 420982, 2
420981, 420974, 2
420981, 420978, 2
420981, 420987, 2
420990, 420982, 2
420990, 420989, 2
420990, 420988, 2
420990, 420992, 1
420990, 420987, 2
420990, 420993, 2
421000, 420999, 2
421000, 421001, 1
421000, 420997, 2
420988, 420982, 2
420988, 420990, 2
420988, 420989, 0
420988, 420975, 2
420988, 420992, 2
420988, 420993, 2
420988, 420986, 2
420988, 420974, 2
420988, 420987, 2
420992, 420990, 2
420992, 420993, 2
420992, 420988, 2
420992, 420987, 2
421011, 421010, 2
420954, 420956, 2
420954, 420952, 2
420954, 420951, 2
420956, 420955, 2
420956, 420958, 2
420956, 420964, 2
420956, 420957, 1
420956, 420965, 2
420956, 420953, 2
420956, 420959, 2
420956, 420952, 2
420956, 420961, 2
420956, 420960, 2
420956, 420954, 2
420956, 420951, 2
420956, 420963, 2
420979, 420977, 2
420979, 420976, 2
420979, 420975, 2
420979, 420980, 1
420979, 420982, 2
420979, 420974, 2
420979, 420978, 2
