623556, 623558, 2
623556, 623557, 1
623556, 623555, 2
623556, 623553, 2
623556, 623554, 2
623551, 623554, 2
623551, 623553, 2
623551, 623550, 2
623551, 623552, 2
623555, 623556, 1
623555, 623557, 2
623555, 623558, 2
623555, 623553, 2
623555, 623554, 2
623552, 623551, 2
623552, 623553, 2
623552, 623550, 2
623552, 623554, 2
623559, 623558, 2
623558, 623556, 2
623558, 623555, 2
623558, 623559, 3
623558, 623557, 2
623558, 623553, 2
623558, 623554, 2
623557, 623556, 2
623557, 623558, 2
623557, 623555, 2
623557, 623553, 2
623557, 623554, 2
623553, 623556, 2
623553, 623551, 2
623553, 623558, 1
623553, 623552, 2
623553, 623555, 8
623553, 623557, 2
623553, 623550, 2
623553, 623554, 3
623550, 623551, 3
623550, 623552, 8
623550, 623553, 1
623554, 623556, 2
623554, 623551, 2
623554, 623558, 2
623554, 623552, 2
623554, 623555, 2
623554, 623557, 2
623554, 623553, 2
