421299, 421300, 1
421299, 421298, 2
421297, 421296, 2
421297, 421294, 2
421297, 421298, 2
421294, 421295, 1
421294, 421297, 2
421294, 421296, 2
421295, 421296, 1
421295, 421294, 2
421300, 421299, 2
421300, 421298, 2
421296, 421295, 2
421296, 421297, 3
421296, 421294, 2
421296, 421298, 1
421298, 421299, 1
421298, 421296, 2
421298, 421297, 2
421298, 421300, 2
