488677, 488678, 1
488677, 488675, 2
488677, 488676, 2
488673, 488674, 2
488673, 488675, 2
488673, 488676, 2
488673, 488672, 2
488671, 488669, 2
488671, 488670, 2
488671, 488672, 1
488676, 488677, 1
488676, 488673, 2
488676, 488678, 2
488676, 488675, 2
488669, 488670, 3
488669, 488671, 1
488669, 488672, 2
488670, 488669, 2
488670, 488671, 2
488674, 488673, 2
488674, 488675, 1
488674, 488672, 2
488678, 488677, 2
488678, 488675, 2
488678, 488676, 2
488675, 488677, 2
488675, 488673, 2
488675, 488676, 1
488675, 488674, 2
488675, 488678, 2
488675, 488672, 2
488672, 488669, 2
488672, 488673, 3
488672, 488674, 1
488672, 488671, 2
488672, 488675, 2
