495823, 495828, 2
495823, 495824, 6
495823, 495825, 3
495823, 495827, 1
495829, 495828, 2
495829, 495827, 2
495825, 495828, 2
495825, 495827, 2
495825, 495823, 2
495825, 495824, 2
495825, 495826, 2
495828, 495829, 2
495828, 495823, 2
495828, 495825, 2
495828, 495827, 2
495828, 495824, 2
495828, 495826, 2
495826, 495828, 2
495826, 495824, 2
495826, 495825, 2
495826, 495827, 2
495824, 495828, 2
495824, 495827, 2
495824, 495823, 2
495824, 495825, 2
495824, 495826, 2
495827, 495829, 3
495827, 495825, 2
495827, 495824, 2
495827, 495828, 6
495827, 495823, 2
495827, 495826, 2
