607313, 607314, 1
607313, 607312, 2
607329, 607327, 2
607329, 607330, 1
607329, 607328, 2
607312, 607313, 1
607332, 607331, 2
607332, 607333, 1
607325, 607326, 1
607325, 607324, 2
607325, 607327, 2
607333, 607332, 2
607314, 607313, 2
607314, 607315, 3
607314, 607316, 1
607318, 607317, 2
607318, 607320, 2
607318, 607319, 1
607317, 607318, 1
607317, 607316, 2
607320, 607318, 2
607320, 607322, 2
607320, 607319, 2
607320, 607321, 1
607330, 607331, 1
607330, 607329, 2
607328, 607329, 1
607328, 607327, 2
607323, 607324, 1
607323, 607322, 2
607326, 607327, 1
607326, 607325, 2
607316, 607314, 2
607316, 607317, 1
607316, 607315, 2
607331, 607330, 2
607331, 607332, 1
607315, 607314, 2
607315, 607316, 2
607324, 607323, 2
607324, 607325, 1
607319, 607318, 2
607319, 607320, 1
607321, 607320, 2
607321, 607322, 1
607327, 607326, 2
607327, 607329, 2
607327, 607325, 2
607327, 607328, 1
607322, 607323, 1
607322, 607320, 2
607322, 607321, 2
