515467, 515468, 1
515467, 515466, 2
515467, 515469, 2
515468, 515467, 2
515468, 515469, 1
515470, 515469, 2
515470, 515471, 1
515466, 515467, 1
515466, 515469, 2
515469, 515466, 2
515469, 515468, 2
515469, 515470, 1
515469, 515467, 2
515471, 515470, 2
