537130, 537132, 2
537130, 537128, 2
537130, 537131, 1
537130, 537129, 2
537128, 537130, 1
537128, 537129, 3
537129, 537130, 2
537129, 537128, 2
537132, 537130, 2
537132, 537133, 2
537132, 537131, 2
537133, 537132, 2
537133, 537131, 2
537131, 537132, 3
537131, 537130, 2
537131, 537133, 0
