535808, 535809, 1
535808, 535807, 2
535790, 535791, 1
535792, 535794, 2
535792, 535795, 2
535792, 535791, 2
535792, 535796, 1
535792, 535798, 2
535792, 535793, 3
535791, 535793, 2
535791, 535792, 1
535791, 535790, 2
535791, 535796, 2
535800, 535801, 1
535800, 535799, 2
535807, 535808, 1
535807, 535806, 2
535816, 535817, 1
535816, 535815, 2
535795, 535794, 2
535795, 535792, 2
535795, 535796, 2
535795, 535797, 2
535817, 535816, 2
535817, 535815, 2
535799, 535801, 2
535799, 535800, 1
535799, 535798, 2
535815, 535814, 2
535815, 535810, 2
535815, 535813, 2
535815, 535811, 2
535815, 535816, 1
535815, 535817, 2
535797, 535798, 2
535797, 535795, 2
535797, 535796, 2
535814, 535815, 2
535814, 535813, 2
535810, 535809, 2
535810, 535811, 1
535810, 535815, 2
535806, 535801, 2
535806, 535802, 2
535806, 535807, 1
535806, 535803, 2
535806, 535805, 2
535806, 535804, 2
535794, 535793, 2
535794, 535795, 1
535794, 535792, 2
535794, 535796, 2
535809, 535808, 2
535809, 535810, 1
535802, 535801, 2
535802, 535806, 1
535802, 535803, 3
535802, 535805, 2
535802, 535804, 2
535793, 535794, 1
535793, 535792, 2
535793, 535791, 2
535804, 535802, 2
535804, 535806, 2
535804, 535803, 2
535804, 535805, 1
535801, 535806, 2
535801, 535799, 2
535801, 535802, 1
535801, 535800, 2
535801, 535803, 2
535801, 535805, 2
535811, 535810, 2
535811, 535813, 2
535811, 535815, 1
535811, 535812, 3
535812, 535811, 2
535812, 535813, 1
535796, 535794, 2
535796, 535795, 2
535796, 535792, 2
535796, 535791, 2
535796, 535798, 1
535796, 535797, 3
535798, 535792, 2
535798, 535796, 2
535798, 535799, 1
535798, 535797, 2
535803, 535801, 2
535803, 535802, 2
535803, 535806, 2
535803, 535804, 1
535805, 535801, 2
535805, 535802, 2
535805, 535806, 2
535805, 535804, 2
535813, 535814, 1
535813, 535811, 2
535813, 535815, 2
535813, 535812, 2
