641506, 641507, 1
641506, 641505, 2
641503, 641502, 2
641503, 641505, 2
641503, 641504, 1
641502, 641503, 1
641502, 641501, 2
641507, 641506, 2
641505, 641506, 1
641505, 641504, 2
641505, 641503, 2
641504, 641505, 1
641504, 641503, 2
641499, 641500, 1
641500, 641499, 2
641500, 641501, 1
641501, 641502, 1
641501, 641500, 2
