333709, 333710, 1
333709, 333708, 2
333707, 333708, 1
333707, 333706, 2
333708, 333709, 1
333708, 333707, 2
333700, 333702, 2
333700, 333701, 1
333705, 333702, 2
333705, 333704, 2
333705, 333703, 2
333705, 333706, 1
333706, 333704, 2
333706, 333705, 2
333706, 333703, 2
333706, 333707, 1
333701, 333702, 1
333701, 333700, 2
333703, 333702, 2
333703, 333704, 8
333703, 333705, 1
333703, 333706, 2
333702, 333704, 2
333702, 333701, 2
333702, 333703, 1
333702, 333700, 2
333702, 333705, 2
333704, 333702, 2
333704, 333705, 2
333704, 333703, 2
333704, 333706, 2
333711, 333710, 2
333710, 333709, 2
333710, 333711, 1
