379913, 379912, 2
379913, 379914, 3
379913, 379915, 1
379918, 379916, 2
379918, 379917, 2
379918, 379919, 1
379912, 379913, 1
379917, 379918, 2
379917, 379916, 2
379917, 379915, 2
379919, 379918, 2
379916, 379918, 1
379916, 379917, 3
379916, 379915, 2
379914, 379913, 2
379914, 379915, 2
379915, 379913, 2
379915, 379916, 1
379915, 379917, 2
379915, 379914, 2
