488773, 488774, 2
488773, 488772, 2
488773, 488771, 2
488770, 488769, 2
488770, 488771, 1
488769, 488770, 1
488769, 488771, 2
488774, 488773, 2
488774, 488776, 2
488774, 488775, 1
488774, 488772, 2
488774, 488771, 2
488776, 488771, 2
488776, 488775, 2
488776, 488774, 2
488776, 488777, 1
488777, 488776, 2
488775, 488776, 1
488775, 488774, 2
488772, 488773, 2
488772, 488774, 2
488772, 488771, 2
488771, 488773, 8
488771, 488770, 2
488771, 488769, 2
488771, 488774, 1
488771, 488776, 2
488771, 488772, 3
