590668, 590669, 1
590668, 590667, 2
590671, 590663, 2
590671, 590672, 1
590671, 590670, 2
590666, 590665, 2
590666, 590667, 1
590667, 590668, 1
590667, 590663, 2
590667, 590666, 2
590663, 590671, 2
590663, 590664, 2
590663, 590667, 2
590663, 590662, 2
590663, 590665, 2
590663, 590669, 2
590672, 590671, 2
590662, 590665, 2
590662, 590664, 1
590662, 590663, 6
590664, 590663, 2
590664, 590662, 2
590664, 590665, 1
590665, 590666, 1
590665, 590664, 2
590665, 590663, 2
590665, 590662, 2
590670, 590671, 1
590670, 590669, 2
590669, 590668, 2
590669, 590663, 2
590669, 590670, 1
