625534, 625531, 2
625534, 625533, 2
625534, 625532, 2
625530, 625529, 2
625530, 625531, 8
625530, 625533, 2
625530, 625532, 1
625532, 625534, 1
625532, 625531, 2
625532, 625533, 6
625532, 625530, 2
625532, 625529, 2
625529, 625533, 2
625529, 625530, 1
625529, 625532, 2
625531, 625534, 2
625531, 625533, 2
625531, 625530, 2
625531, 625532, 2
625533, 625529, 2
625533, 625531, 2
625533, 625534, 2
625533, 625530, 2
625533, 625532, 2
