592900, 592901, 1
592902, 592901, 2
592902, 592903, 3
592902, 592904, 1
592905, 592906, 1
592905, 592904, 2
592906, 592905, 2
592901, 592903, 2
592901, 592900, 2
592901, 592902, 1
592903, 592901, 2
592903, 592904, 2
592903, 592902, 2
592904, 592905, 1
592904, 592903, 2
592904, 592902, 2
