590899, 590898, 2
590899, 590900, 1
590902, 590901, 2
590902, 590903, 1
590893, 590894, 8
590893, 590895, 1
590893, 590892, 2
590904, 590905, 2
590904, 590903, 2
590895, 590894, 2
590895, 590893, 2
590895, 590896, 1
590895, 590892, 2
590901, 590902, 1
590901, 590900, 2
590891, 590892, 1
590892, 590893, 1
590892, 590894, 2
590892, 590891, 2
590892, 590895, 2
590894, 590893, 2
590894, 590895, 2
590894, 590892, 2
590897, 590898, 1
590897, 590896, 2
590905, 590906, 1
590905, 590903, 2
590905, 590904, 2
590906, 590903, 2
590906, 590905, 2
590898, 590899, 1
590898, 590897, 2
590900, 590899, 2
590900, 590901, 1
590896, 590895, 2
590896, 590897, 1
590903, 590906, 2
590903, 590902, 2
590903, 590905, 1
590903, 590904, 8
