379987, 379986, 2
379987, 379988, 1
379988, 379987, 2
379988, 379986, 2
379988, 379989, 1
379988, 379990, 2
379992, 379991, 2
379986, 379987, 1
379986, 379988, 2
379986, 379984, 2
379986, 379985, 2
379991, 379992, 1
379991, 379989, 2
379991, 379990, 2
379984, 379986, 2
379984, 379985, 1
379989, 379988, 2
379989, 379991, 1
379989, 379990, 8
379985, 379986, 1
379985, 379984, 2
379990, 379988, 2
379990, 379991, 2
379990, 379989, 2
