333393, 333394, 1
333393, 333395, 2
333393, 333397, 2
333393, 333396, 2
333393, 333392, 2
333390, 333389, 2
333390, 333391, 1
333394, 333393, 2
333394, 333397, 2
333394, 333395, 1
333394, 333396, 2
333392, 333393, 1
333392, 333391, 2
333399, 333398, 2
333395, 333393, 2
333395, 333396, 1
333395, 333394, 2
333397, 333393, 2
333397, 333398, 1
333397, 333394, 2
333397, 333396, 2
333391, 333389, 2
333391, 333390, 2
333391, 333392, 1
333389, 333390, 1
333389, 333391, 2
333398, 333399, 1
333398, 333397, 2
333396, 333393, 2
333396, 333397, 0
333396, 333395, 2
333396, 333394, 2
