375304, 375303, 2
375304, 375305, 8
375304, 375307, 2
375304, 375306, 1
375314, 375313, 2
375314, 375312, 2
375314, 375311, 2
375314, 375315, 2
375305, 375304, 2
375305, 375313, 2
375305, 375307, 2
375305, 375306, 2
375308, 375309, 1
375308, 375307, 2
375317, 375316, 2
375311, 375314, 2
375311, 375310, 2
375311, 375312, 3
375311, 375309, 2
375311, 375315, 1
375302, 375301, 2
375302, 375303, 1
375303, 375304, 3
375303, 375302, 2
375303, 375307, 1
375303, 375306, 2
375303, 375301, 2
375312, 375314, 1
375312, 375313, 8
375312, 375309, 2
375312, 375311, 2
375312, 375315, 2
375309, 375312, 2
375309, 375313, 2
375309, 375308, 2
375309, 375310, 1
375309, 375311, 2
375301, 375302, 1
375301, 375303, 2
375316, 375317, 1
375316, 375315, 2
375313, 375314, 2
375313, 375305, 2
375313, 375307, 2
375313, 375312, 2
375313, 375309, 2
375313, 375315, 2
375307, 375304, 2
375307, 375305, 2
375307, 375308, 1
375307, 375313, 2
375307, 375303, 2
375307, 375306, 2
375310, 375309, 2
375310, 375311, 1
375306, 375304, 2
375306, 375303, 2
375306, 375305, 2
375306, 375307, 2
375315, 375314, 2
375315, 375316, 1
375315, 375313, 2
375315, 375312, 2
375315, 375311, 2
