420591, 420589, 2
420591, 420590, 2
420591, 420588, 2
420590, 420588, 2
420590, 420587, 2
420590, 420589, 2
420590, 420591, 1
420587, 420589, 2
420587, 420590, 2
420587, 420588, 1
420589, 420591, 2
420589, 420587, 2
420589, 420590, 1
420589, 420588, 2
420588, 420591, 2
420588, 420587, 2
420588, 420590, 2
420588, 420589, 1
