522233, 522232, 2
522230, 522227, 2
522230, 522231, 1
522230, 522229, 2
522224, 522225, 3
522224, 522227, 1
522232, 522233, 3
522232, 522231, 2
522229, 522230, 1
522229, 522227, 2
522229, 522228, 2
522228, 522227, 2
522228, 522229, 2
522228, 522226, 2
522225, 522224, 2
522225, 522227, 2
522225, 522226, 2
522227, 522230, 2
522227, 522224, 2
522227, 522229, 1
522227, 522228, 3
522227, 522225, 2
522227, 522226, 2
522226, 522225, 2
522226, 522227, 2
522226, 522228, 2
522231, 522230, 2
522231, 522232, 1
