495342, 495344, 3
495342, 495343, 0
495342, 495340, 2
495342, 495345, 1
495342, 495341, 2
495344, 495342, 2
495344, 495343, 2
495344, 495345, 2
495344, 495346, 2
495340, 495342, 2
495340, 495341, 1
495340, 495343, 2
495345, 495342, 2
495345, 495344, 2
495345, 495346, 3
495345, 495343, 2
495343, 495342, 2
495343, 495344, 2
495343, 495340, 2
495343, 495345, 2
495341, 495342, 1
495341, 495340, 2
495346, 495344, 2
495346, 495345, 2
