495085, 495084, 2
495085, 495086, 1
495085, 495083, 2
495087, 495086, 2
495086, 495085, 2
495086, 495087, 0
495086, 495083, 2
495086, 495084, 2
495081, 495082, 1
495084, 495085, 2
495084, 495086, 2
495084, 495083, 2
495083, 495085, 1
495083, 495084, 3
495083, 495086, 2
495083, 495082, 2
495082, 495081, 2
495082, 495083, 1
