643229, 643227, 2
643229, 643231, 2
643229, 643228, 2
643229, 643230, 2
643229, 643232, 2
643206, 643205, 2
643206, 643207, 1
643217, 643213, 2
643217, 643218, 1
643217, 643215, 2
643217, 643211, 2
643217, 643216, 2
643216, 643217, 2
643216, 643215, 2
643216, 643214, 2
643215, 643213, 2
643215, 643214, 2
643215, 643217, 1
643215, 643216, 3
643215, 643210, 2
643215, 643209, 2
643215, 643211, 2
643215, 643212, 2
643221, 643220, 2
643221, 643223, 2
643221, 643222, 1
643209, 643213, 2
643209, 643210, 1
643209, 643215, 2
643209, 643208, 2
643209, 643211, 2
643207, 643206, 2
643207, 643208, 1
643223, 643220, 2
643223, 643222, 2
643223, 643221, 2
643223, 643224, 1
643208, 643209, 1
643208, 643207, 2
643230, 643225, 2
643230, 643231, 3
643230, 643232, 1
643230, 643227, 2
643230, 643226, 2
643230, 643228, 2
643230, 643229, 2
643230, 643224, 2
643232, 643229, 2
643232, 643231, 2
643232, 643228, 2
643232, 643226, 2
643232, 643230, 2
643226, 643225, 2
643226, 643230, 2
643226, 643232, 2
643226, 643227, 2
643226, 643228, 2
643226, 643224, 2
643222, 643223, 1
643222, 643221, 2
643219, 643220, 1
643219, 643218, 2
643212, 643213, 1
643212, 643215, 2
643212, 643214, 2
643212, 643211, 2
643225, 643226, 3
643225, 643228, 2
643225, 643230, 1
643225, 643224, 2
643213, 643214, 1
643213, 643217, 2
643213, 643210, 2
643213, 643215, 2
643213, 643209, 2
643213, 643211, 2
643213, 643212, 2
643218, 643217, 2
643218, 643219, 1
643220, 643223, 2
643220, 643221, 1
643220, 643219, 2
643210, 643213, 2
643210, 643215, 1
643210, 643209, 2
643210, 643211, 3
643214, 643213, 2
643214, 643215, 2
643214, 643216, 2
643214, 643212, 2
643231, 643229, 2
643231, 643230, 2
643231, 643232, 2
643228, 643225, 2
643228, 643229, 1
643228, 643230, 2
643228, 643232, 2
643228, 643227, 2
643228, 643226, 2
643228, 643224, 2
643227, 643226, 2
643227, 643228, 1
643227, 643229, 2
643227, 643230, 2
643205, 643206, 1
643224, 643225, 1
643224, 643223, 2
643224, 643228, 2
643224, 643226, 2
643224, 643230, 2
643211, 643213, 2
643211, 643217, 2
643211, 643210, 2
643211, 643215, 2
643211, 643209, 2
643211, 643212, 2
