379882, 379883, 1
379882, 379881, 2
379882, 379880, 2
379882, 379878, 2
379883, 379882, 2
379883, 379881, 2
379883, 379880, 2
379883, 379878, 2
379880, 379882, 1
379880, 379879, 2
379880, 379883, 2
379880, 379881, 3
379880, 379878, 2
379876, 379877, 1
379876, 379878, 2
379879, 379881, 2
379879, 379880, 2
379879, 379878, 2
379881, 379882, 2
379881, 379879, 2
379881, 379883, 2
379881, 379880, 2
379881, 379878, 2
379877, 379876, 2
379877, 379878, 1
379878, 379882, 2
379878, 379883, 2
379878, 379880, 1
379878, 379876, 2
379878, 379879, 8
379878, 379881, 2
379878, 379877, 2
