572903, 572904, 2
572903, 572902, 2
572907, 572906, 2
572907, 572908, 1
572906, 572907, 1
572906, 572905, 2
572906, 572904, 2
572905, 572906, 1
572905, 572904, 2
572904, 572903, 2
572904, 572906, 2
572904, 572905, 1
572904, 572902, 2
572902, 572903, 0
572902, 572904, 1
572908, 572907, 2
