420125, 420116, 2
420125, 420132, 2
420125, 420129, 2
420125, 420126, 2
420125, 420118, 2
420125, 420127, 2
420125, 420122, 2
420125, 420113, 2
420125, 420142, 2
420125, 420114, 2
420125, 420130, 2
420125, 420121, 2
420125, 420098, 2
420125, 420135, 2
420125, 420124, 2
420125, 420120, 4
420125, 420134, 1
420125, 420101, 2
420125, 420105, 2
420125, 420117, 2
420125, 420133, 2
420125, 420119, 2
420125, 420139, 2
420125, 420128, 2
420125, 420100, 2
420125, 420123, 2
420125, 420131, 2
420139, 420125, 2
420139, 420117, 2
420139, 420121, 2
420139, 420120, 2
420139, 420129, 2
420139, 420134, 2
420139, 420126, 2
420132, 420134, 2
420132, 420125, 2
420132, 420136, 2
420132, 420133, 2
420132, 420131, 2
420126, 420125, 2
420126, 420121, 2
420126, 420124, 2
420126, 420129, 2
420126, 420120, 2
420126, 420127, 3
420126, 420114, 2
420126, 420105, 2
420126, 420139, 2
420126, 420122, 2
420126, 420118, 2
420126, 420134, 2
420126, 420123, 2
420126, 420117, 2
420126, 420128, 1
420097, 420098, 4
420097, 420111, 2
420097, 420094, 2
420097, 420096, 2
420097, 420100, 2
420097, 420107, 2
420097, 420112, 2
420097, 420104, 2
420097, 420095, 2
420097, 420110, 2
420097, 420106, 2
420097, 420113, 2
420097, 420101, 2
420097, 420099, 6
420097, 420105, 1
420095, 420098, 2
420095, 420096, 2
420095, 420094, 2
420095, 420100, 2
420095, 420099, 2
420095, 420097, 2
420095, 420105, 2
420110, 420098, 2
420110, 420111, 1
420110, 420107, 2
420110, 420108, 2
420110, 420100, 2
420110, 420109, 2
420110, 420099, 2
420110, 420097, 2
420110, 420105, 2
420107, 420098, 2
420107, 420106, 2
420107, 420111, 2
420107, 420100, 2
420107, 420109, 1
420107, 420104, 2
420107, 420097, 2
420107, 420114, 2
420107, 420102, 2
420107, 420110, 2
420107, 420117, 2
420107, 420108, 3
420107, 420101, 2
420107, 420099, 2
420107, 420105, 2
420113, 420098, 2
420113, 420125, 2
420113, 420116, 1
420113, 420096, 2
420113, 420100, 2
420113, 420114, 2
420113, 420112, 2
420113, 420115, 3
420113, 420105, 2
420113, 420097, 2
420114, 420125, 1
420114, 420116, 2
420114, 420129, 2
420114, 420126, 2
420114, 420101, 2
420114, 420111, 2
420114, 420107, 2
420114, 420113, 4
420114, 420119, 2
420114, 420130, 2
420114, 420100, 2
420114, 420098, 2
420114, 420102, 2
420114, 420124, 2
420114, 420120, 2
420114, 420112, 2
420114, 420115, 2
420114, 420123, 2
420114, 420117, 6
420114, 420133, 2
420114, 420118, 2
420114, 420105, 2
420114, 420131, 2
420142, 420125, 2
420142, 420133, 2
420142, 420135, 2
420142, 420134, 2
420142, 420140, 2
420142, 420141, 2
420142, 420143, 3
420142, 420138, 2
420130, 420129, 2
420130, 420114, 2
420130, 420125, 2
420130, 420117, 2
420130, 420131, 1
420128, 420125, 2
420128, 420117, 2
420128, 420136, 2
420128, 420129, 1
420128, 420126, 2
420128, 420127, 2
420135, 420125, 2
420135, 420136, 2
420135, 420133, 2
420135, 420134, 2
420135, 420142, 2
420135, 420140, 2
420135, 420100, 2
420135, 420137, 3
420135, 420138, 2
420124, 420125, 2
420124, 420122, 2
420124, 420114, 2
420124, 420126, 2
420124, 420123, 2
420124, 420117, 2
420124, 420127, 2
420141, 420136, 2
420141, 420134, 2
420141, 420142, 2
420141, 420140, 2
420141, 420143, 2
420141, 420137, 2
420115, 420114, 2
420115, 420116, 2
420115, 420113, 2
420115, 420118, 2
420103, 420106, 2
420103, 420104, 1
420103, 420099, 2
420103, 420105, 2
420103, 420117, 2
420103, 420102, 2
420118, 420115, 2
420118, 420125, 2
420118, 420116, 2
420118, 420120, 2
420118, 420119, 3
420118, 420126, 2
420118, 420134, 2
420118, 420105, 2
420118, 420114, 2
420099, 420110, 2
420099, 420096, 2
420099, 420117, 2
420099, 420104, 2
420099, 420097, 2
420099, 420105, 2
420099, 420095, 2
420099, 420103, 2
420099, 420106, 2
420099, 420101, 2
420099, 420107, 2
420099, 420094, 2
420099, 420102, 2
420138, 420142, 2
420138, 420135, 2
420138, 420136, 2
420138, 420134, 2
420138, 420140, 1
420138, 420137, 2
420131, 420125, 2
420131, 420132, 1
420131, 420134, 2
420131, 420114, 2
420131, 420130, 2
420131, 420105, 2
420119, 420114, 2
420119, 420125, 2
420119, 420120, 2
420119, 420121, 2
420119, 420118, 2
420108, 420109, 2
420108, 420110, 2
420108, 420107, 2
420108, 420105, 2
420116, 420125, 2
420116, 420113, 2
420116, 420118, 1
420116, 420114, 2
420116, 420115, 2
420116, 420105, 2
420094, 420098, 2
420094, 420095, 3
420094, 420096, 1
420094, 420100, 2
420094, 420099, 2
420094, 420097, 2
420094, 420105, 2
420121, 420125, 2
420121, 420122, 2
420121, 420119, 2
420121, 420120, 2
420121, 420126, 2
420121, 420139, 2
420121, 420123, 2
420129, 420125, 2
420129, 420117, 2
420129, 420136, 2
420129, 420126, 2
420129, 420139, 2
420129, 420130, 1
420129, 420134, 2
420129, 420105, 2
420129, 420114, 2
420129, 420128, 2
420134, 420118, 2
420134, 420125, 2
420134, 420142, 2
420134, 420132, 2
420134, 420135, 2
420134, 420129, 2
420134, 420120, 2
420134, 420141, 2
420134, 420143, 2
420134, 420137, 2
420134, 420136, 2
420134, 420133, 4
420134, 420139, 6
420134, 420140, 2
420134, 420126, 2
420134, 420138, 2
420134, 420131, 2
420143, 420142, 2
420143, 420141, 2
420143, 420134, 2
420143, 420140, 2
420127, 420126, 2
420127, 420125, 2
420127, 420124, 2
420127, 420136, 2
420127, 420128, 2
420137, 420136, 2
420137, 420133, 2
420137, 420140, 2
420137, 420134, 2
420137, 420141, 2
420137, 420138, 2
420137, 420135, 2
420136, 420132, 2
420136, 420135, 2
420136, 420140, 2
420136, 420129, 2
420136, 420134, 2
420136, 420141, 2
420136, 420133, 2
420136, 420137, 2
420136, 420138, 2
420136, 420127, 2
420136, 420128, 2
420104, 420106, 1
420104, 420103, 2
420104, 420107, 2
420104, 420100, 2
420104, 420099, 2
420104, 420097, 2
420104, 420102, 2
420104, 420117, 2
420104, 420105, 2
420140, 420136, 2
420140, 420135, 2
420140, 420134, 2
420140, 420142, 0
420140, 420141, 3
420140, 420143, 2
420140, 420137, 2
420140, 420138, 2
420098, 420125, 2
420098, 420110, 2
420098, 420094, 2
420098, 420101, 2
420098, 420097, 2
420098, 420095, 2
420098, 420096, 2
420098, 420107, 2
420098, 420113, 2
420098, 420100, 0
420098, 420114, 2
420098, 420105, 2
420098, 420111, 2
420111, 420098, 2
420111, 420110, 2
420111, 420107, 2
420111, 420100, 2
420111, 420109, 2
420111, 420114, 2
420111, 420112, 1
420111, 420097, 2
420111, 420105, 2
420105, 420125, 2
420105, 420110, 2
420105, 420094, 2
420105, 420113, 2
420105, 420129, 2
420105, 420126, 2
420105, 420118, 2
420105, 420116, 2
420105, 420099, 2
420105, 420095, 2
420105, 420097, 2
420105, 420107, 2
420105, 420108, 2
420105, 420104, 2
420105, 420114, 1
420105, 420098, 2
420105, 420111, 2
420105, 420100, 2
420105, 420109, 2
420105, 420112, 2
420105, 420096, 2
420105, 420117, 2
420105, 420103, 2
420105, 420101, 4
420105, 420106, 2
420105, 420102, 2
420105, 420131, 2
420109, 420111, 2
420109, 420110, 1
420109, 420107, 2
420109, 420105, 2
420109, 420108, 2
420120, 420125, 2
420120, 420121, 3
420120, 420119, 2
420120, 420126, 1
420120, 420118, 2
420120, 420134, 2
420120, 420139, 2
420120, 420114, 2
420120, 420123, 2
420112, 420111, 2
420112, 420096, 2
420112, 420113, 2
420112, 420100, 2
420112, 420114, 2
420112, 420097, 2
420112, 420105, 2
420101, 420098, 2
420101, 420125, 2
420101, 420097, 2
420101, 420107, 1
420101, 420099, 2
420101, 420114, 2
420101, 420100, 2
420101, 420102, 3
420101, 420117, 2
420101, 420105, 2
420123, 420125, 2
420123, 420122, 2
420123, 420121, 2
420123, 420124, 1
420123, 420114, 2
420123, 420126, 2
420123, 420117, 2
420123, 420120, 2
420106, 420103, 2
420106, 420107, 2
420106, 420104, 2
420106, 420099, 2
420106, 420100, 2
420106, 420097, 2
420106, 420105, 2
420096, 420098, 2
420096, 420095, 2
420096, 420097, 1
420096, 420094, 2
420096, 420113, 2
420096, 420100, 2
420096, 420099, 2
420096, 420112, 2
420096, 420105, 2
420117, 420125, 2
420117, 420124, 2
420117, 420129, 2
420117, 420126, 2
420117, 420105, 2
420117, 420101, 2
420117, 420099, 2
420117, 420139, 2
420117, 420102, 2
420117, 420103, 2
420117, 420107, 2
420117, 420104, 2
420117, 420114, 2
420117, 420130, 2
420117, 420123, 2
420117, 420128, 2
420133, 420125, 2
420133, 420132, 2
420133, 420135, 0
420133, 420142, 2
420133, 420134, 2
420133, 420137, 2
420133, 420136, 3
420133, 420114, 2
420100, 420098, 2
420100, 420125, 2
420100, 420110, 2
420100, 420094, 2
420100, 420135, 2
420100, 420112, 2
420100, 420097, 2
420100, 420101, 2
420100, 420114, 2
420100, 420105, 2
420100, 420095, 2
420100, 420096, 2
420100, 420106, 2
420100, 420113, 2
420100, 420104, 2
420100, 420107, 2
420100, 420102, 2
420100, 420111, 2
420122, 420126, 2
420122, 420125, 2
420122, 420121, 2
420122, 420123, 1
420122, 420124, 2
420102, 420103, 2
420102, 420107, 2
420102, 420114, 2
420102, 420099, 2
420102, 420104, 2
420102, 420100, 2
420102, 420101, 2
420102, 420117, 2
420102, 420105, 2
