549686, 549688, 2
549686, 549687, 1
549686, 549685, 2
549694, 549693, 2
549694, 549692, 2
549694, 549695, 2
549693, 549694, 2
549693, 549692, 2
549693, 549695, 1
549695, 549694, 2
549695, 549693, 2
549695, 549692, 2
549687, 549686, 2
549687, 549688, 1
549689, 549688, 2
549689, 549690, 1
549688, 549686, 2
549688, 549687, 2
549688, 549689, 1
549688, 549690, 2
549692, 549694, 3
549692, 549693, 0
549692, 549695, 2
549692, 549691, 2
549691, 549692, 1
549691, 549690, 2
549685, 549686, 1
549690, 549688, 2
549690, 549691, 1
549690, 549689, 2
