454637, 454638, 1
454637, 454636, 2
454635, 454634, 2
454635, 454636, 2
454667, 454666, 2
454667, 454668, 1
454647, 454650, 2
454647, 454654, 2
454647, 454641, 2
454647, 454648, 2
454647, 454639, 2
454647, 454644, 2
454647, 454649, 1
454647, 454643, 2
454647, 454651, 2
454647, 454646, 2
454638, 454637, 2
454638, 454640, 2
454638, 454641, 2
454638, 454642, 2
454638, 454639, 1
454638, 454645, 2
454638, 454646, 2
454669, 454670, 1
454669, 454657, 2
454669, 454671, 2
454669, 454659, 2
454669, 454668, 2
454669, 454666, 2
454669, 454662, 2
454641, 454647, 2
454641, 454638, 2
454641, 454640, 4
454641, 454642, 2
454641, 454639, 2
454641, 454645, 2
454641, 454643, 1
454641, 454646, 2
454660, 454658, 2
454660, 454661, 2
454660, 454657, 2
454660, 454663, 1
454660, 454659, 2
454660, 454662, 2
454672, 454671, 2
454672, 454673, 1
454672, 454662, 2
454649, 454647, 2
454649, 454650, 2
454649, 454654, 2
454649, 454652, 1
454649, 454648, 2
454649, 454655, 2
454649, 454644, 2
454649, 454651, 2
454662, 454661, 2
454662, 454660, 2
454662, 454657, 2
454662, 454663, 2
454662, 454669, 2
454662, 454666, 2
454662, 454659, 2
454662, 454668, 2
454662, 454671, 2
454662, 454672, 2
454653, 454658, 2
454653, 454654, 2
454653, 454657, 2
454653, 454652, 2
454653, 454648, 2
454653, 454656, 2
454653, 454644, 2
454653, 454650, 2
454653, 454655, 2
454653, 454651, 2
454664, 454658, 2
454664, 454665, 1
454664, 454657, 2
454664, 454663, 2
454655, 454653, 2
454655, 454657, 2
454655, 454654, 2
454655, 454656, 1
454655, 454651, 2
454655, 454646, 2
454655, 454649, 2
454661, 454658, 2
454661, 454660, 2
454661, 454657, 2
454661, 454663, 2
454661, 454662, 1
454661, 454659, 2
454652, 454654, 2
454652, 454653, 1
454652, 454648, 2
454652, 454644, 2
454652, 454649, 2
454652, 454651, 2
454652, 454650, 2
454666, 454658, 2
454666, 454667, 1
454666, 454663, 2
454666, 454669, 2
454666, 454668, 2
454666, 454665, 2
454666, 454662, 2
454636, 454637, 1
454636, 454635, 2
454636, 454640, 2
454645, 454638, 2
454645, 454646, 1
454645, 454641, 2
454645, 454648, 2
454645, 454639, 2
454645, 454644, 2
454645, 454642, 2
454645, 454643, 2
454670, 454669, 2
454670, 454668, 2
454670, 454671, 1
454650, 454647, 2
454650, 454654, 2
454650, 454640, 2
454650, 454652, 2
454650, 454648, 2
454650, 454651, 1
454650, 454653, 2
454650, 454646, 2
454650, 454649, 2
454673, 454672, 2
454663, 454658, 2
454663, 454657, 2
454663, 454660, 2
454663, 454661, 2
454663, 454664, 3
454663, 454666, 1
454663, 454659, 2
454663, 454665, 2
454663, 454662, 2
454642, 454638, 2
454642, 454640, 2
454642, 454641, 2
454642, 454648, 2
454642, 454639, 2
454642, 454644, 2
454642, 454645, 1
454642, 454643, 2
454654, 454647, 2
454654, 454649, 2
454654, 454653, 2
454654, 454652, 2
454654, 454655, 1
454654, 454646, 2
454654, 454651, 2
454654, 454650, 2
454643, 454647, 2
454643, 454642, 2
454643, 454640, 2
454643, 454641, 2
454643, 454648, 2
454643, 454644, 1
454643, 454645, 2
454643, 454646, 2
454644, 454647, 2
454644, 454642, 2
454644, 454653, 2
454644, 454640, 2
454644, 454652, 2
454644, 454648, 1
454644, 454643, 2
454644, 454645, 2
454644, 454649, 2
454644, 454646, 2
454646, 454647, 2
454646, 454638, 2
454646, 454650, 2
454646, 454643, 2
454646, 454644, 2
454646, 454655, 2
454646, 454654, 2
454646, 454641, 2
454646, 454648, 2
454646, 454639, 2
454646, 454645, 2
454646, 454651, 2
454657, 454659, 0
454657, 454658, 3
454657, 454660, 1
454657, 454661, 2
454657, 454663, 2
454657, 454664, 2
454657, 454656, 2
454657, 454669, 2
454657, 454653, 2
454657, 454655, 2
454657, 454662, 2
454634, 454635, 1
454634, 454640, 2
454634, 454633, 2
454658, 454661, 2
454658, 454660, 2
454658, 454657, 2
454658, 454663, 2
454658, 454664, 2
454658, 454666, 2
454658, 454653, 2
454658, 454668, 2
454658, 454671, 2
454658, 454659, 2
454665, 454664, 2
454665, 454666, 2
454665, 454663, 2
454633, 454634, 3
454633, 454640, 2
454648, 454647, 4
454648, 454650, 1
454648, 454653, 2
454648, 454652, 2
454648, 454642, 2
454648, 454640, 2
454648, 454643, 2
454648, 454644, 2
454648, 454645, 2
454648, 454649, 2
454648, 454646, 2
454656, 454653, 2
454656, 454657, 1
454656, 454655, 2
454639, 454647, 2
454639, 454638, 2
454639, 454640, 2
454639, 454641, 1
454639, 454642, 2
454639, 454645, 2
454639, 454646, 2
454659, 454658, 2
454659, 454661, 1
454659, 454657, 2
454659, 454663, 2
454659, 454669, 2
454659, 454662, 2
454659, 454660, 2
454668, 454670, 2
454668, 454658, 2
454668, 454667, 2
454668, 454671, 2
454668, 454669, 1
454668, 454666, 2
454668, 454662, 2
454671, 454670, 2
454671, 454658, 2
454671, 454669, 2
454671, 454668, 2
454671, 454672, 1
454671, 454662, 2
454651, 454647, 2
454651, 454650, 2
454651, 454653, 2
454651, 454654, 1
454651, 454655, 2
454651, 454652, 2
454651, 454646, 2
454651, 454649, 2
454651, 454640, 2
454640, 454638, 2
454640, 454650, 2
454640, 454642, 1
454640, 454643, 2
454640, 454644, 2
454640, 454634, 2
454640, 454633, 2
454640, 454641, 2
454640, 454648, 2
454640, 454636, 2
454640, 454639, 2
454640, 454651, 2
