642534, 642535, 2
642534, 642536, 2
642534, 642533, 2
642534, 642532, 2
642542, 642540, 2
642542, 642539, 2
642542, 642541, 2
642542, 642535, 2
642541, 642540, 2
642541, 642539, 2
642541, 642542, 2
642535, 642537, 2
642535, 642534, 2
642535, 642529, 2
642535, 642532, 2
642535, 642540, 1
642535, 642531, 2
642535, 642536, 3
642535, 642533, 2
642535, 642542, 2
642535, 642538, 2
642535, 642530, 2
642540, 642535, 2
642540, 642539, 2
642540, 642538, 2
642540, 642542, 1
642540, 642541, 3
642531, 642535, 2
642531, 642533, 2
642531, 642532, 2
642531, 642529, 2
642531, 642530, 2
642528, 642527, 2
642528, 642529, 1
642532, 642535, 2
642532, 642531, 2
642532, 642534, 2
642532, 642533, 1
642527, 642526, 2
642527, 642529, 2
642527, 642528, 1
642530, 642535, 1
642530, 642531, 3
642530, 642533, 2
642530, 642529, 2
642526, 642527, 1
642537, 642535, 2
642537, 642536, 2
642537, 642538, 1
642538, 642540, 2
642538, 642537, 2
642538, 642536, 2
642538, 642539, 2
642538, 642535, 2
642536, 642535, 2
642536, 642537, 1
642536, 642534, 2
642536, 642538, 2
642533, 642535, 2
642533, 642534, 1
642533, 642531, 2
642533, 642532, 2
642533, 642529, 2
642533, 642530, 2
642539, 642540, 2
642539, 642538, 2
642539, 642542, 2
642539, 642541, 2
642529, 642535, 2
642529, 642528, 2
642529, 642531, 2
642529, 642533, 2
642529, 642527, 2
642529, 642530, 1
