572700, 572699, 2
572700, 572701, 2
572697, 572698, 3
572697, 572699, 1
572702, 572699, 2
572702, 572701, 2
572698, 572699, 2
572698, 572697, 2
572699, 572702, 2
572699, 572698, 2
572699, 572700, 3
572699, 572697, 2
572699, 572701, 1
572701, 572702, 1
572701, 572700, 2
572701, 572699, 2
