406337, 406338, 1
406342, 406343, 1
406342, 406341, 2
406344, 406343, 2
406339, 406338, 2
406339, 406341, 1
406339, 406340, 3
406343, 406342, 2
406343, 406344, 1
406338, 406337, 2
406338, 406341, 2
406338, 406340, 2
406338, 406339, 1
406341, 406342, 1
406341, 406338, 2
406341, 406340, 2
406341, 406339, 2
406340, 406338, 2
406340, 406341, 2
406340, 406339, 2
