495477, 495476, 2
495475, 495476, 1
495475, 495474, 2
495474, 495475, 1
495474, 495473, 2
495473, 495471, 2
495473, 495474, 1
495473, 495472, 2
495476, 495477, 1
495476, 495475, 2
495471, 495472, 8
495471, 495473, 1
495472, 495471, 2
495472, 495473, 2
