449949, 449951, 1
449949, 449948, 2
449949, 449950, 8
449946, 449945, 2
449946, 449947, 1
449947, 449946, 2
449947, 449948, 1
449952, 449954, 2
449952, 449951, 2
449952, 449953, 1
449952, 449950, 2
449948, 449949, 1
449948, 449951, 2
449948, 449950, 2
449948, 449947, 2
449956, 449954, 2
449956, 449955, 2
449956, 449957, 1
449954, 449953, 2
449954, 449955, 2
449954, 449956, 2
449954, 449952, 2
449957, 449956, 2
449950, 449949, 2
449950, 449951, 2
449950, 449948, 2
449950, 449952, 2
449945, 449946, 1
449953, 449954, 8
449953, 449955, 1
449953, 449952, 2
449951, 449949, 2
449951, 449948, 2
449951, 449950, 2
449951, 449952, 1
449955, 449954, 2
449955, 449953, 2
449955, 449956, 1
