378009, 378010, 1
378009, 378007, 2
378009, 378008, 2
378007, 378009, 2
378007, 378008, 1
378007, 378010, 2
378008, 378009, 1
378008, 378007, 2
378011, 378010, 2
378010, 378009, 2
378010, 378007, 2
378010, 378011, 1
