625409, 625408, 2
625409, 625406, 2
625409, 625407, 2
625408, 625409, 1
625408, 625407, 2
625408, 625406, 2
625406, 625409, 2
625406, 625408, 1
625406, 625407, 3
625407, 625409, 2
625407, 625408, 2
625407, 625406, 2
