431723, 431720, 2
431723, 431721, 2
431723, 431722, 2
431723, 431724, 1
431729, 431728, 2
431728, 431727, 2
431728, 431729, 1
431726, 431727, 1
431726, 431724, 2
431726, 431725, 2
431720, 431723, 1
431720, 431721, 0
431720, 431722, 2
431720, 431724, 2
431724, 431723, 2
431724, 431726, 2
431724, 431720, 2
431724, 431725, 1
431724, 431721, 2
431724, 431722, 2
431727, 431728, 1
431727, 431726, 2
431725, 431726, 1
431725, 431724, 2
431721, 431723, 2
431721, 431722, 1
431721, 431720, 2
431721, 431724, 2
431722, 431723, 2
431722, 431721, 2
431722, 431720, 2
431722, 431724, 2
