656506, 656508, 2
656506, 656507, 1
656506, 656509, 2
656506, 656505, 2
656506, 656500, 2
656501, 656502, 1
656501, 656499, 2
656501, 656500, 2
656502, 656504, 2
656502, 656501, 2
656502, 656503, 1
656502, 656500, 2
656500, 656504, 2
656500, 656506, 2
656500, 656501, 2
656500, 656502, 2
656500, 656499, 2
656504, 656505, 1
656504, 656503, 2
656504, 656502, 2
656504, 656500, 2
656509, 656506, 2
656509, 656511, 2
656509, 656510, 2
656509, 656508, 2
656511, 656507, 2
656511, 656509, 2
656511, 656510, 2
656511, 656508, 2
656508, 656507, 2
656508, 656506, 2
656508, 656511, 2
656508, 656509, 8
656508, 656510, 1
656503, 656504, 1
656503, 656502, 2
656510, 656509, 2
656510, 656511, 1
656510, 656508, 2
656507, 656506, 2
656507, 656511, 2
656507, 656508, 1
656499, 656501, 1
656499, 656500, 3
656505, 656504, 2
656505, 656506, 1
