570835, 570834, 2
570835, 570837, 2
570835, 570839, 2
570835, 570838, 2
570835, 570836, 2
570838, 570834, 2
570838, 570835, 2
570838, 570837, 2
570838, 570839, 3
570838, 570840, 1
570838, 570836, 2
570830, 570831, 2
570830, 570832, 2
570830, 570829, 2
570839, 570838, 2
570839, 570835, 2
570839, 570840, 2
570837, 570834, 2
570837, 570838, 1
570837, 570835, 2
570837, 570836, 2
570841, 570840, 2
570829, 570831, 1
570829, 570833, 2
570829, 570830, 3
570833, 570834, 2
570833, 570831, 2
570833, 570832, 2
570833, 570829, 2
570840, 570841, 3
570840, 570838, 2
570840, 570839, 2
570836, 570837, 2
570836, 570834, 2
570836, 570838, 2
570836, 570835, 2
570834, 570838, 2
570834, 570837, 1
570834, 570832, 2
570834, 570833, 2
570834, 570835, 3
570834, 570836, 0
570831, 570832, 1
570831, 570833, 2
570831, 570830, 2
570831, 570829, 2
570832, 570834, 1
570832, 570831, 2
570832, 570833, 0
570832, 570830, 2
