341599, 341598, 2
341599, 341597, 2
341599, 341601, 2
341599, 341600, 2
341596, 341597, 1
341597, 341599, 2
341597, 341596, 2
341597, 341600, 2
341597, 341598, 1
341597, 341602, 2
341598, 341599, 8
341598, 341597, 2
341598, 341601, 2
341598, 341600, 1
341602, 341603, 1
341602, 341597, 2
341602, 341601, 2
341602, 341600, 2
341603, 341604, 1
341603, 341601, 2
341603, 341602, 2
341604, 341603, 2
341601, 341599, 2
341601, 341598, 2
341601, 341602, 2
341601, 341603, 2
341601, 341600, 2
341600, 341599, 2
341600, 341598, 2
341600, 341597, 2
341600, 341601, 8
341600, 341602, 1
