643787, 643783, 2
643787, 643785, 2
643787, 643786, 2
643783, 643787, 2
643783, 643785, 1
643783, 643784, 3
643785, 643787, 2
643785, 643783, 2
643785, 643786, 1
643785, 643784, 2
643784, 643783, 2
643784, 643785, 2
643786, 643787, 6
643786, 643785, 2
