380098, 380094, 2
380098, 380097, 2
380098, 380099, 1
380098, 380096, 2
380092, 380093, 1
380099, 380098, 2
380099, 380096, 2
380099, 380097, 2
380096, 380098, 1
380096, 380094, 2
380096, 380095, 2
380096, 380099, 2
380096, 380097, 8
380095, 380094, 2
380095, 380093, 2
380095, 380096, 2
380095, 380097, 2
380094, 380098, 2
380094, 380093, 2
380094, 380096, 1
380094, 380097, 2
380094, 380095, 8
380093, 380094, 1
380093, 380092, 2
380093, 380095, 2
380097, 380098, 2
380097, 380094, 2
380097, 380095, 2
380097, 380096, 2
380097, 380099, 2
