515490, 515491, 2
515490, 515494, 2
515490, 515492, 2
515490, 515493, 2
515491, 515490, 6
515491, 515493, 1
515491, 515494, 2
515491, 515492, 3
515494, 515490, 2
515494, 515491, 2
515494, 515493, 2
515493, 515490, 2
515493, 515491, 2
515493, 515494, 1
515493, 515492, 2
515492, 515490, 2
515492, 515491, 2
515492, 515493, 2
