515642, 515641, 2
515642, 515643, 1
515640, 515641, 1
515640, 515639, 2
515639, 515641, 2
515639, 515640, 1
515645, 515644, 2
515645, 515646, 2
515641, 515642, 1
515641, 515640, 2
515641, 515639, 2
515644, 515646, 1
515644, 515643, 2
515644, 515645, 0
515646, 515644, 2
515646, 515645, 2
515643, 515644, 1
515643, 515642, 2
