450658, 450659, 1
450658, 450657, 2
450664, 450665, 8
450664, 450666, 1
450664, 450663, 2
450655, 450656, 1
450655, 450654, 2
450665, 450666, 2
450665, 450664, 2
450660, 450661, 3
450660, 450659, 2
450660, 450662, 1
450671, 450670, 2
450663, 450662, 2
450663, 450664, 1
450661, 450660, 2
450661, 450662, 2
450659, 450658, 2
450659, 450660, 1
450659, 450657, 2
450656, 450655, 2
450656, 450657, 1
450654, 450655, 1
450667, 450668, 2
450667, 450666, 2
450668, 450666, 2
450668, 450669, 1
450668, 450667, 2
450657, 450658, 1
450657, 450659, 2
450657, 450656, 2
450669, 450668, 2
450669, 450670, 1
450670, 450669, 2
450670, 450671, 1
450666, 450668, 1
450666, 450665, 2
450666, 450667, 3
450666, 450664, 2
450662, 450661, 2
450662, 450660, 2
450662, 450663, 1
