495243, 495242, 2
495243, 495244, 2
495243, 495245, 2
495242, 495243, 3
495242, 495244, 1
495242, 495245, 2
495244, 495243, 2
495244, 495242, 2
495244, 495245, 1
495245, 495243, 2
495245, 495242, 2
495245, 495244, 2
495245, 495246, 1
495245, 495247, 2
495247, 495245, 2
495247, 495246, 2
495246, 495247, 1
495246, 495245, 2
