549827, 549828, 1
549827, 549826, 2
549820, 549819, 2
549820, 549821, 1
549826, 549827, 1
549826, 549825, 2
549822, 549823, 2
549822, 549824, 2
549822, 549821, 2
549823, 549819, 2
549823, 549821, 2
549823, 549824, 2
549823, 549822, 2
549828, 549827, 2
549828, 549829, 1
549828, 549830, 2
549830, 549831, 1
549830, 549828, 2
549830, 549829, 2
549824, 549823, 2
549824, 549821, 2
549824, 549825, 1
549824, 549822, 2
549831, 549830, 2
549829, 549828, 2
549829, 549830, 1
549825, 549824, 2
549825, 549826, 1
549819, 549823, 2
549819, 549820, 1
549821, 549823, 8
549821, 549820, 2
549821, 549824, 1
549821, 549822, 0
