375020, 375021, 1
375020, 375019, 2
375024, 375025, 1
375024, 375023, 2
375024, 375028, 2
375024, 375027, 2
375023, 375022, 2
375023, 375024, 1
375023, 375021, 2
375028, 375025, 2
375028, 375024, 2
375028, 375027, 2
375028, 375029, 0
375028, 375030, 1
375028, 375026, 2
375027, 375025, 2
375027, 375024, 2
375027, 375028, 2
375027, 375026, 2
375027, 375030, 2
375033, 375032, 2
375026, 375025, 2
375026, 375028, 2
375026, 375027, 2
375030, 375031, 1
375030, 375028, 2
375030, 375027, 2
375030, 375032, 2
375030, 375029, 2
375032, 375033, 0
375032, 375031, 2
375032, 375030, 2
375021, 375020, 2
375021, 375022, 0
375021, 375023, 1
375021, 375019, 2
375029, 375028, 2
375029, 375030, 2
375022, 375023, 2
375022, 375021, 2
375031, 375032, 1
375031, 375030, 2
375025, 375024, 2
375025, 375028, 1
375025, 375027, 8
375025, 375026, 0
375019, 375020, 1
375019, 375021, 2
