550170, 550166, 2
550170, 550169, 2
550170, 550168, 2
550170, 550167, 2
550170, 550172, 2
550170, 550171, 1
550169, 550170, 2
550169, 550168, 2
550160, 550161, 1
550168, 550170, 2
550168, 550169, 1
550168, 550167, 2
550173, 550172, 2
550161, 550162, 1
550161, 550160, 2
550162, 550163, 1
550162, 550161, 2
550166, 550170, 2
550166, 550167, 1
550166, 550165, 2
550171, 550170, 2
550171, 550172, 1
550163, 550162, 2
550163, 550164, 1
550167, 550170, 1
550167, 550168, 3
550167, 550166, 2
550172, 550170, 2
550172, 550173, 1
550172, 550171, 2
550165, 550166, 1
550165, 550164, 2
550164, 550163, 2
550164, 550165, 1
