405070, 405072, 2
405070, 405066, 2
405070, 405073, 2
405070, 405060, 2
405070, 405071, 2
405070, 405062, 2
405070, 405074, 2
405070, 405069, 2
405070, 405067, 2
405051, 405052, 2
405051, 405053, 2
405051, 405055, 2
405051, 405050, 2
405049, 405048, 2
405049, 405054, 2
405049, 405050, 1
405047, 405048, 1
405047, 405045, 2
405047, 405046, 2
405053, 405055, 1
405053, 405052, 2
405053, 405050, 2
405053, 405051, 2
405053, 405054, 3
405056, 405059, 2
405056, 405067, 2
405056, 405057, 8
405056, 405058, 1
405056, 405063, 2
405056, 405061, 2
405056, 405068, 2
405056, 405055, 2
405059, 405064, 2
405059, 405067, 2
405059, 405062, 2
405059, 405057, 2
405059, 405060, 1
405059, 405058, 2
405059, 405063, 2
405059, 405056, 2
405059, 405055, 2
405066, 405070, 2
405066, 405065, 2
405066, 405060, 2
405066, 405069, 2
405066, 405061, 2
405066, 405071, 1
405066, 405062, 2
405066, 405074, 2
405066, 405068, 6
405066, 405067, 4
405052, 405054, 2
405052, 405053, 1
405052, 405051, 2
405052, 405050, 2
405052, 405055, 2
405057, 405059, 2
405057, 405067, 2
405057, 405058, 2
405057, 405063, 2
405057, 405056, 2
405057, 405061, 2
405057, 405055, 2
405074, 405070, 2
405074, 405066, 2
405074, 405072, 2
405074, 405073, 2
405074, 405069, 2
405074, 405063, 2
405074, 405065, 2
405074, 405068, 2
405074, 405071, 2
405058, 405059, 4
405058, 405067, 2
405058, 405057, 2
405058, 405060, 2
405058, 405062, 2
405058, 405063, 1
405058, 405056, 2
405058, 405061, 6
405058, 405068, 2
405058, 405055, 2
405063, 405060, 2
405063, 405062, 2
405063, 405056, 2
405063, 405068, 2
405063, 405061, 2
405063, 405059, 2
405063, 405057, 2
405063, 405058, 2
405063, 405067, 2
405063, 405064, 8
405063, 405065, 1
405063, 405074, 2
405063, 405055, 2
405064, 405059, 2
405064, 405065, 2
405064, 405060, 2
405064, 405063, 2
405064, 405062, 2
405064, 405061, 2
405064, 405068, 2
405064, 405067, 2
405065, 405066, 1
405065, 405071, 2
405065, 405055, 2
405065, 405060, 2
405065, 405074, 2
405065, 405062, 2
405065, 405063, 2
405065, 405064, 2
405065, 405061, 2
405065, 405068, 2
405065, 405067, 2
405055, 405051, 2
405055, 405054, 2
405055, 405056, 1
405055, 405053, 2
405055, 405062, 2
405055, 405068, 2
405055, 405061, 2
405055, 405059, 2
405055, 405052, 2
405055, 405057, 2
405055, 405058, 2
405055, 405063, 2
405055, 405065, 2
405055, 405050, 2
405072, 405070, 2
405072, 405071, 2
405072, 405073, 1
405072, 405069, 2
405072, 405074, 2
405071, 405070, 2
405071, 405066, 2
405071, 405072, 1
405071, 405060, 2
405071, 405069, 2
405071, 405068, 2
405071, 405065, 2
405071, 405061, 2
405071, 405074, 2
405071, 405067, 2
405073, 405070, 2
405073, 405072, 2
405073, 405068, 2
405073, 405074, 1
405073, 405069, 2
405060, 405070, 2
405060, 405059, 2
405060, 405071, 2
405060, 405066, 2
405060, 405064, 2
405060, 405058, 2
405060, 405063, 2
405060, 405062, 3
405060, 405065, 2
405060, 405068, 2
405060, 405067, 2
405054, 405052, 2
405054, 405053, 2
405054, 405055, 2
405054, 405049, 2
405054, 405050, 2
405046, 405044, 2
405046, 405047, 1
405046, 405045, 2
405068, 405063, 2
405068, 405073, 2
405068, 405060, 2
405068, 405056, 2
405068, 405061, 2
405068, 405066, 2
405068, 405058, 2
405068, 405071, 2
405068, 405064, 2
405068, 405065, 2
405068, 405074, 2
405068, 405055, 2
405067, 405070, 2
405067, 405071, 2
405067, 405060, 2
405067, 405062, 2
405067, 405056, 2
405067, 405061, 2
405067, 405059, 2
405067, 405066, 2
405067, 405057, 2
405067, 405058, 2
405067, 405063, 2
405067, 405064, 2
405067, 405065, 2
405067, 405069, 1
405044, 405046, 2
405044, 405045, 1
405069, 405070, 3
405069, 405066, 2
405069, 405072, 2
405069, 405073, 2
405069, 405071, 2
405069, 405062, 2
405069, 405074, 2
405069, 405067, 2
405048, 405047, 2
405048, 405049, 1
405050, 405052, 1
405050, 405051, 0
405050, 405049, 2
405050, 405054, 2
405050, 405053, 2
405050, 405055, 2
405062, 405070, 2
405062, 405066, 2
405062, 405055, 2
405062, 405060, 2
405062, 405059, 2
405062, 405058, 2
405062, 405063, 2
405062, 405064, 2
405062, 405065, 2
405062, 405069, 2
405062, 405067, 2
405061, 405064, 2
405061, 405066, 2
405061, 405071, 2
405061, 405057, 2
405061, 405058, 2
405061, 405055, 2
405061, 405063, 2
405061, 405056, 2
405061, 405065, 2
405061, 405068, 2
405061, 405067, 2
405045, 405044, 2
405045, 405047, 2
405045, 405046, 1
