336483, 336481, 2
336483, 336484, 1
336483, 336482, 2
336475, 336476, 1
336475, 336474, 2
336473, 336472, 2
336473, 336474, 1
336468, 336469, 1
336468, 336470, 2
336468, 336467, 2
336467, 336468, 1
336478, 336476, 2
336478, 336479, 1
336478, 336477, 2
336476, 336478, 1
336476, 336475, 2
336476, 336477, 3
336486, 336485, 2
336472, 336474, 2
336472, 336471, 2
336472, 336473, 1
336472, 336470, 2
336479, 336478, 2
336479, 336480, 1
336474, 336472, 2
336474, 336475, 1
336474, 336473, 2
336477, 336478, 2
336477, 336476, 2
336470, 336472, 2
336470, 336469, 2
336470, 336471, 2
336470, 336468, 2
336485, 336484, 2
336485, 336486, 1
336482, 336483, 2
336482, 336481, 2
336481, 336483, 1
336481, 336480, 2
336481, 336482, 3
336469, 336471, 1
336469, 336468, 2
336469, 336470, 8
336480, 336479, 2
336480, 336481, 1
336484, 336483, 2
336484, 336485, 1
336471, 336472, 1
336471, 336469, 2
336471, 336470, 2
