554413, 554412, 2
554413, 554411, 2
554413, 554414, 1
554411, 554413, 1
554411, 554412, 3
554411, 554410, 2
554411, 554409, 2
554411, 554408, 2
554414, 554413, 2
554414, 554412, 2
554412, 554413, 2
554412, 554411, 2
554412, 554414, 2
554412, 554410, 2
554412, 554409, 2
554412, 554408, 2
554408, 554412, 2
554408, 554411, 1
554408, 554410, 8
554408, 554409, 3
554409, 554412, 2
554409, 554411, 2
554409, 554408, 2
554409, 554410, 2
554410, 554412, 2
554410, 554411, 2
554410, 554408, 2
554410, 554409, 2
