536413, 536412, 2
536413, 536411, 2
536411, 536413, 2
536411, 536412, 1
536411, 536410, 2
536411, 536409, 2
536410, 536411, 1
536410, 536409, 2
536410, 536412, 2
536409, 536411, 2
536409, 536410, 1
536412, 536413, 1
536412, 536411, 2
536412, 536410, 2
