592981, 592982, 1
592981, 592978, 2
592981, 592980, 2
592981, 592983, 2
592980, 592981, 1
592980, 592979, 2
592977, 592978, 1
592977, 592979, 2
592983, 592982, 2
592983, 592981, 2
592982, 592981, 2
592982, 592983, 1
592978, 592981, 2
592978, 592977, 2
592978, 592979, 1
592979, 592978, 2
592979, 592980, 1
592979, 592977, 2
