377752, 377753, 1
377752, 377751, 2
377732, 377731, 2
377732, 377733, 1
377736, 377734, 2
377736, 377738, 1
377736, 377740, 2
377736, 377737, 8
377736, 377739, 2
377736, 377735, 2
377720, 377721, 1
377721, 377722, 1
377721, 377723, 2
377721, 377720, 2
377743, 377745, 2
377743, 377742, 2
377743, 377744, 1
377723, 377721, 2
377723, 377722, 2
377723, 377725, 2
377723, 377724, 2
377749, 377750, 1
377749, 377747, 2
377749, 377748, 2
377749, 377751, 2
377729, 377730, 1
377729, 377728, 2
377758, 377760, 2
377758, 377759, 2
377758, 377756, 2
377758, 377757, 2
377758, 377755, 2
377731, 377730, 2
377731, 377732, 1
377731, 377728, 2
377747, 377745, 2
377747, 377750, 2
377747, 377746, 2
377747, 377749, 1
377747, 377751, 2
377747, 377748, 8
377747, 377744, 2
377740, 377737, 2
377740, 377738, 2
377740, 377736, 2
377740, 377739, 2
377740, 377741, 1
377730, 377731, 1
377730, 377728, 2
377730, 377729, 2
377726, 377727, 1
377726, 377722, 2
377726, 377728, 2
377726, 377725, 2
377726, 377724, 2
377753, 377752, 2
377753, 377754, 1
377751, 377750, 2
377751, 377752, 1
377751, 377747, 2
377751, 377748, 2
377751, 377749, 2
377737, 377734, 2
377737, 377738, 2
377737, 377736, 2
377737, 377740, 2
377737, 377739, 2
377737, 377735, 2
377733, 377734, 1
377733, 377732, 2
377733, 377735, 2
377744, 377750, 2
377744, 377743, 2
377744, 377746, 8
377744, 377745, 3
377744, 377747, 1
377734, 377738, 2
377734, 377736, 1
377734, 377737, 2
377734, 377739, 2
377734, 377735, 8
377734, 377733, 2
377738, 377734, 2
377738, 377737, 2
377738, 377739, 1
377738, 377736, 2
377738, 377740, 2
377746, 377745, 2
377746, 377747, 2
377746, 377748, 2
377746, 377744, 2
377725, 377726, 2
377725, 377727, 2
377725, 377723, 2
377725, 377724, 2
377725, 377722, 2
377725, 377728, 2
377741, 377742, 1
377741, 377740, 2
377759, 377758, 2
377759, 377760, 1
377759, 377757, 2
377722, 377727, 2
377722, 377726, 2
377722, 377725, 2
377722, 377721, 2
377722, 377723, 8
377722, 377724, 1
377745, 377746, 2
377745, 377743, 2
377745, 377747, 2
377745, 377748, 2
377745, 377744, 2
377724, 377726, 1
377724, 377725, 8
377724, 377727, 2
377724, 377723, 2
377724, 377722, 2
377724, 377728, 2
377757, 377758, 8
377757, 377759, 1
377757, 377756, 2
377757, 377760, 2
377757, 377755, 2
377755, 377758, 2
377755, 377756, 8
377755, 377754, 2
377755, 377757, 1
377754, 377753, 2
377754, 377756, 2
377754, 377755, 1
377748, 377750, 2
377748, 377745, 2
377748, 377747, 2
377748, 377751, 2
377748, 377749, 2
377748, 377746, 2
377750, 377747, 2
377750, 377749, 2
377750, 377751, 1
377750, 377748, 2
377750, 377744, 2
377727, 377722, 2
377727, 377726, 2
377727, 377728, 1
377727, 377725, 2
377727, 377724, 2
377760, 377758, 2
377760, 377759, 2
377760, 377757, 2
377739, 377734, 2
377739, 377737, 2
377739, 377738, 2
377739, 377736, 2
377739, 377740, 1
377735, 377734, 2
377735, 377737, 2
377735, 377736, 2
377735, 377733, 2
377756, 377758, 2
377756, 377755, 2
377756, 377754, 2
377756, 377757, 2
377742, 377743, 1
377742, 377741, 2
377728, 377731, 2
377728, 377726, 2
377728, 377725, 2
377728, 377727, 2
377728, 377730, 2
377728, 377724, 2
377728, 377729, 1
