522350, 522351, 8
522350, 522349, 2
522350, 522348, 2
522350, 522352, 1
522349, 522351, 2
522349, 522350, 2
522349, 522346, 2
522349, 522348, 2
522349, 522347, 2
522346, 522349, 2
522346, 522347, 1
522346, 522348, 2
522356, 522355, 2
522356, 522357, 1
522356, 522358, 2
522356, 522354, 2
522351, 522350, 2
522351, 522349, 2
522351, 522352, 2
522355, 522358, 2
522355, 522356, 1
522355, 522352, 2
522355, 522357, 2
522355, 522353, 2
522355, 522354, 2
522348, 522350, 1
522348, 522349, 8
522348, 522346, 2
522348, 522347, 2
522347, 522349, 2
522347, 522346, 2
522347, 522348, 1
522358, 522355, 2
522358, 522357, 2
522358, 522354, 2
522358, 522356, 2
522352, 522351, 2
522352, 522350, 2
522352, 522355, 2
522352, 522353, 1
522352, 522354, 2
522357, 522355, 2
522357, 522358, 2
522357, 522354, 2
522357, 522356, 2
522353, 522355, 2
522353, 522354, 1
522353, 522352, 2
522354, 522358, 1
522354, 522356, 2
522354, 522352, 2
522354, 522355, 8
522354, 522357, 2
522354, 522353, 2
