452785, 452787, 1
452785, 452786, 3
452785, 452784, 2
452785, 452783, 2
452790, 452791, 3
452790, 452792, 1
452790, 452789, 2
452772, 452771, 2
452772, 452774, 2
452772, 452773, 1
452772, 452775, 2
452772, 452770, 2
452787, 452786, 2
452787, 452788, 1
452787, 452785, 2
452787, 452789, 2
452798, 452796, 2
452798, 452799, 2
452798, 452797, 2
452792, 452790, 2
452792, 452793, 1
452792, 452791, 2
452786, 452787, 2
452786, 452784, 2
452786, 452785, 2
452786, 452783, 2
452778, 452781, 2
452778, 452777, 2
452778, 452780, 2
452778, 452779, 1
452771, 452772, 2
452771, 452770, 2
452799, 452796, 2
452799, 452798, 2
452799, 452797, 2
452779, 452781, 6
452779, 452782, 1
452779, 452778, 2
452779, 452777, 2
452779, 452780, 4
452783, 452786, 2
452783, 452782, 2
452783, 452780, 2
452783, 452785, 2
452783, 452784, 1
452793, 452794, 1
452793, 452792, 2
452791, 452790, 2
452791, 452789, 2
452791, 452792, 2
452796, 452795, 2
452796, 452798, 2
452796, 452799, 2
452796, 452794, 2
452796, 452797, 2
452782, 452781, 2
452782, 452780, 2
452782, 452783, 1
452782, 452779, 2
452774, 452777, 2
452774, 452773, 2
452774, 452772, 2
452774, 452775, 2
452774, 452776, 2
452770, 452771, 3
452770, 452772, 1
452775, 452777, 1
452775, 452774, 2
452775, 452773, 2
452775, 452772, 2
452775, 452776, 3
452784, 452786, 2
452784, 452785, 1
452784, 452783, 2
452795, 452796, 8
452795, 452794, 2
452795, 452797, 1
452776, 452777, 2
452776, 452774, 2
452776, 452775, 2
452781, 452777, 2
452781, 452782, 2
452781, 452778, 2
452781, 452779, 2
452780, 452777, 2
452780, 452782, 2
452780, 452778, 2
452780, 452783, 2
452780, 452779, 2
452773, 452774, 8
452773, 452772, 2
452773, 452775, 1
452797, 452796, 2
452797, 452795, 2
452797, 452798, 3
452797, 452799, 1
452797, 452794, 2
452777, 452778, 1
452777, 452774, 2
452777, 452775, 2
452777, 452779, 2
452777, 452781, 2
452777, 452780, 2
452777, 452776, 2
452788, 452787, 2
452788, 452789, 1
452789, 452787, 2
452789, 452790, 1
452789, 452788, 2
452789, 452791, 2
452794, 452796, 2
452794, 452795, 1
452794, 452793, 2
452794, 452797, 2
