340945, 340942, 2
340945, 340944, 2
340945, 340946, 1
340945, 340943, 2
340940, 340939, 2
340940, 340941, 1
340944, 340945, 2
340944, 340942, 2
340944, 340946, 2
340944, 340943, 2
340946, 340945, 2
340946, 340944, 2
340946, 340943, 2
340943, 340945, 1
340943, 340942, 2
340943, 340944, 8
340943, 340946, 2
340939, 340940, 1
340942, 340945, 2
340942, 340941, 2
340942, 340943, 1
340942, 340944, 2
340941, 340940, 2
340941, 340942, 1
