432069, 432068, 2
432069, 432071, 2
432069, 432067, 2
432069, 432070, 1
432069, 432066, 2
432076, 432074, 2
432076, 432075, 2
432076, 432077, 1
432076, 432078, 2
432072, 432073, 1
432072, 432070, 2
432072, 432071, 2
432079, 432077, 2
432079, 432078, 2
432067, 432069, 1
432067, 432071, 2
432067, 432070, 2
432067, 432066, 2
432067, 432068, 0
432067, 432065, 2
432070, 432069, 2
432070, 432072, 1
432070, 432067, 2
432070, 432071, 3
432070, 432068, 2
432073, 432074, 1
432073, 432072, 2
432073, 432075, 2
432068, 432069, 2
432068, 432077, 2
432068, 432067, 2
432068, 432070, 2
432068, 432065, 2
432065, 432067, 1
432065, 432068, 2
432065, 432066, 8
432077, 432076, 2
432077, 432075, 2
432077, 432079, 1
432077, 432068, 2
432077, 432078, 3
432071, 432069, 2
432071, 432072, 2
432071, 432067, 2
432071, 432070, 2
432071, 432066, 2
432074, 432076, 1
432074, 432073, 2
432074, 432075, 3
432075, 432076, 2
432075, 432074, 2
432075, 432073, 2
432075, 432077, 2
432075, 432078, 2
432078, 432076, 2
432078, 432075, 2
432078, 432077, 2
432078, 432079, 2
432066, 432069, 2
432066, 432067, 2
432066, 432071, 2
432066, 432065, 2
