644259, 644258, 2
644259, 644260, 0
644256, 644257, 1
644256, 644258, 2
644256, 644255, 2
644258, 644259, 1
644258, 644257, 2
644258, 644256, 2
644260, 644259, 2
644257, 644256, 2
644257, 644258, 1
644254, 644255, 1
644255, 644256, 1
644255, 644254, 2
