494590, 494589, 2
494590, 494588, 2
494590, 494587, 2
494588, 494586, 2
494588, 494589, 3
494588, 494590, 2
494588, 494587, 2
494586, 494585, 2
494586, 494588, 2
494586, 494587, 1
494585, 494586, 1
494589, 494590, 2
494589, 494588, 2
494587, 494586, 2
494587, 494590, 1
494587, 494588, 3
