554038, 554039, 1
554038, 554037, 2
554039, 554038, 2
554036, 554035, 2
554036, 554037, 1
554034, 554035, 1
554035, 554037, 2
554035, 554036, 1
554035, 554034, 2
554037, 554038, 1
554037, 554035, 2
554037, 554036, 2
