625843, 625844, 2
625843, 625845, 2
625843, 625841, 2
625843, 625847, 2
625843, 625842, 2
625844, 625843, 2
625844, 625845, 2
625844, 625842, 2
625844, 625846, 2
625845, 625843, 2
625845, 625844, 2
625845, 625847, 2
625845, 625842, 2
625845, 625846, 1
625841, 625843, 2
625841, 625842, 1
625846, 625844, 2
625846, 625845, 2
625846, 625847, 3
625846, 625842, 2
625847, 625843, 2
625847, 625845, 2
625847, 625846, 2
625842, 625843, 3
625842, 625844, 0
625842, 625845, 1
625842, 625841, 2
625842, 625846, 2
