376634, 376633, 2
376634, 376635, 0
376634, 376632, 2
376634, 376631, 2
376622, 376621, 2
376622, 376620, 2
376622, 376623, 0
376622, 376624, 1
376622, 376619, 2
376610, 376609, 2
376610, 376612, 2
376610, 376611, 1
376610, 376608, 2
376614, 376613, 2
376614, 376615, 2
376611, 376610, 2
376611, 376612, 1
376608, 376609, 1
376608, 376610, 2
376633, 376634, 2
376633, 376632, 2
376633, 376631, 2
376628, 376631, 2
376628, 376629, 2
376628, 376625, 2
376628, 376627, 2
376628, 376626, 2
376624, 376619, 2
376624, 376625, 1
376624, 376622, 2
376624, 376623, 2
376616, 376617, 1
376616, 376615, 2
376619, 376622, 2
376619, 376624, 2
376619, 376617, 2
376619, 376618, 2
376619, 376620, 0
376619, 376621, 1
376625, 376629, 2
376625, 376628, 2
376625, 376623, 2
376625, 376624, 2
376625, 376626, 1
376629, 376631, 1
376629, 376628, 2
376629, 376626, 2
376629, 376630, 0
376629, 376627, 2
376629, 376625, 2
376613, 376615, 1
376613, 376614, 3
376613, 376612, 2
376612, 376613, 1
376612, 376610, 2
376612, 376611, 2
376626, 376629, 1
376626, 376628, 8
376626, 376627, 0
376626, 376625, 2
376615, 376613, 2
376615, 376614, 2
376615, 376616, 1
376623, 376622, 2
376623, 376624, 2
376623, 376625, 2
376621, 376619, 2
376621, 376620, 2
376621, 376622, 1
376630, 376629, 2
376630, 376631, 2
376632, 376633, 6
376632, 376634, 1
376632, 376631, 2
376635, 376634, 2
376618, 376617, 2
376618, 376619, 1
376617, 376618, 1
376617, 376616, 2
376617, 376619, 2
376609, 376610, 1
376609, 376608, 2
376620, 376619, 2
376620, 376622, 2
376620, 376621, 2
376627, 376629, 2
376627, 376628, 2
376627, 376626, 2
376631, 376634, 2
376631, 376632, 1
376631, 376628, 2
376631, 376633, 2
376631, 376629, 2
376631, 376630, 2
