593144, 593145, 1
593144, 593143, 2
593147, 593148, 1
593147, 593146, 2
593147, 593145, 2
593143, 593144, 1
593143, 593141, 2
593143, 593145, 2
593143, 593142, 2
593148, 593147, 2
593141, 593143, 2
593141, 593142, 1
593145, 593144, 2
593145, 593147, 2
593145, 593143, 2
593145, 593146, 1
593142, 593141, 2
593142, 593143, 1
593146, 593147, 1
593146, 593145, 2
