571585, 571587, 2
571585, 571581, 2
571585, 571586, 2
571585, 571583, 2
571585, 571584, 2
571576, 571573, 2
571576, 571575, 2
571576, 571574, 2
571576, 571578, 2
571576, 571579, 0
571576, 571577, 3
571576, 571580, 8
571589, 571588, 2
571589, 571590, 2
571589, 571586, 2
571589, 571591, 2
571589, 571587, 2
571580, 571582, 2
571580, 571579, 2
571580, 571576, 2
571580, 571581, 2
571580, 571578, 2
571594, 571592, 2
571594, 571591, 2
571594, 571593, 2
571594, 571595, 2
571594, 571596, 2
571597, 571598, 1
571597, 571596, 2
571597, 571599, 2
571597, 571595, 2
571573, 571576, 2
571573, 571572, 2
571573, 571575, 2
571573, 571574, 2
571573, 571571, 2
571593, 571592, 2
571593, 571591, 2
571593, 571594, 2
571593, 571596, 2
571593, 571595, 2
571583, 571582, 2
571583, 571585, 2
571583, 571586, 2
571583, 571581, 2
571583, 571584, 2
571574, 571576, 2
571574, 571573, 2
571574, 571572, 2
571574, 571575, 2
571574, 571571, 2
571578, 571576, 2
571578, 571579, 2
571578, 571577, 2
571578, 571580, 2
571578, 571581, 2
571592, 571591, 2
571592, 571590, 2
571592, 571593, 1
571592, 571594, 2
571577, 571576, 2
571577, 571579, 2
571577, 571575, 2
571577, 571578, 1
571572, 571573, 1
571572, 571574, 2
571572, 571571, 2
571586, 571585, 2
571586, 571583, 2
571586, 571584, 2
571586, 571587, 3
571586, 571589, 0
571586, 571590, 8
571586, 571588, 2
571598, 571597, 2
571598, 571596, 2
571598, 571599, 2
571596, 571599, 0
571596, 571597, 3
571596, 571598, 2
571596, 571593, 2
571596, 571594, 2
571596, 571595, 2
571588, 571587, 2
571588, 571589, 2
571588, 571586, 2
571588, 571591, 2
571588, 571590, 2
571579, 571576, 2
571579, 571581, 2
571579, 571577, 2
571579, 571580, 2
571579, 571578, 2
571581, 571585, 8
571581, 571583, 2
571581, 571578, 2
571581, 571582, 3
571581, 571579, 2
571581, 571584, 0
571581, 571580, 2
571587, 571588, 1
571587, 571585, 2
571587, 571586, 2
571587, 571589, 2
571591, 571588, 2
571591, 571590, 2
571591, 571592, 3
571591, 571589, 2
571591, 571593, 2
571591, 571594, 0
571591, 571595, 8
571599, 571597, 2
571599, 571598, 2
571599, 571596, 2
571584, 571582, 2
571584, 571585, 2
571584, 571586, 2
571584, 571581, 2
571584, 571583, 2
571590, 571588, 2
571590, 571589, 2
571590, 571586, 2
571590, 571591, 2
571590, 571592, 2
571571, 571573, 2
571571, 571572, 3
571571, 571575, 8
571571, 571574, 0
571595, 571597, 2
571595, 571591, 2
571595, 571593, 2
571595, 571594, 2
571595, 571596, 2
571582, 571581, 2
571582, 571580, 2
571582, 571583, 1
571582, 571584, 2
571575, 571576, 2
571575, 571573, 2
571575, 571577, 2
571575, 571574, 2
571575, 571571, 2
