489107, 489108, 1
489107, 489106, 2
489108, 489107, 2
489108, 489109, 0
489108, 489110, 1
489108, 489111, 2
489106, 489107, 1
489110, 489108, 2
489110, 489109, 2
489110, 489111, 1
489115, 489113, 2
489115, 489114, 2
489115, 489116, 2
489115, 489111, 2
489112, 489113, 2
489112, 489114, 2
489112, 489111, 2
489114, 489112, 2
489114, 489113, 2
489114, 489115, 3
489114, 489116, 0
489114, 489111, 2
489116, 489114, 2
489116, 489115, 2
489109, 489108, 2
489109, 489110, 2
489109, 489111, 2
489113, 489112, 2
489113, 489114, 1
489113, 489115, 2
489113, 489111, 2
489111, 489113, 1
489111, 489110, 2
489111, 489112, 0
489111, 489114, 2
489111, 489109, 2
489111, 489108, 2
489111, 489115, 2
