339849, 339850, 8
339849, 339851, 1
339849, 339848, 2
339851, 339850, 2
339851, 339849, 2
339851, 339852, 1
339848, 339850, 2
339848, 339849, 1
339848, 339847, 2
339850, 339849, 2
339850, 339852, 2
339850, 339848, 2
339850, 339851, 2
339852, 339850, 2
339852, 339851, 2
339847, 339848, 1
