535715, 535713, 2
535715, 535714, 2
535715, 535716, 1
535715, 535717, 2
535730, 535732, 2
535730, 535729, 2
535730, 535731, 1
535730, 535726, 2
535730, 535728, 2
535730, 535724, 2
535714, 535713, 2
535714, 535715, 1
535731, 535730, 2
535731, 535732, 1
535726, 535730, 1
535726, 535728, 2
535726, 535725, 2
535726, 535724, 2
535726, 535727, 3
535707, 535711, 1
535707, 535708, 3
535707, 535709, 2
535716, 535717, 1
535716, 535715, 2
535709, 535707, 2
535709, 535710, 1
535709, 535708, 2
535709, 535711, 2
535712, 535713, 1
535712, 535711, 2
535720, 535717, 2
535720, 535718, 2
535720, 535721, 1
535720, 535722, 2
535720, 535719, 2
535713, 535714, 1
535713, 535712, 2
535713, 535711, 2
535713, 535715, 2
535711, 535713, 2
535711, 535707, 2
535711, 535712, 1
535711, 535710, 2
535711, 535709, 2
535718, 535720, 2
535718, 535719, 3
535718, 535722, 1
535718, 535717, 2
535732, 535730, 2
535732, 535731, 2
535732, 535733, 1
535725, 535726, 2
535725, 535724, 2
535708, 535707, 2
535708, 535709, 1
535729, 535730, 2
535729, 535728, 2
535721, 535720, 2
535721, 535722, 2
535721, 535717, 2
535724, 535730, 2
535724, 535725, 8
535724, 535722, 2
535724, 535726, 1
535724, 535723, 2
535727, 535728, 1
535727, 535726, 2
535719, 535720, 1
535719, 535718, 2
535728, 535730, 2
535728, 535729, 1
535728, 535726, 2
535728, 535727, 2
535722, 535718, 2
535722, 535723, 1
535722, 535717, 2
535722, 535720, 2
535722, 535721, 2
535722, 535724, 2
535723, 535722, 2
535723, 535724, 1
535717, 535718, 1
535717, 535716, 2
535717, 535715, 2
535717, 535720, 2
535717, 535721, 2
535717, 535722, 2
535733, 535732, 2
535710, 535711, 2
535710, 535709, 2
