333343, 333344, 1
333343, 333342, 2
333344, 333343, 2
333336, 333337, 1
333336, 333335, 2
333340, 333339, 2
333340, 333341, 2
333335, 333334, 2
333335, 333336, 1
333341, 333342, 1
333341, 333340, 2
333341, 333339, 2
333338, 333337, 2
333338, 333339, 1
333334, 333335, 1
333337, 333338, 1
333337, 333336, 2
333337, 333339, 2
333342, 333343, 1
333342, 333341, 2
333339, 333338, 2
333339, 333337, 2
333339, 333340, 3
333339, 333341, 1
