534480, 534479, 2
534480, 534478, 2
534480, 534482, 2
534480, 534481, 2
534486, 534484, 2
534486, 534487, 1
534486, 534485, 2
534486, 534488, 2
534487, 534486, 2
534487, 534484, 2
534487, 534485, 2
534487, 534488, 2
534485, 534486, 1
534485, 534487, 2
534485, 534479, 2
534485, 534484, 2
534485, 534482, 2
534485, 534488, 2
534485, 534483, 2
534483, 534484, 1
534483, 534482, 2
534483, 534485, 2
534479, 534480, 2
534479, 534481, 2
534479, 534478, 2
534479, 534482, 2
534479, 534485, 2
534481, 534480, 2
534481, 534479, 2
534481, 534482, 2
534481, 534478, 2
534484, 534486, 2
534484, 534487, 2
534484, 534485, 8
534484, 534482, 2
534484, 534488, 1
534484, 534483, 2
534482, 534480, 2
534482, 534485, 2
534482, 534479, 2
534482, 534484, 2
534482, 534478, 2
534482, 534483, 1
534482, 534481, 2
534488, 534484, 2
534488, 534486, 2
534488, 534487, 2
534488, 534485, 2
534478, 534480, 0
534478, 534479, 3
534478, 534482, 1
534478, 534481, 8
