624299, 624301, 1
624299, 624298, 2
624299, 624297, 2
624299, 624300, 3
624304, 624303, 2
624304, 624305, 1
624304, 624306, 2
624304, 624302, 2
624306, 624304, 2
624306, 624305, 2
624306, 624307, 2
624296, 624298, 2
624296, 624295, 2
624296, 624297, 1
624298, 624299, 2
624298, 624296, 2
624298, 624297, 2
624298, 624300, 2
624303, 624304, 1
624303, 624301, 2
624303, 624302, 2
624305, 624304, 2
624305, 624306, 3
624305, 624307, 1
624308, 624307, 2
624307, 624305, 2
624307, 624306, 2
624307, 624308, 1
624301, 624299, 2
624301, 624303, 1
624301, 624302, 8
624301, 624300, 2
624294, 624295, 1
624300, 624299, 2
624300, 624298, 2
624300, 624297, 2
624300, 624301, 2
624295, 624296, 1
624295, 624294, 2
624297, 624299, 1
624297, 624296, 2
624297, 624300, 2
624297, 624298, 8
624302, 624304, 2
624302, 624301, 2
624302, 624303, 2
