607433, 607436, 2
607433, 607432, 4
607433, 607434, 2
607433, 607431, 2
607433, 607435, 2
607433, 607437, 1
607440, 607438, 2
607440, 607436, 2
607440, 607439, 2
607440, 607441, 1
607427, 607426, 2
607427, 607432, 2
607427, 607429, 2
607427, 607428, 1
607449, 607448, 2
607449, 607450, 1
607449, 607447, 2
607428, 607427, 2
607428, 607429, 1
607438, 607440, 2
607438, 607439, 1
607438, 607436, 2
607438, 607437, 2
607439, 607438, 2
607439, 607440, 1
607432, 607433, 2
607432, 607430, 2
607432, 607429, 2
607432, 607434, 1
607432, 607427, 2
607432, 607431, 2
607431, 607433, 1
607431, 607432, 2
607431, 607434, 2
607431, 607435, 2
607431, 607430, 2
607444, 607443, 2
607444, 607445, 1
607450, 607449, 2
607450, 607448, 2
607450, 607436, 2
607447, 607446, 2
607447, 607448, 8
607447, 607449, 1
607445, 607443, 2
607445, 607444, 2
607445, 607436, 2
607445, 607446, 1
607426, 607427, 1
607430, 607431, 1
607430, 607432, 2
607430, 607429, 2
607430, 607434, 2
607434, 607433, 2
607434, 607432, 2
607434, 607431, 2
607434, 607437, 2
607434, 607435, 1
607434, 607430, 2
607435, 607431, 2
607435, 607433, 2
607435, 607437, 2
607435, 607434, 2
607435, 607436, 1
607437, 607438, 1
607437, 607436, 2
607437, 607433, 2
607437, 607435, 2
607437, 607434, 2
607443, 607445, 2
607443, 607444, 1
607443, 607442, 2
607443, 607436, 2
607436, 607445, 2
607436, 607440, 2
607436, 607446, 2
607436, 607443, 2
607436, 607435, 2
607436, 607437, 2
607436, 607438, 2
607436, 607433, 2
607436, 607442, 2
607436, 607448, 2
607436, 607450, 2
607436, 607441, 2
607448, 607446, 2
607448, 607436, 2
607448, 607450, 2
607448, 607447, 2
607448, 607449, 2
607442, 607443, 1
607442, 607436, 2
607442, 607441, 2
607429, 607427, 2
607429, 607432, 2
607429, 607428, 2
607429, 607430, 1
607446, 607445, 2
607446, 607436, 2
607446, 607448, 2
607446, 607447, 1
607441, 607440, 2
607441, 607442, 1
607441, 607436, 2
