592963, 592964, 1
592967, 592966, 2
592967, 592968, 1
592964, 592966, 1
592964, 592963, 2
592964, 592965, 2
592969, 592968, 2
592965, 592966, 2
592965, 592964, 2
592966, 592967, 1
592966, 592964, 2
592966, 592965, 7
592968, 592967, 2
592968, 592969, 1
