536739, 536735, 2
536739, 536737, 2
536739, 536738, 2
536739, 536736, 2
536735, 536739, 2
536735, 536737, 1
536735, 536738, 2
536735, 536736, 3
536737, 536739, 2
536737, 536735, 2
536737, 536738, 1
536737, 536736, 2
536738, 536739, 3
536738, 536735, 2
536738, 536737, 2
536736, 536739, 2
536736, 536735, 2
536736, 536737, 2
