591368, 591369, 1
591368, 591367, 2
591376, 591375, 2
591376, 591377, 1
591357, 591356, 2
591357, 591358, 1
591373, 591372, 2
591373, 591374, 1
591372, 591373, 1
591372, 591374, 2
591372, 591370, 2
591372, 591371, 2
591365, 591366, 1
591365, 591364, 2
591365, 591367, 2
591377, 591376, 2
591377, 591375, 2
591356, 591357, 1
591370, 591372, 2
591370, 591369, 2
591370, 591367, 2
591370, 591371, 1
591362, 591363, 1
591362, 591361, 2
591363, 591362, 2
591363, 591364, 1
591367, 591365, 2
591367, 591366, 2
591367, 591369, 2
591367, 591368, 1
591367, 591370, 2
591358, 591357, 2
591358, 591359, 1
591359, 591358, 2
591359, 591360, 1
591371, 591372, 1
591371, 591370, 2
591375, 591376, 1
591375, 591374, 2
591375, 591377, 2
591369, 591367, 2
591369, 591368, 2
591369, 591370, 1
591361, 591362, 1
591361, 591360, 2
591366, 591365, 2
591366, 591367, 1
591364, 591365, 1
591364, 591363, 2
591360, 591361, 1
591360, 591359, 2
591374, 591373, 2
591374, 591372, 2
591374, 591375, 1
