378103, 378104, 1
378103, 378102, 2
378104, 378103, 2
378104, 378106, 2
378104, 378105, 1
378104, 378102, 2
378106, 378104, 2
378106, 378105, 2
378105, 378104, 2
378105, 378106, 1
378102, 378103, 1
378102, 378104, 2
