494131, 494130, 2
494131, 494132, 2
494131, 494133, 2
494130, 494131, 3
494130, 494133, 2
494130, 494132, 1
494132, 494131, 2
494132, 494130, 2
494132, 494133, 1
494133, 494131, 2
494133, 494130, 2
494133, 494132, 2
