625487, 625488, 1
625487, 625485, 2
625487, 625486, 2
625487, 625484, 2
625488, 625487, 2
625488, 625486, 2
625485, 625487, 1
625485, 625486, 8
625485, 625484, 2
625486, 625487, 2
625486, 625488, 2
625486, 625485, 2
625484, 625487, 2
625484, 625485, 1
