489481, 489480, 2
489481, 489482, 1
489473, 489474, 2
489473, 489472, 2
489476, 489477, 2
489476, 489475, 2
489474, 489473, 2
489474, 489472, 2
489474, 489475, 1
489472, 489473, 3
489472, 489474, 1
489478, 489479, 1
489478, 489477, 2
489477, 489478, 1
489477, 489476, 2
489477, 489475, 2
489477, 489483, 2
489483, 489477, 2
489483, 489482, 2
489482, 489481, 2
489482, 489483, 3
489479, 489480, 1
489479, 489478, 2
489480, 489481, 1
489480, 489479, 2
489475, 489476, 3
489475, 489474, 2
489475, 489477, 1
