449895, 449898, 2
449895, 449896, 1
449895, 449894, 2
449895, 449897, 2
449895, 449893, 2
449900, 449901, 1
449900, 449902, 2
449900, 449899, 2
449905, 449901, 2
449905, 449904, 2
449905, 449899, 2
449905, 449903, 2
449905, 449902, 2
449898, 449897, 2
449898, 449899, 1
449898, 449896, 2
449898, 449895, 2
449899, 449905, 2
449899, 449900, 1
449899, 449898, 2
449899, 449901, 2
449899, 449902, 2
449899, 449897, 2
449903, 449901, 2
449903, 449904, 1
449903, 449905, 2
449903, 449902, 2
449893, 449895, 1
449893, 449894, 3
449904, 449901, 2
449904, 449905, 2
449904, 449903, 2
449896, 449897, 8
449896, 449895, 2
449896, 449898, 1
449901, 449904, 2
449901, 449905, 1
449901, 449900, 2
449901, 449902, 0
449901, 449899, 2
449901, 449903, 2
449897, 449898, 2
449897, 449896, 2
449897, 449895, 2
449897, 449899, 2
449902, 449901, 2
449902, 449905, 2
449902, 449899, 2
449902, 449900, 2
449902, 449903, 1
449894, 449893, 2
449894, 449895, 2
