452806, 452805, 2
452806, 452807, 1
452815, 452816, 1
452815, 452814, 2
452828, 452827, 2
452828, 452829, 2
452816, 452815, 2
452816, 452819, 2
452816, 452817, 1
452808, 452809, 1
452808, 452807, 2
452801, 452804, 2
452801, 452802, 1
452801, 452800, 2
452814, 452815, 1
452814, 452813, 2
452814, 452812, 2
452829, 452827, 2
452829, 452830, 1
452829, 452828, 2
452817, 452818, 1
452817, 452816, 2
452810, 452811, 1
452810, 452809, 2
452820, 452818, 2
452820, 452822, 2
452820, 452819, 2
452820, 452821, 1
452825, 452824, 2
452825, 452826, 1
452823, 452822, 2
452823, 452824, 1
452830, 452829, 2
452824, 452823, 2
452824, 452825, 1
452824, 452826, 2
452805, 452806, 1
452805, 452804, 2
452805, 452807, 2
452805, 452803, 2
452827, 452828, 0
452827, 452826, 2
452827, 452829, 1
452821, 452820, 2
452821, 452822, 1
452807, 452806, 2
452807, 452805, 2
452807, 452808, 1
452800, 452801, 1
452811, 452810, 2
452811, 452809, 2
452811, 452812, 1
452813, 452814, 2
452813, 452812, 2
452822, 452820, 2
452822, 452823, 1
452822, 452821, 2
452818, 452820, 1
452818, 452819, 3
452818, 452817, 2
452804, 452805, 2
452804, 452801, 2
452804, 452803, 2
452819, 452818, 2
452819, 452820, 2
452819, 452816, 2
452812, 452813, 0
452812, 452811, 2
452812, 452814, 1
452809, 452811, 2
452809, 452810, 1
452809, 452808, 2
452826, 452825, 2
452826, 452827, 1
452826, 452824, 2
452802, 452801, 2
452802, 452803, 1
452803, 452805, 1
452803, 452804, 3
452803, 452802, 2
