592445, 592448, 2
592445, 592446, 1
592449, 592448, 2
592449, 592446, 2
592447, 592448, 2
592447, 592446, 2
592446, 592445, 2
592446, 592449, 2
592446, 592448, 1
592446, 592447, 0
592448, 592445, 2
592448, 592449, 2
592448, 592447, 2
592448, 592446, 2
