658040, 658041, 3
658040, 658044, 2
658040, 658042, 0
658041, 658040, 2
658041, 658044, 1
658041, 658043, 8
658041, 658042, 2
658044, 658040, 2
658044, 658041, 2
658044, 658043, 2
658044, 658042, 2
658043, 658041, 2
658043, 658044, 2
658043, 658042, 2
658042, 658040, 2
658042, 658041, 2
658042, 658044, 2
658042, 658043, 2
