554427, 554428, 1
554427, 554426, 2
554429, 554428, 2
554429, 554430, 1
554426, 554425, 2
554426, 554427, 1
554426, 554428, 2
554426, 554424, 2
554428, 554427, 2
554428, 554429, 1
554428, 554426, 2
554428, 554430, 2
554425, 554426, 2
554425, 554424, 2
554430, 554428, 2
554430, 554429, 2
554424, 554425, 3
554424, 554426, 1
