551114, 551108, 2
551114, 551115, 2
551114, 551112, 2
551114, 551113, 2
551123, 551121, 2
551123, 551124, 1
551123, 551125, 2
551123, 551122, 2
551108, 551114, 2
551108, 551118, 2
551108, 551125, 2
551108, 551107, 2
551108, 551120, 2
551108, 551112, 2
551108, 551110, 2
551118, 551119, 1
551118, 551121, 2
551118, 551120, 2
551118, 551108, 2
551118, 551117, 2
551125, 551123, 2
551125, 551108, 2
551125, 551124, 2
551125, 551126, 2
551126, 551127, 1
551126, 551128, 2
551126, 551124, 2
551126, 551125, 2
551115, 551114, 2
551115, 551116, 1
551115, 551117, 2
551115, 551113, 2
551124, 551123, 2
551124, 551126, 1
551124, 551125, 0
551117, 551116, 2
551117, 551115, 2
551117, 551118, 1
551111, 551110, 2
551111, 551112, 1
551121, 551123, 2
551121, 551120, 2
551121, 551122, 1
551121, 551118, 2
551120, 551119, 2
551120, 551121, 1
551120, 551108, 2
551120, 551118, 2
551116, 551115, 2
551116, 551117, 1
551122, 551121, 2
551122, 551123, 1
551128, 551127, 2
551128, 551126, 2
551119, 551120, 1
551119, 551118, 2
551110, 551111, 1
551110, 551107, 2
551110, 551108, 2
551110, 551109, 2
551110, 551112, 2
551127, 551126, 2
551127, 551128, 1
551109, 551107, 2
551109, 551110, 2
551107, 551108, 6
551107, 551109, 3
551107, 551110, 1
551112, 551111, 2
551112, 551114, 2
551112, 551108, 2
551112, 551110, 2
551112, 551113, 1
551113, 551114, 0
551113, 551115, 1
551113, 551112, 2
