406225, 406226, 1
406229, 406227, 2
406229, 406230, 1
406229, 406226, 2
406229, 406228, 2
406232, 406231, 2
406228, 406227, 2
406228, 406229, 2
406228, 406226, 2
406227, 406229, 1
406227, 406226, 2
406227, 406228, 3
406230, 406229, 2
406230, 406231, 1
406226, 406227, 1
406226, 406225, 2
406226, 406229, 2
406226, 406228, 2
406231, 406230, 2
406231, 406232, 1
