657973, 657971, 2
657973, 657974, 2
657973, 657972, 2
657973, 657970, 2
657971, 657973, 2
657971, 657974, 2
657971, 657972, 1
657971, 657970, 2
657974, 657973, 2
657974, 657971, 2
657974, 657972, 2
657974, 657970, 2
657972, 657973, 6
657972, 657971, 2
657972, 657974, 3
657970, 657973, 2
657970, 657971, 1
657970, 657974, 2
