378590, 378591, 1
378590, 378588, 2
378590, 378589, 2
378588, 378590, 1
378588, 378591, 2
378588, 378589, 0
378589, 378590, 2
378589, 378588, 2
378589, 378591, 2
378589, 378592, 2
378591, 378590, 2
378591, 378588, 2
378591, 378589, 2
378591, 378592, 1
378592, 378591, 2
378592, 378589, 2
