572979, 572974, 2
572979, 572978, 2
572979, 572980, 3
572979, 572977, 2
572980, 572979, 2
572980, 572977, 2
572976, 572974, 2
572976, 572978, 2
572976, 572977, 1
572976, 572975, 2
572974, 572979, 1
572974, 572978, 2
572974, 572976, 2
572974, 572977, 2
572974, 572975, 3
572978, 572974, 2
572978, 572979, 2
572978, 572976, 2
572978, 572977, 2
572978, 572975, 2
572977, 572974, 2
572977, 572979, 2
572977, 572980, 2
572977, 572978, 0
572977, 572976, 2
572975, 572974, 2
572975, 572978, 2
572975, 572976, 1
