492002, 492004, 2
492002, 492003, 1
492002, 492001, 2
492005, 492004, 2
492005, 492006, 1
492000, 491998, 2
492000, 492001, 1
492000, 491999, 2
492007, 492008, 1
492007, 492006, 2
492006, 492004, 2
492006, 492007, 1
492006, 492005, 2
491994, 491997, 1
491994, 491995, 3
492009, 492008, 2
492009, 492010, 1
492015, 492014, 2
492015, 492016, 1
491996, 491997, 2
491996, 491995, 2
492001, 492002, 1
492001, 492000, 2
492010, 492009, 2
492010, 492011, 1
491995, 491997, 2
491995, 491994, 2
491995, 491996, 3
492003, 492004, 1
492003, 492002, 2
491998, 491997, 2
491998, 491999, 3
491998, 492000, 1
492016, 492015, 2
492008, 492007, 2
492008, 492009, 1
492011, 492010, 2
492011, 492014, 1
492011, 492012, 3
492012, 492014, 2
492012, 492011, 2
492012, 492013, 3
492013, 492014, 2
492013, 492012, 2
491999, 491998, 2
491999, 492000, 2
491997, 491994, 2
491997, 491998, 1
491997, 491995, 2
491997, 491996, 2
492004, 492006, 2
492004, 492002, 2
492004, 492003, 2
492004, 492005, 1
492014, 492011, 2
492014, 492015, 1
492014, 492012, 2
492014, 492013, 2
