572596, 572595, 2
572596, 572594, 2
572596, 572597, 1
572594, 572596, 1
572594, 572595, 3
572594, 572592, 2
572594, 572593, 2
572598, 572597, 2
572597, 572596, 2
572597, 572598, 3
572593, 572594, 1
572593, 572592, 2
572592, 572594, 2
572592, 572593, 1
572595, 572596, 2
572595, 572594, 2
