549568, 549567, 2
549568, 549569, 1
549573, 549574, 1
549573, 549572, 2
549577, 549576, 2
549575, 549576, 1
549575, 549574, 2
549572, 549573, 1
549572, 549571, 2
549567, 549568, 1
549567, 549569, 2
549571, 549570, 2
549571, 549572, 1
549569, 549568, 2
549569, 549567, 2
549569, 549570, 1
549570, 549569, 2
549570, 549571, 1
549576, 549575, 2
549576, 549577, 1
549574, 549573, 2
549574, 549575, 1
