536529, 536530, 1
536531, 536532, 3
536531, 536533, 1
536531, 536530, 2
536533, 536531, 2
536533, 536532, 2
536533, 536530, 2
536532, 536531, 2
536532, 536530, 2
536532, 536533, 2
536530, 536529, 2
536530, 536531, 1
536530, 536532, 2
536530, 536533, 2
