606712, 606711, 2
606712, 606710, 2
606712, 606713, 1
606712, 606709, 2
606713, 606711, 2
606713, 606712, 2
606713, 606714, 1
606717, 606716, 2
606717, 606715, 2
606717, 606718, 1
606709, 606711, 2
606709, 606712, 2
606709, 606710, 1
606716, 606715, 2
606716, 606718, 2
606716, 606717, 2
606718, 606716, 2
606718, 606717, 2
606715, 606716, 0
606715, 606717, 1
606715, 606714, 2
606710, 606711, 1
606710, 606712, 2
606710, 606709, 2
606711, 606712, 1
606711, 606710, 2
606711, 606713, 2
606711, 606709, 2
606714, 606715, 1
606714, 606713, 2
