376229, 376231, 2
376229, 376228, 2
376229, 376230, 1
376242, 376239, 2
376242, 376241, 2
376242, 376240, 2
376242, 376243, 1
376242, 376244, 2
376239, 376241, 2
376239, 376240, 0
376239, 376236, 2
376239, 376242, 1
376239, 376238, 2
376239, 376237, 2
376227, 376226, 2
376227, 376228, 1
376230, 376231, 1
376230, 376229, 2
376234, 376233, 2
376234, 376235, 1
376247, 376246, 2
376247, 376245, 2
376231, 376233, 2
376231, 376229, 2
376231, 376230, 2
376231, 376232, 1
376226, 376227, 1
376240, 376239, 2
376240, 376241, 1
376240, 376242, 2
376233, 376231, 2
376233, 376234, 1
376233, 376235, 2
376233, 376232, 2
376232, 376231, 2
376232, 376233, 1
376237, 376236, 2
376237, 376238, 1
376237, 376239, 2
376235, 376236, 1
376235, 376234, 2
376235, 376233, 2
376241, 376239, 2
376241, 376240, 2
376241, 376242, 2
376246, 376247, 1
376246, 376245, 2
376244, 376243, 2
376244, 376242, 2
376244, 376245, 1
376243, 376242, 2
376243, 376244, 1
376228, 376229, 1
376228, 376227, 2
376236, 376239, 2
376236, 376237, 1
376236, 376238, 2
376236, 376235, 2
376238, 376239, 1
376238, 376237, 2
376238, 376236, 2
376245, 376246, 1
376245, 376244, 2
376245, 376247, 2
