623614, 623617, 2
623614, 623612, 2
623614, 623616, 2
623614, 623611, 2
623614, 623615, 2
623614, 623618, 2
623614, 623613, 2
623617, 623614, 2
623617, 623616, 2
623617, 623619, 2
623617, 623615, 2
623617, 623618, 2
623617, 623613, 2
623612, 623614, 2
623612, 623611, 2
623612, 623610, 2
623612, 623613, 2
623616, 623615, 2
623616, 623617, 1
623616, 623614, 2
623616, 623618, 2
623616, 623613, 2
623615, 623614, 2
623615, 623617, 2
623615, 623616, 1
623619, 623617, 2
623619, 623618, 2
623611, 623614, 2
623611, 623612, 2
623611, 623610, 2
623611, 623613, 2
623610, 623611, 3
623610, 623612, 8
623610, 623613, 1
623618, 623614, 2
623618, 623617, 2
623618, 623613, 2
623618, 623616, 2
623618, 623619, 3
623613, 623614, 3
623613, 623617, 2
623613, 623612, 2
623613, 623616, 2
623613, 623611, 2
623613, 623610, 2
623613, 623618, 1
