433440, 433441, 1
433440, 433442, 2
433440, 433437, 2
433440, 433438, 2
433440, 433443, 2
433440, 433439, 2
433444, 433442, 2
433444, 433443, 2
433444, 433441, 2
433442, 433441, 2
433442, 433444, 2
433442, 433443, 1
433442, 433440, 2
433437, 433438, 3
433437, 433440, 2
433437, 433439, 1
433441, 433442, 1
433441, 433440, 2
433441, 433443, 2
433441, 433444, 2
433438, 433440, 2
433438, 433439, 2
433438, 433437, 2
433443, 433442, 2
433443, 433440, 2
433443, 433444, 1
433443, 433441, 2
433439, 433438, 2
433439, 433440, 1
433439, 433437, 2
