494734, 494732, 2
494734, 494733, 2
494731, 494729, 2
494731, 494730, 2
494731, 494732, 2
494730, 494729, 2
494730, 494731, 3
494730, 494732, 1
494729, 494731, 2
494729, 494730, 1
494732, 494731, 2
494732, 494730, 2
494732, 494734, 3
494732, 494733, 0
494733, 494734, 2
494733, 494732, 2
