377592, 377593, 1
377592, 377594, 2
377592, 377595, 2
377593, 377592, 2
377593, 377594, 3
377593, 377595, 1
377594, 377592, 2
377594, 377593, 2
377594, 377595, 2
377595, 377592, 2
377595, 377593, 2
377595, 377594, 2
